digraph Tree {
node [shape=box, style="filled, rounded", color="black", fontname=helvetica] ;
edge [fontname=helvetica] ;
0 [label=< d r >, fillcolor="#399de5ff"] ;
1 [label=<Destructive >, fillcolor="#e58139ff"] ;
0 -> 1 [labeldistance=2.5, labelangle=45, headlabel="True"] ;
2 [label=< l r  >, fillcolor="#399de5ff"] ;
0 -> 2 [labeldistance=2.5, labelangle=-45, headlabel="False"] ;
3 [label=<Destructive >, fillcolor="#e58139ff"] ;
2 -> 3 ;
4 [label=< u r >, fillcolor="#399de5ff"] ;
2 -> 4 ;
5 [label=<Destructive >, fillcolor="#e58139ff"] ;
4 -> 5 ;
6 [label=< d u >, fillcolor="#399de5ff"] ;
4 -> 6 ;
7 [label=< l d >, fillcolor="#399de5ff"] ;
6 -> 7 ;
8 [label=<Destructive >, fillcolor="#e58139ff"] ;
7 -> 8 ;
9 [label=< 2,1 3,1 >, fillcolor="#e5813955"] ;
7 -> 9 ;
10 [label=< 4,1 5,1 >, fillcolor="#e5813955"] ;
9 -> 10 ;
11 [label=<Destructive >, fillcolor="#e58139ff"] ;
10 -> 11 ;
12 [label=<Non-Destructive>, fillcolor="#399de5ff"] ;
10 -> 12 ;
13 [label=<Non-Destructive >, fillcolor="#399de5ff"] ;
9 -> 13 ;
14 [label=< 2,1 3,1 >, fillcolor="#e5813955"] ;
6 -> 14 ;
15 [label=< l d >, fillcolor="#399de5ff"] ;
14 -> 15 ;
16 [label=<Destructive >, fillcolor="#e58139ff"] ;
15 -> 16 ;
17 [label=< 5,1 6,1 >, fillcolor="#e5813955"] ;
15 -> 17 ;
18 [label=< 4,1 5,1 >, fillcolor="#e5813955"] ;
17 -> 18 ;
19 [label=<Destructive >, fillcolor="#e58139ff"] ;
18 -> 19 ;
20 [label=< l u  >, fillcolor="#399de5ff"] ;
18 -> 20 ;
21 [label=<Destructive >, fillcolor="#e58139ff"] ;
20 -> 21 ;
22 [label=<Non-Destructive >, fillcolor="#399de5ff"] ;
20 -> 22 ;
23 [label=<Non-Destructive >, fillcolor="#399de5ff"] ;
17 -> 23 ;
24 [label=<Non-Destructive >, fillcolor="#399de5ff"] ;
14 -> 24 ;
}
