#FIG 3.2
# Generated by graphviz version 2.36.0 (20140111.2315)
# Title: %3
# Pages: 1
Portrait
Center
Inches
Letter
100.00
Single
-2
1200 2
0 32 #d3d3d3
0 33 #add8e6
0 34 #fffffe
2 3 0 1 34 7 2 0 20 0.0 0 0 0 0 0 5
 0 4104 0 0 3500 0 3500 4104 0 4104
# C_green
1 1 0 2 0 2 1 0 20 0.000 0 0.0000 2900 1640 220 -220 2900 1640 3120 1420
4 1 0 1 0 0 14.0 0.0000 6 0.0 0.0 2900 1770  \001
# C_lightblue
1 1 0 2 0 33 1 0 20 0.000 0 0.0000 2900 840 220 -220 2900 840 3120 620
4 1 0 1 0 0 14.0 0.0000 6 0.0 0.0 2900 970  \001
# A_red
1 1 0 2 0 4 1 0 20 0.000 0 0.0000 1100 3100 220 -220 1100 3100 1320 2880
4 1 0 1 0 0 14.0 0.0000 6 0.0 0.0 1100 3230  \001
# A_red->C_green
3 4 0 1 0 0 0 0 -1 0.0 0 0 0 19
  1310 3166 1479 3211 1681 3249 1900 3267 2122 3253 2334 3195 2520 3080 2588 2965 2624 2792 2640 2586 2646 2375 2656 2184 2680 2040 2682 2034 2684 2028 2686 2023 2688 2017 2690 2011 2692 2005
 0 1 1 1 1 1 1 1 1 1 1 1 1 1 1 1 1 1 0
2 3 0 1 0 0 0 0 20 0.0 0 0 0 0 0 4
 2628 1976 2774 1822 2756 2033 2628 1976
4 1 0 0 0 0 14.0 0.0000 6 0.0 0.0 2000 3060 $\\{c\\}$\001
# A_red->C_lightblue
3 4 0 1 0 0 0 0 -1 0.0 0 0 0 25
  1136 2889 1156 2758 1187 2610 1232 2454 1295 2298 1376 2150 1480 2020 1651 1893 1823 1840 1995 1825 2168 1811 2343 1762 2520 1640 2573 1580 2604 1522 2622 1465 2635 1405 2651 1337 2680 1260 2684 1252 2688 1243 2691 1235 2695 1226 2699 1217 2703 1209
 0 1 1 1 1 1 1 1 1 1 1 1 1 1 1 1 1 1 1 1 1 1 1 1 0
2 3 0 1 0 0 0 0 20 0.0 0 0 0 0 0 4
 2640 1179 2789 1027 2767 1238 2640 1179
4 1 0 0 0 0 14.0 0.0000 6 0.0 0.0 2000 1620 $\\{c\\}$\001
# B_yellow
1 1 0 2 0 6 1 0 20 0.000 0 0.0000 2900 3100 220 -220 2900 3100 3120 2880
4 1 0 1 0 0 14.0 0.0000 6 0.0 0.0 2900 3230  \001
# A_red->B_yellow
3 4 0 1 0 0 0 0 -1 0.0 0 0 0 19
  1157 3303 1183 3396 1219 3495 1265 3594 1323 3688 1394 3772 1480 3840 1666 3942 1837 4003 2000 4024 2163 4003 2334 3942 2520 3840 2578 3797 2629 3747 2675 3691 2715 3630 2749 3566 2779 3501
 0 1 1 1 1 1 1 1 1 1 1 1 1 1 1 1 1 1 0
2 3 0 1 0 0 0 0 20 0.0 0 0 0 0 0 4
 2714 3472 2843 3303 2848 3515 2714 3472
4 1 0 0 0 0 14.0 0.0000 6 0.0 0.0 2000 3820 $\\{a,b\\}$\001
# B_yellow->B_yellow
3 4 0 1 0 0 0 0 -1 0.0 0 0 0 13
  2774 2928 2744 2836 2735 2746 2746 2666 2777 2600 2828 2556 2900 2540 2947 2546 2986 2565 3018 2593 3041 2631 3057 2675 3064 2725
 0 1 1 1 1 1 1 1 1 1 1 1 0
2 3 0 1 0 0 0 0 20 0.0 0 0 0 0 0 4
 3132 2744 3026 2928 2994 2719 3132 2744
4 1 0 0 0 0 14.0 0.0000 6 0.0 0.0 2900 2520 $\\{a,d\\}$\001
# A_blue
1 1 0 2 0 1 1 0 20 0.000 0 0.0000 1100 820 220 -220 1100 820 1320 600
4 1 0 1 0 0 14.0 0.0000 6 0.0 0.0 1100 950  \001
# A_blue->C_green
3 4 0 1 0 0 0 0 -1 0.0 0 0 0 13
  1324 851 1485 882 1675 926 1885 984 2102 1058 2318 1150 2520 1260 2535 1270 2550 1280 2565 1291 2580 1302 2595 1314 2609 1326
 0 1 1 1 1 1 1 1 1 1 1 1 0
2 3 0 1 0 0 0 0 20 0.0 0 0 0 0 0 4
 2664 1282 2755 1473 2565 1380 2664 1282
4 1 0 0 0 0 14.0 0.0000 6 0.0 0.0 2000 880 $\\{c\\}$\001
# A_blue->C_lightblue
3 4 0 1 0 0 0 0 -1 0.0 0 0 0 19
  1250 662 1283 630 1318 599 1356 570 1395 543 1437 519 1480 500 1677 431 1846 389 2001 374 2155 388 2324 429 2520 500 2534 506 2549 513 2563 520 2577 527 2590 535 2604 544
 0 1 1 1 1 1 1 1 1 1 1 1 1 1 1 1 1 1 0
2 3 0 1 0 0 0 0 20 0.0 0 0 0 0 0 4
 2654 495 2758 679 2561 600 2654 495
4 1 0 0 0 0 14.0 0.0000 6 0.0 0.0 2000 360 $\\{c\\}$\001
# A_blue->B_yellow
3 4 0 1 0 0 0 0 -1 0.0 0 0 0 19
  1108 1032 1110 1222 1126 1449 1163 1695 1230 1947 1333 2187 1480 2400 1641 2539 1800 2607 1964 2634 2135 2651 2319 2690 2520 2780 2530 2786 2539 2792 2549 2798 2559 2805 2568 2811 2578 2818
 0 1 1 1 1 1 1 1 1 1 1 1 1 1 1 1 1 1 0
2 3 0 1 0 0 0 0 20 0.0 0 0 0 0 0 4
 2627 2768 2736 2949 2537 2875 2627 2768
4 1 0 0 0 0 14.0 0.0000 6 0.0 0.0 2000 2380 $\\{a,b\\}$\001
# startA_blue
# startA_blue->A_blue
3 4 0 1 0 0 0 0 -1 0.0 0 0 0 7
  528 820 551 820 575 820 599 820 624 820 649 820 675 820
 0 1 1 1 1 1 0
2 3 0 1 0 0 0 0 20 0.0 0 0 0 0 0 4
 678 750 878 820 678 890 678 750
# startA_red
# startA_red->A_red
3 4 0 1 0 0 0 0 -1 0.0 0 0 0 7
  528 3100 551 3100 575 3100 599 3100 624 3100 649 3100 675 3100
 0 1 1 1 1 1 0
2 3 0 1 0 0 0 0 20 0.0 0 0 0 0 0 4
 678 3030 878 3100 678 3170 678 3030
# end of FIG file
