%!PS-Adobe-3.0 EPSF-3.0
%%BoundingBox: 163 513 539 667
%%HiResBoundingBox: 163.378906 513.000000 538.037109 666.500000
%%Creator: dvips(k) 5.993 Copyright 2013 Radical Eye Software
%%Title: fig2ps-cppReduc.dvi
%%CreationDate: Thu Feb  7 00:29:36 2019
%%EndComments
% EPSF created by ps2eps 1.68
%%BeginProlog
save
countdictstack
mark
newpath
/showpage {} def
/setpagedevice {pop} def
%%EndProlog
%%Page 1 1
%DVIPSWebPage: (www.radicaleye.com)
%DVIPSCommandLine: dvips -Ppdf -G0 -q -E fig2ps-cppReduc.dvi -o
%+ fig2ps-cppReduc.ps
%DVIPSParameters: dpi=8000
%DVIPSSource:  TeX output 2019.02.07:0029
%%BeginProcSet: tex.pro 0 0
%!
/TeXDict 300 dict def TeXDict begin/N{def}def/B{bind def}N/S{exch}N/X{S
N}B/A{dup}B/TR{translate}N/isls false N/vsize 11 72 mul N/hsize 8.5 72
mul N/landplus90{false}def/@rigin{isls{[0 landplus90{1 -1}{-1 1}ifelse 0
0 0]concat}if 72 Resolution div 72 VResolution div neg scale isls{
landplus90{VResolution 72 div vsize mul 0 exch}{Resolution -72 div hsize
mul 0}ifelse TR}if Resolution VResolution vsize -72 div 1 add mul TR[
matrix currentmatrix{A A round sub abs 0.00001 lt{round}if}forall round
exch round exch]setmatrix}N/@landscape{/isls true N}B/@manualfeed{
statusdict/manualfeed true put}B/@copies{/#copies X}B/FMat[1 0 0 -1 0 0]
N/FBB[0 0 0 0]N/nn 0 N/IEn 0 N/ctr 0 N/df-tail{/nn 8 dict N nn begin
/FontType 3 N/FontMatrix fntrx N/FontBBox FBB N string/base X array
/BitMaps X/BuildChar{CharBuilder}N/Encoding IEn N end A{/foo setfont}2
array copy cvx N load 0 nn put/ctr 0 N[}B/sf 0 N/df{/sf 1 N/fntrx FMat N
df-tail}B/dfs{div/sf X/fntrx[sf 0 0 sf neg 0 0]N df-tail}B/E{pop nn A
definefont setfont}B/Cw{Cd A length 5 sub get}B/Ch{Cd A length 4 sub get
}B/Cx{128 Cd A length 3 sub get sub}B/Cy{Cd A length 2 sub get 127 sub}
B/Cdx{Cd A length 1 sub get}B/Ci{Cd A type/stringtype ne{ctr get/ctr ctr
1 add N}if}B/CharBuilder{save 3 1 roll S A/base get 2 index get S
/BitMaps get S get/Cd X pop/ctr 0 N Cdx 0 Cx Cy Ch sub Cx Cw add Cy
setcachedevice Cw Ch true[1 0 0 -1 -.1 Cx sub Cy .1 sub]{Ci}imagemask
restore}B/D{/cc X A type/stringtype ne{]}if nn/base get cc ctr put nn
/BitMaps get S ctr S sf 1 ne{A A length 1 sub A 2 index S get sf div put
}if put/ctr ctr 1 add N}B/I{cc 1 add D}B/bop{userdict/bop-hook known{
bop-hook}if/SI save N @rigin 0 0 moveto/V matrix currentmatrix A 1 get A
mul exch 0 get A mul add .99 lt{/QV}{/RV}ifelse load def pop pop}N/eop{
SI restore userdict/eop-hook known{eop-hook}if showpage}N/@start{
userdict/start-hook known{start-hook}if pop/VResolution X/Resolution X
1000 div/DVImag X/IEn 256 array N 2 string 0 1 255{IEn S A 360 add 36 4
index cvrs cvn put}for pop 65781.76 div/vsize X 65781.76 div/hsize X}N
/dir 0 def/dyy{/dir 0 def}B/dyt{/dir 1 def}B/dty{/dir 2 def}B/dtt{/dir 3
def}B/p{dir 2 eq{-90 rotate show 90 rotate}{dir 3 eq{-90 rotate show 90
rotate}{show}ifelse}ifelse}N/RMat[1 0 0 -1 0 0]N/BDot 260 string N/Rx 0
N/Ry 0 N/V{}B/RV/v{/Ry X/Rx X V}B statusdict begin/product where{pop
false[(Display)(NeXT)(LaserWriter 16/600)]{A length product length le{A
length product exch 0 exch getinterval eq{pop true exit}if}{pop}ifelse}
forall}{false}ifelse end{{gsave TR -.1 .1 TR 1 1 scale Rx Ry false RMat{
BDot}imagemask grestore}}{{gsave TR -.1 .1 TR Rx Ry scale 1 1 false RMat
{BDot}imagemask grestore}}ifelse B/QV{gsave newpath transform round exch
round exch itransform moveto Rx 0 rlineto 0 Ry neg rlineto Rx neg 0
rlineto fill grestore}B/a{moveto}B/delta 0 N/tail{A/delta X 0 rmoveto}B
/M{S p delta add tail}B/b{S p tail}B/c{-4 M}B/d{-3 M}B/e{-2 M}B/f{-1 M}
B/g{0 M}B/h{1 M}B/i{2 M}B/j{3 M}B/k{4 M}B/w{0 rmoveto}B/l{p -4 w}B/m{p
-3 w}B/n{p -2 w}B/o{p -1 w}B/q{p 1 w}B/r{p 2 w}B/s{p 3 w}B/t{p 4 w}B/x{
0 S rmoveto}B/y{3 2 roll p a}B/bos{/SS save N}B/eos{SS restore}B end
%%EndProcSet
%%BeginProcSet: alt-rule.pro 0 0
%!
% Patch by TVZ
% Makes dvips files draw rules with stroke rather than fill.
% Makes narrow rules more predictable at low resolutions
% after distilling to PDF.
% May have unknown consequences for very thick rules.
% Tested only with dvips 5.85(k).
TeXDict begin
/QV {
  gsave newpath /ruleY X /ruleX X
  Rx Ry gt
  { ruleX ruleY Ry 2 div sub moveto Rx 0 rlineto Ry }
  { ruleX Rx 2 div add ruleY moveto 0 Ry neg rlineto Rx }
  ifelse
  setlinewidth 0 setlinecap stroke grestore
} bind def
end
%%EndProcSet
%%BeginProcSet: special.pro 0 0
%!
TeXDict begin/SDict 200 dict N SDict begin/@SpecialDefaults{/hs 612 N
/vs 792 N/ho 0 N/vo 0 N/hsc 1 N/vsc 1 N/ang 0 N/CLIP 0 N/rwiSeen false N
/rhiSeen false N/letter{}N/note{}N/a4{}N/legal{}N}B/@scaleunit 100 N
/@hscale{@scaleunit div/hsc X}B/@vscale{@scaleunit div/vsc X}B/@hsize{
/hs X/CLIP 1 N}B/@vsize{/vs X/CLIP 1 N}B/@clip{/CLIP 2 N}B/@hoffset{/ho
X}B/@voffset{/vo X}B/@angle{/ang X}B/@rwi{10 div/rwi X/rwiSeen true N}B
/@rhi{10 div/rhi X/rhiSeen true N}B/@llx{/llx X}B/@lly{/lly X}B/@urx{
/urx X}B/@ury{/ury X}B/magscale true def end/@MacSetUp{userdict/md known
{userdict/md get type/dicttype eq{userdict begin md length 10 add md
maxlength ge{/md md dup length 20 add dict copy def}if end md begin
/letter{}N/note{}N/legal{}N/od{txpose 1 0 mtx defaultmatrix dtransform S
atan/pa X newpath clippath mark{transform{itransform moveto}}{transform{
itransform lineto}}{6 -2 roll transform 6 -2 roll transform 6 -2 roll
transform{itransform 6 2 roll itransform 6 2 roll itransform 6 2 roll
curveto}}{{closepath}}pathforall newpath counttomark array astore/gc xdf
pop ct 39 0 put 10 fz 0 fs 2 F/|______Courier fnt invertflag{PaintBlack}
if}N/txpose{pxs pys scale ppr aload pop por{noflips{pop S neg S TR pop 1
-1 scale}if xflip yflip and{pop S neg S TR 180 rotate 1 -1 scale ppr 3
get ppr 1 get neg sub neg ppr 2 get ppr 0 get neg sub neg TR}if xflip
yflip not and{pop S neg S TR pop 180 rotate ppr 3 get ppr 1 get neg sub
neg 0 TR}if yflip xflip not and{ppr 1 get neg ppr 0 get neg TR}if}{
noflips{TR pop pop 270 rotate 1 -1 scale}if xflip yflip and{TR pop pop
90 rotate 1 -1 scale ppr 3 get ppr 1 get neg sub neg ppr 2 get ppr 0 get
neg sub neg TR}if xflip yflip not and{TR pop pop 90 rotate ppr 3 get ppr
1 get neg sub neg 0 TR}if yflip xflip not and{TR pop pop 270 rotate ppr
2 get ppr 0 get neg sub neg 0 S TR}if}ifelse scaleby96{ppr aload pop 4
-1 roll add 2 div 3 1 roll add 2 div 2 copy TR .96 dup scale neg S neg S
TR}if}N/cp{pop pop showpage pm restore}N end}if}if}N/normalscale{
Resolution 72 div VResolution 72 div neg scale magscale{DVImag dup scale
}if 0 setgray}N/psfts{S 65781.76 div N}N/startTexFig{/psf$SavedState
save N userdict maxlength dict begin/magscale true def normalscale
currentpoint TR/psf$ury psfts/psf$urx psfts/psf$lly psfts/psf$llx psfts
/psf$y psfts/psf$x psfts currentpoint/psf$cy X/psf$cx X/psf$sx psf$x
psf$urx psf$llx sub div N/psf$sy psf$y psf$ury psf$lly sub div N psf$sx
psf$sy scale psf$cx psf$sx div psf$llx sub psf$cy psf$sy div psf$ury sub
TR/showpage{}N/erasepage{}N/setpagedevice{pop}N/copypage{}N/p 3 def
@MacSetUp}N/doclip{psf$llx psf$lly psf$urx psf$ury currentpoint 6 2 roll
newpath 4 copy 4 2 roll moveto 6 -1 roll S lineto S lineto S lineto
closepath clip newpath moveto}N/endTexFig{end psf$SavedState restore}N
/@beginspecial{SDict begin/SpecialSave save N gsave normalscale
currentpoint TR @SpecialDefaults count/ocount X/dcount countdictstack N}
N/@setspecial{CLIP 1 eq{newpath 0 0 moveto hs 0 rlineto 0 vs rlineto hs
neg 0 rlineto closepath clip}if ho vo TR hsc vsc scale ang rotate
rwiSeen{rwi urx llx sub div rhiSeen{rhi ury lly sub div}{dup}ifelse
scale llx neg lly neg TR}{rhiSeen{rhi ury lly sub div dup scale llx neg
lly neg TR}if}ifelse CLIP 2 eq{newpath llx lly moveto urx lly lineto urx
ury lineto llx ury lineto closepath clip}if/showpage{}N/erasepage{}N
/setpagedevice{pop}N/copypage{}N newpath}N/@endspecial{count ocount sub{
pop}repeat countdictstack dcount sub{end}repeat grestore SpecialSave
restore end}N/@defspecial{SDict begin}N/@fedspecial{end}B/li{lineto}B
/rl{rlineto}B/rc{rcurveto}B/np{/SaveX currentpoint/SaveY X N 1
setlinecap newpath}N/st{stroke SaveX SaveY moveto}N/fil{fill SaveX SaveY
moveto}N/ellipse{/endangle X/startangle X/yrad X/xrad X/savematrix
matrix currentmatrix N TR xrad yrad scale 0 0 1 startangle endangle arc
savematrix setmatrix}N end
%%EndProcSet
%%BeginProcSet: color.pro 0 0
%!
TeXDict begin/setcmykcolor where{pop}{/setcmykcolor{dup 10 eq{pop
setrgbcolor}{1 sub 4 1 roll 3{3 index add neg dup 0 lt{pop 0}if 3 1 roll
}repeat setrgbcolor pop}ifelse}B}ifelse/TeXcolorcmyk{setcmykcolor}def
/TeXcolorrgb{setrgbcolor}def/TeXcolorgrey{setgray}def/TeXcolorgray{
setgray}def/TeXcolorhsb{sethsbcolor}def/currentcmykcolor where{pop}{
/currentcmykcolor{currentrgbcolor 10}B}ifelse/DC{exch dup userdict exch
known{pop pop}{X}ifelse}B/GreenYellow{0.15 0 0.69 0 setcmykcolor}DC
/Yellow{0 0 1 0 setcmykcolor}DC/Goldenrod{0 0.10 0.84 0 setcmykcolor}DC
/Dandelion{0 0.29 0.84 0 setcmykcolor}DC/Apricot{0 0.32 0.52 0
setcmykcolor}DC/Peach{0 0.50 0.70 0 setcmykcolor}DC/Melon{0 0.46 0.50 0
setcmykcolor}DC/YellowOrange{0 0.42 1 0 setcmykcolor}DC/Orange{0 0.61
0.87 0 setcmykcolor}DC/BurntOrange{0 0.51 1 0 setcmykcolor}DC
/Bittersweet{0 0.75 1 0.24 setcmykcolor}DC/RedOrange{0 0.77 0.87 0
setcmykcolor}DC/Mahogany{0 0.85 0.87 0.35 setcmykcolor}DC/Maroon{0 0.87
0.68 0.32 setcmykcolor}DC/BrickRed{0 0.89 0.94 0.28 setcmykcolor}DC/Red{
0 1 1 0 setcmykcolor}DC/OrangeRed{0 1 0.50 0 setcmykcolor}DC/RubineRed{
0 1 0.13 0 setcmykcolor}DC/WildStrawberry{0 0.96 0.39 0 setcmykcolor}DC
/Salmon{0 0.53 0.38 0 setcmykcolor}DC/CarnationPink{0 0.63 0 0
setcmykcolor}DC/Magenta{0 1 0 0 setcmykcolor}DC/VioletRed{0 0.81 0 0
setcmykcolor}DC/Rhodamine{0 0.82 0 0 setcmykcolor}DC/Mulberry{0.34 0.90
0 0.02 setcmykcolor}DC/RedViolet{0.07 0.90 0 0.34 setcmykcolor}DC
/Fuchsia{0.47 0.91 0 0.08 setcmykcolor}DC/Lavender{0 0.48 0 0
setcmykcolor}DC/Thistle{0.12 0.59 0 0 setcmykcolor}DC/Orchid{0.32 0.64 0
0 setcmykcolor}DC/DarkOrchid{0.40 0.80 0.20 0 setcmykcolor}DC/Purple{
0.45 0.86 0 0 setcmykcolor}DC/Plum{0.50 1 0 0 setcmykcolor}DC/Violet{
0.79 0.88 0 0 setcmykcolor}DC/RoyalPurple{0.75 0.90 0 0 setcmykcolor}DC
/BlueViolet{0.86 0.91 0 0.04 setcmykcolor}DC/Periwinkle{0.57 0.55 0 0
setcmykcolor}DC/CadetBlue{0.62 0.57 0.23 0 setcmykcolor}DC
/CornflowerBlue{0.65 0.13 0 0 setcmykcolor}DC/MidnightBlue{0.98 0.13 0
0.43 setcmykcolor}DC/NavyBlue{0.94 0.54 0 0 setcmykcolor}DC/RoyalBlue{1
0.50 0 0 setcmykcolor}DC/Blue{1 1 0 0 setcmykcolor}DC/Cerulean{0.94 0.11
0 0 setcmykcolor}DC/Cyan{1 0 0 0 setcmykcolor}DC/ProcessBlue{0.96 0 0 0
setcmykcolor}DC/SkyBlue{0.62 0 0.12 0 setcmykcolor}DC/Turquoise{0.85 0
0.20 0 setcmykcolor}DC/TealBlue{0.86 0 0.34 0.02 setcmykcolor}DC
/Aquamarine{0.82 0 0.30 0 setcmykcolor}DC/BlueGreen{0.85 0 0.33 0
setcmykcolor}DC/Emerald{1 0 0.50 0 setcmykcolor}DC/JungleGreen{0.99 0
0.52 0 setcmykcolor}DC/SeaGreen{0.69 0 0.50 0 setcmykcolor}DC/Green{1 0
1 0 setcmykcolor}DC/ForestGreen{0.91 0 0.88 0.12 setcmykcolor}DC
/PineGreen{0.92 0 0.59 0.25 setcmykcolor}DC/LimeGreen{0.50 0 1 0
setcmykcolor}DC/YellowGreen{0.44 0 0.74 0 setcmykcolor}DC/SpringGreen{
0.26 0 0.76 0 setcmykcolor}DC/OliveGreen{0.64 0 0.95 0.40 setcmykcolor}
DC/RawSienna{0 0.72 1 0.45 setcmykcolor}DC/Sepia{0 0.83 1 0.70
setcmykcolor}DC/Brown{0 0.81 1 0.60 setcmykcolor}DC/Tan{0.14 0.42 0.56 0
setcmykcolor}DC/Gray{0 0 0 0.50 setcmykcolor}DC/Black{0 0 0 1
setcmykcolor}DC/White{0 0 0 0 setcmykcolor}DC end
%%EndProcSet
TeXDict begin 40258437 52099154 1000 8000 8000 (fig2ps-cppReduc.dvi)
@start end
%%EndProlog
%%BeginSetup
%%Feature: *Resolution 8000dpi
TeXDict begin
 end
%%EndSetup
TeXDict begin 1 0 bop Black Black 8524 23058 a @beginspecial
0 @llx 0 @lly 390 @urx 155 @ury 3900 @rwi @setspecial
%%BeginDocument: fig2ps-cppReduc.pstex
%!PS-Adobe-3.0 EPSF-3.0
%%Title: fig2ps-cppReduc.fig2
%%Creator: fig2dev Version 3.2 Patchlevel 5e
%%CreationDate: Thu Feb  7 00:29:35 2019
%%BoundingBox: 0 0 390 155
%Magnification: 1.0000
%%EndComments
%%BeginProlog
/$F2psDict 200 dict def
$F2psDict begin
$F2psDict /mtrx matrix put
/col-1 {0 setgray} bind def
/col0 {0.000 0.000 0.000 srgb} bind def
/col1 {0.000 0.000 1.000 srgb} bind def
/col2 {0.000 1.000 0.000 srgb} bind def
/col3 {0.000 1.000 1.000 srgb} bind def
/col4 {1.000 0.000 0.000 srgb} bind def
/col5 {1.000 0.000 1.000 srgb} bind def
/col6 {1.000 1.000 0.000 srgb} bind def
/col7 {1.000 1.000 1.000 srgb} bind def
/col8 {0.000 0.000 0.560 srgb} bind def
/col9 {0.000 0.000 0.690 srgb} bind def
/col10 {0.000 0.000 0.820 srgb} bind def
/col11 {0.530 0.810 1.000 srgb} bind def
/col12 {0.000 0.560 0.000 srgb} bind def
/col13 {0.000 0.690 0.000 srgb} bind def
/col14 {0.000 0.820 0.000 srgb} bind def
/col15 {0.000 0.560 0.560 srgb} bind def
/col16 {0.000 0.690 0.690 srgb} bind def
/col17 {0.000 0.820 0.820 srgb} bind def
/col18 {0.560 0.000 0.000 srgb} bind def
/col19 {0.690 0.000 0.000 srgb} bind def
/col20 {0.820 0.000 0.000 srgb} bind def
/col21 {0.560 0.000 0.560 srgb} bind def
/col22 {0.690 0.000 0.690 srgb} bind def
/col23 {0.820 0.000 0.820 srgb} bind def
/col24 {0.500 0.190 0.000 srgb} bind def
/col25 {0.630 0.250 0.000 srgb} bind def
/col26 {0.750 0.380 0.000 srgb} bind def
/col27 {1.000 0.500 0.500 srgb} bind def
/col28 {1.000 0.630 0.630 srgb} bind def
/col29 {1.000 0.750 0.750 srgb} bind def
/col30 {1.000 0.880 0.880 srgb} bind def
/col31 {1.000 0.840 0.000 srgb} bind def
end
/cp {closepath} bind def
/ef {eofill} bind def
/gr {grestore} bind def
/gs {gsave} bind def
/sa {save} bind def
/rs {restore} bind def
/l {lineto} bind def
/m {moveto} bind def
/rm {rmoveto} bind def
/n {newpath} bind def
/s {stroke} bind def
/sh {show} bind def
/slc {setlinecap} bind def
/slj {setlinejoin} bind def
/slw {setlinewidth} bind def
/srgb {setrgbcolor} bind def
/rot {rotate} bind def
/sc {scale} bind def
/sd {setdash} bind def
/ff {findfont} bind def
/sf {setfont} bind def
/scf {scalefont} bind def
/sw {stringwidth} bind def
/tr {translate} bind def
/tnt {dup dup currentrgbcolor
  4 -2 roll dup 1 exch sub 3 -1 roll mul add
  4 -2 roll dup 1 exch sub 3 -1 roll mul add
  4 -2 roll dup 1 exch sub 3 -1 roll mul add srgb}
  bind def
/shd {dup dup currentrgbcolor 4 -2 roll mul 4 -2 roll mul
  4 -2 roll mul srgb} bind def
/$F2psBegin {$F2psDict begin /$F2psEnteredState save def} def
/$F2psEnd {$F2psEnteredState restore end} def
/pageheader {
save
newpath 0 155 moveto 0 0 lineto 390 0 lineto 390 155 lineto closepath clip newpath
-10.6 148.3 translate
1 -1 scale
$F2psBegin
10 setmiterlimit
0 slj 0 slc
 0.06299 0.06299 sc
} bind def
/pagefooter {
$F2psEnd
restore
} bind def
%%EndProlog
pageheader
%
% Fig objects follow
%
% 
% here starts figure with depth 100
% Polyline
0 slj
0 slc
7.500 slw
n 405 405 m 2295 405 l 2295 1845 l 405 1845 l
 cp gs 0.00 setgray ef gr gs col0 s gr 
% here ends figure;
% 
% here starts figure with depth 50
% Polyline
0 slj
0 slc
7.500 slw
n 450 450 m 2250 450 l 2250 1800 l 450 1800 l
 cp gs col7 1.00 shd ef gr gs col0 s gr 
% here ends figure;
% 
% here starts figure with depth 45
% Polyline
0 slj
0 slc
7.500 slw
 [60] 0 sd
n 675 450 m
 675 1800 l gs col0 s gr  [] 0 sd
% Polyline
 [60] 0 sd
n 900 450 m
 900 1800 l gs col0 s gr  [] 0 sd
% Polyline
 [60] 0 sd
n 1125 450 m
 1125 1800 l gs col0 s gr  [] 0 sd
% Polyline
 [60] 0 sd
n 1350 450 m
 1350 1800 l gs col0 s gr  [] 0 sd
% Polyline
 [60] 0 sd
n 1575 450 m
 1575 1800 l gs col0 s gr  [] 0 sd
% Polyline
 [60] 0 sd
n 1800 450 m
 1800 1800 l gs col0 s gr  [] 0 sd
% Polyline
 [60] 0 sd
n 2025 450 m
 2025 1800 l gs col0 s gr  [] 0 sd
% here ends figure;
% 
% here starts figure with depth 35
% Polyline
0 slj
0 slc
7.500 slw
n 2430 405 m 4320 405 l 4320 1845 l 2430 1845 l
 cp gs 0.00 setgray ef gr gs col0 s gr 
% Polyline
n 4455 405 m 6345 405 l 6345 1845 l 4455 1845 l
 cp gs 0.00 setgray ef gr gs col0 s gr 
% here ends figure;
% 
% here starts figure with depth 33
% Polyline
0 slj
0 slc
7.500 slw
n 2475 450 m 4275 450 l 4275 1800 l 2475 1800 l
 cp gs col7 1.00 shd ef gr gs col0 s gr 
% Polyline
n 4500 450 m 6300 450 l 6300 1800 l 4500 1800 l
 cp gs col7 1.00 shd ef gr gs col0 s gr 
% here ends figure;
% 
% here starts figure with depth 30
% Polyline
0 slj
0 slc
7.500 slw
 [60] 0 sd
n 2925 450 m
 2925 1800 l gs col0 s gr  [] 0 sd
% Polyline
 [60] 0 sd
n 2700 450 m
 2700 1800 l gs col0 s gr  [] 0 sd
% Polyline
 [60] 0 sd
n 3150 450 m
 3150 1800 l gs col0 s gr  [] 0 sd
% Polyline
 [60] 0 sd
n 3375 450 m
 3375 1800 l gs col0 s gr  [] 0 sd
% Polyline
 [60] 0 sd
n 3600 450 m
 3600 1800 l gs col0 s gr  [] 0 sd
% Polyline
 [60] 0 sd
n 3825 450 m
 3825 1800 l gs col0 s gr  [] 0 sd
% Polyline
 [60] 0 sd
n 4050 450 m
 4050 1800 l gs col0 s gr  [] 0 sd
% Polyline
 [60] 0 sd
n 4725 450 m
 4725 1800 l gs col0 s gr  [] 0 sd
% Polyline
 [60] 0 sd
n 4950 450 m
 4950 1800 l gs col0 s gr  [] 0 sd
% Polyline
 [60] 0 sd
n 5175 450 m
 5175 1800 l gs col0 s gr  [] 0 sd
% Polyline
 [60] 0 sd
n 5400 450 m
 5400 1800 l gs col0 s gr  [] 0 sd
% Polyline
 [60] 0 sd
n 5625 450 m
 5625 1800 l gs col0 s gr  [] 0 sd
% Polyline
 [60] 0 sd
n 5850 450 m
 5850 1800 l gs col0 s gr  [] 0 sd
% Polyline
 [60] 0 sd
n 6075 450 m
 6075 1800 l gs col0 s gr  [] 0 sd
% here ends figure;
% 
% here starts figure with depth 28
% Polyline
2 slj
0 slc
7.500 slw
 [60] 0 sd
gs  clippath
2973 294 m 3039 431 l 3093 405 l 3027 268 l 3027 268 l 3053 390 l 2973 294 l cp
eoclip
n 2160 405 m 2161 403 l 2163 398 l 2167 390 l 2173 378 l 2181 361 l
 2191 340 l 2204 314 l 2219 286 l 2235 255 l 2253 222 l
 2273 188 l 2293 155 l 2315 121 l 2337 89 l 2361 58 l
 2386 29 l 2412 2 l 2440 -23 l 2470 -45 l 2502 -63 l
 2537 -77 l 2573 -87 l 2610 -90 l 2647 -87 l 2683 -77 l
 2718 -63 l 2750 -45 l 2780 -23 l 2808 2 l 2834 29 l
 2859 58 l 2883 89 l 2905 121 l 2927 155 l 2948 188 l
 2967 222 l 2985 255 l 3001 286 l 3016 314 l 3029 340 l
 3039 361 l 3047 378 l
 3060 405 l gs col0 s gr gr
 [] 0 sd
% arrowhead
0 slj
n 2973 294 m 3053 390 l 3027 268 l 2973 294 l  cp gs 0.00 setgray ef gr  col0 s
% Polyline
2 slj
 [60] 0 sd
gs  clippath
2757 289 m 2812 429 l 2868 407 l 2813 267 l 2813 267 l 2829 390 l 2757 289 l cp
eoclip
n 2160 405 m 2161 403 l 2163 398 l 2167 390 l 2174 377 l 2182 360 l
 2193 339 l 2206 314 l 2221 287 l 2237 258 l 2254 228 l
 2273 198 l 2292 168 l 2312 139 l 2334 112 l 2356 87 l
 2379 64 l 2404 43 l 2431 26 l 2460 12 l 2489 3 l
 2520 0 l 2550 3 l 2579 12 l 2606 26 l 2631 43 l
 2654 64 l 2675 87 l 2694 112 l 2712 139 l 2729 168 l
 2745 198 l 2760 228 l 2775 258 l 2788 287 l 2799 314 l
 2809 339 l 2818 360 l 2824 377 l
 2835 405 l gs col0 s gr gr
 [] 0 sd
% arrowhead
0 slj
n 2757 289 m 2829 390 l 2813 267 l 2757 289 l  cp gs 0.00 setgray ef gr  col0 s
% Polyline
2 slj
 [60] 0 sd
gs  clippath
2500 280 m 2539 427 l 2597 411 l 2558 265 l 2558 265 l 2561 389 l 2500 280 l cp
eoclip
n 2160 405 m 2161 402 l 2164 396 l 2168 384 l 2175 368 l 2184 347 l
 2195 323 l 2207 296 l 2220 267 l 2235 239 l 2250 211 l
 2266 184 l 2283 160 l 2301 138 l 2320 119 l 2341 104 l
 2362 94 l 2385 90 l 2407 94 l 2427 104 l 2446 119 l
 2462 138 l 2477 160 l 2490 184 l 2503 211 l 2514 239 l
 2524 267 l 2534 296 l 2542 323 l 2549 347 l 2555 368 l
 2565 405 l gs col0 s gr gr
 [] 0 sd
% arrowhead
0 slj
n 2500 280 m 2561 389 l 2558 265 l 2500 280 l  cp gs 0.00 setgray ef gr  col0 s
% Polyline
2 slj
 [60] 0 sd
gs  clippath
1398 294 m 1464 431 l 1518 405 l 1452 268 l 1452 268 l 1478 390 l 1398 294 l cp
eoclip
n 585 405 m 586 403 l 588 398 l 592 390 l 598 378 l 606 361 l
 616 340 l 629 314 l 644 286 l 660 255 l 678 222 l
 698 188 l 718 155 l 740 121 l 762 89 l 786 58 l
 811 29 l 837 2 l 865 -23 l 895 -45 l 927 -63 l
 962 -77 l 998 -87 l 1035 -90 l 1072 -87 l 1108 -77 l
 1143 -63 l 1175 -45 l 1205 -23 l 1233 2 l 1259 29 l
 1284 58 l 1308 89 l 1330 121 l 1352 155 l 1373 188 l
 1392 222 l 1410 255 l 1426 286 l 1441 314 l 1454 340 l
 1464 361 l 1472 378 l
 1485 405 l gs col0 s gr gr
 [] 0 sd
% arrowhead
0 slj
n 1398 294 m 1478 390 l 1452 268 l 1398 294 l  cp gs 0.00 setgray ef gr  col0 s
% Polyline
2 slj
 [60] 0 sd
gs  clippath
1182 289 m 1237 429 l 1293 407 l 1238 267 l 1238 267 l 1254 390 l 1182 289 l cp
eoclip
n 585 405 m 586 403 l 588 398 l 592 390 l 599 377 l 607 360 l
 618 339 l 631 314 l 646 287 l 662 258 l 679 228 l
 698 198 l 717 168 l 737 139 l 759 112 l 781 87 l
 804 64 l 829 43 l 856 26 l 885 12 l 914 3 l
 945 0 l 975 3 l 1004 12 l 1031 26 l 1056 43 l
 1079 64 l 1100 87 l 1119 112 l 1137 139 l 1154 168 l
 1170 198 l 1185 228 l 1200 258 l 1213 287 l 1224 314 l
 1234 339 l 1243 360 l 1249 377 l
 1260 405 l gs col0 s gr gr
 [] 0 sd
% arrowhead
0 slj
n 1182 289 m 1254 390 l 1238 267 l 1182 289 l  cp gs 0.00 setgray ef gr  col0 s
% Polyline
2 slj
 [60] 0 sd
gs  clippath
925 280 m 964 427 l 1022 411 l 983 265 l 983 265 l 986 389 l 925 280 l cp
eoclip
n 585 405 m 586 402 l 589 396 l 593 384 l 600 368 l 609 347 l
 620 323 l 632 296 l 645 267 l 660 239 l 675 211 l
 691 184 l 708 160 l 726 138 l 745 119 l 766 104 l
 787 94 l 810 90 l 832 94 l 852 104 l 871 119 l
 887 138 l 902 160 l 915 184 l 928 211 l 939 239 l
 949 267 l 959 296 l 967 323 l 974 347 l 980 368 l
 990 405 l gs col0 s gr gr
 [] 0 sd
% arrowhead
0 slj
n 925 280 m 986 389 l 983 265 l 925 280 l  cp gs 0.00 setgray ef gr  col0 s
% Polyline
2 slj
 [60] 0 sd
gs  clippath
3873 294 m 3939 431 l 3993 405 l 3927 268 l 3927 268 l 3953 390 l 3873 294 l cp
eoclip
n 3060 405 m 3061 403 l 3063 398 l 3067 390 l 3073 378 l 3081 361 l
 3091 340 l 3104 314 l 3119 286 l 3135 255 l 3153 222 l
 3173 188 l 3193 155 l 3215 121 l 3237 89 l 3261 58 l
 3286 29 l 3312 2 l 3340 -23 l 3370 -45 l 3402 -63 l
 3437 -77 l 3473 -87 l 3510 -90 l 3547 -87 l 3583 -77 l
 3618 -63 l 3650 -45 l 3680 -23 l 3708 2 l 3734 29 l
 3759 58 l 3783 89 l 3805 121 l 3827 155 l 3848 188 l
 3867 222 l 3885 255 l 3901 286 l 3916 314 l 3929 340 l
 3939 361 l 3947 378 l
 3960 405 l gs col0 s gr gr
 [] 0 sd
% arrowhead
0 slj
n 3873 294 m 3953 390 l 3927 268 l 3873 294 l  cp gs 0.00 setgray ef gr  col0 s
% Polyline
2 slj
 [60] 0 sd
gs  clippath
3657 289 m 3712 429 l 3768 407 l 3713 267 l 3713 267 l 3729 390 l 3657 289 l cp
eoclip
n 3060 405 m 3061 403 l 3063 398 l 3067 390 l 3074 377 l 3082 360 l
 3093 339 l 3106 314 l 3121 287 l 3137 258 l 3154 228 l
 3173 198 l 3192 168 l 3212 139 l 3234 112 l 3256 87 l
 3279 64 l 3304 43 l 3331 26 l 3360 12 l 3389 3 l
 3420 0 l 3450 3 l 3479 12 l 3506 26 l 3531 43 l
 3554 64 l 3575 87 l 3594 112 l 3612 139 l 3629 168 l
 3645 198 l 3660 228 l 3675 258 l 3688 287 l 3699 314 l
 3709 339 l 3718 360 l 3724 377 l
 3735 405 l gs col0 s gr gr
 [] 0 sd
% arrowhead
0 slj
n 3657 289 m 3729 390 l 3713 267 l 3657 289 l  cp gs 0.00 setgray ef gr  col0 s
% Polyline
2 slj
 [60] 0 sd
gs  clippath
3400 280 m 3439 427 l 3497 411 l 3458 265 l 3458 265 l 3461 389 l 3400 280 l cp
eoclip
n 3060 405 m 3061 402 l 3064 396 l 3068 384 l 3075 368 l 3084 347 l
 3095 323 l 3107 296 l 3120 267 l 3135 239 l 3150 211 l
 3166 184 l 3183 160 l 3201 138 l 3220 119 l 3241 104 l
 3262 94 l 3285 90 l 3307 94 l 3327 104 l 3346 119 l
 3362 138 l 3377 160 l 3390 184 l 3403 211 l 3414 239 l
 3424 267 l 3434 296 l 3442 323 l 3449 347 l 3455 368 l
 3465 405 l gs col0 s gr gr
 [] 0 sd
% arrowhead
0 slj
n 3400 280 m 3461 389 l 3458 265 l 3400 280 l  cp gs 0.00 setgray ef gr  col0 s
% Polyline
2 slj
 [60] 0 sd
gs  clippath
4998 294 m 5064 431 l 5118 405 l 5052 268 l 5052 268 l 5078 390 l 4998 294 l cp
eoclip
n 4185 405 m 4186 403 l 4188 398 l 4192 390 l 4198 378 l 4206 361 l
 4216 340 l 4229 314 l 4244 286 l 4260 255 l 4278 222 l
 4298 188 l 4318 155 l 4340 121 l 4362 89 l 4386 58 l
 4411 29 l 4437 2 l 4465 -23 l 4495 -45 l 4527 -63 l
 4562 -77 l 4598 -87 l 4635 -90 l 4672 -87 l 4708 -77 l
 4743 -63 l 4775 -45 l 4805 -23 l 4833 2 l 4859 29 l
 4884 58 l 4908 89 l 4930 121 l 4952 155 l 4973 188 l
 4992 222 l 5010 255 l 5026 286 l 5041 314 l 5054 340 l
 5064 361 l 5072 378 l
 5085 405 l gs col0 s gr gr
 [] 0 sd
% arrowhead
0 slj
n 4998 294 m 5078 390 l 5052 268 l 4998 294 l  cp gs 0.00 setgray ef gr  col0 s
% Polyline
2 slj
 [60] 0 sd
gs  clippath
4782 289 m 4837 429 l 4893 407 l 4838 267 l 4838 267 l 4854 390 l 4782 289 l cp
eoclip
n 4185 405 m 4186 403 l 4188 398 l 4192 390 l 4199 377 l 4207 360 l
 4218 339 l 4231 314 l 4246 287 l 4262 258 l 4279 228 l
 4298 198 l 4317 168 l 4337 139 l 4359 112 l 4381 87 l
 4404 64 l 4429 43 l 4456 26 l 4485 12 l 4514 3 l
 4545 0 l 4575 3 l 4604 12 l 4631 26 l 4656 43 l
 4679 64 l 4700 87 l 4719 112 l 4737 139 l 4754 168 l
 4770 198 l 4785 228 l 4800 258 l 4813 287 l 4824 314 l
 4834 339 l 4843 360 l 4849 377 l
 4860 405 l gs col0 s gr gr
 [] 0 sd
% arrowhead
0 slj
n 4782 289 m 4854 390 l 4838 267 l 4782 289 l  cp gs 0.00 setgray ef gr  col0 s
% Polyline
2 slj
 [60] 0 sd
gs  clippath
4525 280 m 4564 427 l 4622 411 l 4583 265 l 4583 265 l 4586 389 l 4525 280 l cp
eoclip
n 4185 405 m 4186 402 l 4189 396 l 4193 384 l 4200 368 l 4209 347 l
 4220 323 l 4232 296 l 4245 267 l 4260 239 l 4275 211 l
 4291 184 l 4308 160 l 4326 138 l 4345 119 l 4366 104 l
 4387 94 l 4410 90 l 4432 94 l 4452 104 l 4471 119 l
 4487 138 l 4502 160 l 4515 184 l 4528 211 l 4539 239 l
 4549 267 l 4559 296 l 4567 323 l 4574 347 l 4580 368 l
 4590 405 l gs col0 s gr gr
 [] 0 sd
% arrowhead
0 slj
n 4525 280 m 4586 389 l 4583 265 l 4525 280 l  cp gs 0.00 setgray ef gr  col0 s
% Polyline
2 slj
 [60] 0 sd
gs  clippath
6123 294 m 6189 431 l 6243 405 l 6177 268 l 6177 268 l 6203 390 l 6123 294 l cp
eoclip
n 5310 405 m 5311 403 l 5313 398 l 5317 390 l 5323 378 l 5331 361 l
 5341 340 l 5354 314 l 5369 286 l 5385 255 l 5403 222 l
 5423 188 l 5443 155 l 5465 121 l 5487 89 l 5511 58 l
 5536 29 l 5562 2 l 5590 -23 l 5620 -45 l 5652 -63 l
 5687 -77 l 5723 -87 l 5760 -90 l 5797 -87 l 5833 -77 l
 5868 -63 l 5900 -45 l 5930 -23 l 5958 2 l 5984 29 l
 6009 58 l 6033 89 l 6055 121 l 6077 155 l 6098 188 l
 6117 222 l 6135 255 l 6151 286 l 6166 314 l 6179 340 l
 6189 361 l 6197 378 l
 6210 405 l gs col0 s gr gr
 [] 0 sd
% arrowhead
0 slj
n 6123 294 m 6203 390 l 6177 268 l 6123 294 l  cp gs 0.00 setgray ef gr  col0 s
% Polyline
2 slj
 [60] 0 sd
gs  clippath
5907 289 m 5962 429 l 6018 407 l 5963 267 l 5963 267 l 5979 390 l 5907 289 l cp
eoclip
n 5310 405 m 5311 403 l 5313 398 l 5317 390 l 5324 377 l 5332 360 l
 5343 339 l 5356 314 l 5371 287 l 5387 258 l 5404 228 l
 5423 198 l 5442 168 l 5462 139 l 5484 112 l 5506 87 l
 5529 64 l 5554 43 l 5581 26 l 5610 12 l 5639 3 l
 5670 0 l 5700 3 l 5729 12 l 5756 26 l 5781 43 l
 5804 64 l 5825 87 l 5844 112 l 5862 139 l 5879 168 l
 5895 198 l 5910 228 l 5925 258 l 5938 287 l 5949 314 l
 5959 339 l 5968 360 l 5974 377 l
 5985 405 l gs col0 s gr gr
 [] 0 sd
% arrowhead
0 slj
n 5907 289 m 5979 390 l 5963 267 l 5907 289 l  cp gs 0.00 setgray ef gr  col0 s
% Polyline
2 slj
 [60] 0 sd
gs  clippath
5650 280 m 5689 427 l 5747 411 l 5708 265 l 5708 265 l 5711 389 l 5650 280 l cp
eoclip
n 5310 405 m 5311 402 l 5314 396 l 5318 384 l 5325 368 l 5334 347 l
 5345 323 l 5357 296 l 5370 267 l 5385 239 l 5400 211 l
 5416 184 l 5433 160 l 5451 138 l 5470 119 l 5491 104 l
 5512 94 l 5535 90 l 5557 94 l 5577 104 l 5596 119 l
 5612 138 l 5627 160 l 5640 184 l 5653 211 l 5664 239 l
 5674 267 l 5684 296 l 5692 323 l 5699 347 l 5705 368 l
 5715 405 l gs col0 s gr gr
 [] 0 sd
% arrowhead
0 slj
n 5650 280 m 5711 389 l 5708 265 l 5650 280 l  cp gs 0.00 setgray ef gr  col0 s
% Polyline
2 slj
 [60] 0 sd
gs  clippath
1746 1947 m 1680 1810 l 1626 1836 l 1692 1973 l 1692 1973 l 1667 1852 l 1746 1947 l cp
eoclip
n 2560 1837 m 2559 1839 l 2557 1844 l 2553 1852 l 2547 1864 l 2539 1881 l
 2529 1902 l 2516 1928 l 2501 1956 l 2485 1987 l 2467 2020 l
 2447 2054 l 2427 2087 l 2405 2121 l 2383 2153 l 2359 2184 l
 2334 2213 l 2308 2240 l 2280 2265 l 2250 2287 l 2218 2305 l
 2183 2319 l 2147 2329 l 2110 2332 l 2073 2329 l 2037 2319 l
 2002 2305 l 1970 2287 l 1940 2265 l 1912 2240 l 1886 2213 l
 1861 2184 l 1837 2153 l 1815 2121 l 1793 2087 l 1772 2054 l
 1753 2020 l 1735 1987 l 1719 1956 l 1704 1928 l 1691 1902 l
 1681 1881 l 1673 1864 l
 1660 1837 l gs col0 s gr gr
 [] 0 sd
% arrowhead
0 slj
n 1746 1947 m 1667 1852 l 1692 1973 l 1746 1947 l  cp gs 0.00 setgray ef gr  col0 s
% Polyline
2 slj
 [60] 0 sd
gs  clippath
1967 1960 m 1912 1820 l 1856 1842 l 1911 1982 l 1911 1982 l 1896 1860 l 1967 1960 l cp
eoclip
n 2565 1845 m 2564 1847 l 2562 1852 l 2558 1860 l 2551 1873 l 2543 1890 l
 2532 1911 l 2519 1936 l 2504 1963 l 2488 1992 l 2471 2022 l
 2452 2052 l 2433 2082 l 2413 2111 l 2391 2138 l 2369 2163 l
 2346 2186 l 2321 2207 l 2294 2224 l 2265 2238 l 2236 2247 l
 2205 2250 l 2175 2247 l 2146 2238 l 2119 2224 l 2094 2207 l
 2071 2186 l 2050 2163 l 2031 2138 l 2013 2111 l 1996 2082 l
 1980 2052 l 1965 2022 l 1950 1992 l 1937 1963 l 1926 1936 l
 1916 1911 l 1907 1890 l 1901 1873 l
 1890 1845 l gs col0 s gr gr
 [] 0 sd
% arrowhead
0 slj
n 1967 1960 m 1896 1860 l 1911 1982 l 1967 1960 l  cp gs 0.00 setgray ef gr  col0 s
% Polyline
2 slj
 [60] 0 sd
gs  clippath
2224 1969 m 2185 1822 l 2127 1838 l 2166 1984 l 2166 1984 l 2164 1861 l 2224 1969 l cp
eoclip
n 2565 1845 m 2564 1848 l 2561 1854 l 2557 1866 l 2550 1882 l 2541 1903 l
 2530 1927 l 2518 1954 l 2505 1983 l 2490 2011 l 2475 2039 l
 2459 2066 l 2442 2090 l 2424 2112 l 2405 2131 l 2384 2146 l
 2363 2156 l 2340 2160 l 2318 2156 l 2298 2146 l 2279 2131 l
 2263 2112 l 2248 2090 l 2235 2066 l 2222 2039 l 2211 2011 l
 2201 1983 l 2191 1954 l 2183 1927 l 2176 1903 l 2170 1882 l
 2160 1845 l gs col0 s gr gr
 [] 0 sd
% arrowhead
0 slj
n 2224 1969 m 2164 1861 l 2166 1984 l 2224 1969 l  cp gs 0.00 setgray ef gr  col0 s
% Polyline
2 slj
 [60] 0 sd
gs  clippath
2651 1955 m 2585 1818 l 2531 1844 l 2597 1981 l 2597 1981 l 2572 1860 l 2651 1955 l cp
eoclip
n 3465 1845 m 3464 1847 l 3462 1852 l 3458 1860 l 3452 1872 l 3444 1889 l
 3434 1910 l 3421 1936 l 3406 1964 l 3390 1995 l 3372 2028 l
 3352 2062 l 3332 2095 l 3310 2129 l 3288 2161 l 3264 2192 l
 3239 2221 l 3213 2248 l 3185 2273 l 3155 2295 l 3123 2313 l
 3088 2327 l 3052 2337 l 3015 2340 l 2978 2337 l 2942 2327 l
 2907 2313 l 2875 2295 l 2845 2273 l 2817 2248 l 2791 2221 l
 2766 2192 l 2742 2161 l 2720 2129 l 2698 2095 l 2677 2062 l
 2658 2028 l 2640 1995 l 2624 1964 l 2609 1936 l 2596 1910 l
 2586 1889 l 2578 1872 l
 2565 1845 l gs col0 s gr gr
 [] 0 sd
% arrowhead
0 slj
n 2651 1955 m 2572 1860 l 2597 1981 l 2651 1955 l  cp gs 0.00 setgray ef gr  col0 s
% Polyline
2 slj
 [60] 0 sd
gs  clippath
2867 1960 m 2812 1820 l 2756 1842 l 2811 1982 l 2811 1982 l 2796 1860 l 2867 1960 l cp
eoclip
n 3465 1845 m 3464 1847 l 3462 1852 l 3458 1860 l 3451 1873 l 3443 1890 l
 3432 1911 l 3419 1936 l 3404 1963 l 3388 1992 l 3371 2022 l
 3352 2052 l 3333 2082 l 3313 2111 l 3291 2138 l 3269 2163 l
 3246 2186 l 3221 2207 l 3194 2224 l 3165 2238 l 3136 2247 l
 3105 2250 l 3075 2247 l 3046 2238 l 3019 2224 l 2994 2207 l
 2971 2186 l 2950 2163 l 2931 2138 l 2913 2111 l 2896 2082 l
 2880 2052 l 2865 2022 l 2850 1992 l 2837 1963 l 2826 1936 l
 2816 1911 l 2807 1890 l 2801 1873 l
 2790 1845 l gs col0 s gr gr
 [] 0 sd
% arrowhead
0 slj
n 2867 1960 m 2796 1860 l 2811 1982 l 2867 1960 l  cp gs 0.00 setgray ef gr  col0 s
% Polyline
2 slj
 [60] 0 sd
gs  clippath
3124 1969 m 3085 1822 l 3027 1838 l 3066 1984 l 3066 1984 l 3064 1861 l 3124 1969 l cp
eoclip
n 3465 1845 m 3464 1848 l 3461 1854 l 3457 1866 l 3450 1882 l 3441 1903 l
 3430 1927 l 3418 1954 l 3405 1983 l 3390 2011 l 3375 2039 l
 3359 2066 l 3342 2090 l 3324 2112 l 3305 2131 l 3284 2146 l
 3263 2156 l 3240 2160 l 3218 2156 l 3198 2146 l 3179 2131 l
 3163 2112 l 3148 2090 l 3135 2066 l 3122 2039 l 3111 2011 l
 3101 1983 l 3091 1954 l 3083 1927 l 3076 1903 l 3070 1882 l
 3060 1845 l gs col0 s gr gr
 [] 0 sd
% arrowhead
0 slj
n 3124 1969 m 3064 1861 l 3066 1984 l 3124 1969 l  cp gs 0.00 setgray ef gr  col0 s
% Polyline
2 slj
 [60] 0 sd
gs  clippath
3782 1957 m 3716 1820 l 3662 1846 l 3728 1983 l 3728 1983 l 3703 1862 l 3782 1957 l cp
eoclip
n 4596 1847 m 4595 1849 l 4593 1854 l 4589 1862 l 4583 1874 l 4575 1891 l
 4565 1912 l 4552 1938 l 4537 1966 l 4521 1997 l 4503 2030 l
 4483 2064 l 4463 2097 l 4441 2131 l 4419 2163 l 4395 2194 l
 4370 2223 l 4344 2250 l 4316 2275 l 4286 2297 l 4254 2315 l
 4219 2329 l 4183 2339 l 4146 2342 l 4109 2339 l 4073 2329 l
 4038 2315 l 4006 2297 l 3976 2275 l 3948 2250 l 3922 2223 l
 3897 2194 l 3873 2163 l 3851 2131 l 3829 2097 l 3808 2064 l
 3789 2030 l 3771 1997 l 3755 1966 l 3740 1938 l 3727 1912 l
 3717 1891 l 3709 1874 l
 3696 1847 l gs col0 s gr gr
 [] 0 sd
% arrowhead
0 slj
n 3782 1957 m 3703 1862 l 3728 1983 l 3782 1957 l  cp gs 0.00 setgray ef gr  col0 s
% Polyline
2 slj
 [60] 0 sd
gs  clippath
4018 1954 m 3963 1814 l 3907 1836 l 3962 1976 l 3962 1976 l 3947 1854 l 4018 1954 l cp
eoclip
n 4616 1839 m 4615 1841 l 4613 1846 l 4609 1854 l 4602 1867 l 4594 1884 l
 4583 1905 l 4570 1930 l 4555 1957 l 4539 1986 l 4522 2016 l
 4503 2046 l 4484 2076 l 4464 2105 l 4442 2132 l 4420 2157 l
 4397 2180 l 4372 2201 l 4345 2218 l 4316 2232 l 4287 2241 l
 4256 2244 l 4226 2241 l 4197 2232 l 4170 2218 l 4145 2201 l
 4122 2180 l 4101 2157 l 4082 2132 l 4064 2105 l 4047 2076 l
 4031 2046 l 4016 2016 l 4001 1986 l 3988 1957 l 3977 1930 l
 3967 1905 l 3958 1884 l 3952 1867 l
 3941 1839 l gs col0 s gr gr
 [] 0 sd
% arrowhead
0 slj
n 4018 1954 m 3947 1854 l 3962 1976 l 4018 1954 l  cp gs 0.00 setgray ef gr  col0 s
% Polyline
2 slj
 [60] 0 sd
gs  clippath
4249 1969 m 4210 1822 l 4152 1838 l 4191 1984 l 4191 1984 l 4189 1861 l 4249 1969 l cp
eoclip
n 4590 1845 m 4589 1848 l 4586 1854 l 4582 1866 l 4575 1882 l 4566 1903 l
 4555 1927 l 4543 1954 l 4530 1983 l 4515 2011 l 4500 2039 l
 4484 2066 l 4467 2090 l 4449 2112 l 4430 2131 l 4409 2146 l
 4388 2156 l 4365 2160 l 4343 2156 l 4323 2146 l 4304 2131 l
 4288 2112 l 4273 2090 l 4260 2066 l 4247 2039 l 4236 2011 l
 4226 1983 l 4216 1954 l 4208 1927 l 4201 1903 l 4195 1882 l
 4185 1845 l gs col0 s gr gr
 [] 0 sd
% arrowhead
0 slj
n 4249 1969 m 4189 1861 l 4191 1984 l 4249 1969 l  cp gs 0.00 setgray ef gr  col0 s
% Polyline
2 slj
 [60] 0 sd
gs  clippath
5396 1955 m 5330 1818 l 5276 1844 l 5342 1981 l 5342 1981 l 5317 1860 l 5396 1955 l cp
eoclip
n 6210 1845 m 6209 1847 l 6207 1852 l 6203 1860 l 6197 1872 l 6189 1889 l
 6179 1910 l 6166 1936 l 6151 1964 l 6135 1995 l 6117 2028 l
 6097 2062 l 6077 2095 l 6055 2129 l 6033 2161 l 6009 2192 l
 5984 2221 l 5958 2248 l 5930 2273 l 5900 2295 l 5868 2313 l
 5833 2327 l 5797 2337 l 5760 2340 l 5723 2337 l 5687 2327 l
 5652 2313 l 5620 2295 l 5590 2273 l 5562 2248 l 5536 2221 l
 5511 2192 l 5487 2161 l 5465 2129 l 5443 2095 l 5422 2062 l
 5403 2028 l 5385 1995 l 5369 1964 l 5354 1936 l 5341 1910 l
 5331 1889 l 5323 1872 l
 5310 1845 l gs col0 s gr gr
 [] 0 sd
% arrowhead
0 slj
n 5396 1955 m 5317 1860 l 5342 1981 l 5396 1955 l  cp gs 0.00 setgray ef gr  col0 s
% Polyline
2 slj
 [60] 0 sd
gs  clippath
5612 1960 m 5557 1820 l 5501 1842 l 5556 1982 l 5556 1982 l 5541 1860 l 5612 1960 l cp
eoclip
n 6210 1845 m 6209 1847 l 6207 1852 l 6203 1860 l 6196 1873 l 6188 1890 l
 6177 1911 l 6164 1936 l 6149 1963 l 6133 1992 l 6116 2022 l
 6097 2052 l 6078 2082 l 6058 2111 l 6036 2138 l 6014 2163 l
 5991 2186 l 5966 2207 l 5939 2224 l 5910 2238 l 5881 2247 l
 5850 2250 l 5820 2247 l 5791 2238 l 5764 2224 l 5739 2207 l
 5716 2186 l 5695 2163 l 5676 2138 l 5658 2111 l 5641 2082 l
 5625 2052 l 5610 2022 l 5595 1992 l 5582 1963 l 5571 1936 l
 5561 1911 l 5552 1890 l 5546 1873 l
 5535 1845 l gs col0 s gr gr
 [] 0 sd
% arrowhead
0 slj
n 5612 1960 m 5541 1860 l 5556 1982 l 5612 1960 l  cp gs 0.00 setgray ef gr  col0 s
% Polyline
2 slj
 [60] 0 sd
gs  clippath
5869 1969 m 5830 1822 l 5772 1838 l 5811 1984 l 5811 1984 l 5809 1861 l 5869 1969 l cp
eoclip
n 6210 1845 m 6209 1848 l 6206 1854 l 6202 1866 l 6195 1882 l 6186 1903 l
 6175 1927 l 6163 1954 l 6150 1983 l 6135 2011 l 6120 2039 l
 6104 2066 l 6087 2090 l 6069 2112 l 6050 2131 l 6029 2146 l
 6008 2156 l 5985 2160 l 5963 2156 l 5943 2146 l 5924 2131 l
 5908 2112 l 5893 2090 l 5880 2066 l 5867 2039 l 5856 2011 l
 5846 1983 l 5836 1954 l 5828 1927 l 5821 1903 l 5815 1882 l
 5805 1845 l gs col0 s gr gr
 [] 0 sd
% arrowhead
0 slj
n 5869 1969 m 5809 1861 l 5811 1984 l 5869 1969 l  cp gs 0.00 setgray ef gr  col0 s
% Polyline
2 slj
 [60] 0 sd
gs  clippath
626 1955 m 560 1818 l 506 1844 l 572 1981 l 572 1981 l 547 1860 l 626 1955 l cp
eoclip
n 1440 1845 m 1439 1847 l 1437 1852 l 1433 1860 l 1427 1872 l 1419 1889 l
 1409 1910 l 1396 1936 l 1381 1964 l 1365 1995 l 1347 2028 l
 1327 2062 l 1307 2095 l 1285 2129 l 1263 2161 l 1239 2192 l
 1214 2221 l 1188 2248 l 1160 2273 l 1130 2295 l 1098 2313 l
 1063 2327 l 1027 2337 l 990 2340 l 953 2337 l 917 2327 l
 882 2313 l 850 2295 l 820 2273 l 792 2248 l 766 2221 l
 741 2192 l 717 2161 l 695 2129 l 673 2095 l 652 2062 l
 633 2028 l 615 1995 l 599 1964 l 584 1936 l 571 1910 l
 561 1889 l 553 1872 l
 540 1845 l gs col0 s gr gr
 [] 0 sd
% arrowhead
0 slj
n 626 1955 m 547 1860 l 572 1981 l 626 1955 l  cp gs 0.00 setgray ef gr  col0 s
% Polyline
2 slj
 [60] 0 sd
gs  clippath
842 1960 m 787 1820 l 731 1842 l 786 1982 l 786 1982 l 771 1860 l 842 1960 l cp
eoclip
n 1440 1845 m 1439 1847 l 1437 1852 l 1433 1860 l 1426 1873 l 1418 1890 l
 1407 1911 l 1394 1936 l 1379 1963 l 1363 1992 l 1346 2022 l
 1327 2052 l 1308 2082 l 1288 2111 l 1266 2138 l 1244 2163 l
 1221 2186 l 1196 2207 l 1169 2224 l 1140 2238 l 1111 2247 l
 1080 2250 l 1050 2247 l 1021 2238 l 994 2224 l 969 2207 l
 946 2186 l 925 2163 l 906 2138 l 888 2111 l 871 2082 l
 855 2052 l 840 2022 l 825 1992 l 812 1963 l 801 1936 l
 791 1911 l 782 1890 l 776 1873 l
 765 1845 l gs col0 s gr gr
 [] 0 sd
% arrowhead
0 slj
n 842 1960 m 771 1860 l 786 1982 l 842 1960 l  cp gs 0.00 setgray ef gr  col0 s
% Polyline
2 slj
 [60] 0 sd
gs  clippath
1099 1969 m 1060 1822 l 1002 1838 l 1041 1984 l 1041 1984 l 1039 1861 l 1099 1969 l cp
eoclip
n 1440 1845 m 1439 1848 l 1436 1854 l 1432 1866 l 1425 1882 l 1416 1903 l
 1405 1927 l 1393 1954 l 1380 1983 l 1365 2011 l 1350 2039 l
 1334 2066 l 1317 2090 l 1299 2112 l 1280 2131 l 1259 2146 l
 1238 2156 l 1215 2160 l 1193 2156 l 1173 2146 l 1154 2131 l
 1138 2112 l 1123 2090 l 1110 2066 l 1097 2039 l 1086 2011 l
 1076 1983 l 1066 1954 l 1058 1927 l 1051 1903 l 1045 1882 l
 1035 1845 l gs col0 s gr gr
 [] 0 sd
% arrowhead
0 slj
n 1099 1969 m 1039 1861 l 1041 1984 l 1099 1969 l  cp gs 0.00 setgray ef gr  col0 s
% here ends figure;
pagefooter
showpage
%%Trailer
%EOF
%%EndDocument
 @endspecial Black Black eop end
%%Trailer
userdict /end-hook known{end-hook}if
%%Trailer
cleartomark
countdictstack
exch sub { end } repeat
restore
%%EOF
