#FIG 3.2  Produced by xfig version 3.2.5c
Landscape
Center
Metric
A4      
100.00
Single
-2
1200 2
2 1 0 1 0 7 25 -1 -1 0.000 0 0 -1 0 0 6
	 1350 2835 1350 3015 1350 2925 1800 2925 1800 2835 1800 3015
2 3 0 3 1 7 50 -1 -1 0.000 0 0 -1 0 0 7
	 495 3060 1350 2655 2205 2655 2205 495 1350 495 495 945
	 495 3060
2 3 0 3 1 7 50 -1 -1 0.000 0 0 -1 0 0 5
	 2250 1845 3150 2295 3150 3105 2250 2655 2250 1845
2 3 0 3 1 7 50 -1 -1 0.000 0 0 -1 0 0 9
	 3195 3105 4050 3105 4950 2655 5805 2655 5805 495 4950 495
	 4050 945 3195 945 3195 3105
2 3 0 3 1 7 50 -1 -1 0.000 0 0 -1 0 0 5
	 2250 495 2250 1305 3150 1755 3150 945 2250 495
2 2 0 2 0 7 101 -1 11 0.000 0 0 -1 0 0 5
	 237 288 6031 288 6031 3323 237 3323 237 288
2 3 0 2 0 7 99 -1 11 0.000 0 0 -1 0 0 5
	 2250 1350 3150 1800 3150 2250 2250 1800 2250 1350
2 1 1 2 1 7 25 -1 -1 6.000 0 0 -1 0 0 2
	 945 720 945 2835
2 1 1 2 1 7 25 -1 -1 6.000 0 0 7 0 0 2
	 1350 495 1350 2655
2 1 1 2 1 7 25 -1 -1 6.000 0 0 7 0 0 2
	 1800 495 1800 2655
2 1 1 2 1 7 25 -1 -1 6.000 0 0 7 0 0 2
	 2700 720 2700 1530
2 1 1 2 1 7 25 -1 -1 6.000 0 0 7 0 0 2
	 2700 2070 2700 2880
2 1 1 2 1 7 25 -1 -1 6.000 0 0 7 0 0 2
	 3600 945 3600 3105
2 1 1 2 1 7 25 -1 -1 6.000 0 0 7 0 0 2
	 4050 945 4050 3105
2 1 1 2 1 7 25 -1 -1 6.000 0 0 7 0 0 2
	 4500 720 4500 2880
2 1 1 2 1 7 25 -1 -1 6.000 0 0 7 0 0 2
	 4950 495 4950 2655
2 1 1 2 1 7 25 -1 -1 6.000 0 0 7 0 0 2
	 5400 495 5400 2655
2 3 0 2 0 7 100 -1 20 0.000 0 0 -1 0 0 15
	 450 900 1350 450 2250 450 3150 900 4050 900 4950 450
	 5850 450 5850 2700 4950 2700 4050 3150 3150 3150 2250 2700
	 1350 2700 450 3150 450 900
4 1 0 25 -1 0 12 0.0000 4 195 645 1575 3105 $2\\phi$\001
