%!PS-Adobe-3.0 EPSF-3.0
%%BoundingBox: 149 1 1014 866
%%HiResBoundingBox: 149.000000 1.000000 1013.666016 865.664062
%%Creator: dvips(k) 5.993 Copyright 2013 Radical Eye Software
%%Title: fig2ps-ecReduc.dvi
%%CreationDate: Thu Feb  7 00:29:30 2019
%%EndComments
% EPSF created by ps2eps 1.68
%%BeginProlog
0 199 translate
save
countdictstack
mark
newpath
/showpage {} def
/setpagedevice {pop} def
%%EndProlog
%%Page 1 1
%DVIPSWebPage: (www.radicaleye.com)
%DVIPSCommandLine: dvips -Ppdf -G0 -q -E fig2ps-ecReduc.dvi -o
%+ fig2ps-ecReduc.ps
%DVIPSParameters: dpi=8000
%DVIPSSource:  TeX output 2019.02.07:0029
%%BeginProcSet: tex.pro 0 0
%!
/TeXDict 300 dict def TeXDict begin/N{def}def/B{bind def}N/S{exch}N/X{S
N}B/A{dup}B/TR{translate}N/isls false N/vsize 11 72 mul N/hsize 8.5 72
mul N/landplus90{false}def/@rigin{isls{[0 landplus90{1 -1}{-1 1}ifelse 0
0 0]concat}if 72 Resolution div 72 VResolution div neg scale isls{
landplus90{VResolution 72 div vsize mul 0 exch}{Resolution -72 div hsize
mul 0}ifelse TR}if Resolution VResolution vsize -72 div 1 add mul TR[
matrix currentmatrix{A A round sub abs 0.00001 lt{round}if}forall round
exch round exch]setmatrix}N/@landscape{/isls true N}B/@manualfeed{
statusdict/manualfeed true put}B/@copies{/#copies X}B/FMat[1 0 0 -1 0 0]
N/FBB[0 0 0 0]N/nn 0 N/IEn 0 N/ctr 0 N/df-tail{/nn 8 dict N nn begin
/FontType 3 N/FontMatrix fntrx N/FontBBox FBB N string/base X array
/BitMaps X/BuildChar{CharBuilder}N/Encoding IEn N end A{/foo setfont}2
array copy cvx N load 0 nn put/ctr 0 N[}B/sf 0 N/df{/sf 1 N/fntrx FMat N
df-tail}B/dfs{div/sf X/fntrx[sf 0 0 sf neg 0 0]N df-tail}B/E{pop nn A
definefont setfont}B/Cw{Cd A length 5 sub get}B/Ch{Cd A length 4 sub get
}B/Cx{128 Cd A length 3 sub get sub}B/Cy{Cd A length 2 sub get 127 sub}
B/Cdx{Cd A length 1 sub get}B/Ci{Cd A type/stringtype ne{ctr get/ctr ctr
1 add N}if}B/CharBuilder{save 3 1 roll S A/base get 2 index get S
/BitMaps get S get/Cd X pop/ctr 0 N Cdx 0 Cx Cy Ch sub Cx Cw add Cy
setcachedevice Cw Ch true[1 0 0 -1 -.1 Cx sub Cy .1 sub]{Ci}imagemask
restore}B/D{/cc X A type/stringtype ne{]}if nn/base get cc ctr put nn
/BitMaps get S ctr S sf 1 ne{A A length 1 sub A 2 index S get sf div put
}if put/ctr ctr 1 add N}B/I{cc 1 add D}B/bop{userdict/bop-hook known{
bop-hook}if/SI save N @rigin 0 0 moveto/V matrix currentmatrix A 1 get A
mul exch 0 get A mul add .99 lt{/QV}{/RV}ifelse load def pop pop}N/eop{
SI restore userdict/eop-hook known{eop-hook}if showpage}N/@start{
userdict/start-hook known{start-hook}if pop/VResolution X/Resolution X
1000 div/DVImag X/IEn 256 array N 2 string 0 1 255{IEn S A 360 add 36 4
index cvrs cvn put}for pop 65781.76 div/vsize X 65781.76 div/hsize X}N
/dir 0 def/dyy{/dir 0 def}B/dyt{/dir 1 def}B/dty{/dir 2 def}B/dtt{/dir 3
def}B/p{dir 2 eq{-90 rotate show 90 rotate}{dir 3 eq{-90 rotate show 90
rotate}{show}ifelse}ifelse}N/RMat[1 0 0 -1 0 0]N/BDot 260 string N/Rx 0
N/Ry 0 N/V{}B/RV/v{/Ry X/Rx X V}B statusdict begin/product where{pop
false[(Display)(NeXT)(LaserWriter 16/600)]{A length product length le{A
length product exch 0 exch getinterval eq{pop true exit}if}{pop}ifelse}
forall}{false}ifelse end{{gsave TR -.1 .1 TR 1 1 scale Rx Ry false RMat{
BDot}imagemask grestore}}{{gsave TR -.1 .1 TR Rx Ry scale 1 1 false RMat
{BDot}imagemask grestore}}ifelse B/QV{gsave newpath transform round exch
round exch itransform moveto Rx 0 rlineto 0 Ry neg rlineto Rx neg 0
rlineto fill grestore}B/a{moveto}B/delta 0 N/tail{A/delta X 0 rmoveto}B
/M{S p delta add tail}B/b{S p tail}B/c{-4 M}B/d{-3 M}B/e{-2 M}B/f{-1 M}
B/g{0 M}B/h{1 M}B/i{2 M}B/j{3 M}B/k{4 M}B/w{0 rmoveto}B/l{p -4 w}B/m{p
-3 w}B/n{p -2 w}B/o{p -1 w}B/q{p 1 w}B/r{p 2 w}B/s{p 3 w}B/t{p 4 w}B/x{
0 S rmoveto}B/y{3 2 roll p a}B/bos{/SS save N}B/eos{SS restore}B end
%%EndProcSet
%%BeginProcSet: alt-rule.pro 0 0
%!
% Patch by TVZ
% Makes dvips files draw rules with stroke rather than fill.
% Makes narrow rules more predictable at low resolutions
% after distilling to PDF.
% May have unknown consequences for very thick rules.
% Tested only with dvips 5.85(k).
TeXDict begin
/QV {
  gsave newpath /ruleY X /ruleX X
  Rx Ry gt
  { ruleX ruleY Ry 2 div sub moveto Rx 0 rlineto Ry }
  { ruleX Rx 2 div add ruleY moveto 0 Ry neg rlineto Rx }
  ifelse
  setlinewidth 0 setlinecap stroke grestore
} bind def
end
%%EndProcSet
%%BeginProcSet: special.pro 0 0
%!
TeXDict begin/SDict 200 dict N SDict begin/@SpecialDefaults{/hs 612 N
/vs 792 N/ho 0 N/vo 0 N/hsc 1 N/vsc 1 N/ang 0 N/CLIP 0 N/rwiSeen false N
/rhiSeen false N/letter{}N/note{}N/a4{}N/legal{}N}B/@scaleunit 100 N
/@hscale{@scaleunit div/hsc X}B/@vscale{@scaleunit div/vsc X}B/@hsize{
/hs X/CLIP 1 N}B/@vsize{/vs X/CLIP 1 N}B/@clip{/CLIP 2 N}B/@hoffset{/ho
X}B/@voffset{/vo X}B/@angle{/ang X}B/@rwi{10 div/rwi X/rwiSeen true N}B
/@rhi{10 div/rhi X/rhiSeen true N}B/@llx{/llx X}B/@lly{/lly X}B/@urx{
/urx X}B/@ury{/ury X}B/magscale true def end/@MacSetUp{userdict/md known
{userdict/md get type/dicttype eq{userdict begin md length 10 add md
maxlength ge{/md md dup length 20 add dict copy def}if end md begin
/letter{}N/note{}N/legal{}N/od{txpose 1 0 mtx defaultmatrix dtransform S
atan/pa X newpath clippath mark{transform{itransform moveto}}{transform{
itransform lineto}}{6 -2 roll transform 6 -2 roll transform 6 -2 roll
transform{itransform 6 2 roll itransform 6 2 roll itransform 6 2 roll
curveto}}{{closepath}}pathforall newpath counttomark array astore/gc xdf
pop ct 39 0 put 10 fz 0 fs 2 F/|______Courier fnt invertflag{PaintBlack}
if}N/txpose{pxs pys scale ppr aload pop por{noflips{pop S neg S TR pop 1
-1 scale}if xflip yflip and{pop S neg S TR 180 rotate 1 -1 scale ppr 3
get ppr 1 get neg sub neg ppr 2 get ppr 0 get neg sub neg TR}if xflip
yflip not and{pop S neg S TR pop 180 rotate ppr 3 get ppr 1 get neg sub
neg 0 TR}if yflip xflip not and{ppr 1 get neg ppr 0 get neg TR}if}{
noflips{TR pop pop 270 rotate 1 -1 scale}if xflip yflip and{TR pop pop
90 rotate 1 -1 scale ppr 3 get ppr 1 get neg sub neg ppr 2 get ppr 0 get
neg sub neg TR}if xflip yflip not and{TR pop pop 90 rotate ppr 3 get ppr
1 get neg sub neg 0 TR}if yflip xflip not and{TR pop pop 270 rotate ppr
2 get ppr 0 get neg sub neg 0 S TR}if}ifelse scaleby96{ppr aload pop 4
-1 roll add 2 div 3 1 roll add 2 div 2 copy TR .96 dup scale neg S neg S
TR}if}N/cp{pop pop showpage pm restore}N end}if}if}N/normalscale{
Resolution 72 div VResolution 72 div neg scale magscale{DVImag dup scale
}if 0 setgray}N/psfts{S 65781.76 div N}N/startTexFig{/psf$SavedState
save N userdict maxlength dict begin/magscale true def normalscale
currentpoint TR/psf$ury psfts/psf$urx psfts/psf$lly psfts/psf$llx psfts
/psf$y psfts/psf$x psfts currentpoint/psf$cy X/psf$cx X/psf$sx psf$x
psf$urx psf$llx sub div N/psf$sy psf$y psf$ury psf$lly sub div N psf$sx
psf$sy scale psf$cx psf$sx div psf$llx sub psf$cy psf$sy div psf$ury sub
TR/showpage{}N/erasepage{}N/setpagedevice{pop}N/copypage{}N/p 3 def
@MacSetUp}N/doclip{psf$llx psf$lly psf$urx psf$ury currentpoint 6 2 roll
newpath 4 copy 4 2 roll moveto 6 -1 roll S lineto S lineto S lineto
closepath clip newpath moveto}N/endTexFig{end psf$SavedState restore}N
/@beginspecial{SDict begin/SpecialSave save N gsave normalscale
currentpoint TR @SpecialDefaults count/ocount X/dcount countdictstack N}
N/@setspecial{CLIP 1 eq{newpath 0 0 moveto hs 0 rlineto 0 vs rlineto hs
neg 0 rlineto closepath clip}if ho vo TR hsc vsc scale ang rotate
rwiSeen{rwi urx llx sub div rhiSeen{rhi ury lly sub div}{dup}ifelse
scale llx neg lly neg TR}{rhiSeen{rhi ury lly sub div dup scale llx neg
lly neg TR}if}ifelse CLIP 2 eq{newpath llx lly moveto urx lly lineto urx
ury lineto llx ury lineto closepath clip}if/showpage{}N/erasepage{}N
/setpagedevice{pop}N/copypage{}N newpath}N/@endspecial{count ocount sub{
pop}repeat countdictstack dcount sub{end}repeat grestore SpecialSave
restore end}N/@defspecial{SDict begin}N/@fedspecial{end}B/li{lineto}B
/rl{rlineto}B/rc{rcurveto}B/np{/SaveX currentpoint/SaveY X N 1
setlinecap newpath}N/st{stroke SaveX SaveY moveto}N/fil{fill SaveX SaveY
moveto}N/ellipse{/endangle X/startangle X/yrad X/xrad X/savematrix
matrix currentmatrix N TR xrad yrad scale 0 0 1 startangle endangle arc
savematrix setmatrix}N end
%%EndProcSet
%%BeginProcSet: color.pro 0 0
%!
TeXDict begin/setcmykcolor where{pop}{/setcmykcolor{dup 10 eq{pop
setrgbcolor}{1 sub 4 1 roll 3{3 index add neg dup 0 lt{pop 0}if 3 1 roll
}repeat setrgbcolor pop}ifelse}B}ifelse/TeXcolorcmyk{setcmykcolor}def
/TeXcolorrgb{setrgbcolor}def/TeXcolorgrey{setgray}def/TeXcolorgray{
setgray}def/TeXcolorhsb{sethsbcolor}def/currentcmykcolor where{pop}{
/currentcmykcolor{currentrgbcolor 10}B}ifelse/DC{exch dup userdict exch
known{pop pop}{X}ifelse}B/GreenYellow{0.15 0 0.69 0 setcmykcolor}DC
/Yellow{0 0 1 0 setcmykcolor}DC/Goldenrod{0 0.10 0.84 0 setcmykcolor}DC
/Dandelion{0 0.29 0.84 0 setcmykcolor}DC/Apricot{0 0.32 0.52 0
setcmykcolor}DC/Peach{0 0.50 0.70 0 setcmykcolor}DC/Melon{0 0.46 0.50 0
setcmykcolor}DC/YellowOrange{0 0.42 1 0 setcmykcolor}DC/Orange{0 0.61
0.87 0 setcmykcolor}DC/BurntOrange{0 0.51 1 0 setcmykcolor}DC
/Bittersweet{0 0.75 1 0.24 setcmykcolor}DC/RedOrange{0 0.77 0.87 0
setcmykcolor}DC/Mahogany{0 0.85 0.87 0.35 setcmykcolor}DC/Maroon{0 0.87
0.68 0.32 setcmykcolor}DC/BrickRed{0 0.89 0.94 0.28 setcmykcolor}DC/Red{
0 1 1 0 setcmykcolor}DC/OrangeRed{0 1 0.50 0 setcmykcolor}DC/RubineRed{
0 1 0.13 0 setcmykcolor}DC/WildStrawberry{0 0.96 0.39 0 setcmykcolor}DC
/Salmon{0 0.53 0.38 0 setcmykcolor}DC/CarnationPink{0 0.63 0 0
setcmykcolor}DC/Magenta{0 1 0 0 setcmykcolor}DC/VioletRed{0 0.81 0 0
setcmykcolor}DC/Rhodamine{0 0.82 0 0 setcmykcolor}DC/Mulberry{0.34 0.90
0 0.02 setcmykcolor}DC/RedViolet{0.07 0.90 0 0.34 setcmykcolor}DC
/Fuchsia{0.47 0.91 0 0.08 setcmykcolor}DC/Lavender{0 0.48 0 0
setcmykcolor}DC/Thistle{0.12 0.59 0 0 setcmykcolor}DC/Orchid{0.32 0.64 0
0 setcmykcolor}DC/DarkOrchid{0.40 0.80 0.20 0 setcmykcolor}DC/Purple{
0.45 0.86 0 0 setcmykcolor}DC/Plum{0.50 1 0 0 setcmykcolor}DC/Violet{
0.79 0.88 0 0 setcmykcolor}DC/RoyalPurple{0.75 0.90 0 0 setcmykcolor}DC
/BlueViolet{0.86 0.91 0 0.04 setcmykcolor}DC/Periwinkle{0.57 0.55 0 0
setcmykcolor}DC/CadetBlue{0.62 0.57 0.23 0 setcmykcolor}DC
/CornflowerBlue{0.65 0.13 0 0 setcmykcolor}DC/MidnightBlue{0.98 0.13 0
0.43 setcmykcolor}DC/NavyBlue{0.94 0.54 0 0 setcmykcolor}DC/RoyalBlue{1
0.50 0 0 setcmykcolor}DC/Blue{1 1 0 0 setcmykcolor}DC/Cerulean{0.94 0.11
0 0 setcmykcolor}DC/Cyan{1 0 0 0 setcmykcolor}DC/ProcessBlue{0.96 0 0 0
setcmykcolor}DC/SkyBlue{0.62 0 0.12 0 setcmykcolor}DC/Turquoise{0.85 0
0.20 0 setcmykcolor}DC/TealBlue{0.86 0 0.34 0.02 setcmykcolor}DC
/Aquamarine{0.82 0 0.30 0 setcmykcolor}DC/BlueGreen{0.85 0 0.33 0
setcmykcolor}DC/Emerald{1 0 0.50 0 setcmykcolor}DC/JungleGreen{0.99 0
0.52 0 setcmykcolor}DC/SeaGreen{0.69 0 0.50 0 setcmykcolor}DC/Green{1 0
1 0 setcmykcolor}DC/ForestGreen{0.91 0 0.88 0.12 setcmykcolor}DC
/PineGreen{0.92 0 0.59 0.25 setcmykcolor}DC/LimeGreen{0.50 0 1 0
setcmykcolor}DC/YellowGreen{0.44 0 0.74 0 setcmykcolor}DC/SpringGreen{
0.26 0 0.76 0 setcmykcolor}DC/OliveGreen{0.64 0 0.95 0.40 setcmykcolor}
DC/RawSienna{0 0.72 1 0.45 setcmykcolor}DC/Sepia{0 0.83 1 0.70
setcmykcolor}DC/Brown{0 0.81 1 0.60 setcmykcolor}DC/Tan{0.14 0.42 0.56 0
setcmykcolor}DC/Gray{0 0 0 0.50 setcmykcolor}DC/Black{0 0 0 1
setcmykcolor}DC/White{0 0 0 0 setcmykcolor}DC end
%%EndProcSet
TeXDict begin 40258437 52099154 1000 8000 8000 (fig2ps-ecReduc.dvi)
@start end
%%EndProlog
%%BeginSetup
%%Feature: *Resolution 8000dpi
TeXDict begin
 end
%%EndSetup
TeXDict begin 1 0 bop Black Black 8524 102029 a @beginspecial
0 @llx 0 @lly 866 @urx 866 @ury 8660 @rwi @setspecial
%%BeginDocument: fig2ps-ecReduc.pstex
%!PS-Adobe-3.0 EPSF-3.0
%%Title: fig2ps-ecReduc.fig2
%%Creator: fig2dev Version 3.2 Patchlevel 5e
%%CreationDate: Thu Feb  7 00:29:30 2019
%%BoundingBox: 0 0 866 866
%Magnification: 1.0000
%%EndComments
%%BeginProlog
/$F2psDict 200 dict def
$F2psDict begin
$F2psDict /mtrx matrix put
/col-1 {0 setgray} bind def
/col0 {0.000 0.000 0.000 srgb} bind def
/col1 {0.000 0.000 1.000 srgb} bind def
/col2 {0.000 1.000 0.000 srgb} bind def
/col3 {0.000 1.000 1.000 srgb} bind def
/col4 {1.000 0.000 0.000 srgb} bind def
/col5 {1.000 0.000 1.000 srgb} bind def
/col6 {1.000 1.000 0.000 srgb} bind def
/col7 {1.000 1.000 1.000 srgb} bind def
/col8 {0.000 0.000 0.560 srgb} bind def
/col9 {0.000 0.000 0.690 srgb} bind def
/col10 {0.000 0.000 0.820 srgb} bind def
/col11 {0.530 0.810 1.000 srgb} bind def
/col12 {0.000 0.560 0.000 srgb} bind def
/col13 {0.000 0.690 0.000 srgb} bind def
/col14 {0.000 0.820 0.000 srgb} bind def
/col15 {0.000 0.560 0.560 srgb} bind def
/col16 {0.000 0.690 0.690 srgb} bind def
/col17 {0.000 0.820 0.820 srgb} bind def
/col18 {0.560 0.000 0.000 srgb} bind def
/col19 {0.690 0.000 0.000 srgb} bind def
/col20 {0.820 0.000 0.000 srgb} bind def
/col21 {0.560 0.000 0.560 srgb} bind def
/col22 {0.690 0.000 0.690 srgb} bind def
/col23 {0.820 0.000 0.820 srgb} bind def
/col24 {0.500 0.190 0.000 srgb} bind def
/col25 {0.630 0.250 0.000 srgb} bind def
/col26 {0.750 0.380 0.000 srgb} bind def
/col27 {1.000 0.500 0.500 srgb} bind def
/col28 {1.000 0.630 0.630 srgb} bind def
/col29 {1.000 0.750 0.750 srgb} bind def
/col30 {1.000 0.880 0.880 srgb} bind def
/col31 {1.000 0.840 0.000 srgb} bind def
/col32 {0.306 0.773 0.925 srgb} bind def
/col33 {0.498 0.000 0.000 srgb} bind def
/col34 {0.624 0.871 0.945 srgb} bind def
/col35 {0.698 0.698 0.698 srgb} bind def
end
/cp {closepath} bind def
/ef {eofill} bind def
/gr {grestore} bind def
/gs {gsave} bind def
/sa {save} bind def
/rs {restore} bind def
/l {lineto} bind def
/m {moveto} bind def
/rm {rmoveto} bind def
/n {newpath} bind def
/s {stroke} bind def
/sh {show} bind def
/slc {setlinecap} bind def
/slj {setlinejoin} bind def
/slw {setlinewidth} bind def
/srgb {setrgbcolor} bind def
/rot {rotate} bind def
/sc {scale} bind def
/sd {setdash} bind def
/ff {findfont} bind def
/sf {setfont} bind def
/scf {scalefont} bind def
/sw {stringwidth} bind def
/tr {translate} bind def
/tnt {dup dup currentrgbcolor
  4 -2 roll dup 1 exch sub 3 -1 roll mul add
  4 -2 roll dup 1 exch sub 3 -1 roll mul add
  4 -2 roll dup 1 exch sub 3 -1 roll mul add srgb}
  bind def
/shd {dup dup currentrgbcolor 4 -2 roll mul 4 -2 roll mul
  4 -2 roll mul srgb} bind def
 /DrawEllipse {
	/endangle exch def
	/startangle exch def
	/yrad exch def
	/xrad exch def
	/y exch def
	/x exch def
	/savematrix mtrx currentmatrix def
	x y tr xrad yrad sc 0 0 1 startangle endangle arc
	closepath
	savematrix setmatrix
	} def
/$F2psBegin {$F2psDict begin /$F2psEnteredState save def} def
/$F2psEnd {$F2psEnteredState restore end} def
/pageheader {
save
newpath 0 866 moveto 0 0 lineto 866 0 lineto 866 866 lineto closepath clip newpath
72.7 72.7 translate
1 -1 scale
$F2psBegin
10 setmiterlimit
0 slj 0 slc
 0.06000 0.06000 sc
} bind def
/pagefooter {
$F2psEnd
restore
} bind def
%%EndProlog
pageheader
%
% Fig objects follow
%
% 
% here starts figure with depth 50
%  beginPolygon(); 
%    addPoint(-63.100000,-63.100000); 
%    addPoint(-63.100000,562.100000); 
%    addPoint(562.100000,562.100000); 
%    addPoint(562.100000,-63.100000); 
%  endObject(); 
% Polyline
1 slj
0 slc
7.500 slw
n -1200 1200 m -1200 -13200 l 13200 -13200 l 13200 1200 l
 cp gs 0.00 setgray ef gr gs col0 s gr 
%  beginPolygon(); 
%    addPoint(-11.000000,-11.000000); 
%    addPoint(-11.000000,510.000000); 
%    addPoint(510.000000,510.000000); 
%    addPoint(510.000000,-11.000000); 
%  endObject(); 
% Polyline
n -675 825 m -675 -12750 l 12675 -12750 l 12675 825 l
 cp gs col7 1.00 shd ef gr gs col7 s gr 
% here ends figure;
% 
% here starts figure with depth 45
% Polyline
0 slj
0 slc
30.000 slw
n 1800 -10275 m 3000 -10275 l 3000 -9075 l 1800 -9075 l
 cp gs 0.90 setgray ef gr gs col0 s gr 
% Polyline
n 5250 -11100 m 6450 -11100 l 6450 -9900 l 5250 -9900 l
 cp gs 0.90 setgray ef gr gs col0 s gr 
% Polyline
n 7800 -9750 m 9000 -9750 l 9000 -8550 l 7800 -8550 l
 cp gs 0.90 setgray ef gr gs col0 s gr 
% Polyline
n 9450 -7800 m 10650 -7800 l 10650 -6600 l 9450 -6600 l
 cp gs 0.90 setgray ef gr gs col0 s gr 
% Polyline
n 8100 -5100 m 9300 -5100 l 9300 -3900 l 8100 -3900 l
 cp gs 0.90 setgray ef gr gs col0 s gr 
% Polyline
n 4575 -7725 m 5775 -7725 l 5775 -6525 l 4575 -6525 l
 cp gs 0.90 setgray ef gr gs col0 s gr 
% Polyline
n 900 -7650 m 2100 -7650 l 2100 -6450 l 900 -6450 l
 cp gs 0.90 setgray ef gr gs col0 s gr 
% Polyline
n 1425 -4725 m 2625 -4725 l 2625 -3525 l 1425 -3525 l
 cp gs 0.90 setgray ef gr gs col0 s gr 
% Polyline
n 525 -2325 m 1725 -2325 l 1725 -1125 l 525 -1125 l
 cp gs 0.90 setgray ef gr gs col0 s gr 
% Polyline
n 4350 -3150 m 5550 -3150 l 5550 -1950 l 4350 -1950 l
 cp gs 0.90 setgray ef gr gs col0 s gr 
% Polyline
n 7275 -1800 m 8475 -1800 l 8475 -600 l 7275 -600 l
 cp gs 0.90 setgray ef gr gs col0 s gr 
% Polyline
n 9975 -2700 m 11175 -2700 l 11175 -1500 l 9975 -1500 l
 cp gs 0.90 setgray ef gr gs col0 s gr 
% Ellipse
7.500 slw
n 2400 -9675 150 150 0 360 DrawEllipse gs 0.00 setgray ef gr gs col0 s gr
% Ellipse
n 5850 -10500 150 150 0 360 DrawEllipse gs 0.00 setgray ef gr gs col0 s gr
% Ellipse
n 8400 -9150 150 150 0 360 DrawEllipse gs 0.00 setgray ef gr gs col0 s gr
% Ellipse
n 10050 -7200 150 150 0 360 DrawEllipse gs 0.00 setgray ef gr gs col0 s gr
% Ellipse
n 8700 -4500 150 150 0 360 DrawEllipse gs 0.00 setgray ef gr gs col0 s gr
% Ellipse
n 5175 -7125 150 150 0 360 DrawEllipse gs 0.00 setgray ef gr gs col0 s gr
% Ellipse
n 1500 -7050 150 150 0 360 DrawEllipse gs 0.00 setgray ef gr gs col0 s gr
% Ellipse
n 2025 -4125 150 150 0 360 DrawEllipse gs 0.00 setgray ef gr gs col0 s gr
% Ellipse
n 1125 -1725 150 150 0 360 DrawEllipse gs 0.00 setgray ef gr gs col0 s gr
% Ellipse
n 4950 -2550 150 150 0 360 DrawEllipse gs 0.00 setgray ef gr gs col0 s gr
% Ellipse
n 7875 -1200 150 150 0 360 DrawEllipse gs 0.00 setgray ef gr gs col0 s gr
% Ellipse
n 10575 -2100 150 150 0 360 DrawEllipse gs 0.00 setgray ef gr gs col0 s gr
% here ends figure;
% 
% here starts figure with depth 40
% Polyline
0 slj
0 slc
7.500 slw
n 9450 -8550 m
 6450 -8550 l gs col0 s gr 
% Polyline
n 5850 -9150 m
 5850 -10350 l gs col0 s gr 
% Polyline
n 10050 -7950 m
 10050 -7200 l gs col0 s gr 
% Polyline
2 slj
n 5850 -9150 m 5850 -9148 l 5850 -9143 l 5850 -9135 l 5851 -9123 l 5851 -9106 l
 5852 -9086 l 5854 -9063 l 5856 -9037 l 5859 -9009 l 5864 -8981 l
 5869 -8951 l 5876 -8921 l 5885 -8891 l 5896 -8860 l 5910 -8828 l
 5927 -8796 l 5947 -8764 l 5972 -8731 l 6000 -8700 l 6031 -8672 l
 6064 -8647 l 6096 -8627 l 6128 -8610 l 6160 -8596 l 6191 -8585 l
 6221 -8576 l 6251 -8569 l 6281 -8564 l 6309 -8559 l 6337 -8556 l
 6363 -8554 l 6386 -8552 l 6406 -8551 l 6423 -8551 l 6435 -8550 l
 6443 -8550 l 6448 -8550 l
 6450 -8550 l gs col0 s gr 
% Polyline
n 10050 -7950 m 10050 -7952 l 10050 -7957 l 10050 -7965 l 10049 -7977 l 10049 -7994 l
 10048 -8014 l 10046 -8037 l 10044 -8063 l 10041 -8091 l 10036 -8119 l
 10031 -8149 l 10024 -8179 l 10015 -8209 l 10004 -8240 l 9990 -8272 l
 9973 -8304 l 9953 -8336 l 9928 -8369 l 9900 -8400 l 9869 -8428 l
 9836 -8453 l 9804 -8473 l 9772 -8490 l 9740 -8504 l 9709 -8515 l
 9679 -8524 l 9649 -8531 l 9619 -8536 l 9591 -8541 l 9563 -8544 l
 9537 -8546 l 9514 -8548 l 9494 -8549 l 9477 -8549 l 9465 -8550 l
 9457 -8550 l 9452 -8550 l
 9450 -8550 l gs col0 s gr 
% Polyline
0 slj
 [60] 0 sd
n 6300 -9150 m
 9450 -9150 l gs col0 s gr  [] 0 sd
% Polyline
 [60] 0 sd
n 10050 -8550 m
 10050 -7200 l gs col0 s gr  [] 0 sd
% Polyline
 [60] 0 sd
n 5850 -9750 m
 5850 -10500 l gs col0 s gr  [] 0 sd
% Polyline
2 slj
 [60] 0 sd
n 10050 -8550 m 10050 -8552 l 10050 -8557 l 10050 -8565 l 10049 -8577 l 10049 -8594 l
 10048 -8614 l 10046 -8637 l 10044 -8663 l 10041 -8691 l 10036 -8719 l
 10031 -8749 l 10024 -8779 l 10015 -8809 l 10004 -8840 l 9990 -8872 l
 9973 -8904 l 9953 -8936 l 9928 -8969 l 9900 -9000 l 9869 -9028 l
 9836 -9053 l 9804 -9073 l 9772 -9090 l 9740 -9104 l 9709 -9115 l
 9679 -9124 l 9649 -9131 l 9619 -9136 l 9591 -9141 l 9563 -9144 l
 9537 -9146 l 9514 -9148 l 9494 -9149 l 9477 -9149 l 9465 -9150 l
 9457 -9150 l 9452 -9150 l
 9450 -9150 l gs col0 s gr  [] 0 sd
% Polyline
 [60] 0 sd
n 5850 -9750 m 5850 -9748 l 5850 -9743 l 5850 -9735 l 5851 -9723 l 5851 -9706 l
 5852 -9686 l 5854 -9663 l 5856 -9637 l 5859 -9609 l 5864 -9581 l
 5869 -9551 l 5876 -9521 l 5885 -9491 l 5896 -9460 l 5910 -9428 l
 5927 -9396 l 5947 -9364 l 5972 -9331 l 6000 -9300 l 6031 -9272 l
 6064 -9247 l 6096 -9227 l 6128 -9210 l 6160 -9196 l 6191 -9185 l
 6221 -9176 l 6251 -9169 l 6281 -9164 l 6309 -9159 l 6337 -9156 l
 6363 -9154 l 6386 -9152 l 6406 -9151 l 6423 -9151 l 6435 -9150 l
 6443 -9150 l 6448 -9150 l
 6450 -9150 l gs col0 s gr  [] 0 sd
% here ends figure;
pagefooter
showpage
%%Trailer
%EOF
%%EndDocument
 @endspecial Black Black eop end
%%Trailer
userdict /end-hook known{end-hook}if
%%Trailer
cleartomark
countdictstack
exch sub { end } repeat
restore
%%EOF
