%!PS-Adobe-3.0 EPSF-3.0
%%BoundingBox: 149 2 1014 867
%%HiResBoundingBox: 149.000000 2.000000 1013.666016 866.703125
%%Creator: dvips(k) 5.993 Copyright 2013 Radical Eye Software
%%Title: fig2ps-env02_onePass.dvi
%%CreationDate: Thu Feb  7 00:29:33 2019
%%EndComments
% EPSF created by ps2eps 1.68
%%BeginProlog
0 200 translate
save
countdictstack
mark
newpath
/showpage {} def
/setpagedevice {pop} def
%%EndProlog
%%Page 1 1
%DVIPSWebPage: (www.radicaleye.com)
%DVIPSCommandLine: dvips -Ppdf -G0 -q -E fig2ps-env02_onePass.dvi -o
%+ fig2ps-env02_onePass.ps
%DVIPSParameters: dpi=8000
%DVIPSSource:  TeX output 2019.02.07:0029
%%BeginProcSet: tex.pro 0 0
%!
/TeXDict 300 dict def TeXDict begin/N{def}def/B{bind def}N/S{exch}N/X{S
N}B/A{dup}B/TR{translate}N/isls false N/vsize 11 72 mul N/hsize 8.5 72
mul N/landplus90{false}def/@rigin{isls{[0 landplus90{1 -1}{-1 1}ifelse 0
0 0]concat}if 72 Resolution div 72 VResolution div neg scale isls{
landplus90{VResolution 72 div vsize mul 0 exch}{Resolution -72 div hsize
mul 0}ifelse TR}if Resolution VResolution vsize -72 div 1 add mul TR[
matrix currentmatrix{A A round sub abs 0.00001 lt{round}if}forall round
exch round exch]setmatrix}N/@landscape{/isls true N}B/@manualfeed{
statusdict/manualfeed true put}B/@copies{/#copies X}B/FMat[1 0 0 -1 0 0]
N/FBB[0 0 0 0]N/nn 0 N/IEn 0 N/ctr 0 N/df-tail{/nn 8 dict N nn begin
/FontType 3 N/FontMatrix fntrx N/FontBBox FBB N string/base X array
/BitMaps X/BuildChar{CharBuilder}N/Encoding IEn N end A{/foo setfont}2
array copy cvx N load 0 nn put/ctr 0 N[}B/sf 0 N/df{/sf 1 N/fntrx FMat N
df-tail}B/dfs{div/sf X/fntrx[sf 0 0 sf neg 0 0]N df-tail}B/E{pop nn A
definefont setfont}B/Cw{Cd A length 5 sub get}B/Ch{Cd A length 4 sub get
}B/Cx{128 Cd A length 3 sub get sub}B/Cy{Cd A length 2 sub get 127 sub}
B/Cdx{Cd A length 1 sub get}B/Ci{Cd A type/stringtype ne{ctr get/ctr ctr
1 add N}if}B/CharBuilder{save 3 1 roll S A/base get 2 index get S
/BitMaps get S get/Cd X pop/ctr 0 N Cdx 0 Cx Cy Ch sub Cx Cw add Cy
setcachedevice Cw Ch true[1 0 0 -1 -.1 Cx sub Cy .1 sub]{Ci}imagemask
restore}B/D{/cc X A type/stringtype ne{]}if nn/base get cc ctr put nn
/BitMaps get S ctr S sf 1 ne{A A length 1 sub A 2 index S get sf div put
}if put/ctr ctr 1 add N}B/I{cc 1 add D}B/bop{userdict/bop-hook known{
bop-hook}if/SI save N @rigin 0 0 moveto/V matrix currentmatrix A 1 get A
mul exch 0 get A mul add .99 lt{/QV}{/RV}ifelse load def pop pop}N/eop{
SI restore userdict/eop-hook known{eop-hook}if showpage}N/@start{
userdict/start-hook known{start-hook}if pop/VResolution X/Resolution X
1000 div/DVImag X/IEn 256 array N 2 string 0 1 255{IEn S A 360 add 36 4
index cvrs cvn put}for pop 65781.76 div/vsize X 65781.76 div/hsize X}N
/dir 0 def/dyy{/dir 0 def}B/dyt{/dir 1 def}B/dty{/dir 2 def}B/dtt{/dir 3
def}B/p{dir 2 eq{-90 rotate show 90 rotate}{dir 3 eq{-90 rotate show 90
rotate}{show}ifelse}ifelse}N/RMat[1 0 0 -1 0 0]N/BDot 260 string N/Rx 0
N/Ry 0 N/V{}B/RV/v{/Ry X/Rx X V}B statusdict begin/product where{pop
false[(Display)(NeXT)(LaserWriter 16/600)]{A length product length le{A
length product exch 0 exch getinterval eq{pop true exit}if}{pop}ifelse}
forall}{false}ifelse end{{gsave TR -.1 .1 TR 1 1 scale Rx Ry false RMat{
BDot}imagemask grestore}}{{gsave TR -.1 .1 TR Rx Ry scale 1 1 false RMat
{BDot}imagemask grestore}}ifelse B/QV{gsave newpath transform round exch
round exch itransform moveto Rx 0 rlineto 0 Ry neg rlineto Rx neg 0
rlineto fill grestore}B/a{moveto}B/delta 0 N/tail{A/delta X 0 rmoveto}B
/M{S p delta add tail}B/b{S p tail}B/c{-4 M}B/d{-3 M}B/e{-2 M}B/f{-1 M}
B/g{0 M}B/h{1 M}B/i{2 M}B/j{3 M}B/k{4 M}B/w{0 rmoveto}B/l{p -4 w}B/m{p
-3 w}B/n{p -2 w}B/o{p -1 w}B/q{p 1 w}B/r{p 2 w}B/s{p 3 w}B/t{p 4 w}B/x{
0 S rmoveto}B/y{3 2 roll p a}B/bos{/SS save N}B/eos{SS restore}B end
%%EndProcSet
%%BeginProcSet: alt-rule.pro 0 0
%!
% Patch by TVZ
% Makes dvips files draw rules with stroke rather than fill.
% Makes narrow rules more predictable at low resolutions
% after distilling to PDF.
% May have unknown consequences for very thick rules.
% Tested only with dvips 5.85(k).
TeXDict begin
/QV {
  gsave newpath /ruleY X /ruleX X
  Rx Ry gt
  { ruleX ruleY Ry 2 div sub moveto Rx 0 rlineto Ry }
  { ruleX Rx 2 div add ruleY moveto 0 Ry neg rlineto Rx }
  ifelse
  setlinewidth 0 setlinecap stroke grestore
} bind def
end
%%EndProcSet
%%BeginProcSet: special.pro 0 0
%!
TeXDict begin/SDict 200 dict N SDict begin/@SpecialDefaults{/hs 612 N
/vs 792 N/ho 0 N/vo 0 N/hsc 1 N/vsc 1 N/ang 0 N/CLIP 0 N/rwiSeen false N
/rhiSeen false N/letter{}N/note{}N/a4{}N/legal{}N}B/@scaleunit 100 N
/@hscale{@scaleunit div/hsc X}B/@vscale{@scaleunit div/vsc X}B/@hsize{
/hs X/CLIP 1 N}B/@vsize{/vs X/CLIP 1 N}B/@clip{/CLIP 2 N}B/@hoffset{/ho
X}B/@voffset{/vo X}B/@angle{/ang X}B/@rwi{10 div/rwi X/rwiSeen true N}B
/@rhi{10 div/rhi X/rhiSeen true N}B/@llx{/llx X}B/@lly{/lly X}B/@urx{
/urx X}B/@ury{/ury X}B/magscale true def end/@MacSetUp{userdict/md known
{userdict/md get type/dicttype eq{userdict begin md length 10 add md
maxlength ge{/md md dup length 20 add dict copy def}if end md begin
/letter{}N/note{}N/legal{}N/od{txpose 1 0 mtx defaultmatrix dtransform S
atan/pa X newpath clippath mark{transform{itransform moveto}}{transform{
itransform lineto}}{6 -2 roll transform 6 -2 roll transform 6 -2 roll
transform{itransform 6 2 roll itransform 6 2 roll itransform 6 2 roll
curveto}}{{closepath}}pathforall newpath counttomark array astore/gc xdf
pop ct 39 0 put 10 fz 0 fs 2 F/|______Courier fnt invertflag{PaintBlack}
if}N/txpose{pxs pys scale ppr aload pop por{noflips{pop S neg S TR pop 1
-1 scale}if xflip yflip and{pop S neg S TR 180 rotate 1 -1 scale ppr 3
get ppr 1 get neg sub neg ppr 2 get ppr 0 get neg sub neg TR}if xflip
yflip not and{pop S neg S TR pop 180 rotate ppr 3 get ppr 1 get neg sub
neg 0 TR}if yflip xflip not and{ppr 1 get neg ppr 0 get neg TR}if}{
noflips{TR pop pop 270 rotate 1 -1 scale}if xflip yflip and{TR pop pop
90 rotate 1 -1 scale ppr 3 get ppr 1 get neg sub neg ppr 2 get ppr 0 get
neg sub neg TR}if xflip yflip not and{TR pop pop 90 rotate ppr 3 get ppr
1 get neg sub neg 0 TR}if yflip xflip not and{TR pop pop 270 rotate ppr
2 get ppr 0 get neg sub neg 0 S TR}if}ifelse scaleby96{ppr aload pop 4
-1 roll add 2 div 3 1 roll add 2 div 2 copy TR .96 dup scale neg S neg S
TR}if}N/cp{pop pop showpage pm restore}N end}if}if}N/normalscale{
Resolution 72 div VResolution 72 div neg scale magscale{DVImag dup scale
}if 0 setgray}N/psfts{S 65781.76 div N}N/startTexFig{/psf$SavedState
save N userdict maxlength dict begin/magscale true def normalscale
currentpoint TR/psf$ury psfts/psf$urx psfts/psf$lly psfts/psf$llx psfts
/psf$y psfts/psf$x psfts currentpoint/psf$cy X/psf$cx X/psf$sx psf$x
psf$urx psf$llx sub div N/psf$sy psf$y psf$ury psf$lly sub div N psf$sx
psf$sy scale psf$cx psf$sx div psf$llx sub psf$cy psf$sy div psf$ury sub
TR/showpage{}N/erasepage{}N/setpagedevice{pop}N/copypage{}N/p 3 def
@MacSetUp}N/doclip{psf$llx psf$lly psf$urx psf$ury currentpoint 6 2 roll
newpath 4 copy 4 2 roll moveto 6 -1 roll S lineto S lineto S lineto
closepath clip newpath moveto}N/endTexFig{end psf$SavedState restore}N
/@beginspecial{SDict begin/SpecialSave save N gsave normalscale
currentpoint TR @SpecialDefaults count/ocount X/dcount countdictstack N}
N/@setspecial{CLIP 1 eq{newpath 0 0 moveto hs 0 rlineto 0 vs rlineto hs
neg 0 rlineto closepath clip}if ho vo TR hsc vsc scale ang rotate
rwiSeen{rwi urx llx sub div rhiSeen{rhi ury lly sub div}{dup}ifelse
scale llx neg lly neg TR}{rhiSeen{rhi ury lly sub div dup scale llx neg
lly neg TR}if}ifelse CLIP 2 eq{newpath llx lly moveto urx lly lineto urx
ury lineto llx ury lineto closepath clip}if/showpage{}N/erasepage{}N
/setpagedevice{pop}N/copypage{}N newpath}N/@endspecial{count ocount sub{
pop}repeat countdictstack dcount sub{end}repeat grestore SpecialSave
restore end}N/@defspecial{SDict begin}N/@fedspecial{end}B/li{lineto}B
/rl{rlineto}B/rc{rcurveto}B/np{/SaveX currentpoint/SaveY X N 1
setlinecap newpath}N/st{stroke SaveX SaveY moveto}N/fil{fill SaveX SaveY
moveto}N/ellipse{/endangle X/startangle X/yrad X/xrad X/savematrix
matrix currentmatrix N TR xrad yrad scale 0 0 1 startangle endangle arc
savematrix setmatrix}N end
%%EndProcSet
%%BeginProcSet: color.pro 0 0
%!
TeXDict begin/setcmykcolor where{pop}{/setcmykcolor{dup 10 eq{pop
setrgbcolor}{1 sub 4 1 roll 3{3 index add neg dup 0 lt{pop 0}if 3 1 roll
}repeat setrgbcolor pop}ifelse}B}ifelse/TeXcolorcmyk{setcmykcolor}def
/TeXcolorrgb{setrgbcolor}def/TeXcolorgrey{setgray}def/TeXcolorgray{
setgray}def/TeXcolorhsb{sethsbcolor}def/currentcmykcolor where{pop}{
/currentcmykcolor{currentrgbcolor 10}B}ifelse/DC{exch dup userdict exch
known{pop pop}{X}ifelse}B/GreenYellow{0.15 0 0.69 0 setcmykcolor}DC
/Yellow{0 0 1 0 setcmykcolor}DC/Goldenrod{0 0.10 0.84 0 setcmykcolor}DC
/Dandelion{0 0.29 0.84 0 setcmykcolor}DC/Apricot{0 0.32 0.52 0
setcmykcolor}DC/Peach{0 0.50 0.70 0 setcmykcolor}DC/Melon{0 0.46 0.50 0
setcmykcolor}DC/YellowOrange{0 0.42 1 0 setcmykcolor}DC/Orange{0 0.61
0.87 0 setcmykcolor}DC/BurntOrange{0 0.51 1 0 setcmykcolor}DC
/Bittersweet{0 0.75 1 0.24 setcmykcolor}DC/RedOrange{0 0.77 0.87 0
setcmykcolor}DC/Mahogany{0 0.85 0.87 0.35 setcmykcolor}DC/Maroon{0 0.87
0.68 0.32 setcmykcolor}DC/BrickRed{0 0.89 0.94 0.28 setcmykcolor}DC/Red{
0 1 1 0 setcmykcolor}DC/OrangeRed{0 1 0.50 0 setcmykcolor}DC/RubineRed{
0 1 0.13 0 setcmykcolor}DC/WildStrawberry{0 0.96 0.39 0 setcmykcolor}DC
/Salmon{0 0.53 0.38 0 setcmykcolor}DC/CarnationPink{0 0.63 0 0
setcmykcolor}DC/Magenta{0 1 0 0 setcmykcolor}DC/VioletRed{0 0.81 0 0
setcmykcolor}DC/Rhodamine{0 0.82 0 0 setcmykcolor}DC/Mulberry{0.34 0.90
0 0.02 setcmykcolor}DC/RedViolet{0.07 0.90 0 0.34 setcmykcolor}DC
/Fuchsia{0.47 0.91 0 0.08 setcmykcolor}DC/Lavender{0 0.48 0 0
setcmykcolor}DC/Thistle{0.12 0.59 0 0 setcmykcolor}DC/Orchid{0.32 0.64 0
0 setcmykcolor}DC/DarkOrchid{0.40 0.80 0.20 0 setcmykcolor}DC/Purple{
0.45 0.86 0 0 setcmykcolor}DC/Plum{0.50 1 0 0 setcmykcolor}DC/Violet{
0.79 0.88 0 0 setcmykcolor}DC/RoyalPurple{0.75 0.90 0 0 setcmykcolor}DC
/BlueViolet{0.86 0.91 0 0.04 setcmykcolor}DC/Periwinkle{0.57 0.55 0 0
setcmykcolor}DC/CadetBlue{0.62 0.57 0.23 0 setcmykcolor}DC
/CornflowerBlue{0.65 0.13 0 0 setcmykcolor}DC/MidnightBlue{0.98 0.13 0
0.43 setcmykcolor}DC/NavyBlue{0.94 0.54 0 0 setcmykcolor}DC/RoyalBlue{1
0.50 0 0 setcmykcolor}DC/Blue{1 1 0 0 setcmykcolor}DC/Cerulean{0.94 0.11
0 0 setcmykcolor}DC/Cyan{1 0 0 0 setcmykcolor}DC/ProcessBlue{0.96 0 0 0
setcmykcolor}DC/SkyBlue{0.62 0 0.12 0 setcmykcolor}DC/Turquoise{0.85 0
0.20 0 setcmykcolor}DC/TealBlue{0.86 0 0.34 0.02 setcmykcolor}DC
/Aquamarine{0.82 0 0.30 0 setcmykcolor}DC/BlueGreen{0.85 0 0.33 0
setcmykcolor}DC/Emerald{1 0 0.50 0 setcmykcolor}DC/JungleGreen{0.99 0
0.52 0 setcmykcolor}DC/SeaGreen{0.69 0 0.50 0 setcmykcolor}DC/Green{1 0
1 0 setcmykcolor}DC/ForestGreen{0.91 0 0.88 0.12 setcmykcolor}DC
/PineGreen{0.92 0 0.59 0.25 setcmykcolor}DC/LimeGreen{0.50 0 1 0
setcmykcolor}DC/YellowGreen{0.44 0 0.74 0 setcmykcolor}DC/SpringGreen{
0.26 0 0.76 0 setcmykcolor}DC/OliveGreen{0.64 0 0.95 0.40 setcmykcolor}
DC/RawSienna{0 0.72 1 0.45 setcmykcolor}DC/Sepia{0 0.83 1 0.70
setcmykcolor}DC/Brown{0 0.81 1 0.60 setcmykcolor}DC/Tan{0.14 0.42 0.56 0
setcmykcolor}DC/Gray{0 0 0 0.50 setcmykcolor}DC/Black{0 0 0 1
setcmykcolor}DC/White{0 0 0 0 setcmykcolor}DC end
%%EndProcSet
TeXDict begin 40258437 52099154 1000 8000 8000
(fig2ps-env02_onePass.dvi)
@start end
%%EndProlog
%%BeginSetup
%%Feature: *Resolution 8000dpi
TeXDict begin
 end
%%EndSetup
TeXDict begin 1 0 bop Black Black 8524 102069 a @beginspecial
0 @llx 0 @lly 866 @urx 866 @ury 8660 @rwi @setspecial
%%BeginDocument: fig2ps-env02_onePass.pstex
%!PS-Adobe-3.0 EPSF-3.0
%%Title: fig2ps-env02_onePass.fig2
%%Creator: fig2dev Version 3.2 Patchlevel 5e
%%CreationDate: Thu Feb  7 00:29:32 2019
%%BoundingBox: 0 0 866 866
%Magnification: 1.0000
%%EndComments
%%BeginProlog
/$F2psDict 200 dict def
$F2psDict begin
$F2psDict /mtrx matrix put
/col-1 {0 setgray} bind def
/col0 {0.000 0.000 0.000 srgb} bind def
/col1 {0.000 0.000 1.000 srgb} bind def
/col2 {0.000 1.000 0.000 srgb} bind def
/col3 {0.000 1.000 1.000 srgb} bind def
/col4 {1.000 0.000 0.000 srgb} bind def
/col5 {1.000 0.000 1.000 srgb} bind def
/col6 {1.000 1.000 0.000 srgb} bind def
/col7 {1.000 1.000 1.000 srgb} bind def
/col8 {0.000 0.000 0.560 srgb} bind def
/col9 {0.000 0.000 0.690 srgb} bind def
/col10 {0.000 0.000 0.820 srgb} bind def
/col11 {0.530 0.810 1.000 srgb} bind def
/col12 {0.000 0.560 0.000 srgb} bind def
/col13 {0.000 0.690 0.000 srgb} bind def
/col14 {0.000 0.820 0.000 srgb} bind def
/col15 {0.000 0.560 0.560 srgb} bind def
/col16 {0.000 0.690 0.690 srgb} bind def
/col17 {0.000 0.820 0.820 srgb} bind def
/col18 {0.560 0.000 0.000 srgb} bind def
/col19 {0.690 0.000 0.000 srgb} bind def
/col20 {0.820 0.000 0.000 srgb} bind def
/col21 {0.560 0.000 0.560 srgb} bind def
/col22 {0.690 0.000 0.690 srgb} bind def
/col23 {0.820 0.000 0.820 srgb} bind def
/col24 {0.500 0.190 0.000 srgb} bind def
/col25 {0.630 0.250 0.000 srgb} bind def
/col26 {0.750 0.380 0.000 srgb} bind def
/col27 {1.000 0.500 0.500 srgb} bind def
/col28 {1.000 0.630 0.630 srgb} bind def
/col29 {1.000 0.750 0.750 srgb} bind def
/col30 {1.000 0.880 0.880 srgb} bind def
/col31 {1.000 0.840 0.000 srgb} bind def
/col32 {0.306 0.773 0.925 srgb} bind def
/col33 {0.498 0.000 0.000 srgb} bind def
/col34 {0.498 0.122 0.122 srgb} bind def
/col35 {0.624 0.871 0.945 srgb} bind def
/col36 {0.698 0.698 0.698 srgb} bind def
/col37 {0.749 0.000 0.000 srgb} bind def
end
/cp {closepath} bind def
/ef {eofill} bind def
/gr {grestore} bind def
/gs {gsave} bind def
/sa {save} bind def
/rs {restore} bind def
/l {lineto} bind def
/m {moveto} bind def
/rm {rmoveto} bind def
/n {newpath} bind def
/s {stroke} bind def
/sh {show} bind def
/slc {setlinecap} bind def
/slj {setlinejoin} bind def
/slw {setlinewidth} bind def
/srgb {setrgbcolor} bind def
/rot {rotate} bind def
/sc {scale} bind def
/sd {setdash} bind def
/ff {findfont} bind def
/sf {setfont} bind def
/scf {scalefont} bind def
/sw {stringwidth} bind def
/tr {translate} bind def
/tnt {dup dup currentrgbcolor
  4 -2 roll dup 1 exch sub 3 -1 roll mul add
  4 -2 roll dup 1 exch sub 3 -1 roll mul add
  4 -2 roll dup 1 exch sub 3 -1 roll mul add srgb}
  bind def
/shd {dup dup currentrgbcolor 4 -2 roll mul 4 -2 roll mul
  4 -2 roll mul srgb} bind def
 /DrawEllipse {
	/endangle exch def
	/startangle exch def
	/yrad exch def
	/xrad exch def
	/y exch def
	/x exch def
	/savematrix mtrx currentmatrix def
	x y tr xrad yrad sc 0 0 1 startangle endangle arc
	closepath
	savematrix setmatrix
	} def
/$F2psBegin {$F2psDict begin /$F2psEnteredState save def} def
/$F2psEnd {$F2psEnteredState restore end} def
/pageheader {
save
newpath 0 866 moveto 0 0 lineto 866 0 lineto 866 866 lineto closepath clip newpath
72.7 73.1 translate
1 -1 scale
$F2psBegin
10 setmiterlimit
0 slj 0 slc
 0.06000 0.06000 sc
} bind def
/pagefooter {
$F2psEnd
restore
} bind def
%%EndProlog
pageheader
%
% Fig objects follow
%
% 
% here starts figure with depth 50
% Polyline
1 slj
0 slc
7.500 slw
n -1200 1200 m -1200 -13200 l 13200 -13200 l 13200 1200 l
 cp gs 0.00 setgray ef gr gs col0 s gr 
% Polyline
n -1050 1050 m -975 -13050 l 13050 -13050 l 13050 975 l
 cp gs col7 1.00 shd ef gr gs col7 s gr 
% Polyline
n 368 -3293 m 7831 -3293 l 7831 -253 l 368 -253 l
 cp gs col36 1.00 shd ef gr gs col36 s gr 
% Polyline
n 368 -11516 m 7831 -11516 l 7831 -8291 l 368 -8291 l
 cp gs col36 1.00 shd ef gr gs col36 s gr 
% Polyline
n 7854 -11516 m 11631 -11516 l 11631 -253 l 7854 -253 l
 cp gs col36 1.00 shd ef gr gs col36 s gr 
% Polyline
n 368 -3293 m 807 -3293 l 807 -253 l 368 -253 l
 cp gs col32 1.00 shd ef gr gs col32 s gr 
% Polyline
n 807 -3293 m 1246 -3293 l 1246 -253 l 807 -253 l
 cp gs col35 1.00 shd ef gr gs col35 s gr 
% Polyline
n 1246 -3293 m 1685 -3293 l 1685 -253 l 1246 -253 l
 cp gs col32 1.00 shd ef gr gs col32 s gr 
% Polyline
n 1685 -3293 m 2124 -3293 l 2124 -253 l 1685 -253 l
 cp gs col35 1.00 shd ef gr gs col35 s gr 
% Polyline
n 2124 -3293 m 2563 -3293 l 2563 -253 l 2124 -253 l
 cp gs col32 1.00 shd ef gr gs col32 s gr 
% Polyline
n 2563 -3293 m 3002 -3293 l 3002 -253 l 2563 -253 l
 cp gs col35 1.00 shd ef gr gs col35 s gr 
% Polyline
n 3002 -3293 m 3441 -3293 l 3441 -253 l 3002 -253 l
 cp gs col32 1.00 shd ef gr gs col32 s gr 
% Polyline
n 3441 -3293 m 3880 -3293 l 3880 -253 l 3441 -253 l
 cp gs col35 1.00 shd ef gr gs col35 s gr 
% Polyline
n 3880 -3293 m 4319 -3293 l 4319 -253 l 3880 -253 l
 cp gs col32 1.00 shd ef gr gs col32 s gr 
% Polyline
n 4319 -3293 m 4758 -3293 l 4758 -253 l 4319 -253 l
 cp gs col35 1.00 shd ef gr gs col35 s gr 
% Polyline
n 4758 -3293 m 5197 -3293 l 5197 -253 l 4758 -253 l
 cp gs col32 1.00 shd ef gr gs col32 s gr 
% Polyline
n 5197 -3293 m 5636 -3293 l 5636 -253 l 5197 -253 l
 cp gs col35 1.00 shd ef gr gs col35 s gr 
% Polyline
n 5636 -3293 m 6075 -3293 l 6075 -253 l 5636 -253 l
 cp gs col32 1.00 shd ef gr gs col32 s gr 
% Polyline
n 6075 -3293 m 6514 -3293 l 6514 -253 l 6075 -253 l
 cp gs col35 1.00 shd ef gr gs col35 s gr 
% Polyline
n 6514 -3293 m 6953 -3293 l 6953 -253 l 6514 -253 l
 cp gs col32 1.00 shd ef gr gs col32 s gr 
% Polyline
n 6953 -3293 m 7392 -3293 l 7392 -253 l 6953 -253 l
 cp gs col35 1.00 shd ef gr gs col35 s gr 
% Polyline
n 7392 -3293 m 7831 -3293 l 7831 -253 l 7392 -253 l
 cp gs col32 1.00 shd ef gr gs col32 s gr 
% Polyline
n 368 -11516 m 807 -11516 l 807 -8291 l 368 -8291 l
 cp gs col35 1.00 shd ef gr gs col35 s gr 
% Polyline
n 807 -11516 m 1246 -11516 l 1246 -8291 l 807 -8291 l
 cp gs col32 1.00 shd ef gr gs col32 s gr 
% Polyline
n 1246 -11516 m 1685 -11516 l 1685 -8291 l 1246 -8291 l
 cp gs col35 1.00 shd ef gr gs col35 s gr 
% Polyline
n 1685 -11516 m 2124 -11516 l 2124 -8291 l 1685 -8291 l
 cp gs col32 1.00 shd ef gr gs col32 s gr 
% Polyline
n 2124 -11516 m 2563 -11516 l 2563 -8291 l 2124 -8291 l
 cp gs col35 1.00 shd ef gr gs col35 s gr 
% Polyline
n 2563 -11516 m 3002 -11516 l 3002 -8291 l 2563 -8291 l
 cp gs col32 1.00 shd ef gr gs col32 s gr 
% Polyline
n 3002 -11516 m 3441 -11516 l 3441 -8291 l 3002 -8291 l
 cp gs col35 1.00 shd ef gr gs col35 s gr 
% Polyline
n 3441 -11516 m 3880 -11516 l 3880 -8291 l 3441 -8291 l
 cp gs col32 1.00 shd ef gr gs col32 s gr 
% Polyline
n 3880 -11516 m 4319 -11516 l 4319 -8291 l 3880 -8291 l
 cp gs col35 1.00 shd ef gr gs col35 s gr 
% Polyline
n 4319 -11516 m 4758 -11516 l 4758 -8291 l 4319 -8291 l
 cp gs col32 1.00 shd ef gr gs col32 s gr 
% Polyline
n 4758 -11516 m 5197 -11516 l 5197 -8291 l 4758 -8291 l
 cp gs col35 1.00 shd ef gr gs col35 s gr 
% Polyline
n 5197 -11516 m 5636 -11516 l 5636 -8291 l 5197 -8291 l
 cp gs col32 1.00 shd ef gr gs col32 s gr 
% Polyline
n 5636 -11516 m 6075 -11516 l 6075 -8291 l 5636 -8291 l
 cp gs col35 1.00 shd ef gr gs col35 s gr 
% Polyline
n 6075 -11516 m 6514 -11516 l 6514 -8291 l 6075 -8291 l
 cp gs col32 1.00 shd ef gr gs col32 s gr 
% Polyline
n 6514 -11516 m 6953 -11516 l 6953 -8291 l 6514 -8291 l
 cp gs col35 1.00 shd ef gr gs col35 s gr 
% Polyline
n 6953 -11516 m 7392 -11516 l 7392 -8291 l 6953 -8291 l
 cp gs col32 1.00 shd ef gr gs col32 s gr 
% Polyline
n 7392 -11516 m 7831 -11516 l 7831 -8291 l 7392 -8291 l
 cp gs col35 1.00 shd ef gr gs col35 s gr 
% Polyline
n 7854 -11516 m 8273 -11516 l 8273 -253 l 7854 -253 l
 cp gs col32 1.00 shd ef gr gs col32 s gr 
% Polyline
n 8273 -11516 m 8693 -11516 l 8693 -253 l 8273 -253 l
 cp gs col35 1.00 shd ef gr gs col35 s gr 
% Polyline
n 8693 -11516 m 9113 -11516 l 9113 -253 l 8693 -253 l
 cp gs col32 1.00 shd ef gr gs col32 s gr 
% Polyline
n 9113 -11516 m 9532 -11516 l 9532 -253 l 9113 -253 l
 cp gs col35 1.00 shd ef gr gs col35 s gr 
% Polyline
n 9532 -11516 m 9952 -11516 l 9952 -253 l 9532 -253 l
 cp gs col32 1.00 shd ef gr gs col32 s gr 
% Polyline
n 9952 -11516 m 10372 -11516 l 10372 -253 l 9952 -253 l
 cp gs col35 1.00 shd ef gr gs col35 s gr 
% Polyline
n 10372 -11516 m 10792 -11516 l 10792 -253 l 10372 -253 l
 cp gs col32 1.00 shd ef gr gs col32 s gr 
% Polyline
n 10792 -11516 m 11211 -11516 l 11211 -253 l 10792 -253 l
 cp gs col35 1.00 shd ef gr gs col35 s gr 
% Polyline
n 11211 -11516 m 11631 -11516 l 11631 -253 l 11211 -253 l
 cp gs col32 1.00 shd ef gr gs col32 s gr 
% Ellipse
n 9742 -11516 115 115 0 360 DrawEllipse gs col4 1.00 shd ef gr gs col4 s gr
% Polyline
n 368 -3293 m 7831 -3293 l 7831 -253 l 368 -253 l
 cp gs col0 s gr 
% Polyline
n 368 -11516 m 7831 -11516 l 7831 -8291 l 368 -8291 l
 cp gs col0 s gr 
% Polyline
n 7854 -11516 m 11631 -11516 l 11631 -253 l 7854 -253 l
 cp gs col0 s gr 
% Polyline
n 368 -3293 m 807 -3293 l 807 -253 l 368 -253 l
 cp gs col0 s gr 
% Polyline
n 807 -3293 m 1246 -3293 l 1246 -253 l 807 -253 l
 cp gs col0 s gr 
% Polyline
n 1246 -3293 m 1685 -3293 l 1685 -253 l 1246 -253 l
 cp gs col0 s gr 
% Polyline
n 1685 -3293 m 2124 -3293 l 2124 -253 l 1685 -253 l
 cp gs col0 s gr 
% Polyline
n 2124 -3293 m 2563 -3293 l 2563 -253 l 2124 -253 l
 cp gs col0 s gr 
% Polyline
n 2563 -3293 m 3002 -3293 l 3002 -253 l 2563 -253 l
 cp gs col0 s gr 
% Polyline
n 3002 -3293 m 3441 -3293 l 3441 -253 l 3002 -253 l
 cp gs col0 s gr 
% Polyline
n 3441 -3293 m 3880 -3293 l 3880 -253 l 3441 -253 l
 cp gs col0 s gr 
% Polyline
n 3880 -3293 m 4319 -3293 l 4319 -253 l 3880 -253 l
 cp gs col0 s gr 
% Polyline
n 4319 -3293 m 4758 -3293 l 4758 -253 l 4319 -253 l
 cp gs col0 s gr 
% Polyline
n 4758 -3293 m 5197 -3293 l 5197 -253 l 4758 -253 l
 cp gs col0 s gr 
% Polyline
n 5197 -3293 m 5636 -3293 l 5636 -253 l 5197 -253 l
 cp gs col0 s gr 
% Polyline
n 5636 -3293 m 6075 -3293 l 6075 -253 l 5636 -253 l
 cp gs col0 s gr 
% Polyline
n 6075 -3293 m 6514 -3293 l 6514 -253 l 6075 -253 l
 cp gs col0 s gr 
% Polyline
n 6514 -3293 m 6953 -3293 l 6953 -253 l 6514 -253 l
 cp gs col0 s gr 
% Polyline
n 6953 -3293 m 7392 -3293 l 7392 -253 l 6953 -253 l
 cp gs col0 s gr 
% Polyline
n 7392 -3293 m 7831 -3293 l 7831 -253 l 7392 -253 l
 cp gs col0 s gr 
% Polyline
n 368 -11516 m 807 -11516 l 807 -8291 l 368 -8291 l
 cp gs col0 s gr 
% Polyline
n 807 -11516 m 1246 -11516 l 1246 -8291 l 807 -8291 l
 cp gs col0 s gr 
% Polyline
n 1246 -11516 m 1685 -11516 l 1685 -8291 l 1246 -8291 l
 cp gs col0 s gr 
% Polyline
n 1685 -11516 m 2124 -11516 l 2124 -8291 l 1685 -8291 l
 cp gs col0 s gr 
% Polyline
n 2124 -11516 m 2563 -11516 l 2563 -8291 l 2124 -8291 l
 cp gs col0 s gr 
% Polyline
n 2563 -11516 m 3002 -11516 l 3002 -8291 l 2563 -8291 l
 cp gs col0 s gr 
% Polyline
n 3002 -11516 m 3441 -11516 l 3441 -8291 l 3002 -8291 l
 cp gs col0 s gr 
% Polyline
n 3441 -11516 m 3880 -11516 l 3880 -8291 l 3441 -8291 l
 cp gs col0 s gr 
% Polyline
n 3880 -11516 m 4319 -11516 l 4319 -8291 l 3880 -8291 l
 cp gs col0 s gr 
% Polyline
n 4319 -11516 m 4758 -11516 l 4758 -8291 l 4319 -8291 l
 cp gs col0 s gr 
% Polyline
n 4758 -11516 m 5197 -11516 l 5197 -8291 l 4758 -8291 l
 cp gs col0 s gr 
% Polyline
n 5197 -11516 m 5636 -11516 l 5636 -8291 l 5197 -8291 l
 cp gs col0 s gr 
% Polyline
n 5636 -11516 m 6075 -11516 l 6075 -8291 l 5636 -8291 l
 cp gs col0 s gr 
% Polyline
n 6075 -11516 m 6514 -11516 l 6514 -8291 l 6075 -8291 l
 cp gs col0 s gr 
% Polyline
n 6514 -11516 m 6953 -11516 l 6953 -8291 l 6514 -8291 l
 cp gs col0 s gr 
% Polyline
n 6953 -11516 m 7392 -11516 l 7392 -8291 l 6953 -8291 l
 cp gs col0 s gr 
% Polyline
n 7392 -11516 m 7831 -11516 l 7831 -8291 l 7392 -8291 l
 cp gs col0 s gr 
% Polyline
n 7854 -11516 m 8273 -11516 l 8273 -253 l 7854 -253 l
 cp gs col0 s gr 
% Polyline
n 8273 -11516 m 8693 -11516 l 8693 -253 l 8273 -253 l
 cp gs col0 s gr 
% Polyline
n 8693 -11516 m 9113 -11516 l 9113 -253 l 8693 -253 l
 cp gs col0 s gr 
% Polyline
n 9113 -11516 m 9532 -11516 l 9532 -253 l 9113 -253 l
 cp gs col0 s gr 
% Polyline
n 9532 -11516 m 9952 -11516 l 9952 -253 l 9532 -253 l
 cp gs col0 s gr 
% Polyline
n 9952 -11516 m 10372 -11516 l 10372 -253 l 9952 -253 l
 cp gs col0 s gr 
% Polyline
n 10372 -11516 m 10792 -11516 l 10792 -253 l 10372 -253 l
 cp gs col0 s gr 
% Polyline
n 10792 -11516 m 11211 -11516 l 11211 -253 l 10792 -253 l
 cp gs col0 s gr 
% Polyline
n 11211 -11516 m 11631 -11516 l 11631 -253 l 11211 -253 l
 cp gs col0 s gr 
% Polyline
60.000 slw
n 9743 -11545 m 9747 -11591 l 9755 -11636 l 9766 -11681 l 9781 -11724 l 9800 -11767 l
 9822 -11807 l 9846 -11846 l 9874 -11883 l 9905 -11917 l 9938 -11949 l
 9974 -11978 l 10012 -12004 l 10052 -12027 l 10094 -12046 l 10137 -12062 l
 10181 -12075 l 10226 -12084 l 10272 -12090 l 10318 -12092 l 10426 -12092 l
 10455 -12091 l 10501 -12087 l 10546 -12079 l 10591 -12067 l 10634 -12052 l
 10676 -12034 l 10717 -12012 l 10756 -11988 l 10792 -11960 l 10827 -11929 l
 10859 -11895 l 10887 -11860 l 10913 -11822 l 10936 -11782 l 10956 -11740 l
 10972 -11697 l 10985 -11653 l 10994 -11608 l 11000 -11562 l 11001 -11516 l
 11001 -253 l 11002 -241 l 11004 -195 l 11011 -150 l 11021 -105 l
 11034 -61 l 11051 -18 l 11072 22 l 11096 62 l 11122 99 l
 11152 134 l 11184 167 l 11210 192 l 11240 227 l 11267 264 l
 11292 303 l 11313 344 l 11331 386 l 11345 430 l 11356 475 l
 11363 520 l 11367 566 l 11367 612 l 11363 658 l 11356 703 l
 11345 748 l 11330 792 l 11312 834 l 11291 875 l 11266 914 l
 11239 951 l 11208 986 l 11175 1018 l 11140 1047 l 11102 1073 l
 11062 1096 l 11021 1116 l 10978 1133 l 10934 1146 l 10889 1156 l
 10843 1162 l 10797 1164 l 10751 1163 l 10705 1157 l 10660 1149 l
 10615 1136 l 10572 1121 l 10530 1101 l 10490 1079 l 10452 1053 l
 10416 1025 l 10382 993 l 10351 959 l 10323 923 l 10298 884 l
 10276 844 l 10257 802 l 10241 758 l 10230 714 l 10221 669 l
 10217 623 l 10216 577 l 10219 531 l 10225 485 l 10235 440 l
 10249 396 l 10266 353 l 10286 312 l 10310 273 l 10337 235 l
 10366 200 l 10399 167 l 10407 159 l 10439 126 l 10468 90 l
 10494 52 l 10517 12 l 10536 -29 l 10552 -72 l 10565 -116 l
 10574 -161 l 10580 -207 l 10582 -253 l 10582 -11516 l 10581 -11545 l
 10577 -11591 l 10569 -11636 l 10558 -11681 l 10543 -11724 l 10524 -11767 l
 10502 -11807 l 10478 -11846 l 10450 -11883 l 10419 -11917 l 10386 -11949 l
 10350 -11978 l 10312 -12004 l 10272 -12027 l 10230 -12046 l 10187 -12062 l
 10143 -12075 l 10098 -12084 l 10052 -12090 l 10006 -12092 l 9898 -12092 l
 9869 -12091 l 9823 -12087 l 9778 -12079 l 9733 -12067 l 9690 -12052 l
 9648 -12034 l 9607 -12012 l 9568 -11988 l 9532 -11960 l 9497 -11929 l
 9466 -11895 l 9437 -11860 l 9411 -11822 l 9388 -11782 l 9368 -11740 l
 9352 -11697 l 9339 -11653 l 9330 -11608 l 9324 -11562 l 9323 -11516 l
 9323 -253 l 9322 -224 l 9318 -178 l 9310 -132 l 9298 -88 l
 9283 -44 l 9265 -2 l 9243 38 l 9218 76 l 9191 113 l
 9160 147 l 9126 179 l 9091 208 l 9053 234 l 9013 257 l
 8971 277 l 8928 293 l 8884 305 l 8839 315 l 8793 320 l
 8747 322 l 8639 322 l 8610 321 l 8564 317 l 8519 309 l
 8474 298 l 8431 283 l 8388 264 l 8348 243 l 8309 218 l
 8272 190 l 8238 159 l 8206 126 l 8177 90 l 8151 52 l
 8129 12 l 8109 -29 l 8093 -72 l 8080 -116 l 8071 -161 l
 8065 -207 l 8063 -253 l 8063 -11516 l 8063 -11545 l 8059 -11591 l
 8051 -11636 l 8039 -11681 l 8024 -11724 l 8006 -11767 l 7984 -11807 l
 7959 -11846 l 7931 -11883 l 7901 -11917 l 7867 -11949 l 7832 -11978 l
 7794 -12004 l 7754 -12027 l 7712 -12046 l 7669 -12062 l 7625 -12075 l
 7579 -12084 l 7534 -12090 l 7488 -12092 l 7309 -12092 l 7280 -12091 l
 7234 -12087 l 7188 -12079 l 7144 -12067 l 7100 -12052 l 7058 -12034 l
 7017 -12012 l 6979 -11988 l 6942 -11960 l 6908 -11929 l 6876 -11895 l
 6847 -11860 l 6821 -11822 l 6798 -11782 l 6779 -11740 l 6762 -11697 l
 6750 -11653 l 6741 -11608 l 6735 -11562 l 6733 -11516 l 6733 -8291 l
 6732 -8262 l 6728 -8216 l 6720 -8171 l 6709 -8126 l 6694 -8083 l
 6676 -8040 l 6654 -8000 l 6629 -7961 l 6601 -7924 l 6570 -7890 l
 6537 -7858 l 6501 -7829 l 6463 -7803 l 6423 -7781 l 6382 -7761 l
 6338 -7745 l 6294 -7732 l 6249 -7723 l 6203 -7717 l 6157 -7715 l
 5992 -7715 l 5963 -7716 l 5917 -7720 l 5872 -7728 l 5827 -7740 l
 5783 -7755 l 5741 -7773 l 5701 -7795 l 5662 -7820 l 5625 -7847 l
 5591 -7878 l 5559 -7912 l 5530 -7947 l 5504 -7985 l 5481 -8025 l
 5462 -8067 l 5445 -8110 l 5433 -8154 l 5424 -8200 l 5418 -8245 l
 5416 -8291 l 5416 -11516 l 5415 -11545 l 5411 -11591 l 5403 -11636 l
 5392 -11681 l 5377 -11724 l 5359 -11767 l 5337 -11807 l 5312 -11846 l
 5284 -11883 l 5253 -11917 l 5220 -11949 l 5184 -11978 l 5146 -12004 l
 5106 -12027 l 5065 -12046 l 5022 -12062 l 4977 -12075 l 4932 -12084 l
 4886 -12090 l 4840 -12092 l 4675 -12092 l 4646 -12091 l 4600 -12087 l
 4555 -12079 l 4510 -12067 l 4466 -12052 l 4424 -12034 l 4384 -12012 l
 4345 -11988 l 4308 -11960 l 4274 -11929 l 4242 -11895 l 4213 -11860 l
 4187 -11822 l 4164 -11782 l 4145 -11740 l 4129 -11697 l 4116 -11653 l
 4107 -11608 l 4101 -11562 l 4099 -11516 l 4099 -8291 l 4099 -8262 l
 4094 -8216 l 4087 -8171 l 4075 -8126 l 4060 -8083 l 4042 -8040 l
 4020 -8000 l 3995 -7961 l 3967 -7924 l 3937 -7890 l 3903 -7858 l
 3867 -7829 l 3829 -7803 l 3789 -7781 l 3748 -7761 l 3705 -7745 l
 3660 -7732 l 3615 -7723 l 3570 -7717 l 3523 -7715 l 3358 -7715 l
 3329 -7716 l 3283 -7720 l 3238 -7728 l 3193 -7740 l 3150 -7755 l
 3107 -7773 l 3067 -7795 l 3028 -7820 l 2991 -7847 l 2957 -7878 l
 2925 -7912 l 2896 -7947 l 2870 -7985 l 2847 -8025 l 2828 -8067 l
 2812 -8110 l 2799 -8154 l 2790 -8200 l 2784 -8245 l 2782 -8291 l
 2782 -11516 l 2782 -11545 l 2777 -11591 l 2770 -11636 l 2758 -11681 l
 2743 -11724 l 2725 -11767 l 2703 -11807 l 2678 -11846 l 2650 -11883 l
 2620 -11917 l 2586 -11949 l 2550 -11978 l 2512 -12004 l 2472 -12027 l
 2431 -12046 l 2388 -12062 l 2343 -12075 l 2298 -12084 l 2253 -12090 l
 2207 -12092 l 2041 -12092 l 2012 -12091 l 1966 -12087 l 1921 -12079 l
 1876 -12067 l 1833 -12052 l 1790 -12034 l 1750 -12012 l 1711 -11988 l
 1674 -11960 l 1640 -11929 l 1608 -11895 l 1579 -11860 l 1553 -11822 l
 1531 -11782 l 1511 -11740 l 1495 -11697 l 1482 -11653 l 1473 -11608 l
 1467 -11562 l 1465 -11516 l 1465 -8291 l 1465 -8286 l 1463 -8240 l
 1029 -3344 l 1028 -3339 l 1026 -3293 l 1026 -253 l 1027 -224 l
 1031 -178 l 1039 -132 l 1051 -88 l 1066 -44 l 1084 -2 l
 1106 38 l 1131 76 l 1158 113 l 1189 147 l 1223 179 l
 1258 208 l 1296 234 l 1336 257 l 1378 277 l 1421 293 l
 1465 305 l 1511 315 l 1556 320 l 1602 322 l 1768 322 l
 1797 321 l 1843 317 l 1888 309 l 1933 298 l 1976 283 l
 2018 264 l 2059 243 l 2098 218 l 2134 190 l 2169 159 l
 2200 126 l 2229 90 l 2255 52 l 2278 12 l 2298 -29 l
 2314 -72 l 2327 -116 l 2336 -161 l 2342 -207 l 2343 -253 l
 2343 -3293 l 2344 -3322 l 2348 -3368 l 2356 -3414 l 2368 -3458 l
 2383 -3502 l 2401 -3544 l 2423 -3585 l 2448 -3623 l 2475 -3660 l
 2506 -3694 l 2540 -3726 l 2575 -3755 l 2613 -3781 l 2653 -3804 l
 2695 -3824 l 2738 -3840 l 2782 -3852 l 2827 -3862 l 2873 -3867 l
 2919 -3869 l 3085 -3869 l 3114 -3868 l 3160 -3864 l 3205 -3856 l
 3250 -3845 l 3293 -3830 l 3335 -3811 l 3376 -3790 l 3415 -3765 l
 3451 -3737 l 3486 -3706 l 3517 -3673 l 3546 -3637 l 3572 -3599 l
 3595 -3559 l 3615 -3517 l 3631 -3474 l 3644 -3430 l 3653 -3385 l
 3658 -3339 l 3660 -3293 l 3660 -253 l 3661 -224 l 3665 -178 l
 3673 -132 l 3685 -88 l 3699 -44 l 3718 -2 l 3740 38 l
 3764 76 l 3792 113 l 3823 147 l 3856 179 l 3892 208 l
 3930 234 l 3970 257 l 4012 277 l 4055 293 l 4099 305 l
 4144 315 l 4190 320 l 4236 322 l 4401 322 l 4431 321 l
 4477 317 l 4522 309 l 4567 298 l 4610 283 l 4652 264 l
 4693 243 l 4732 218 l 4768 190 l 4803 159 l 4834 126 l
 4863 90 l 4889 52 l 4912 12 l 4932 -29 l 4948 -72 l
 4961 -116 l 4970 -161 l 4975 -207 l 4977 -253 l 4977 -3293 l
 4978 -3322 l 4982 -3368 l 4990 -3414 l 5001 -3458 l 5016 -3502 l
 5035 -3544 l 5056 -3585 l 5081 -3623 l 5109 -3660 l 5140 -3694 l
 5173 -3726 l 5209 -3755 l 5247 -3781 l 5287 -3804 l 5329 -3824 l
 5372 -3840 l 5416 -3852 l 5461 -3862 l 5507 -3867 l 5553 -3869 l
 5718 -3869 l 5748 -3868 l 5793 -3864 l 5839 -3856 l 5883 -3845 l
 5927 -3830 l 5969 -3811 l 6010 -3790 l 6049 -3765 l 6085 -3737 l
 6120 -3706 l 6151 -3673 l 6180 -3637 l 6206 -3599 l 6229 -3559 l
 6249 -3517 l 6265 -3474 l 6278 -3430 l 6287 -3385 l 6292 -3339 l
 6294 -3293 l 6294 -253 l 6295 -224 l 6299 -178 l 6307 -132 l
 6318 -88 l 6333 -44 l 6352 -2 l 6373 38 l 6398 76 l
 6426 113 l 6457 147 l 6490 179 l 6526 208 l 6564 234 l
 6604 257 l 6646 277 l 6689 293 l 6733 305 l 6778 315 l
 6824 320 l 6870 322 l 7035 322 l 7065 321 l 7110 317 l
 7156 309 l 7200 298 l 7244 283 l 7286 264 l 7327 243 l
 7366 218 l 7402 190 l 7436 159 l 7468 126 l 7497 90 l
 7523 52 l 7546 12 l 7566 -29 l 7582 -72 l 7595 -116 l
 7604 -161 l 7609 -207 l 7611 -253 l 7611 -3293 l 7611 -3298 l
 7613 -3344 l 7619 -3390 l 7629 -3435 l 7642 -3479 l 7658 -3522 l
 7678 -3563 l 7702 -3603 l 7728 -3641 l 7757 -3677 l 7789 -3710 l
 7805 -3725 l 7836 -3760 l 7864 -3796 l 7888 -3835 l 7910 -3876 l
 7928 -3918 l 7943 -3961 l 7955 -4006 l 7963 -4051 l 7967 -4097 l
 7967 -4143 l 7964 -4189 l 7957 -4235 l 7947 -4280 l 7933 -4324 l
 7915 -4366 l 7894 -4407 l 7870 -4446 l 7843 -4484 l 7813 -4519 l
 7780 -4551 l 7745 -4581 l 7708 -4608 l 7668 -4631 l 7627 -4652 l
 7584 -4669 l 7540 -4682 l 7495 -4693 l 7450 -4699 l 7404 -4702 l
 7357 -4701 l 7312 -4696 l 7266 -4688 l 7222 -4676 l 7178 -4661 l
 7136 -4642 l 7096 -4620 l 7057 -4595 l 7021 -4567 l 6987 -4536 l
 6956 -4502 l 6927 -4466 l 6901 -4428 l 6879 -4388 l 6859 -4346 l
 6844 -4303 l 6831 -4258 l 6822 -4213 l 6817 -4167 l 6816 -4121 l
 6818 -4075 l 6824 -4030 l 6833 -3984 l 6847 -3940 l 6863 -3897 l
 6883 -3856 l 6906 -3816 l 6933 -3778 l 6962 -3743 l 6994 -3710 l
 6997 -3706 l 7029 -3673 l 7058 -3637 l 7084 -3599 l 7107 -3559 l
 7127 -3517 l 7143 -3474 l 7156 -3430 l 7165 -3385 l 7170 -3339 l
 7172 -3293 l 7172 -253 l 7171 -224 l 7167 -178 l 7159 -132 l
 7148 -88 l 7133 -44 l 7115 -2 l 7093 38 l 7068 76 l
 7040 113 l 7009 147 l 6976 179 l 6940 208 l 6902 234 l
 6862 257 l 6821 277 l 6777 293 l 6733 305 l 6688 315 l
 6642 320 l 6596 322 l 6431 322 l 6402 321 l 6356 317 l
 6311 309 l 6266 298 l 6222 283 l 6180 264 l 6140 243 l
 6101 218 l 6064 190 l 6030 159 l 5998 126 l 5969 90 l
 5943 52 l 5920 12 l 5901 -29 l 5884 -72 l 5872 -116 l
 5863 -161 l 5857 -207 l 5855 -253 l 5855 -3293 l 5854 -3322 l
 5850 -3368 l 5842 -3414 l 5831 -3458 l 5816 -3502 l 5798 -3544 l
 5776 -3585 l 5751 -3623 l 5723 -3660 l 5692 -3694 l 5659 -3726 l
 5623 -3755 l 5585 -3781 l 5545 -3804 l 5504 -3824 l 5461 -3840 l
 5416 -3852 l 5371 -3862 l 5325 -3867 l 5279 -3869 l 5114 -3869 l
 5085 -3868 l 5039 -3864 l 4994 -3856 l 4949 -3845 l 4905 -3830 l
 4863 -3811 l 4823 -3790 l 4784 -3765 l 4747 -3737 l 4713 -3706 l
 4681 -3673 l 4652 -3637 l 4626 -3599 l 4603 -3559 l 4584 -3517 l
 4568 -3474 l 4555 -3430 l 4546 -3385 l 4540 -3339 l 4538 -3293 l
 4538 -253 l 4538 -224 l 4533 -178 l 4526 -132 l 4514 -88 l
 4499 -44 l 4481 -2 l 4459 38 l 4434 76 l 4406 113 l
 4376 147 l 4342 179 l 4306 208 l 4268 234 l 4228 257 l
 4187 277 l 4144 293 l 4099 305 l 4054 315 l 4008 320 l
 3962 322 l 3797 322 l 3768 321 l 3722 317 l 3677 309 l
 3632 298 l 3589 283 l 3546 264 l 3506 243 l 3467 218 l
 3430 190 l 3396 159 l 3364 126 l 3335 90 l 3309 52 l
 3286 12 l 3267 -29 l 3251 -72 l 3238 -116 l 3229 -161 l
 3223 -207 l 3221 -253 l 3221 -3293 l 3221 -3322 l 3216 -3368 l
 3209 -3414 l 3197 -3458 l 3182 -3502 l 3164 -3544 l 3142 -3585 l
 3117 -3623 l 3089 -3660 l 3059 -3694 l 3025 -3726 l 2989 -3755 l
 2951 -3781 l 2911 -3804 l 2870 -3824 l 2827 -3840 l 2782 -3852 l
 2737 -3862 l 2692 -3867 l 2646 -3869 l 2480 -3869 l 2451 -3868 l
 2405 -3864 l 2360 -3856 l 2315 -3845 l 2272 -3830 l 2229 -3811 l
 2189 -3790 l 2150 -3765 l 2113 -3737 l 2079 -3706 l 2047 -3673 l
 2018 -3637 l 1992 -3599 l 1970 -3559 l 1950 -3517 l 1934 -3474 l
 1921 -3430 l 1912 -3385 l 1906 -3339 l 1904 -3293 l 1904 -253 l
 1904 -224 l 1900 -178 l 1892 -132 l 1880 -88 l 1865 -44 l
 1847 -2 l 1825 38 l 1800 76 l 1772 113 l 1742 147 l
 1708 179 l 1672 208 l 1634 234 l 1595 257 l 1553 277 l
 1510 293 l 1465 305 l 1420 315 l 1375 320 l 1329 322 l
 1163 322 l 1134 321 l 1088 317 l 1043 309 l 998 298 l
 955 283 l 912 264 l 872 243 l 833 218 l 796 190 l
 762 159 l 730 126 l 701 90 l 675 52 l 653 12 l
 633 -29 l 617 -72 l 604 -116 l 595 -161 l 589 -207 l
 588 -253 l 588 -3293 l 586 -3329 l 582 -3375 l 573 -3420 l
 561 -3465 l 546 -3508 l 527 -3550 l 505 -3591 l 479 -3629 l
 451 -3665 l 420 -3699 l 386 -3731 l 350 -3759 l 312 -3785 l
 271 -3807 l 230 -3826 l 186 -3842 l 142 -3854 l 97 -3863 l
 51 -3868 l 5 -3869 l -40 -3867 l -86 -3860 l -131 -3851 l
 -175 -3838 l -218 -3821 l -259 -3801 l -299 -3777 l -337 -3751 l
 -372 -3722 l -405 -3689 l -435 -3655 l -463 -3618 l -487 -3579 l
 -509 -3538 l -526 -3495 l -541 -3452 l -552 -3407 l -559 -3361 l
 -563 -3316 l -563 -3269 l -559 -3224 l -552 -3178 l -541 -3133 l
 336 -93 l 347 -60 l 364 -17 l 385 23 l 408 62 l
 435 100 l 465 135 l 497 168 l 532 198 l 570 225 l
 609 249 l 650 270 l 693 287 l 736 301 l 781 312 l
 827 319 l 873 322 l 919 321 l 965 317 l 1010 309 l
 1055 298 l 1098 283 l 1141 264 l 1181 243 l 1220 218 l
 1257 190 l 1291 159 l 1323 126 l 1352 90 l 1378 52 l
 1400 12 l 1420 -29 l 1436 -72 l 1449 -116 l 1458 -161 l
 1464 -207 l 1465 -253 l 1465 -3293 l 1466 -3322 l 1470 -3368 l
 1478 -3414 l 1490 -3458 l 1505 -3502 l 1523 -3544 l 1545 -3585 l
 1570 -3623 l 1597 -3660 l 1628 -3694 l 1662 -3726 l 1697 -3755 l
 1735 -3781 l 1775 -3804 l 1817 -3824 l 1860 -3840 l 1904 -3852 l
 1950 -3862 l 1995 -3867 l 2041 -3869 l 2207 -3869 l 2236 -3868 l
 2282 -3864 l 2327 -3856 l 2372 -3845 l 2415 -3830 l 2457 -3811 l
 2498 -3790 l 2537 -3765 l 2573 -3737 l 2608 -3706 l 2639 -3673 l
 2668 -3637 l 2694 -3599 l 2717 -3559 l 2737 -3517 l 2753 -3474 l
 2766 -3430 l 2775 -3385 l 2781 -3339 l 2782 -3293 l 2782 -253 l
 2783 -224 l 2787 -178 l 2795 -132 l 2807 -88 l 2822 -44 l
 2840 -2 l 2862 38 l 2886 76 l 2914 113 l 2945 147 l
 2979 179 l 3014 208 l 3052 234 l 3092 257 l 3134 277 l
 3177 293 l 3221 305 l 3266 315 l 3312 320 l 3358 322 l
 3523 322 l 3553 321 l 3599 317 l 3644 309 l 3689 298 l
 3732 283 l 3774 264 l 3815 243 l 3854 218 l 3890 190 l
 3925 159 l 3956 126 l 3985 90 l 4011 52 l 4034 12 l
 4054 -29 l 4070 -72 l 4083 -116 l 4092 -161 l 4097 -207 l
 4099 -253 l 4099 -3293 l 4100 -3322 l 4104 -3368 l 4112 -3414 l
 4123 -3458 l 4138 -3502 l 4157 -3544 l 4179 -3585 l 4203 -3623 l
 4231 -3660 l 4262 -3694 l 4295 -3726 l 4331 -3755 l 4369 -3781 l
 4409 -3804 l 4451 -3824 l 4494 -3840 l 4538 -3852 l 4583 -3862 l
 4629 -3867 l 4675 -3869 l 4840 -3869 l 4870 -3868 l 4916 -3864 l
 4961 -3856 l 5006 -3845 l 5049 -3830 l 5091 -3811 l 5132 -3790 l
 5171 -3765 l 5207 -3737 l 5242 -3706 l 5273 -3673 l 5302 -3637 l
 5328 -3599 l 5351 -3559 l 5371 -3517 l 5387 -3474 l 5400 -3430 l
 5409 -3385 l 5414 -3339 l 5416 -3293 l 5416 -253 l 5417 -224 l
 5421 -178 l 5429 -132 l 5440 -88 l 5455 -44 l 5474 -2 l
 5495 38 l 5520 76 l 5548 113 l 5579 147 l 5612 179 l
 5648 208 l 5686 234 l 5726 257 l 5768 277 l 5811 293 l
 5855 305 l 5900 315 l 5946 320 l 5992 322 l 6157 322 l
 6187 321 l 6232 317 l 6278 309 l 6322 298 l 6366 283 l
 6408 264 l 6449 243 l 6488 218 l 6524 190 l 6559 159 l
 6590 126 l 6619 90 l 6645 52 l 6668 12 l 6688 -29 l
 6704 -72 l 6717 -116 l 6726 -161 l 6731 -207 l 6733 -253 l
 6733 -3293 l 6734 -3322 l 6738 -3368 l 6746 -3413 l 6757 -3458 l
 6772 -3502 l 6791 -3544 l 6812 -3584 l 6837 -3623 l 6865 -3660 l
 6896 -3694 l 6929 -3726 l 6965 -3755 l 7003 -3781 l 7043 -3804 l
 7085 -3823 l 7128 -3840 l 7172 -3852 l 7217 -3862 l 7263 -3867 l
 7309 -3869 l 7355 -3867 l 7401 -3862 l 7446 -3853 l 7490 -3840 l
 7533 -3824 l 7575 -3804 l 7615 -3781 l 7653 -3755 l 7689 -3726 l
 7722 -3694 l 7753 -3660 l 7781 -3624 l 10374 77 l 10391 100 l
 10421 135 l 10453 168 l 10488 198 l 10525 225 l 10565 249 l
 10606 270 l 10648 287 l 10692 301 l 10737 312 l 10783 319 l
 10828 322 l 10875 321 l 10920 317 l 10966 309 l 11010 298 l
 11054 283 l 11096 264 l 11137 243 l 11176 218 l 11212 190 l
 11246 159 l 11278 126 l 11307 90 l 11333 52 l 11356 12 l
 11376 -29 l 11392 -72 l 11405 -116 l 11414 -161 l 11419 -207 l
 11421 -253 l 11421 -11516 l 11420 -11545 l 11416 -11591 l 11408 -11636 l
 11397 -11681 l 11382 -11724 l 11364 -11767 l 11342 -11807 l 11317 -11846 l
 11289 -11883 l 11258 -11917 l 11225 -11949 l 11189 -11978 l 11151 -12004 l
 11111 -12027 l 11070 -12046 l 11026 -12062 l 10982 -12075 l 10937 -12084 l
 10891 -12090 l 10845 -12092 l 10738 -12092 l 10709 -12091 l 10663 -12087 l
 10617 -12079 l 10573 -12067 l 10529 -12052 l 10487 -12034 l 10446 -12012 l
 10408 -11988 l 10371 -11960 l 10337 -11929 l 10305 -11895 l 10276 -11860 l
 10250 -11822 l 10227 -11782 l 10207 -11740 l 10191 -11697 l 10179 -11653 l
 10169 -11608 l 10164 -11562 l 10162 -11516 l 10162 -253 l 10161 -224 l
 10157 -178 l 10149 -132 l 10138 -88 l 10123 -44 l 10104 -2 l
 10083 38 l 10058 76 l 10030 113 l 9999 147 l 9966 179 l
 9930 208 l 9892 234 l 9852 257 l 9810 277 l 9767 293 l
 9723 305 l 9678 315 l 9632 320 l 9586 322 l 9479 322 l
 9449 321 l 9404 317 l 9358 309 l 9314 298 l 9270 283 l
 9228 264 l 9187 243 l 9148 218 l 9112 190 l 9078 159 l
 9046 126 l 9017 90 l 8991 52 l 8968 12 l 8948 -29 l
 8932 -72 l 8919 -116 l 8910 -161 l 8905 -207 l 8903 -253 l
 8903 -11516 l 8902 -11545 l 8898 -11591 l 8890 -11636 l 8879 -11681 l
 8864 -11724 l 8845 -11767 l 8824 -11807 l 8799 -11846 l 8771 -11883 l
 8740 -11917 l 8707 -11949 l 8671 -11978 l 8633 -12004 l 8593 -12027 l
 8551 -12046 l 8508 -12062 l 8464 -12075 l 8419 -12084 l 8373 -12090 l
 8327 -12092 l 8187 -12092 l 8158 -12091 l 8112 -12087 l 8066 -12079 l
 8022 -12067 l 7978 -12052 l 7936 -12034 l 7895 -12012 l 7857 -11988 l
 7820 -11960 l 7786 -11929 l 7754 -11895 l 7725 -11860 l 7699 -11822 l
 7676 -11782 l 7657 -11740 l 7640 -11697 l 7628 -11653 l 7618 -11608 l
 7613 -11562 l 7611 -11516 l 7611 -8291 l 7610 -8262 l 7606 -8216 l
 7598 -8171 l 7587 -8126 l 7572 -8083 l 7554 -8040 l 7532 -8000 l
 7507 -7961 l 7479 -7924 l 7448 -7890 l 7415 -7858 l 7379 -7829 l
 7341 -7803 l 7301 -7781 l 7260 -7761 l 7216 -7745 l 7172 -7732 l
 7127 -7723 l 7081 -7717 l 7035 -7715 l 6870 -7715 l 6841 -7716 l
 6795 -7720 l 6750 -7728 l 6705 -7740 l 6661 -7755 l 6619 -7773 l
 6579 -7795 l 6540 -7820 l 6503 -7847 l 6469 -7878 l 6437 -7912 l
 6408 -7947 l 6382 -7985 l 6359 -8025 l 6340 -8067 l 6323 -8110 l
 6311 -8154 l 6302 -8200 l 6296 -8245 l 6294 -8291 l 6294 -11516 l
 6293 -11545 l 6289 -11591 l 6281 -11636 l 6270 -11681 l 6255 -11724 l
 6237 -11767 l 6215 -11807 l 6190 -11846 l 6162 -11883 l 6131 -11917 l
 6098 -11949 l 6062 -11978 l 6024 -12004 l 5984 -12027 l 5943 -12046 l
 5899 -12062 l 5855 -12075 l 5810 -12084 l 5764 -12090 l 5718 -12092 l
 5553 -12092 l 5524 -12091 l 5478 -12087 l 5433 -12079 l 5388 -12067 l
 5344 -12052 l 5302 -12034 l 5262 -12012 l 5223 -11988 l 5186 -11960 l
 5152 -11929 l 5120 -11895 l 5091 -11860 l 5065 -11822 l 5042 -11782 l
 5023 -11740 l 5006 -11697 l 4994 -11653 l 4985 -11608 l 4979 -11562 l
 4977 -11516 l 4977 -8291 l 4977 -8262 l 4972 -8216 l 4965 -8171 l
 4953 -8126 l 4938 -8083 l 4920 -8040 l 4898 -8000 l 4873 -7961 l
 4845 -7924 l 4815 -7890 l 4781 -7858 l 4745 -7829 l 4707 -7803 l
 4667 -7781 l 4626 -7761 l 4583 -7745 l 4538 -7732 l 4493 -7723 l
 4447 -7717 l 4401 -7715 l 4236 -7715 l 4207 -7716 l 4161 -7720 l
 4116 -7728 l 4071 -7740 l 4027 -7755 l 3985 -7773 l 3945 -7795 l
 3906 -7820 l 3869 -7847 l 3835 -7878 l 3803 -7912 l 3774 -7947 l
 3748 -7985 l 3725 -8025 l 3706 -8067 l 3690 -8110 l 3677 -8154 l
 3668 -8200 l 3662 -8245 l 3660 -8291 l 3660 -11516 l 3660 -11545 l
 3655 -11591 l 3648 -11636 l 3636 -11681 l 3621 -11724 l 3603 -11767 l
 3581 -11807 l 3556 -11846 l 3528 -11883 l 3498 -11917 l 3464 -11949 l
 3428 -11978 l 3390 -12004 l 3350 -12027 l 3309 -12046 l 3266 -12062 l
 3221 -12075 l 3176 -12084 l 3131 -12090 l 3085 -12092 l 2919 -12092 l
 2890 -12091 l 2844 -12087 l 2799 -12079 l 2754 -12067 l 2711 -12052 l
 2668 -12034 l 2628 -12012 l 2589 -11988 l 2552 -11960 l 2518 -11929 l
 2486 -11895 l 2457 -11860 l 2431 -11822 l 2408 -11782 l 2389 -11740 l
 2373 -11697 l 2360 -11653 l 2351 -11608 l 2345 -11562 l 2343 -11516 l
 2343 -8291 l 2343 -8262 l 2338 -8216 l 2331 -8171 l 2319 -8126 l
 2304 -8083 l 2286 -8040 l 2264 -8000 l 2239 -7961 l 2211 -7924 l
 2181 -7890 l 2147 -7858 l 2111 -7829 l 2073 -7803 l 2033 -7781 l
 1992 -7761 l 1949 -7745 l 1904 -7732 l 1859 -7723 l 1814 -7717 l
 1768 -7715 l 1602 -7715 l 1573 -7716 l 1527 -7720 l 1482 -7728 l
 1437 -7740 l 1394 -7755 l 1351 -7773 l 1311 -7795 l 1272 -7820 l
 1235 -7847 l 1201 -7878 l 1169 -7912 l 1140 -7947 l 1114 -7985 l
 1092 -8025 l 1072 -8067 l 1056 -8110 l 1043 -8154 l 1034 -8200 l
 1028 -8245 l 1026 -8291 l 1026 -11516 l 1027 -11521 l 1029 -11567 l
 1035 -11612 l 1044 -11657 l 1057 -11702 l 1074 -11745 l 1094 -11786 l
 1117 -11826 l 1143 -11864 l 1173 -11899 l 1205 -11932 l 1220 -11948 l
 1251 -11982 l 1279 -12019 l 1304 -12058 l 1326 -12098 l 1344 -12141 l
 1359 -12184 l 1370 -12229 l 1378 -12274 l 1382 -12320 l 1383 -12366 l
 1379 -12412 l 1372 -12458 l 1362 -12502 l 1348 -12546 l 1330 -12589 l
 1310 -12630 l 1285 -12669 l 1258 -12706 l 1228 -12741 l 1196 -12774 l
 1160 -12803 l 1123 -12830 l 1083 -12854 l 1042 -12874 l 999 -12891 l
 955 -12905 l 910 -12915 l 865 -12922 l 819 -12924 l 773 -12924 l
 727 -12919 l 682 -12911 l 637 -12899 l 594 -12884 l 552 -12865 l
 511 -12843 l 473 -12818 l 436 -12789 l 402 -12758 l 371 -12725 l
 342 -12689 l 317 -12650 l 294 -12610 l 275 -12568 l 259 -12525 l
 247 -12481 l 238 -12436 l 233 -12390 l 231 -12344 l 233 -12298 l
 239 -12252 l 249 -12207 l 262 -12163 l 279 -12120 l 299 -12079 l
 322 -12039 l 348 -12001 l 377 -11965 l 409 -11932 l 413 -11929 l
 445 -11895 l 474 -11860 l 500 -11822 l 522 -11782 l 542 -11740 l
 558 -11697 l 571 -11653 l 580 -11608 l 586 -11562 l 588 -11516 l
 588 -8291 l 588 -8262 l 592 -8216 l 600 -8171 l 612 -8126 l
 627 -8083 l 645 -8040 l 667 -8000 l 692 -7961 l 720 -7924 l
 750 -7890 l 784 -7858 l 819 -7829 l 857 -7803 l 897 -7781 l
 939 -7761 l 982 -7745 l 1026 -7732 l 1072 -7723 l 1117 -7717 l
 1163 -7715 l 1329 -7715 l 1358 -7716 l 1404 -7720 l 1449 -7728 l
 1494 -7740 l 1537 -7755 l 1579 -7773 l 1620 -7795 l 1659 -7820 l
 1695 -7847 l 1730 -7878 l 1762 -7912 l 1790 -7947 l 1816 -7985 l
 1839 -8025 l 1859 -8067 l 1875 -8110 l 1888 -8154 l 1897 -8200 l
 1903 -8245 l 1904 -8291 l 1904 -11516 l 1905 -11545 l 1909 -11591 l
 1917 -11636 l 1929 -11681 l 1944 -11724 l 1962 -11767 l 1984 -11807 l
 2009 -11846 l 2036 -11883 l 2067 -11917 l 2101 -11949 l 2136 -11978 l
 2174 -12004 l 2214 -12027 l 2256 -12046 l 2299 -12062 l 2343 -12075 l
 2389 -12084 l 2434 -12090 l 2480 -12092 l 2646 -12092 l 2675 -12091 l
 2721 -12087 l 2766 -12079 l 2811 -12067 l 2854 -12052 l 2896 -12034 l
 2937 -12012 l 2976 -11988 l 3012 -11960 l 3047 -11929 l 3078 -11895 l
 3107 -11860 l 3133 -11822 l 3156 -11782 l 3176 -11740 l 3192 -11697 l
 3205 -11653 l 3214 -11608 l 3220 -11562 l 3221 -11516 l 3221 -8291 l
 3222 -8262 l 3226 -8216 l 3234 -8171 l 3246 -8126 l 3260 -8083 l
 3279 -8040 l 3301 -8000 l 3325 -7961 l 3353 -7924 l 3384 -7890 l
 3417 -7858 l 3453 -7829 l 3491 -7803 l 3531 -7781 l 3573 -7761 l
 3616 -7745 l 3660 -7732 l 3705 -7723 l 3751 -7717 l 3797 -7715 l
 3962 -7715 l 3992 -7716 l 4038 -7720 l 4083 -7728 l 4128 -7740 l
 4171 -7755 l 4213 -7773 l 4254 -7795 l 4293 -7820 l 4329 -7847 l
 4364 -7878 l 4395 -7912 l 4424 -7947 l 4450 -7985 l 4473 -8025 l
 4493 -8067 l 4509 -8110 l 4522 -8154 l 4531 -8200 l 4536 -8245 l
 4538 -8291 l 4538 -11516 l 4539 -11545 l 4543 -11591 l 4551 -11636 l
 4562 -11681 l 4577 -11724 l 4596 -11767 l 4618 -11807 l 4642 -11846 l
 4670 -11883 l 4701 -11917 l 4734 -11949 l 4770 -11978 l 4808 -12004 l
 4848 -12027 l 4890 -12046 l 4933 -12062 l 4977 -12075 l 5022 -12084 l
 5068 -12090 l 5114 -12092 l 5279 -12092 l 5309 -12091 l 5354 -12087 l
 5400 -12079 l 5444 -12067 l 5488 -12052 l 5530 -12034 l 5571 -12012 l
 5610 -11988 l 5646 -11960 l 5681 -11929 l 5712 -11895 l 5741 -11860 l
 5767 -11822 l 5790 -11782 l 5810 -11740 l 5826 -11697 l 5839 -11653 l
 5848 -11608 l 5853 -11562 l 5855 -11516 l 5855 -8291 l 5856 -8262 l
 5860 -8216 l 5868 -8171 l 5879 -8126 l 5894 -8083 l 5913 -8040 l
 5934 -8000 l 5959 -7961 l 5987 -7924 l 6018 -7890 l 6051 -7858 l
 6087 -7829 l 6125 -7803 l 6165 -7781 l 6207 -7761 l 6250 -7745 l
 6294 -7732 l 6339 -7723 l 6385 -7717 l 6431 -7715 l 6596 -7715 l
 6626 -7716 l 6671 -7720 l 6717 -7728 l 6761 -7740 l 6805 -7755 l
 6847 -7773 l 6888 -7795 l 6927 -7820 l 6963 -7847 l 6997 -7878 l
 7029 -7912 l 7058 -7947 l 7084 -7985 l 7107 -8025 l 7127 -8067 l
 7143 -8110 l 7156 -8154 l 7165 -8200 l 7170 -8245 l 7172 -8291 l
 7172 -11516 l 7173 -11545 l 7177 -11591 l 7185 -11636 l 7196 -11681 l
 7211 -11724 l 7230 -11767 l 7251 -11807 l 7276 -11846 l 7304 -11883 l
 7335 -11917 l 7368 -11949 l 7404 -11978 l 7442 -12004 l 7482 -12027 l
 7524 -12046 l 7567 -12062 l 7611 -12075 l 7656 -12084 l 7702 -12090 l
 7748 -12092 l 7907 -12092 l 7937 -12091 l 7982 -12087 l 8028 -12079 l
 8072 -12067 l 8116 -12052 l 8158 -12034 l 8199 -12012 l 8238 -11988 l
 8274 -11960 l 8309 -11929 l 8340 -11895 l 8369 -11860 l 8395 -11822 l
 8418 -11782 l 8438 -11740 l 8454 -11697 l 8467 -11653 l 8476 -11608 l
 8481 -11562 l 8483 -11516 l 8483 -253 l 8484 -224 l 8488 -178 l
 8496 -132 l 8507 -88 l 8522 -44 l 8541 -2 l 8562 38 l
 8587 76 l 8615 113 l 8646 147 l 8679 179 l 8715 208 l
 8753 234 l 8793 257 l 8835 277 l 8878 293 l 8922 305 l
 8967 315 l 9013 320 l 9059 322 l 9166 322 l 9196 321 l
 9242 317 l 9287 309 l 9332 298 l 9375 283 l 9417 264 l
 9458 243 l 9497 218 l 9533 190 l 9568 159 l 9599 126 l
 9628 90 l 9654 52 l 9677 12 l 9697 -29 l 9713 -72 l
 9726 -116 l 9735 -161 l 9740 -207 l 9742 -253 l
 9742 -11516 l gs col37 s gr 
% Ellipse
7.500 slw
n 9743 -11545 115 115 0 360 DrawEllipse gs col34 s gr
% Ellipse
n 9742 -11516 115 115 0 360 DrawEllipse gs col33 s gr
% Polyline
n 9743 -11545 m
 9733 -11430 l gs col34 s gr 
% Polyline
n 9742 -11516 m
 9857 -11516 l gs col33 s gr 
% here ends figure;
pagefooter
showpage
%%Trailer
%EOF
%%EndDocument
 @endspecial Black Black eop end
%%Trailer
userdict /end-hook known{end-hook}if
%%Trailer
cleartomark
countdictstack
exch sub { end } repeat
restore
%%EOF
