%!PS-Adobe-3.0 EPSF-3.0
%%BoundingBox: 149 1 1014 876
%%HiResBoundingBox: 149.191406 1.007812 1013.640625 875.683594
%%Creator: dvips(k) 5.993 Copyright 2013 Radical Eye Software
%%Title: fig2ps-env04_onePassCutoff.dvi
%%CreationDate: Tue Dec 13 10:06:22 2016
%%EndComments
% EPSF created by ps2eps 1.68
%%BeginProlog
0 209 translate
save
countdictstack
mark
newpath
/showpage {} def
/setpagedevice {pop} def
%%EndProlog
%%Page 1 1
%DVIPSWebPage: (www.radicaleye.com)
%DVIPSCommandLine: dvips -Ppdf -G0 -q -E fig2ps-env04_onePassCutoff.dvi
%+ -o fig2ps-env04_onePassCutoff.ps
%DVIPSParameters: dpi=8000
%DVIPSSource:  TeX output 2016.12.13:1006
%%BeginProcSet: tex.pro 0 0
%!
/TeXDict 300 dict def TeXDict begin/N{def}def/B{bind def}N/S{exch}N/X{S
N}B/A{dup}B/TR{translate}N/isls false N/vsize 11 72 mul N/hsize 8.5 72
mul N/landplus90{false}def/@rigin{isls{[0 landplus90{1 -1}{-1 1}ifelse 0
0 0]concat}if 72 Resolution div 72 VResolution div neg scale isls{
landplus90{VResolution 72 div vsize mul 0 exch}{Resolution -72 div hsize
mul 0}ifelse TR}if Resolution VResolution vsize -72 div 1 add mul TR[
matrix currentmatrix{A A round sub abs 0.00001 lt{round}if}forall round
exch round exch]setmatrix}N/@landscape{/isls true N}B/@manualfeed{
statusdict/manualfeed true put}B/@copies{/#copies X}B/FMat[1 0 0 -1 0 0]
N/FBB[0 0 0 0]N/nn 0 N/IEn 0 N/ctr 0 N/df-tail{/nn 8 dict N nn begin
/FontType 3 N/FontMatrix fntrx N/FontBBox FBB N string/base X array
/BitMaps X/BuildChar{CharBuilder}N/Encoding IEn N end A{/foo setfont}2
array copy cvx N load 0 nn put/ctr 0 N[}B/sf 0 N/df{/sf 1 N/fntrx FMat N
df-tail}B/dfs{div/sf X/fntrx[sf 0 0 sf neg 0 0]N df-tail}B/E{pop nn A
definefont setfont}B/Cw{Cd A length 5 sub get}B/Ch{Cd A length 4 sub get
}B/Cx{128 Cd A length 3 sub get sub}B/Cy{Cd A length 2 sub get 127 sub}
B/Cdx{Cd A length 1 sub get}B/Ci{Cd A type/stringtype ne{ctr get/ctr ctr
1 add N}if}B/CharBuilder{save 3 1 roll S A/base get 2 index get S
/BitMaps get S get/Cd X pop/ctr 0 N Cdx 0 Cx Cy Ch sub Cx Cw add Cy
setcachedevice Cw Ch true[1 0 0 -1 -.1 Cx sub Cy .1 sub]{Ci}imagemask
restore}B/D{/cc X A type/stringtype ne{]}if nn/base get cc ctr put nn
/BitMaps get S ctr S sf 1 ne{A A length 1 sub A 2 index S get sf div put
}if put/ctr ctr 1 add N}B/I{cc 1 add D}B/bop{userdict/bop-hook known{
bop-hook}if/SI save N @rigin 0 0 moveto/V matrix currentmatrix A 1 get A
mul exch 0 get A mul add .99 lt{/QV}{/RV}ifelse load def pop pop}N/eop{
SI restore userdict/eop-hook known{eop-hook}if showpage}N/@start{
userdict/start-hook known{start-hook}if pop/VResolution X/Resolution X
1000 div/DVImag X/IEn 256 array N 2 string 0 1 255{IEn S A 360 add 36 4
index cvrs cvn put}for pop 65781.76 div/vsize X 65781.76 div/hsize X}N
/dir 0 def/dyy{/dir 0 def}B/dyt{/dir 1 def}B/dty{/dir 2 def}B/dtt{/dir 3
def}B/p{dir 2 eq{-90 rotate show 90 rotate}{dir 3 eq{-90 rotate show 90
rotate}{show}ifelse}ifelse}N/RMat[1 0 0 -1 0 0]N/BDot 260 string N/Rx 0
N/Ry 0 N/V{}B/RV/v{/Ry X/Rx X V}B statusdict begin/product where{pop
false[(Display)(NeXT)(LaserWriter 16/600)]{A length product length le{A
length product exch 0 exch getinterval eq{pop true exit}if}{pop}ifelse}
forall}{false}ifelse end{{gsave TR -.1 .1 TR 1 1 scale Rx Ry false RMat{
BDot}imagemask grestore}}{{gsave TR -.1 .1 TR Rx Ry scale 1 1 false RMat
{BDot}imagemask grestore}}ifelse B/QV{gsave newpath transform round exch
round exch itransform moveto Rx 0 rlineto 0 Ry neg rlineto Rx neg 0
rlineto fill grestore}B/a{moveto}B/delta 0 N/tail{A/delta X 0 rmoveto}B
/M{S p delta add tail}B/b{S p tail}B/c{-4 M}B/d{-3 M}B/e{-2 M}B/f{-1 M}
B/g{0 M}B/h{1 M}B/i{2 M}B/j{3 M}B/k{4 M}B/w{0 rmoveto}B/l{p -4 w}B/m{p
-3 w}B/n{p -2 w}B/o{p -1 w}B/q{p 1 w}B/r{p 2 w}B/s{p 3 w}B/t{p 4 w}B/x{
0 S rmoveto}B/y{3 2 roll p a}B/bos{/SS save N}B/eos{SS restore}B end
%%EndProcSet
%%BeginProcSet: alt-rule.pro 0 0
%!
% Patch by TVZ
% Makes dvips files draw rules with stroke rather than fill.
% Makes narrow rules more predictable at low resolutions
% after distilling to PDF.
% May have unknown consequences for very thick rules.
% Tested only with dvips 5.85(k).
TeXDict begin
/QV {
  gsave newpath /ruleY X /ruleX X
  Rx Ry gt
  { ruleX ruleY Ry 2 div sub moveto Rx 0 rlineto Ry }
  { ruleX Rx 2 div add ruleY moveto 0 Ry neg rlineto Rx }
  ifelse
  setlinewidth 0 setlinecap stroke grestore
} bind def
end
%%EndProcSet
%%BeginProcSet: special.pro 0 0
%!
TeXDict begin/SDict 200 dict N SDict begin/@SpecialDefaults{/hs 612 N
/vs 792 N/ho 0 N/vo 0 N/hsc 1 N/vsc 1 N/ang 0 N/CLIP 0 N/rwiSeen false N
/rhiSeen false N/letter{}N/note{}N/a4{}N/legal{}N}B/@scaleunit 100 N
/@hscale{@scaleunit div/hsc X}B/@vscale{@scaleunit div/vsc X}B/@hsize{
/hs X/CLIP 1 N}B/@vsize{/vs X/CLIP 1 N}B/@clip{/CLIP 2 N}B/@hoffset{/ho
X}B/@voffset{/vo X}B/@angle{/ang X}B/@rwi{10 div/rwi X/rwiSeen true N}B
/@rhi{10 div/rhi X/rhiSeen true N}B/@llx{/llx X}B/@lly{/lly X}B/@urx{
/urx X}B/@ury{/ury X}B/magscale true def end/@MacSetUp{userdict/md known
{userdict/md get type/dicttype eq{userdict begin md length 10 add md
maxlength ge{/md md dup length 20 add dict copy def}if end md begin
/letter{}N/note{}N/legal{}N/od{txpose 1 0 mtx defaultmatrix dtransform S
atan/pa X newpath clippath mark{transform{itransform moveto}}{transform{
itransform lineto}}{6 -2 roll transform 6 -2 roll transform 6 -2 roll
transform{itransform 6 2 roll itransform 6 2 roll itransform 6 2 roll
curveto}}{{closepath}}pathforall newpath counttomark array astore/gc xdf
pop ct 39 0 put 10 fz 0 fs 2 F/|______Courier fnt invertflag{PaintBlack}
if}N/txpose{pxs pys scale ppr aload pop por{noflips{pop S neg S TR pop 1
-1 scale}if xflip yflip and{pop S neg S TR 180 rotate 1 -1 scale ppr 3
get ppr 1 get neg sub neg ppr 2 get ppr 0 get neg sub neg TR}if xflip
yflip not and{pop S neg S TR pop 180 rotate ppr 3 get ppr 1 get neg sub
neg 0 TR}if yflip xflip not and{ppr 1 get neg ppr 0 get neg TR}if}{
noflips{TR pop pop 270 rotate 1 -1 scale}if xflip yflip and{TR pop pop
90 rotate 1 -1 scale ppr 3 get ppr 1 get neg sub neg ppr 2 get ppr 0 get
neg sub neg TR}if xflip yflip not and{TR pop pop 90 rotate ppr 3 get ppr
1 get neg sub neg 0 TR}if yflip xflip not and{TR pop pop 270 rotate ppr
2 get ppr 0 get neg sub neg 0 S TR}if}ifelse scaleby96{ppr aload pop 4
-1 roll add 2 div 3 1 roll add 2 div 2 copy TR .96 dup scale neg S neg S
TR}if}N/cp{pop pop showpage pm restore}N end}if}if}N/normalscale{
Resolution 72 div VResolution 72 div neg scale magscale{DVImag dup scale
}if 0 setgray}N/psfts{S 65781.76 div N}N/startTexFig{/psf$SavedState
save N userdict maxlength dict begin/magscale true def normalscale
currentpoint TR/psf$ury psfts/psf$urx psfts/psf$lly psfts/psf$llx psfts
/psf$y psfts/psf$x psfts currentpoint/psf$cy X/psf$cx X/psf$sx psf$x
psf$urx psf$llx sub div N/psf$sy psf$y psf$ury psf$lly sub div N psf$sx
psf$sy scale psf$cx psf$sx div psf$llx sub psf$cy psf$sy div psf$ury sub
TR/showpage{}N/erasepage{}N/setpagedevice{pop}N/copypage{}N/p 3 def
@MacSetUp}N/doclip{psf$llx psf$lly psf$urx psf$ury currentpoint 6 2 roll
newpath 4 copy 4 2 roll moveto 6 -1 roll S lineto S lineto S lineto
closepath clip newpath moveto}N/endTexFig{end psf$SavedState restore}N
/@beginspecial{SDict begin/SpecialSave save N gsave normalscale
currentpoint TR @SpecialDefaults count/ocount X/dcount countdictstack N}
N/@setspecial{CLIP 1 eq{newpath 0 0 moveto hs 0 rlineto 0 vs rlineto hs
neg 0 rlineto closepath clip}if ho vo TR hsc vsc scale ang rotate
rwiSeen{rwi urx llx sub div rhiSeen{rhi ury lly sub div}{dup}ifelse
scale llx neg lly neg TR}{rhiSeen{rhi ury lly sub div dup scale llx neg
lly neg TR}if}ifelse CLIP 2 eq{newpath llx lly moveto urx lly lineto urx
ury lineto llx ury lineto closepath clip}if/showpage{}N/erasepage{}N
/setpagedevice{pop}N/copypage{}N newpath}N/@endspecial{count ocount sub{
pop}repeat countdictstack dcount sub{end}repeat grestore SpecialSave
restore end}N/@defspecial{SDict begin}N/@fedspecial{end}B/li{lineto}B
/rl{rlineto}B/rc{rcurveto}B/np{/SaveX currentpoint/SaveY X N 1
setlinecap newpath}N/st{stroke SaveX SaveY moveto}N/fil{fill SaveX SaveY
moveto}N/ellipse{/endangle X/startangle X/yrad X/xrad X/savematrix
matrix currentmatrix N TR xrad yrad scale 0 0 1 startangle endangle arc
savematrix setmatrix}N end
%%EndProcSet
%%BeginProcSet: color.pro 0 0
%!
TeXDict begin/setcmykcolor where{pop}{/setcmykcolor{dup 10 eq{pop
setrgbcolor}{1 sub 4 1 roll 3{3 index add neg dup 0 lt{pop 0}if 3 1 roll
}repeat setrgbcolor pop}ifelse}B}ifelse/TeXcolorcmyk{setcmykcolor}def
/TeXcolorrgb{setrgbcolor}def/TeXcolorgrey{setgray}def/TeXcolorgray{
setgray}def/TeXcolorhsb{sethsbcolor}def/currentcmykcolor where{pop}{
/currentcmykcolor{currentrgbcolor 10}B}ifelse/DC{exch dup userdict exch
known{pop pop}{X}ifelse}B/GreenYellow{0.15 0 0.69 0 setcmykcolor}DC
/Yellow{0 0 1 0 setcmykcolor}DC/Goldenrod{0 0.10 0.84 0 setcmykcolor}DC
/Dandelion{0 0.29 0.84 0 setcmykcolor}DC/Apricot{0 0.32 0.52 0
setcmykcolor}DC/Peach{0 0.50 0.70 0 setcmykcolor}DC/Melon{0 0.46 0.50 0
setcmykcolor}DC/YellowOrange{0 0.42 1 0 setcmykcolor}DC/Orange{0 0.61
0.87 0 setcmykcolor}DC/BurntOrange{0 0.51 1 0 setcmykcolor}DC
/Bittersweet{0 0.75 1 0.24 setcmykcolor}DC/RedOrange{0 0.77 0.87 0
setcmykcolor}DC/Mahogany{0 0.85 0.87 0.35 setcmykcolor}DC/Maroon{0 0.87
0.68 0.32 setcmykcolor}DC/BrickRed{0 0.89 0.94 0.28 setcmykcolor}DC/Red{
0 1 1 0 setcmykcolor}DC/OrangeRed{0 1 0.50 0 setcmykcolor}DC/RubineRed{
0 1 0.13 0 setcmykcolor}DC/WildStrawberry{0 0.96 0.39 0 setcmykcolor}DC
/Salmon{0 0.53 0.38 0 setcmykcolor}DC/CarnationPink{0 0.63 0 0
setcmykcolor}DC/Magenta{0 1 0 0 setcmykcolor}DC/VioletRed{0 0.81 0 0
setcmykcolor}DC/Rhodamine{0 0.82 0 0 setcmykcolor}DC/Mulberry{0.34 0.90
0 0.02 setcmykcolor}DC/RedViolet{0.07 0.90 0 0.34 setcmykcolor}DC
/Fuchsia{0.47 0.91 0 0.08 setcmykcolor}DC/Lavender{0 0.48 0 0
setcmykcolor}DC/Thistle{0.12 0.59 0 0 setcmykcolor}DC/Orchid{0.32 0.64 0
0 setcmykcolor}DC/DarkOrchid{0.40 0.80 0.20 0 setcmykcolor}DC/Purple{
0.45 0.86 0 0 setcmykcolor}DC/Plum{0.50 1 0 0 setcmykcolor}DC/Violet{
0.79 0.88 0 0 setcmykcolor}DC/RoyalPurple{0.75 0.90 0 0 setcmykcolor}DC
/BlueViolet{0.86 0.91 0 0.04 setcmykcolor}DC/Periwinkle{0.57 0.55 0 0
setcmykcolor}DC/CadetBlue{0.62 0.57 0.23 0 setcmykcolor}DC
/CornflowerBlue{0.65 0.13 0 0 setcmykcolor}DC/MidnightBlue{0.98 0.13 0
0.43 setcmykcolor}DC/NavyBlue{0.94 0.54 0 0 setcmykcolor}DC/RoyalBlue{1
0.50 0 0 setcmykcolor}DC/Blue{1 1 0 0 setcmykcolor}DC/Cerulean{0.94 0.11
0 0 setcmykcolor}DC/Cyan{1 0 0 0 setcmykcolor}DC/ProcessBlue{0.96 0 0 0
setcmykcolor}DC/SkyBlue{0.62 0 0.12 0 setcmykcolor}DC/Turquoise{0.85 0
0.20 0 setcmykcolor}DC/TealBlue{0.86 0 0.34 0.02 setcmykcolor}DC
/Aquamarine{0.82 0 0.30 0 setcmykcolor}DC/BlueGreen{0.85 0 0.33 0
setcmykcolor}DC/Emerald{1 0 0.50 0 setcmykcolor}DC/JungleGreen{0.99 0
0.52 0 setcmykcolor}DC/SeaGreen{0.69 0 0.50 0 setcmykcolor}DC/Green{1 0
1 0 setcmykcolor}DC/ForestGreen{0.91 0 0.88 0.12 setcmykcolor}DC
/PineGreen{0.92 0 0.59 0.25 setcmykcolor}DC/LimeGreen{0.50 0 1 0
setcmykcolor}DC/YellowGreen{0.44 0 0.74 0 setcmykcolor}DC/SpringGreen{
0.26 0 0.76 0 setcmykcolor}DC/OliveGreen{0.64 0 0.95 0.40 setcmykcolor}
DC/RawSienna{0 0.72 1 0.45 setcmykcolor}DC/Sepia{0 0.83 1 0.70
setcmykcolor}DC/Brown{0 0.81 1 0.60 setcmykcolor}DC/Tan{0.14 0.42 0.56 0
setcmykcolor}DC/Gray{0 0 0 0.50 setcmykcolor}DC/Black{0 0 0 1
setcmykcolor}DC/White{0 0 0 0 setcmykcolor}DC end
%%EndProcSet
TeXDict begin 40258437 52099154 1000 8000 8000
(fig2ps-env04_onePassCutoff.dvi)
@start end
%%EndProlog
%%BeginSetup
%%Feature: *Resolution 8000dpi
TeXDict begin
 end
%%EndSetup
TeXDict begin 1 0 bop Black Black 8524 103163 a @beginspecial
0 @llx 0 @lly 866 @urx 876 @ury 8660 @rwi @setspecial
%%BeginDocument: fig2ps-env04_onePassCutoff.pstex
%!PS-Adobe-3.0 EPSF-3.0
%%Title: fig2ps-env04_onePassCutoff.fig2
%%Creator: fig2dev Version 3.2 Patchlevel 5e
%%CreationDate: Tue Dec 13 10:06:22 2016
%%BoundingBox: 0 0 866 876
%Magnification: 1.0000
%%EndComments
%%BeginProlog
/$F2psDict 200 dict def
$F2psDict begin
$F2psDict /mtrx matrix put
/col-1 {0 setgray} bind def
/col0 {0.000 0.000 0.000 srgb} bind def
/col1 {0.000 0.000 1.000 srgb} bind def
/col2 {0.000 1.000 0.000 srgb} bind def
/col3 {0.000 1.000 1.000 srgb} bind def
/col4 {1.000 0.000 0.000 srgb} bind def
/col5 {1.000 0.000 1.000 srgb} bind def
/col6 {1.000 1.000 0.000 srgb} bind def
/col7 {1.000 1.000 1.000 srgb} bind def
/col8 {0.000 0.000 0.560 srgb} bind def
/col9 {0.000 0.000 0.690 srgb} bind def
/col10 {0.000 0.000 0.820 srgb} bind def
/col11 {0.530 0.810 1.000 srgb} bind def
/col12 {0.000 0.560 0.000 srgb} bind def
/col13 {0.000 0.690 0.000 srgb} bind def
/col14 {0.000 0.820 0.000 srgb} bind def
/col15 {0.000 0.560 0.560 srgb} bind def
/col16 {0.000 0.690 0.690 srgb} bind def
/col17 {0.000 0.820 0.820 srgb} bind def
/col18 {0.560 0.000 0.000 srgb} bind def
/col19 {0.690 0.000 0.000 srgb} bind def
/col20 {0.820 0.000 0.000 srgb} bind def
/col21 {0.560 0.000 0.560 srgb} bind def
/col22 {0.690 0.000 0.690 srgb} bind def
/col23 {0.820 0.000 0.820 srgb} bind def
/col24 {0.500 0.190 0.000 srgb} bind def
/col25 {0.630 0.250 0.000 srgb} bind def
/col26 {0.750 0.380 0.000 srgb} bind def
/col27 {1.000 0.500 0.500 srgb} bind def
/col28 {1.000 0.630 0.630 srgb} bind def
/col29 {1.000 0.750 0.750 srgb} bind def
/col30 {1.000 0.880 0.880 srgb} bind def
/col31 {1.000 0.840 0.000 srgb} bind def
/col32 {0.306 0.773 0.925 srgb} bind def
/col33 {0.498 0.000 0.000 srgb} bind def
/col34 {0.498 0.122 0.122 srgb} bind def
/col35 {0.624 0.871 0.945 srgb} bind def
/col36 {0.698 0.698 0.698 srgb} bind def
/col37 {0.749 0.000 0.000 srgb} bind def
end
/cp {closepath} bind def
/ef {eofill} bind def
/gr {grestore} bind def
/gs {gsave} bind def
/sa {save} bind def
/rs {restore} bind def
/l {lineto} bind def
/m {moveto} bind def
/rm {rmoveto} bind def
/n {newpath} bind def
/s {stroke} bind def
/sh {show} bind def
/slc {setlinecap} bind def
/slj {setlinejoin} bind def
/slw {setlinewidth} bind def
/srgb {setrgbcolor} bind def
/rot {rotate} bind def
/sc {scale} bind def
/sd {setdash} bind def
/ff {findfont} bind def
/sf {setfont} bind def
/scf {scalefont} bind def
/sw {stringwidth} bind def
/tr {translate} bind def
/tnt {dup dup currentrgbcolor
  4 -2 roll dup 1 exch sub 3 -1 roll mul add
  4 -2 roll dup 1 exch sub 3 -1 roll mul add
  4 -2 roll dup 1 exch sub 3 -1 roll mul add srgb}
  bind def
/shd {dup dup currentrgbcolor 4 -2 roll mul 4 -2 roll mul
  4 -2 roll mul srgb} bind def
 /DrawEllipse {
	/endangle exch def
	/startangle exch def
	/yrad exch def
	/xrad exch def
	/y exch def
	/x exch def
	/savematrix mtrx currentmatrix def
	x y tr xrad yrad sc 0 0 1 startangle endangle arc
	closepath
	savematrix setmatrix
	} def
/$F2psBegin {$F2psDict begin /$F2psEnteredState save def} def
/$F2psEnd {$F2psEnteredState restore end} def
/pageheader {
save
newpath 0 876 moveto 0 0 lineto 866 0 lineto 866 876 lineto closepath clip newpath
72.7 72.7 translate
1 -1 scale
$F2psBegin
10 setmiterlimit
0 slj 0 slc
 0.06000 0.06000 sc
} bind def
/pagefooter {
$F2psEnd
restore
} bind def
%%EndProlog
pageheader
%
% Fig objects follow
%
% 
% here starts figure with depth 50
% Polyline
1 slj
0 slc
7.500 slw
n -1200 1200 m -1200 -13200 l 13200 -13200 l 13200 1200 l
 cp gs 0.00 setgray ef gr gs col0 s gr 
% Polyline
n 0 0 m 0 -12000 l 12000 -12000 l 12000 0 l
 cp gs col7 1.00 shd ef gr gs col7 s gr 
% Polyline
n 253 -11746 m 2003 -11746 l 2003 -253 l 253 -253 l
 cp gs col36 1.00 shd ef gr gs col36 s gr 
% Polyline
n 2026 -7301 m 2072 -7209 l 2234 -7047 l 2257 -7047 l 2280 -7024 l 2303 -7024 l
 2349 -6978 l 2372 -6978 l 2395 -6955 l 2441 -6955 l 2464 -6932 l
 2487 -6932 l 2510 -6909 l 2533 -6909 l 2556 -6886 l 2602 -6886 l
 2625 -6863 l 2671 -6863 l 2694 -6840 l 2740 -6840 l 2763 -6817 l
 2833 -6817 l 2856 -6794 l 2902 -6794 l 2925 -6771 l 2994 -6771 l
 3017 -6748 l 3109 -6748 l 3132 -6725 l 3224 -6725 l 3247 -6702 l
 3362 -6702 l 3385 -6679 l 3500 -6679 l 3523 -6656 l 3685 -6656 l
 3708 -6633 l 3915 -6633 l 3938 -6610 l 4307 -6610 l 4330 -6587 l
 4998 -6587 l 5021 -6610 l 5389 -6610 l 5412 -6633 l 5619 -6633 l
 5642 -6656 l 5642 -253 l 2026 -253 l
 cp gs col36 1.00 shd ef gr gs col36 s gr 
% Polyline
n 5666 -6656 m 5804 -6656 l 5827 -6679 l 5942 -6679 l 5965 -6702 l 6080 -6702 l
 6103 -6725 l 6195 -6725 l 6218 -6748 l 6310 -6748 l 6333 -6771 l
 6403 -6771 l 6426 -6794 l 6472 -6794 l 6495 -6817 l 6564 -6817 l
 6587 -6840 l 6633 -6840 l 6656 -6863 l 6702 -6863 l 6725 -6886 l
 6771 -6886 l 6794 -6909 l 6817 -6909 l 6840 -6932 l 6863 -6932 l
 6886 -6955 l 6932 -6955 l 6955 -6978 l 6978 -6978 l 7024 -7024 l
 7047 -7024 l 7071 -7047 l 7094 -7047 l 7255 -7209 l 7301 -7301 l
 7301 -3938 l 7278 -3915 l 7094 -3915 l 7071 -3892 l 6932 -3892 l
 6909 -3869 l 6794 -3869 l 6771 -3846 l 6679 -3846 l 6656 -3823 l
 6587 -3823 l 6564 -3800 l 6495 -3800 l 6472 -3777 l 6403 -3777 l
 6380 -3754 l 6333 -3754 l 6310 -3731 l 6264 -3731 l 6241 -3708 l
 6195 -3708 l 6172 -3685 l 6149 -3685 l 6126 -3662 l 6103 -3662 l
 6080 -3639 l 6057 -3639 l 6034 -3616 l 6011 -3616 l 5988 -3593 l
 5965 -3593 l 5942 -3570 l 5919 -3570 l 5873 -3523 l 5850 -3523 l
 5712 -3385 l 5689 -3339 l 5666 -3270 l
 cp gs col36 1.00 shd ef gr gs col36 s gr 
% Polyline
n 2026 -11746 m 7301 -11746 l 7301 -7416 l 7255 -7508 l 7094 -7669 l 7071 -7669 l
 7047 -7692 l 7024 -7692 l 6978 -7738 l 6955 -7738 l 6932 -7761 l
 6886 -7761 l 6863 -7785 l 6840 -7785 l 6817 -7808 l 6794 -7808 l
 6771 -7831 l 6725 -7831 l 6702 -7854 l 6656 -7854 l 6633 -7877 l
 6587 -7877 l 6564 -7900 l 6495 -7900 l 6472 -7923 l 6426 -7923 l
 6403 -7946 l 6333 -7946 l 6310 -7969 l 6218 -7969 l 6195 -7992 l
 6103 -7992 l 6080 -8015 l 5965 -8015 l 5942 -8038 l 5827 -8038 l
 5804 -8061 l 5642 -8061 l 5619 -8084 l 5412 -8084 l 5389 -8107 l
 5021 -8107 l 4998 -8130 l 4330 -8130 l 4307 -8107 l 3938 -8107 l
 3915 -8084 l 3708 -8084 l 3685 -8061 l 3523 -8061 l 3500 -8038 l
 3385 -8038 l 3362 -8015 l 3247 -8015 l 3224 -7992 l 3132 -7992 l
 3109 -7969 l 3017 -7969 l 2994 -7946 l 2925 -7946 l 2902 -7923 l
 2856 -7923 l 2833 -7900 l 2763 -7900 l 2740 -7877 l 2694 -7877 l
 2671 -7854 l 2625 -7854 l 2602 -7831 l 2556 -7831 l 2533 -7808 l
 2510 -7808 l 2487 -7785 l 2464 -7785 l 2441 -7761 l 2395 -7761 l
 2372 -7738 l 2349 -7738 l 2303 -7692 l 2280 -7692 l 2257 -7669 l
 2234 -7669 l 2072 -7508 l 2026 -7416 l
 cp gs col36 1.00 shd ef gr gs col36 s gr 
% Polyline
n 5666 -3178 m 5689 -3109 l 5712 -3063 l 5850 -2925 l 5873 -2925 l 5919 -2879 l
 5942 -2879 l 5965 -2856 l 5988 -2856 l 6011 -2833 l 6034 -2833 l
 6057 -2809 l 6080 -2809 l 6103 -2786 l 6126 -2786 l 6149 -2763 l
 6172 -2763 l 6195 -2740 l 6241 -2740 l 6264 -2717 l 6310 -2717 l
 6333 -2694 l 6380 -2694 l 6403 -2671 l 6472 -2671 l 6495 -2648 l
 6564 -2648 l 6587 -2625 l 6656 -2625 l 6679 -2602 l 6771 -2602 l
 6794 -2579 l 6909 -2579 l 6932 -2556 l 7071 -2556 l 7094 -2533 l
 7278 -2533 l 7301 -2510 l 7600 -2510 l 7623 -2487 l 8222 -2487 l
 8245 -2510 l 8545 -2510 l 8568 -2533 l 8752 -2533 l 8775 -2556 l
 8913 -2556 l 8936 -2579 l 9051 -2579 l 9074 -2602 l 9166 -2602 l
 9190 -2625 l 9259 -2625 l 9282 -2648 l 9351 -2648 l 9374 -2671 l
 9443 -2671 l 9466 -2694 l 9512 -2694 l 9535 -2717 l 9581 -2717 l
 9604 -2740 l 9650 -2740 l 9673 -2763 l 9696 -2763 l 9719 -2786 l
 9742 -2786 l 9765 -2809 l 9788 -2809 l 9811 -2833 l 9834 -2833 l
 9857 -2856 l 9880 -2856 l 9904 -2879 l 9927 -2879 l 9973 -2925 l
 9996 -2925 l 10134 -3063 l 10157 -3109 l 10180 -3178 l 10180 -253 l
 5666 -253 l
 cp gs col36 1.00 shd ef gr gs col36 s gr 
% Polyline
n 7324 -11746 m 10180 -11746 l 10180 -3270 l 10157 -3339 l 10134 -3385 l 9996 -3523 l
 9973 -3523 l 9927 -3570 l 9904 -3570 l 9880 -3593 l 9857 -3593 l
 9834 -3616 l 9811 -3616 l 9788 -3639 l 9765 -3639 l 9742 -3662 l
 9719 -3662 l 9696 -3685 l 9673 -3685 l 9650 -3708 l 9604 -3708 l
 9581 -3731 l 9535 -3731 l 9512 -3754 l 9466 -3754 l 9443 -3777 l
 9374 -3777 l 9351 -3800 l 9282 -3800 l 9259 -3823 l 9190 -3823 l
 9166 -3846 l 9074 -3846 l 9051 -3869 l 8936 -3869 l 8913 -3892 l
 8775 -3892 l 8752 -3915 l 8568 -3915 l 8545 -3938 l 8245 -3938 l
 8222 -3961 l 7623 -3961 l 7600 -3938 l 7324 -3938 l
 cp gs col36 1.00 shd ef gr gs col36 s gr 
% Polyline
n 10203 -11746 m 11746 -11746 l 11746 -253 l 10203 -253 l
 cp gs col36 1.00 shd ef gr gs col36 s gr 
% Polyline
n 253 -11746 m 472 -11746 l 472 -253 l 253 -253 l
 cp gs col32 1.00 shd ef gr gs col32 s gr 
% Polyline
n 472 -11746 m 690 -11746 l 690 -253 l 472 -253 l
 cp gs col35 1.00 shd ef gr gs col35 s gr 
% Polyline
n 690 -11746 m 909 -11746 l 909 -253 l 690 -253 l
 cp gs col32 1.00 shd ef gr gs col32 s gr 
% Polyline
n 909 -11746 m 1128 -11746 l 1128 -253 l 909 -253 l
 cp gs col35 1.00 shd ef gr gs col35 s gr 
% Polyline
n 1128 -11746 m 1347 -11746 l 1347 -253 l 1128 -253 l
 cp gs col32 1.00 shd ef gr gs col32 s gr 
% Polyline
n 1347 -11746 m 1566 -11746 l 1566 -253 l 1347 -253 l
 cp gs col35 1.00 shd ef gr gs col35 s gr 
% Polyline
n 1566 -11746 m 1785 -11746 l 1785 -253 l 1566 -253 l
 cp gs col32 1.00 shd ef gr gs col32 s gr 
% Polyline
n 1785 -11746 m 2003 -11746 l 2003 -253 l 1785 -253 l
 cp gs col35 1.00 shd ef gr gs col35 s gr 
% Polyline
n 2026 -7301 m 2252 -7047 l 2252 -253 l 2026 -253 l
 cp gs col32 1.00 shd ef gr gs col32 s gr 
% Polyline
n 2252 -7047 m 2478 -6932 l 2478 -253 l 2252 -253 l
 cp gs col35 1.00 shd ef gr gs col35 s gr 
% Polyline
n 2478 -6932 m 2704 -6840 l 2704 -253 l 2478 -253 l
 cp gs col32 1.00 shd ef gr gs col32 s gr 
% Polyline
n 2704 -6840 m 2930 -6771 l 2930 -253 l 2704 -253 l
 cp gs col35 1.00 shd ef gr gs col35 s gr 
% Polyline
n 2930 -6771 m 3156 -6725 l 3156 -253 l 2930 -253 l
 cp gs col32 1.00 shd ef gr gs col32 s gr 
% Polyline
n 3156 -6725 m 3382 -6682 l 3382 -253 l 3156 -253 l
 cp gs col35 1.00 shd ef gr gs col35 s gr 
% Polyline
n 3382 -6682 m 3608 -6656 l 3608 -253 l 3382 -253 l
 cp gs col32 1.00 shd ef gr gs col32 s gr 
% Polyline
n 3608 -6656 m 3834 -6633 l 3834 -253 l 3608 -253 l
 cp gs col35 1.00 shd ef gr gs col35 s gr 
% Polyline
n 3834 -6633 m 4060 -6610 l 4060 -253 l 3834 -253 l
 cp gs col32 1.00 shd ef gr gs col32 s gr 
% Polyline
n 4060 -6610 m 4286 -6610 l 4286 -253 l 4060 -253 l
 cp gs col35 1.00 shd ef gr gs col35 s gr 
% Polyline
n 4286 -6610 m 4512 -6587 l 4512 -253 l 4286 -253 l
 cp gs col32 1.00 shd ef gr gs col32 s gr 
% Polyline
n 4512 -6587 m 4738 -6587 l 4738 -253 l 4512 -253 l
 cp gs col35 1.00 shd ef gr gs col35 s gr 
% Polyline
n 4738 -6587 m 4964 -6587 l 4964 -253 l 4738 -253 l
 cp gs col32 1.00 shd ef gr gs col32 s gr 
% Polyline
n 4964 -6587 m 5190 -6610 l 5190 -253 l 4964 -253 l
 cp gs col35 1.00 shd ef gr gs col35 s gr 
% Polyline
n 5190 -6610 m 5416 -6633 l 5416 -253 l 5190 -253 l
 cp gs col32 1.00 shd ef gr gs col32 s gr 
% Polyline
n 5416 -6633 m 5642 -6656 l 5642 -253 l 5416 -253 l
 cp gs col35 1.00 shd ef gr gs col35 s gr 
% Polyline
n 5666 -6656 m 5870 -6679 l 5870 -3523 l 5666 -3270 l
 cp gs col32 1.00 shd ef gr gs col32 s gr 
% Polyline
n 5870 -6679 m 6074 -6702 l 6074 -3639 l 5870 -3523 l
 cp gs col35 1.00 shd ef gr gs col35 s gr 
% Polyline
n 6074 -6702 m 6279 -6748 l 6279 -3731 l 6074 -3639 l
 cp gs col32 1.00 shd ef gr gs col32 s gr 
% Polyline
n 6279 -6748 m 6483 -6806 l 6483 -3788 l 6279 -3731 l
 cp gs col35 1.00 shd ef gr gs col35 s gr 
% Polyline
n 6483 -6806 m 6688 -6863 l 6688 -3846 l 6483 -3788 l
 cp gs col32 1.00 shd ef gr gs col32 s gr 
% Polyline
n 6688 -6863 m 6892 -6955 l 6892 -3869 l 6688 -3846 l
 cp gs col35 1.00 shd ef gr gs col35 s gr 
% Polyline
n 6892 -6955 m 7096 -7050 l 7096 -3915 l 6892 -3869 l
 cp gs col32 1.00 shd ef gr gs col32 s gr 
% Polyline
n 7096 -7050 m 7301 -7301 l 7301 -3938 l 7096 -3915 l
 cp gs col35 1.00 shd ef gr gs col35 s gr 
% Polyline
n 2026 -11746 m 2256 -11746 l 2256 -7669 l 2026 -7416 l
 cp gs col32 1.00 shd ef gr gs col32 s gr 
% Polyline
n 2256 -11746 m 2485 -11746 l 2485 -7785 l 2256 -7669 l
 cp gs col35 1.00 shd ef gr gs col35 s gr 
% Polyline
n 2485 -11746 m 2714 -11746 l 2714 -7877 l 2485 -7785 l
 cp gs col32 1.00 shd ef gr gs col32 s gr 
% Polyline
n 2714 -11746 m 2944 -11746 l 2944 -7946 l 2714 -7877 l
 cp gs col35 1.00 shd ef gr gs col35 s gr 
% Polyline
n 2944 -11746 m 3173 -11746 l 3173 -7992 l 2944 -7946 l
 cp gs col32 1.00 shd ef gr gs col32 s gr 
% Polyline
n 3173 -11746 m 3402 -11746 l 3402 -8038 l 3173 -7992 l
 cp gs col35 1.00 shd ef gr gs col35 s gr 
% Polyline
n 3402 -11746 m 3632 -11746 l 3632 -8061 l 3402 -8038 l
 cp gs col32 1.00 shd ef gr gs col32 s gr 
% Polyline
n 3632 -11746 m 3861 -11746 l 3861 -8084 l 3632 -8061 l
 cp gs col35 1.00 shd ef gr gs col35 s gr 
% Polyline
n 3861 -11746 m 4090 -11746 l 4090 -8107 l 3861 -8084 l
 cp gs col32 1.00 shd ef gr gs col32 s gr 
% Polyline
n 4090 -11746 m 4320 -11746 l 4320 -8120 l 4090 -8107 l
 cp gs col35 1.00 shd ef gr gs col35 s gr 
% Polyline
n 4320 -11746 m 4549 -11746 l 4549 -8130 l 4320 -8120 l
 cp gs col32 1.00 shd ef gr gs col32 s gr 
% Polyline
n 4549 -11746 m 4778 -11746 l 4778 -8130 l 4549 -8130 l
 cp gs col35 1.00 shd ef gr gs col35 s gr 
% Polyline
n 4778 -11746 m 5008 -11746 l 5008 -8120 l 4778 -8130 l
 cp gs col32 1.00 shd ef gr gs col32 s gr 
% Polyline
n 5008 -11746 m 5237 -11746 l 5237 -8107 l 5008 -8120 l
 cp gs col35 1.00 shd ef gr gs col35 s gr 
% Polyline
n 5237 -11746 m 5466 -11746 l 5466 -8084 l 5237 -8107 l
 cp gs col32 1.00 shd ef gr gs col32 s gr 
% Polyline
n 5466 -11746 m 5696 -11746 l 5696 -8061 l 5466 -8084 l
 cp gs col35 1.00 shd ef gr gs col35 s gr 
% Polyline
n 5696 -11746 m 5925 -11746 l 5925 -8038 l 5696 -8061 l
 cp gs col32 1.00 shd ef gr gs col32 s gr 
% Polyline
n 5925 -11746 m 6154 -11746 l 6154 -7992 l 5925 -8038 l
 cp gs col35 1.00 shd ef gr gs col35 s gr 
% Polyline
n 6154 -11746 m 6384 -11746 l 6384 -7946 l 6154 -7992 l
 cp gs col32 1.00 shd ef gr gs col32 s gr 
% Polyline
n 6384 -11746 m 6613 -11746 l 6613 -7877 l 6384 -7946 l
 cp gs col35 1.00 shd ef gr gs col35 s gr 
% Polyline
n 6613 -11746 m 6842 -11746 l 6842 -7785 l 6613 -7877 l
 cp gs col32 1.00 shd ef gr gs col32 s gr 
% Polyline
n 6842 -11746 m 7072 -11746 l 7072 -7669 l 6842 -7785 l
 cp gs col35 1.00 shd ef gr gs col35 s gr 
% Polyline
n 7072 -11746 m 7301 -11746 l 7301 -7416 l 7072 -7669 l
 cp gs col32 1.00 shd ef gr gs col32 s gr 
% Polyline
n 5666 -3178 m 5891 -2906 l 5891 -253 l 5666 -253 l
 cp gs col35 1.00 shd ef gr gs col35 s gr 
% Polyline
n 5891 -2906 m 6117 -2786 l 6117 -253 l 5891 -253 l
 cp gs col32 1.00 shd ef gr gs col32 s gr 
% Polyline
n 6117 -2786 m 6343 -2694 l 6343 -253 l 6117 -253 l
 cp gs col35 1.00 shd ef gr gs col35 s gr 
% Polyline
n 6343 -2694 m 6568 -2644 l 6568 -253 l 6343 -253 l
 cp gs col32 1.00 shd ef gr gs col32 s gr 
% Polyline
n 6568 -2644 m 6794 -2579 l 6794 -253 l 6568 -253 l
 cp gs col35 1.00 shd ef gr gs col35 s gr 
% Polyline
n 6794 -2579 m 7020 -2556 l 7020 -253 l 6794 -253 l
 cp gs col32 1.00 shd ef gr gs col32 s gr 
% Polyline
n 7020 -2556 m 7246 -2533 l 7246 -253 l 7020 -253 l
 cp gs col35 1.00 shd ef gr gs col35 s gr 
% Polyline
n 7246 -2533 m 7471 -2510 l 7471 -253 l 7246 -253 l
 cp gs col32 1.00 shd ef gr gs col32 s gr 
% Polyline
n 7471 -2510 m 7697 -2487 l 7697 -253 l 7471 -253 l
 cp gs col35 1.00 shd ef gr gs col35 s gr 
% Polyline
n 7697 -2487 m 7923 -2487 l 7923 -253 l 7697 -253 l
 cp gs col32 1.00 shd ef gr gs col32 s gr 
% Polyline
n 7923 -2487 m 8148 -2487 l 8148 -253 l 7923 -253 l
 cp gs col35 1.00 shd ef gr gs col35 s gr 
% Polyline
n 8148 -2487 m 8374 -2510 l 8374 -253 l 8148 -253 l
 cp gs col32 1.00 shd ef gr gs col32 s gr 
% Polyline
n 8374 -2510 m 8600 -2533 l 8600 -253 l 8374 -253 l
 cp gs col35 1.00 shd ef gr gs col35 s gr 
% Polyline
n 8600 -2533 m 8826 -2556 l 8826 -253 l 8600 -253 l
 cp gs col32 1.00 shd ef gr gs col32 s gr 
% Polyline
n 8826 -2556 m 9051 -2579 l 9051 -253 l 8826 -253 l
 cp gs col35 1.00 shd ef gr gs col35 s gr 
% Polyline
n 9051 -2579 m 9277 -2644 l 9277 -253 l 9051 -253 l
 cp gs col32 1.00 shd ef gr gs col32 s gr 
% Polyline
n 9277 -2644 m 9503 -2694 l 9503 -253 l 9277 -253 l
 cp gs col35 1.00 shd ef gr gs col35 s gr 
% Polyline
n 9503 -2694 m 9728 -2786 l 9728 -253 l 9503 -253 l
 cp gs col32 1.00 shd ef gr gs col32 s gr 
% Polyline
n 9728 -2786 m 9954 -2906 l 9954 -253 l 9728 -253 l
 cp gs col35 1.00 shd ef gr gs col35 s gr 
% Polyline
n 9954 -2906 m 10180 -3178 l 10180 -253 l 9954 -253 l
 cp gs col32 1.00 shd ef gr gs col32 s gr 
% Polyline
n 7324 -11746 m 7544 -11746 l 7544 -3938 l 7324 -3938 l
 cp gs col35 1.00 shd ef gr gs col35 s gr 
% Polyline
n 7544 -11746 m 7763 -11746 l 7763 -3961 l 7544 -3938 l
 cp gs col32 1.00 shd ef gr gs col32 s gr 
% Polyline
n 7763 -11746 m 7983 -11746 l 7983 -3961 l 7763 -3961 l
 cp gs col35 1.00 shd ef gr gs col35 s gr 
% Polyline
n 7983 -11746 m 8203 -11746 l 8203 -3961 l 7983 -3961 l
 cp gs col32 1.00 shd ef gr gs col32 s gr 
% Polyline
n 8203 -11746 m 8422 -11746 l 8422 -3938 l 8203 -3961 l
 cp gs col35 1.00 shd ef gr gs col35 s gr 
% Polyline
n 8422 -11746 m 8642 -11746 l 8642 -3915 l 8422 -3938 l
 cp gs col32 1.00 shd ef gr gs col32 s gr 
% Polyline
n 8642 -11746 m 8862 -11746 l 8862 -3892 l 8642 -3915 l
 cp gs col35 1.00 shd ef gr gs col35 s gr 
% Polyline
n 8862 -11746 m 9081 -11746 l 9081 -3846 l 8862 -3892 l
 cp gs col32 1.00 shd ef gr gs col32 s gr 
% Polyline
n 9081 -11746 m 9301 -11746 l 9301 -3800 l 9081 -3846 l
 cp gs col35 1.00 shd ef gr gs col35 s gr 
% Polyline
n 9301 -11746 m 9521 -11746 l 9521 -3745 l 9301 -3800 l
 cp gs col32 1.00 shd ef gr gs col32 s gr 
% Polyline
n 9521 -11746 m 9741 -11746 l 9741 -3662 l 9521 -3745 l
 cp gs col35 1.00 shd ef gr gs col35 s gr 
% Polyline
n 9741 -11746 m 9960 -11746 l 9960 -3536 l 9741 -3662 l
 cp gs col32 1.00 shd ef gr gs col32 s gr 
% Polyline
n 9960 -11746 m 10180 -11746 l 10180 -3270 l 9960 -3536 l
 cp gs col35 1.00 shd ef gr gs col35 s gr 
% Polyline
n 10203 -11746 m 10423 -11746 l 10423 -253 l 10203 -253 l
 cp gs col32 1.00 shd ef gr gs col32 s gr 
% Polyline
n 10423 -11746 m 10644 -11746 l 10644 -253 l 10423 -253 l
 cp gs col35 1.00 shd ef gr gs col35 s gr 
% Polyline
n 10644 -11746 m 10864 -11746 l 10864 -253 l 10644 -253 l
 cp gs col32 1.00 shd ef gr gs col32 s gr 
% Polyline
n 10864 -11746 m 11085 -11746 l 11085 -253 l 10864 -253 l
 cp gs col35 1.00 shd ef gr gs col35 s gr 
% Polyline
n 11085 -11746 m 11305 -11746 l 11305 -253 l 11085 -253 l
 cp gs col32 1.00 shd ef gr gs col32 s gr 
% Polyline
n 11305 -11746 m 11526 -11746 l 11526 -253 l 11305 -253 l
 cp gs col35 1.00 shd ef gr gs col35 s gr 
% Polyline
n 11526 -11746 m 11746 -11746 l 11746 -253 l 11526 -253 l
 cp gs col32 1.00 shd ef gr gs col32 s gr 
% Ellipse
n 7434 -3938 115 115 0 360 DrawEllipse gs col4 1.00 shd ef gr gs col4 s gr
% Polyline
n 253 -11746 m 2003 -11746 l 2003 -253 l 253 -253 l
 cp gs col0 s gr 
% Polyline
n 2026 -7301 m 2072 -7209 l 2234 -7047 l 2257 -7047 l 2280 -7024 l 2303 -7024 l
 2349 -6978 l 2372 -6978 l 2395 -6955 l 2441 -6955 l 2464 -6932 l
 2487 -6932 l 2510 -6909 l 2533 -6909 l 2556 -6886 l 2602 -6886 l
 2625 -6863 l 2671 -6863 l 2694 -6840 l 2740 -6840 l 2763 -6817 l
 2833 -6817 l 2856 -6794 l 2902 -6794 l 2925 -6771 l 2994 -6771 l
 3017 -6748 l 3109 -6748 l 3132 -6725 l 3224 -6725 l 3247 -6702 l
 3362 -6702 l 3385 -6679 l 3500 -6679 l 3523 -6656 l 3685 -6656 l
 3708 -6633 l 3915 -6633 l 3938 -6610 l 4307 -6610 l 4330 -6587 l
 4998 -6587 l 5021 -6610 l 5389 -6610 l 5412 -6633 l 5619 -6633 l
 5642 -6656 l 5642 -253 l 2026 -253 l
 cp gs col0 s gr 
% Polyline
n 5666 -6656 m 5804 -6656 l 5827 -6679 l 5942 -6679 l 5965 -6702 l 6080 -6702 l
 6103 -6725 l 6195 -6725 l 6218 -6748 l 6310 -6748 l 6333 -6771 l
 6403 -6771 l 6426 -6794 l 6472 -6794 l 6495 -6817 l 6564 -6817 l
 6587 -6840 l 6633 -6840 l 6656 -6863 l 6702 -6863 l 6725 -6886 l
 6771 -6886 l 6794 -6909 l 6817 -6909 l 6840 -6932 l 6863 -6932 l
 6886 -6955 l 6932 -6955 l 6955 -6978 l 6978 -6978 l 7024 -7024 l
 7047 -7024 l 7071 -7047 l 7094 -7047 l 7255 -7209 l 7301 -7301 l
 7301 -3938 l 7278 -3915 l 7094 -3915 l 7071 -3892 l 6932 -3892 l
 6909 -3869 l 6794 -3869 l 6771 -3846 l 6679 -3846 l 6656 -3823 l
 6587 -3823 l 6564 -3800 l 6495 -3800 l 6472 -3777 l 6403 -3777 l
 6380 -3754 l 6333 -3754 l 6310 -3731 l 6264 -3731 l 6241 -3708 l
 6195 -3708 l 6172 -3685 l 6149 -3685 l 6126 -3662 l 6103 -3662 l
 6080 -3639 l 6057 -3639 l 6034 -3616 l 6011 -3616 l 5988 -3593 l
 5965 -3593 l 5942 -3570 l 5919 -3570 l 5873 -3523 l 5850 -3523 l
 5712 -3385 l 5689 -3339 l 5666 -3270 l
 cp gs col0 s gr 
% Polyline
n 2026 -11746 m 7301 -11746 l 7301 -7416 l 7255 -7508 l 7094 -7669 l 7071 -7669 l
 7047 -7692 l 7024 -7692 l 6978 -7738 l 6955 -7738 l 6932 -7761 l
 6886 -7761 l 6863 -7785 l 6840 -7785 l 6817 -7808 l 6794 -7808 l
 6771 -7831 l 6725 -7831 l 6702 -7854 l 6656 -7854 l 6633 -7877 l
 6587 -7877 l 6564 -7900 l 6495 -7900 l 6472 -7923 l 6426 -7923 l
 6403 -7946 l 6333 -7946 l 6310 -7969 l 6218 -7969 l 6195 -7992 l
 6103 -7992 l 6080 -8015 l 5965 -8015 l 5942 -8038 l 5827 -8038 l
 5804 -8061 l 5642 -8061 l 5619 -8084 l 5412 -8084 l 5389 -8107 l
 5021 -8107 l 4998 -8130 l 4330 -8130 l 4307 -8107 l 3938 -8107 l
 3915 -8084 l 3708 -8084 l 3685 -8061 l 3523 -8061 l 3500 -8038 l
 3385 -8038 l 3362 -8015 l 3247 -8015 l 3224 -7992 l 3132 -7992 l
 3109 -7969 l 3017 -7969 l 2994 -7946 l 2925 -7946 l 2902 -7923 l
 2856 -7923 l 2833 -7900 l 2763 -7900 l 2740 -7877 l 2694 -7877 l
 2671 -7854 l 2625 -7854 l 2602 -7831 l 2556 -7831 l 2533 -7808 l
 2510 -7808 l 2487 -7785 l 2464 -7785 l 2441 -7761 l 2395 -7761 l
 2372 -7738 l 2349 -7738 l 2303 -7692 l 2280 -7692 l 2257 -7669 l
 2234 -7669 l 2072 -7508 l 2026 -7416 l
 cp gs col0 s gr 
% Polyline
n 5666 -3178 m 5689 -3109 l 5712 -3063 l 5850 -2925 l 5873 -2925 l 5919 -2879 l
 5942 -2879 l 5965 -2856 l 5988 -2856 l 6011 -2833 l 6034 -2833 l
 6057 -2809 l 6080 -2809 l 6103 -2786 l 6126 -2786 l 6149 -2763 l
 6172 -2763 l 6195 -2740 l 6241 -2740 l 6264 -2717 l 6310 -2717 l
 6333 -2694 l 6380 -2694 l 6403 -2671 l 6472 -2671 l 6495 -2648 l
 6564 -2648 l 6587 -2625 l 6656 -2625 l 6679 -2602 l 6771 -2602 l
 6794 -2579 l 6909 -2579 l 6932 -2556 l 7071 -2556 l 7094 -2533 l
 7278 -2533 l 7301 -2510 l 7600 -2510 l 7623 -2487 l 8222 -2487 l
 8245 -2510 l 8545 -2510 l 8568 -2533 l 8752 -2533 l 8775 -2556 l
 8913 -2556 l 8936 -2579 l 9051 -2579 l 9074 -2602 l 9166 -2602 l
 9190 -2625 l 9259 -2625 l 9282 -2648 l 9351 -2648 l 9374 -2671 l
 9443 -2671 l 9466 -2694 l 9512 -2694 l 9535 -2717 l 9581 -2717 l
 9604 -2740 l 9650 -2740 l 9673 -2763 l 9696 -2763 l 9719 -2786 l
 9742 -2786 l 9765 -2809 l 9788 -2809 l 9811 -2833 l 9834 -2833 l
 9857 -2856 l 9880 -2856 l 9904 -2879 l 9927 -2879 l 9973 -2925 l
 9996 -2925 l 10134 -3063 l 10157 -3109 l 10180 -3178 l 10180 -253 l
 5666 -253 l
 cp gs col0 s gr 
% Polyline
n 7324 -11746 m 10180 -11746 l 10180 -3270 l 10157 -3339 l 10134 -3385 l 9996 -3523 l
 9973 -3523 l 9927 -3570 l 9904 -3570 l 9880 -3593 l 9857 -3593 l
 9834 -3616 l 9811 -3616 l 9788 -3639 l 9765 -3639 l 9742 -3662 l
 9719 -3662 l 9696 -3685 l 9673 -3685 l 9650 -3708 l 9604 -3708 l
 9581 -3731 l 9535 -3731 l 9512 -3754 l 9466 -3754 l 9443 -3777 l
 9374 -3777 l 9351 -3800 l 9282 -3800 l 9259 -3823 l 9190 -3823 l
 9166 -3846 l 9074 -3846 l 9051 -3869 l 8936 -3869 l 8913 -3892 l
 8775 -3892 l 8752 -3915 l 8568 -3915 l 8545 -3938 l 8245 -3938 l
 8222 -3961 l 7623 -3961 l 7600 -3938 l 7324 -3938 l
 cp gs col0 s gr 
% Polyline
n 10203 -11746 m 11746 -11746 l 11746 -253 l 10203 -253 l
 cp gs col0 s gr 
% Polyline
n 253 -11746 m 472 -11746 l 472 -253 l 253 -253 l
 cp gs col0 s gr 
% Polyline
n 472 -11746 m 690 -11746 l 690 -253 l 472 -253 l
 cp gs col0 s gr 
% Polyline
n 690 -11746 m 909 -11746 l 909 -253 l 690 -253 l
 cp gs col0 s gr 
% Polyline
n 909 -11746 m 1128 -11746 l 1128 -253 l 909 -253 l
 cp gs col0 s gr 
% Polyline
n 1128 -11746 m 1347 -11746 l 1347 -253 l 1128 -253 l
 cp gs col0 s gr 
% Polyline
n 1347 -11746 m 1566 -11746 l 1566 -253 l 1347 -253 l
 cp gs col0 s gr 
% Polyline
n 1566 -11746 m 1785 -11746 l 1785 -253 l 1566 -253 l
 cp gs col0 s gr 
% Polyline
n 1785 -11746 m 2003 -11746 l 2003 -253 l 1785 -253 l
 cp gs col0 s gr 
% Polyline
n 2026 -7301 m 2252 -7047 l 2252 -253 l 2026 -253 l
 cp gs col0 s gr 
% Polyline
n 2252 -7047 m 2478 -6932 l 2478 -253 l 2252 -253 l
 cp gs col0 s gr 
% Polyline
n 2478 -6932 m 2704 -6840 l 2704 -253 l 2478 -253 l
 cp gs col0 s gr 
% Polyline
n 2704 -6840 m 2930 -6771 l 2930 -253 l 2704 -253 l
 cp gs col0 s gr 
% Polyline
n 2930 -6771 m 3156 -6725 l 3156 -253 l 2930 -253 l
 cp gs col0 s gr 
% Polyline
n 3156 -6725 m 3382 -6682 l 3382 -253 l 3156 -253 l
 cp gs col0 s gr 
% Polyline
n 3382 -6682 m 3608 -6656 l 3608 -253 l 3382 -253 l
 cp gs col0 s gr 
% Polyline
n 3608 -6656 m 3834 -6633 l 3834 -253 l 3608 -253 l
 cp gs col0 s gr 
% Polyline
n 3834 -6633 m 4060 -6610 l 4060 -253 l 3834 -253 l
 cp gs col0 s gr 
% Polyline
n 4060 -6610 m 4286 -6610 l 4286 -253 l 4060 -253 l
 cp gs col0 s gr 
% Polyline
n 4286 -6610 m 4512 -6587 l 4512 -253 l 4286 -253 l
 cp gs col0 s gr 
% Polyline
n 4512 -6587 m 4738 -6587 l 4738 -253 l 4512 -253 l
 cp gs col0 s gr 
% Polyline
n 4738 -6587 m 4964 -6587 l 4964 -253 l 4738 -253 l
 cp gs col0 s gr 
% Polyline
n 4964 -6587 m 5190 -6610 l 5190 -253 l 4964 -253 l
 cp gs col0 s gr 
% Polyline
n 5190 -6610 m 5416 -6633 l 5416 -253 l 5190 -253 l
 cp gs col0 s gr 
% Polyline
n 5416 -6633 m 5642 -6656 l 5642 -253 l 5416 -253 l
 cp gs col0 s gr 
% Polyline
n 5666 -6656 m 5870 -6679 l 5870 -3523 l 5666 -3270 l
 cp gs col0 s gr 
% Polyline
n 5870 -6679 m 6074 -6702 l 6074 -3639 l 5870 -3523 l
 cp gs col0 s gr 
% Polyline
n 6074 -6702 m 6279 -6748 l 6279 -3731 l 6074 -3639 l
 cp gs col0 s gr 
% Polyline
n 6279 -6748 m 6483 -6806 l 6483 -3788 l 6279 -3731 l
 cp gs col0 s gr 
% Polyline
n 6483 -6806 m 6688 -6863 l 6688 -3846 l 6483 -3788 l
 cp gs col0 s gr 
% Polyline
n 6688 -6863 m 6892 -6955 l 6892 -3869 l 6688 -3846 l
 cp gs col0 s gr 
% Polyline
n 6892 -6955 m 7096 -7050 l 7096 -3915 l 6892 -3869 l
 cp gs col0 s gr 
% Polyline
n 7096 -7050 m 7301 -7301 l 7301 -3938 l 7096 -3915 l
 cp gs col0 s gr 
% Polyline
n 2026 -11746 m 2256 -11746 l 2256 -7669 l 2026 -7416 l
 cp gs col0 s gr 
% Polyline
n 2256 -11746 m 2485 -11746 l 2485 -7785 l 2256 -7669 l
 cp gs col0 s gr 
% Polyline
n 2485 -11746 m 2714 -11746 l 2714 -7877 l 2485 -7785 l
 cp gs col0 s gr 
% Polyline
n 2714 -11746 m 2944 -11746 l 2944 -7946 l 2714 -7877 l
 cp gs col0 s gr 
% Polyline
n 2944 -11746 m 3173 -11746 l 3173 -7992 l 2944 -7946 l
 cp gs col0 s gr 
% Polyline
n 3173 -11746 m 3402 -11746 l 3402 -8038 l 3173 -7992 l
 cp gs col0 s gr 
% Polyline
n 3402 -11746 m 3632 -11746 l 3632 -8061 l 3402 -8038 l
 cp gs col0 s gr 
% Polyline
n 3632 -11746 m 3861 -11746 l 3861 -8084 l 3632 -8061 l
 cp gs col0 s gr 
% Polyline
n 3861 -11746 m 4090 -11746 l 4090 -8107 l 3861 -8084 l
 cp gs col0 s gr 
% Polyline
n 4090 -11746 m 4320 -11746 l 4320 -8120 l 4090 -8107 l
 cp gs col0 s gr 
% Polyline
n 4320 -11746 m 4549 -11746 l 4549 -8130 l 4320 -8120 l
 cp gs col0 s gr 
% Polyline
n 4549 -11746 m 4778 -11746 l 4778 -8130 l 4549 -8130 l
 cp gs col0 s gr 
% Polyline
n 4778 -11746 m 5008 -11746 l 5008 -8120 l 4778 -8130 l
 cp gs col0 s gr 
% Polyline
n 5008 -11746 m 5237 -11746 l 5237 -8107 l 5008 -8120 l
 cp gs col0 s gr 
% Polyline
n 5237 -11746 m 5466 -11746 l 5466 -8084 l 5237 -8107 l
 cp gs col0 s gr 
% Polyline
n 5466 -11746 m 5696 -11746 l 5696 -8061 l 5466 -8084 l
 cp gs col0 s gr 
% Polyline
n 5696 -11746 m 5925 -11746 l 5925 -8038 l 5696 -8061 l
 cp gs col0 s gr 
% Polyline
n 5925 -11746 m 6154 -11746 l 6154 -7992 l 5925 -8038 l
 cp gs col0 s gr 
% Polyline
n 6154 -11746 m 6384 -11746 l 6384 -7946 l 6154 -7992 l
 cp gs col0 s gr 
% Polyline
n 6384 -11746 m 6613 -11746 l 6613 -7877 l 6384 -7946 l
 cp gs col0 s gr 
% Polyline
n 6613 -11746 m 6842 -11746 l 6842 -7785 l 6613 -7877 l
 cp gs col0 s gr 
% Polyline
n 6842 -11746 m 7072 -11746 l 7072 -7669 l 6842 -7785 l
 cp gs col0 s gr 
% Polyline
n 7072 -11746 m 7301 -11746 l 7301 -7416 l 7072 -7669 l
 cp gs col0 s gr 
% Polyline
n 5666 -3178 m 5891 -2906 l 5891 -253 l 5666 -253 l
 cp gs col0 s gr 
% Polyline
n 5891 -2906 m 6117 -2786 l 6117 -253 l 5891 -253 l
 cp gs col0 s gr 
% Polyline
n 6117 -2786 m 6343 -2694 l 6343 -253 l 6117 -253 l
 cp gs col0 s gr 
% Polyline
n 6343 -2694 m 6568 -2644 l 6568 -253 l 6343 -253 l
 cp gs col0 s gr 
% Polyline
n 6568 -2644 m 6794 -2579 l 6794 -253 l 6568 -253 l
 cp gs col0 s gr 
% Polyline
n 6794 -2579 m 7020 -2556 l 7020 -253 l 6794 -253 l
 cp gs col0 s gr 
% Polyline
n 7020 -2556 m 7246 -2533 l 7246 -253 l 7020 -253 l
 cp gs col0 s gr 
% Polyline
n 7246 -2533 m 7471 -2510 l 7471 -253 l 7246 -253 l
 cp gs col0 s gr 
% Polyline
n 7471 -2510 m 7697 -2487 l 7697 -253 l 7471 -253 l
 cp gs col0 s gr 
% Polyline
n 7697 -2487 m 7923 -2487 l 7923 -253 l 7697 -253 l
 cp gs col0 s gr 
% Polyline
n 7923 -2487 m 8148 -2487 l 8148 -253 l 7923 -253 l
 cp gs col0 s gr 
% Polyline
n 8148 -2487 m 8374 -2510 l 8374 -253 l 8148 -253 l
 cp gs col0 s gr 
% Polyline
n 8374 -2510 m 8600 -2533 l 8600 -253 l 8374 -253 l
 cp gs col0 s gr 
% Polyline
n 8600 -2533 m 8826 -2556 l 8826 -253 l 8600 -253 l
 cp gs col0 s gr 
% Polyline
n 8826 -2556 m 9051 -2579 l 9051 -253 l 8826 -253 l
 cp gs col0 s gr 
% Polyline
n 9051 -2579 m 9277 -2644 l 9277 -253 l 9051 -253 l
 cp gs col0 s gr 
% Polyline
n 9277 -2644 m 9503 -2694 l 9503 -253 l 9277 -253 l
 cp gs col0 s gr 
% Polyline
n 9503 -2694 m 9728 -2786 l 9728 -253 l 9503 -253 l
 cp gs col0 s gr 
% Polyline
n 9728 -2786 m 9954 -2906 l 9954 -253 l 9728 -253 l
 cp gs col0 s gr 
% Polyline
n 9954 -2906 m 10180 -3178 l 10180 -253 l 9954 -253 l
 cp gs col0 s gr 
% Polyline
n 7324 -11746 m 7544 -11746 l 7544 -3938 l 7324 -3938 l
 cp gs col0 s gr 
% Polyline
n 7544 -11746 m 7763 -11746 l 7763 -3961 l 7544 -3938 l
 cp gs col0 s gr 
% Polyline
n 7763 -11746 m 7983 -11746 l 7983 -3961 l 7763 -3961 l
 cp gs col0 s gr 
% Polyline
n 7983 -11746 m 8203 -11746 l 8203 -3961 l 7983 -3961 l
 cp gs col0 s gr 
% Polyline
n 8203 -11746 m 8422 -11746 l 8422 -3938 l 8203 -3961 l
 cp gs col0 s gr 
% Polyline
n 8422 -11746 m 8642 -11746 l 8642 -3915 l 8422 -3938 l
 cp gs col0 s gr 
% Polyline
n 8642 -11746 m 8862 -11746 l 8862 -3892 l 8642 -3915 l
 cp gs col0 s gr 
% Polyline
n 8862 -11746 m 9081 -11746 l 9081 -3846 l 8862 -3892 l
 cp gs col0 s gr 
% Polyline
n 9081 -11746 m 9301 -11746 l 9301 -3800 l 9081 -3846 l
 cp gs col0 s gr 
% Polyline
n 9301 -11746 m 9521 -11746 l 9521 -3745 l 9301 -3800 l
 cp gs col0 s gr 
% Polyline
n 9521 -11746 m 9741 -11746 l 9741 -3662 l 9521 -3745 l
 cp gs col0 s gr 
% Polyline
n 9741 -11746 m 9960 -11746 l 9960 -3536 l 9741 -3662 l
 cp gs col0 s gr 
% Polyline
n 9960 -11746 m 10180 -11746 l 10180 -3270 l 9960 -3536 l
 cp gs col0 s gr 
% Polyline
n 10203 -11746 m 10423 -11746 l 10423 -253 l 10203 -253 l
 cp gs col0 s gr 
% Polyline
n 10423 -11746 m 10644 -11746 l 10644 -253 l 10423 -253 l
 cp gs col0 s gr 
% Polyline
n 10644 -11746 m 10864 -11746 l 10864 -253 l 10644 -253 l
 cp gs col0 s gr 
% Polyline
n 10864 -11746 m 11085 -11746 l 11085 -253 l 10864 -253 l
 cp gs col0 s gr 
% Polyline
n 11085 -11746 m 11305 -11746 l 11305 -253 l 11085 -253 l
 cp gs col0 s gr 
% Polyline
n 11305 -11746 m 11526 -11746 l 11526 -253 l 11305 -253 l
 cp gs col0 s gr 
% Polyline
n 11526 -11746 m 11746 -11746 l 11746 -253 l 11526 -253 l
 cp gs col0 s gr 
% Polyline
n 7434 -3914 m 7437 -3868 l 7444 -3822 l 7453 -3777 l 7465 -3733 l 7480 -3689 l
 7498 -3647 l 7519 -3606 l 7950 -2819 l 7962 -2798 l 7981 -2756 l
 7998 -2713 l 8011 -2669 l 8022 -2624 l 8029 -2579 l 8034 -2533 l
 8036 -2487 l 8036 -253 l 8035 -227 l 8032 -181 l 8026 -135 l
 8016 -90 l 8004 -46 l 7989 -2 l 7971 39 l 7950 80 l
 7926 119 l 7900 157 l 7871 193 l 7840 228 l 7807 260 l
 7772 289 l 7735 316 l 7696 341 l 7655 363 l 7614 383 l
 7571 399 l 7527 413 l 7482 423 l 7436 431 l 7391 436 l
 7345 437 l 7147 437 l 7121 437 l 7075 433 l 7029 427 l
 6984 418 l 6940 405 l 6896 390 l 6854 372 l 6813 351 l
 6773 328 l 6735 301 l 6699 273 l 6665 242 l 6633 209 l
 6603 173 l 6576 136 l 6552 97 l 6529 57 l 6510 15 l
 6494 -27 l 6480 -71 l 6469 -116 l 6462 -161 l 6457 -207 l
 6456 -253 l 6456 -2694 l 6457 -2737 l 6461 -2783 l 6580 -3700 l
 6584 -3742 l 6585 -3788 l 6585 -6863 l 6586 -6893 l 6590 -6939 l
 6596 -6984 l 6717 -7664 l 6721 -7693 l 6726 -7738 l 6728 -7785 l
 6728 -11746 l 6727 -11772 l 6724 -11818 l 6717 -11864 l 6708 -11909 l
 6696 -11953 l 6681 -11997 l 6662 -12039 l 6642 -12080 l 6618 -12119 l
 6592 -12157 l 6563 -12193 l 6532 -12228 l 6499 -12260 l 6464 -12289 l
 6427 -12316 l 6388 -12341 l 6347 -12363 l 6306 -12383 l 6263 -12399 l
 6219 -12413 l 6174 -12423 l 6128 -12431 l 6083 -12436 l 6037 -12437 l
 5813 -12437 l 5787 -12437 l 5741 -12433 l 5696 -12427 l 5651 -12418 l
 5606 -12405 l 5563 -12390 l 5521 -12372 l 5479 -12351 l 5440 -12328 l
 5402 -12301 l 5366 -12273 l 5332 -12242 l 5300 -12209 l 5270 -12173 l
 5243 -12136 l 5218 -12097 l 5196 -12057 l 5177 -12015 l 5160 -11972 l
 5147 -11928 l 5136 -11883 l 5128 -11838 l 5124 -11792 l 5122 -11746 l
 5122 -8107 l 5122 -8102 l 5120 -8056 l 5115 -8010 l 5108 -7965 l
 5097 -7920 l 5083 -7876 l 5066 -7833 l 5046 -7792 l 5024 -7752 l
 4999 -7713 l 4971 -7676 l 4941 -7641 l 4909 -7608 l 4875 -7577 l
 4839 -7549 l 4801 -7523 l 4761 -7500 l 4720 -7479 l 4677 -7461 l
 4634 -7446 l 4210 -7317 l 4205 -7315 l 4162 -7300 l 4120 -7282 l
 4079 -7261 l 4039 -7237 l 4001 -7211 l 3965 -7183 l 3931 -7152 l
 3899 -7118 l 3869 -7083 l 3842 -7046 l 3817 -7007 l 3795 -6967 l
 3776 -6925 l 3759 -6882 l 3746 -6838 l 3735 -6793 l 3728 -6748 l
 3723 -6702 l 3721 -6656 l 3721 -253 l 3721 -227 l 3718 -181 l
 3711 -135 l 3702 -90 l 3690 -46 l 3674 -2 l 3656 39 l
 3635 80 l 3612 119 l 3586 157 l 3557 193 l 3526 228 l
 3493 260 l 3458 289 l 3421 316 l 3382 341 l 3341 363 l
 3300 383 l 3257 399 l 3213 413 l 3168 423 l 3122 431 l
 3076 436 l 3030 437 l 2366 437 l 2340 437 l 2294 433 l
 2249 427 l 2204 418 l 2159 405 l 2116 390 l 2073 372 l
 2032 351 l 1993 328 l 1955 301 l 1919 273 l 1885 242 l
 1853 209 l 1823 173 l 1796 136 l 1771 97 l 1749 57 l
 1730 15 l 1713 -27 l 1700 -71 l 1689 -116 l 1681 -161 l
 1677 -207 l 1675 -253 l 1675 -11746 l 1676 -11772 l 1679 -11818 l
 1685 -11864 l 1695 -11909 l 1707 -11953 l 1722 -11997 l 1740 -12039 l
 1761 -12080 l 1785 -12119 l 1811 -12157 l 1839 -12193 l 1870 -12228 l
 1904 -12260 l 1939 -12289 l 1976 -12316 l 2015 -12341 l 2055 -12363 l
 2097 -12383 l 2140 -12399 l 2184 -12413 l 2229 -12423 l 2274 -12431 l
 2320 -12436 l 2366 -12437 l 2597 -12437 l 2623 -12437 l 2669 -12433 l
 2714 -12427 l 2759 -12418 l 2804 -12405 l 2847 -12390 l 2889 -12372 l
 2930 -12351 l 2970 -12328 l 3008 -12301 l 3044 -12273 l 3078 -12242 l
 3110 -12209 l 3140 -12173 l 3167 -12136 l 3192 -12097 l 3214 -12057 l
 3233 -12015 l 3250 -11972 l 3263 -11928 l 3274 -11883 l 3282 -11838 l
 3286 -11792 l 3288 -11746 l 3288 -7992 l 3288 -7982 l 3269 -6735 l
 3269 -6725 l 3269 -253 l 3270 -227 l 3273 -181 l 3279 -135 l
 3289 -90 l 3301 -46 l 3316 -2 l 3334 39 l 3355 80 l
 3379 119 l 3405 157 l 3434 193 l 3465 228 l 3498 260 l
 3533 289 l 3570 316 l 3609 341 l 3650 363 l 3691 383 l
 3734 399 l 3778 413 l 3823 423 l 3869 431 l 3914 436 l
 3960 437 l 4160 437 l 4186 437 l 4232 433 l 4278 427 l
 4323 418 l 4367 405 l 4411 390 l 4453 372 l 4494 351 l
 4534 328 l 4572 301 l 4608 273 l 4642 242 l 4674 209 l
 4704 173 l 4731 136 l 4756 97 l 4778 57 l 4797 15 l
 4813 -27 l 4827 -71 l 4838 -116 l 4845 -161 l 4850 -207 l
 4851 -253 l 4851 -6587 l 4852 -6606 l 4893 -8101 l 4893 -8120 l
 4893 -11746 l 4893 -11772 l 4897 -11818 l 4903 -11864 l 4912 -11909 l
 4925 -11953 l 4940 -11997 l 4958 -12039 l 4979 -12080 l 5002 -12119 l
 5029 -12157 l 5057 -12193 l 5088 -12228 l 5121 -12260 l 5157 -12289 l
 5194 -12316 l 5233 -12341 l 5273 -12363 l 5315 -12383 l 5358 -12399 l
 5402 -12413 l 5447 -12423 l 5492 -12431 l 5538 -12436 l 5584 -12437 l
 5807 -12437 l 5833 -12437 l 5879 -12433 l 5925 -12427 l 5970 -12418 l
 6014 -12405 l 6058 -12390 l 6100 -12372 l 6141 -12351 l 6181 -12328 l
 6218 -12301 l 6255 -12273 l 6289 -12242 l 6321 -12209 l 6350 -12173 l
 6378 -12136 l 6402 -12097 l 6424 -12057 l 6444 -12015 l 6460 -11972 l
 6474 -11928 l 6484 -11883 l 6492 -11838 l 6497 -11792 l 6498 -11746 l
 6498 -7877 l 6497 -7841 l 6493 -7795 l 6386 -6887 l 6383 -6852 l
 6381 -6806 l 6381 -3731 l 6380 -3697 l 6376 -3651 l 6369 -3605 l
 6241 -2912 l 6236 -2878 l 6231 -2832 l 6230 -2786 l 6230 -253 l
 6230 -227 l 6234 -181 l 6240 -135 l 6249 -90 l 6262 -46 l
 6277 -2 l 6295 39 l 6316 80 l 6339 119 l 6366 157 l
 6394 193 l 6425 228 l 6458 260 l 6494 289 l 6531 316 l
 6570 341 l 6610 363 l 6652 383 l 6695 399 l 6739 413 l
 6784 423 l 6829 431 l 6875 436 l 6921 437 l 7119 437 l
 7145 437 l 7191 433 l 7236 427 l 7281 418 l 7326 405 l
 7369 390 l 7412 372 l 7453 351 l 7492 328 l 7530 301 l
 7566 273 l 7600 242 l 7632 209 l 7662 173 l 7689 136 l
 7714 97 l 7736 57 l 7755 15 l 7772 -27 l 7785 -71 l
 7796 -116 l 7804 -161 l 7808 -207 l 7810 -253 l 7810 -2487 l
 7809 -2519 l 7805 -2565 l 7658 -3860 l 7655 -3892 l 7653 -3938 l
 7653 -11746 l 7653 -11772 l 7650 -11818 l 7643 -11864 l 7634 -11909 l
 7622 -11953 l 7606 -11997 l 7588 -12039 l 7567 -12080 l 7544 -12119 l
 7518 -12157 l 7489 -12193 l 7458 -12228 l 7425 -12260 l 7390 -12289 l
 7353 -12316 l 7314 -12341 l 7273 -12363 l 7232 -12383 l 7189 -12399 l
 7145 -12413 l 7100 -12423 l 7054 -12431 l 7008 -12436 l 6962 -12437 l
 6272 -12437 l 6246 -12437 l 6200 -12433 l 6154 -12427 l 6109 -12418 l
 6065 -12405 l 6022 -12390 l 5979 -12372 l 5938 -12351 l 5899 -12328 l
 5861 -12301 l 5825 -12273 l 5790 -12242 l 5759 -12209 l 5729 -12173 l
 5702 -12136 l 5677 -12097 l 5655 -12057 l 5635 -12015 l 5619 -11972 l
 5605 -11928 l 5595 -11883 l 5587 -11838 l 5582 -11792 l 5581 -11746 l
 5581 -8061 l 5582 -8015 l 5587 -7969 l 5595 -7924 l 5605 -7879 l
 5619 -7835 l 5842 -7190 l 5844 -7185 l 5861 -7142 l 5881 -7100 l
 5903 -7060 l 5928 -7021 l 5956 -6984 l 5986 -6949 l 6018 -6916 l
 6052 -6886 l 6089 -6857 l 6127 -6832 l 6166 -6808 l 6208 -6788 l
 6250 -6770 l 6294 -6755 l 6338 -6743 l 6383 -6734 l 6429 -6728 l
 6475 -6725 l 6521 -6726 l 6567 -6729 l 6613 -6735 l 6658 -6744 l
 6702 -6757 l 6746 -6772 l 6788 -6790 l 6829 -6811 l 6869 -6835 l
 6906 -6861 l 6943 -6889 l 6977 -6920 l 7009 -6954 l 7038 -6989 l
 7065 -7026 l 7090 -7065 l 7112 -7105 l 7132 -7147 l 7148 -7190 l
 7162 -7234 l 7172 -7279 l 7180 -7324 l 7185 -7370 l 7186 -7416 l
 7186 -11746 l 7187 -11784 l 7191 -11830 l 7198 -11875 l 7209 -11920 l
 7222 -11965 l 7238 -12008 l 7256 -12050 l 7278 -12090 l 7302 -12130 l
 7329 -12167 l 7358 -12203 l 7390 -12236 l 7424 -12267 l 7459 -12297 l
 7497 -12323 l 7536 -12347 l 7577 -12369 l 7619 -12387 l 7663 -12403 l
 7707 -12416 l 7752 -12426 l 7797 -12432 l 7843 -12436 l 7889 -12437 l
 7935 -12435 l 7981 -12429 l 8026 -12421 l 8071 -12409 l 8115 -12395 l
 8157 -12378 l 8199 -12358 l 8239 -12335 l 8277 -12310 l 8314 -12282 l
 8349 -12251 l 8381 -12219 l 8412 -12184 l 8440 -12148 l 8465 -12109 l
 8488 -12069 l 8508 -12028 l 8525 -11985 l 8540 -11942 l 8551 -11897 l
 8560 -11852 l 8566 -11806 l 8568 -11760 l 8567 -11714 l 8564 -11668 l
 8557 -11622 l 8547 -11577 l 8534 -11533 l 7232 -7514 l 7223 -7483 l
 7212 -7438 l 7205 -7393 l 7200 -7347 l 7199 -7301 l 7199 -3915 l
 7198 -3881 l 7134 -2590 l 7133 -2556 l 7133 -253 l 7133 -227 l
 7136 -181 l 7143 -135 l 7152 -90 l 7164 -46 l 7180 -2 l
 7198 39 l 7219 80 l 7242 119 l 7268 157 l 7297 193 l
 7328 228 l 7361 260 l 7396 289 l 7434 316 l 7472 341 l
 7513 363 l 7555 383 l 7598 399 l 7642 413 l 7686 423 l
 7732 431 l 7778 436 l 7824 437 l 8022 437 l 8048 437 l
 8094 433 l 8139 427 l 8184 418 l 8229 405 l 8272 390 l
 8314 372 l 8356 351 l 8395 328 l 8433 301 l 8469 273 l
 8503 242 l 8535 209 l 8565 173 l 8592 136 l 8617 97 l
 8639 57 l 8658 15 l 8675 -27 l 8688 -71 l 8699 -116 l
 8707 -161 l 8711 -207 l 8713 -253 l 8713 -2556 l 8713 -2562 l
 8711 -2608 l 8706 -2654 l 8539 -3817 l 8538 -3823 l 8534 -3869 l
 8532 -3915 l 8532 -11746 l 8532 -11772 l 8528 -11818 l 8522 -11864 l
 8513 -11909 l 8500 -11953 l 8485 -11997 l 8467 -12039 l 8446 -12080 l
 8423 -12119 l 8397 -12157 l 8368 -12193 l 8337 -12228 l 8304 -12260 l
 8269 -12289 l 8231 -12316 l 8193 -12341 l 8152 -12363 l 8110 -12383 l
 8067 -12399 l 8023 -12413 l 7979 -12423 l 7933 -12431 l 7887 -12436 l
 7841 -12437 l 7648 -12437 l 7622 -12437 l 7576 -12433 l 7530 -12427 l
 7485 -12418 l 7441 -12405 l 7397 -12390 l 7355 -12372 l 7314 -12351 l
 7274 -12328 l 7237 -12301 l 7201 -12273 l 7166 -12242 l 7134 -12209 l
 7105 -12173 l 7078 -12136 l 7053 -12097 l 7031 -12057 l 7011 -12015 l
 6995 -11972 l 6981 -11928 l 6971 -11883 l 6963 -11838 l 6958 -11792 l
 6957 -11746 l 6957 -7669 l 6957 -7669 l 6955 -7623 l 6951 -7577 l
 6943 -7531 l 6932 -7487 l 6919 -7443 l 6828 -7182 l 6828 -7181 l
 6814 -7137 l 6804 -7093 l 6796 -7047 l 6791 -7001 l 6790 -6955 l
 6790 -3846 l 6790 -3826 l 6787 -3780 l 6684 -2709 l 6683 -2690 l
 6681 -2644 l 6681 -253 l 6682 -215 l 6683 -179 l 6682 -133 l
 6678 -87 l 6670 -42 l 6660 2 l 6646 46 l 6630 89 l
 6611 131 l 6589 171 l 6564 210 l 6537 247 l 6507 283 l
 6475 316 l 6442 347 l 6406 376 l 6368 402 l 6328 426 l
 6287 447 l 6245 465 l 6202 481 l 6157 493 l 6112 503 l
 6067 509 l 6021 512 l 5975 513 l 5929 510 l 5883 504 l
 5838 496 l 5793 484 l 5750 469 l 5707 451 l 5666 431 l
 5626 408 l 5588 382 l 5551 354 l 5517 323 l 5484 291 l
 5454 256 l 5427 219 l 5402 180 l 5379 140 l 5359 99 l
 5342 56 l 5328 12 l 5317 -32 l 5309 -77 l 5304 -123 l
 5301 -169 l 5302 -215 l 5303 -253 l 5303 -6633 l 5304 -6654 l
 5307 -6700 l 5313 -6746 l 5322 -6791 l 5334 -6835 l 5349 -6879 l
 5367 -6921 l 5747 -7749 l 5756 -7769 l 5772 -7812 l 5786 -7856 l
 5796 -7901 l 5804 -7946 l 5809 -7992 l 5810 -8038 l 5810 -11746 l
 5810 -11772 l 5806 -11818 l 5800 -11864 l 5791 -11909 l 5779 -11953 l
 5763 -11997 l 5745 -12039 l 5724 -12080 l 5701 -12119 l 5675 -12157 l
 5646 -12193 l 5615 -12228 l 5582 -12260 l 5547 -12289 l 5509 -12316 l
 5471 -12341 l 5430 -12363 l 5388 -12383 l 5345 -12399 l 5301 -12413 l
 5257 -12423 l 5211 -12431 l 5165 -12436 l 5119 -12437 l 4896 -12437 l
 4870 -12437 l 4824 -12433 l 4778 -12427 l 4733 -12418 l 4689 -12405 l
 4646 -12390 l 4603 -12372 l 4562 -12351 l 4523 -12328 l 4485 -12301 l
 4449 -12273 l 4415 -12242 l 4383 -12209 l 4353 -12173 l 4326 -12136 l
 4301 -12097 l 4279 -12057 l 4260 -12015 l 4243 -11972 l 4229 -11928 l
 4219 -11883 l 4211 -11838 l 4206 -11792 l 4205 -11746 l 4205 -8107 l
 4205 -8092 l 4174 -6625 l 4173 -6610 l 4173 -253 l 4174 -227 l
 4177 -181 l 4183 -135 l 4193 -90 l 4205 -46 l 4220 -2 l
 4239 39 l 4259 80 l 4283 119 l 4309 157 l 4338 193 l
 4369 228 l 4402 260 l 4437 289 l 4474 316 l 4513 341 l
 4554 363 l 4595 383 l 4638 399 l 4682 413 l 4727 423 l
 4773 431 l 4818 436 l 4864 437 l 5313 437 l 5339 437 l
 5385 433 l 5431 427 l 5476 418 l 5520 405 l 5564 390 l
 5606 372 l 5647 351 l 5686 328 l 5724 301 l 5760 273 l
 5795 242 l 5826 209 l 5856 173 l 5883 136 l 5908 97 l
 5930 57 l 5950 15 l 5966 -27 l 5980 -71 l 5990 -116 l
 5998 -161 l 6003 -207 l 6004 -253 l 6004 -2906 l 6006 -2951 l
 6010 -2997 l 6018 -3042 l 6028 -3087 l 6042 -3131 l 6139 -3414 l
 6152 -3457 l 6163 -3501 l 6170 -3547 l 6175 -3593 l 6177 -3639 l
 6177 -6748 l 6177 -6758 l 6179 -6804 l 6267 -7890 l 6267 -7900 l
 6269 -7946 l 6269 -11746 l 6269 -11772 l 6273 -11818 l 6279 -11864 l
 6288 -11909 l 6301 -11953 l 6316 -11997 l 6334 -12039 l 6355 -12080 l
 6378 -12119 l 6405 -12157 l 6433 -12193 l 6464 -12228 l 6497 -12260 l
 6533 -12289 l 6570 -12316 l 6609 -12341 l 6649 -12363 l 6691 -12383 l
 6734 -12399 l 6778 -12413 l 6823 -12423 l 6868 -12431 l 6914 -12436 l
 6960 -12437 l 7182 -12437 l 7208 -12437 l 7254 -12433 l 7300 -12427 l
 7345 -12418 l 7389 -12405 l 7433 -12390 l 7475 -12372 l 7516 -12351 l
 7555 -12328 l 7593 -12301 l 7629 -12273 l 7664 -12242 l 7695 -12209 l
 7725 -12173 l 7752 -12136 l 7777 -12097 l 7799 -12057 l 7819 -12015 l
 7835 -11972 l 7849 -11928 l 7859 -11883 l 7867 -11838 l 7872 -11792 l
 7873 -11746 l 7873 -3961 l 7873 -3948 l 7871 -3902 l 7865 -3856 l
 7857 -3811 l 7601 -2660 l 7598 -2647 l 7590 -2602 l 7586 -2556 l
 7584 -2510 l 7584 -253 l 7585 -227 l 7588 -181 l 7594 -135 l
 7604 -90 l 7616 -46 l 7631 -2 l 7649 39 l 7670 80 l
 7694 119 l 7720 157 l 7748 193 l 7779 228 l 7813 260 l
 7848 289 l 7885 316 l 7924 341 l 7964 363 l 8006 383 l
 8049 399 l 8093 413 l 8138 423 l 8183 431 l 8229 436 l
 8275 437 l 8473 437 l 8499 437 l 8545 433 l 8591 427 l
 8636 418 l 8680 405 l 8724 390 l 8766 372 l 8807 351 l
 8847 328 l 8884 301 l 8921 273 l 8955 242 l 8987 209 l
 9016 173 l 9043 136 l 9068 97 l 9090 57 l 9110 15 l
 9126 -27 l 9140 -71 l 9150 -116 l 9158 -161 l 9163 -207 l
 9164 -253 l 9164 -2644 l 9164 -2673 l 9160 -2719 l 9153 -2765 l
 8982 -3725 l 8978 -3754 l 8973 -3800 l 8972 -3846 l 8972 -11746 l
 8972 -11772 l 8975 -11818 l 8982 -11864 l 8991 -11909 l 9003 -11953 l
 9019 -11997 l 9037 -12039 l 9058 -12080 l 9081 -12119 l 9107 -12157 l
 9136 -12193 l 9167 -12228 l 9200 -12260 l 9235 -12289 l 9272 -12316 l
 9311 -12341 l 9352 -12363 l 9393 -12383 l 9436 -12399 l 9480 -12413 l
 9525 -12423 l 9571 -12431 l 9617 -12436 l 9663 -12437 l 9843 -12437 l
 9869 -12437 l 9914 -12433 l 9960 -12427 l 10005 -12418 l 10050 -12405 l
 10093 -12390 l 10135 -12372 l 10176 -12351 l 10216 -12328 l 10254 -12301 l
 10290 -12273 l 10324 -12242 l 10356 -12209 l 10386 -12173 l 10413 -12136 l
 10438 -12097 l 10460 -12057 l 10479 -12015 l 10496 -11972 l 10509 -11928 l
 10520 -11883 l 10528 -11838 l 10532 -11792 l 10534 -11746 l 10534 -253 l
 10533 -216 l 10529 -170 l 10522 -124 l 10512 -79 l 10498 -35 l
 10483 7 l 10464 49 l 10450 80 l 10433 123 l 10419 167 l
 10408 211 l 10400 257 l 10396 303 l 10394 349 l 10395 395 l
 10400 441 l 10407 486 l 10417 531 l 10431 575 l 10447 618 l
 10466 660 l 10488 700 l 10513 739 l 10540 777 l 10569 812 l
 10601 845 l 10635 876 l 10671 905 l 10709 932 l 10748 955 l
 10789 976 l 10831 995 l 10875 1010 l 10919 1023 l 10964 1032 l
 11010 1039 l 11056 1042 l 11102 1043 l 11148 1040 l 11193 1034 l
 11239 1026 l 11283 1014 l 11327 999 l 11369 982 l 11411 961 l
 11451 938 l 11489 912 l 11525 884 l 11560 854 l 11592 821 l
 11622 786 l 11650 749 l 11675 711 l 11698 671 l 11718 629 l
 11735 586 l 11749 543 l 11760 498 l 11768 453 l 11774 407 l
 11776 361 l 11775 315 l 11771 269 l 11764 223 l 11754 178 l
 11741 134 l 11725 91 l 11706 49 l 11690 15 l 11674 -27 l
 11660 -71 l 11650 -116 l 11642 -161 l 11637 -207 l 11636 -253 l
 11636 -11746 l 11636 -11750 l 11638 -11796 l 11643 -11842 l 11650 -11887 l
 11661 -11932 l 11675 -11976 l 11692 -12019 l 11712 -12060 l 11734 -12101 l
 11759 -12139 l 11786 -12176 l 11816 -12211 l 11825 -12221 l 11854 -12257 l
 11881 -12294 l 11905 -12334 l 11927 -12374 l 11945 -12416 l 11961 -12460 l
 11974 -12504 l 11984 -12549 l 11991 -12594 l 11995 -12640 l 11996 -12686 l
 11994 -12732 l 11989 -12778 l 11980 -12823 l 11969 -12868 l 11955 -12912 l
 11938 -12955 l 11918 -12996 l 11895 -13036 l 11870 -13075 l 11842 -13111 l
 11812 -13146 l 11780 -13179 l 11745 -13209 l 11709 -13238 l 11671 -13263 l
 11631 -13286 l 11589 -13307 l 11547 -13324 l 11503 -13339 l 11459 -13350 l
 11413 -13359 l 11368 -13365 l 11322 -13368 l 11276 -13367 l 11230 -13364 l
 11184 -13357 l 11139 -13347 l 11095 -13335 l 11051 -13319 l 11009 -13301 l
 10968 -13280 l 10929 -13256 l 10891 -13230 l 10855 -13201 l 10821 -13170 l
 10789 -13136 l 10760 -13101 l 10733 -13064 l 10708 -13025 l 10686 -12984 l
 10667 -12942 l 10651 -12899 l 10638 -12855 l 10627 -12810 l 10620 -12765 l
 10616 -12719 l 10614 -12673 l 10616 -12627 l 10621 -12581 l 10629 -12536 l
 10640 -12491 l 10654 -12447 l 10670 -12404 l 10690 -12362 l 10712 -12322 l
 10737 -12283 l 10765 -12247 l 10794 -12211 l 10797 -12209 l 10827 -12173 l
 10854 -12136 l 10879 -12097 l 10901 -12057 l 10920 -12015 l 10937 -11972 l
 10950 -11928 l 10961 -11883 l 10968 -11838 l 10973 -11792 l 10975 -11746 l
 10975 -253 l 10976 -210 l 10980 -164 l 10985 -118 l 10986 -72 l
 10984 -26 l 10980 19 l 10972 64 l 10961 109 l 10947 153 l
 10930 196 l 10911 238 l 10889 278 l 10864 317 l 10836 354 l
 10807 389 l 10774 422 l 10740 453 l 10704 481 l 10666 507 l
 10626 531 l 10585 551 l 10543 569 l 10499 584 l 10455 596 l
 10410 606 l 10364 612 l 10318 615 l 10272 615 l 10226 612 l
 10180 606 l 10135 596 l 10091 584 l 10047 569 l 10005 551 l
 9964 531 l 9924 507 l 9886 481 l 9850 453 l 9816 422 l
 9784 389 l 9754 354 l 9726 317 l 9702 278 l 9679 238 l
 9660 196 l 9643 153 l 9629 109 l 9618 64 l 9611 19 l
 9606 -26 l 9604 -72 l 9605 -118 l 9610 -164 l 9614 -207 l
 9616 -253 l 9616 -2786 l 9615 -2825 l 9610 -2871 l 9603 -2917 l
 9593 -2962 l 9434 -3570 l 9425 -3608 l 9417 -3653 l 9413 -3699 l
 9411 -3745 l 9411 -11746 l 9411 -11772 l 9415 -11818 l 9421 -11864 l
 9430 -11909 l 9443 -11953 l 9458 -11997 l 9476 -12039 l 9497 -12080 l
 9521 -12119 l 9547 -12157 l 9575 -12193 l 9606 -12228 l 9639 -12260 l
 9675 -12289 l 9712 -12316 l 9751 -12341 l 9791 -12363 l 9833 -12383 l
 9876 -12399 l 9920 -12413 l 9965 -12423 l 10010 -12431 l 10056 -12436 l
 10102 -12437 l 10724 -12437 l 10750 -12437 l 10796 -12433 l 10842 -12427 l
 10887 -12418 l 10931 -12405 l 10975 -12390 l 11017 -12372 l 11058 -12351 l
 11098 -12328 l 11136 -12301 l 11172 -12273 l 11206 -12242 l 11238 -12209 l
 11268 -12173 l 11295 -12136 l 11319 -12097 l 11342 -12057 l 11361 -12015 l
 11377 -11972 l 11391 -11928 l 11402 -11883 l 11409 -11838 l 11414 -11792 l
 11415 -11746 l 11415 -253 l 11416 -237 l 11418 -191 l 11424 -146 l
 11429 -109 l 11432 -63 l 11432 -17 l 11429 28 l 11423 74 l
 11414 119 l 11402 163 l 11387 207 l 11369 249 l 11348 291 l
 11325 330 l 11299 368 l 11271 405 l 11240 439 l 11207 471 l
 11172 501 l 11135 529 l 11096 554 l 11056 576 l 11014 596 l
 10972 612 l 10928 626 l 10883 637 l 10838 645 l 10792 650 l
 10746 652 l 10700 651 l 10654 646 l 10608 639 l 10564 629 l
 10519 615 l 10476 599 l 10434 580 l 10394 558 l 10355 534 l
 10318 507 l 10282 477 l 10249 445 l 10218 412 l 10189 376 l
 10162 338 l 10138 299 l 10117 258 l 10099 215 l 10083 172 l
 10071 128 l 10061 83 l 10055 37 l 10051 -8 l 10050 -54 l
 10053 -100 l 10059 -146 l 10061 -161 l 10066 -207 l 10067 -253 l
 10067 -3178 l 10069 -3223 l 10073 -3269 l 10074 -3273 l 10078 -3319 l
 10079 -3365 l 10077 -3411 l 10072 -3457 l 10064 -3502 l 10053 -3547 l
 10039 -3591 l 10022 -3634 l 10003 -3675 l 9980 -3716 l 9955 -3754 l
 9928 -3791 l 9898 -3826 l 9865 -3859 l 9831 -3890 l 9795 -3918 l
 9757 -3944 l 9717 -3967 l 9676 -3988 l 9633 -4006 l 9590 -4020 l
 9545 -4032 l 9500 -4041 l 9454 -4047 l 9408 -4050 l 9362 -4050 l
 9316 -4047 l 9271 -4040 l 9225 -4031 l 9181 -4019 l 9138 -4003 l
 9095 -3985 l 9054 -3964 l 9015 -3941 l 8977 -3915 l 8941 -3886 l
 8907 -3855 l 8875 -3822 l 8845 -3787 l 8818 -3750 l 8793 -3711 l
 8771 -3670 l 8752 -3629 l 8735 -3586 l 8721 -3542 l 8711 -3497 l
 8703 -3451 l 8699 -3406 l 8697 -3359 l 8699 -3313 l 8703 -3268 l
 8711 -3222 l 8721 -3177 l 8735 -3133 l 8752 -3090 l 8771 -3049 l
 8793 -3008 l 8818 -2969 l 8842 -2930 l 8865 -2890 l 8884 -2848 l
 8900 -2805 l 8914 -2761 l 8925 -2716 l 8932 -2671 l 8937 -2625 l
 8938 -2579 l 8938 -253 l 8939 -227 l 8942 -181 l 8949 -135 l
 8958 -90 l 8970 -46 l 8985 -2 l 9004 39 l 9024 80 l
 9048 119 l 9074 157 l 9103 193 l 9134 228 l 9167 260 l
 9202 289 l 9239 316 l 9278 341 l 9319 363 l 9360 383 l
 9403 399 l 9447 413 l 9492 423 l 9538 431 l 9583 436 l
 9629 437 l 10063 437 l 10089 437 l 10135 433 l 10181 427 l
 10226 418 l 10270 405 l 10313 390 l 10356 372 l 10397 351 l
 10436 328 l 10474 301 l 10510 273 l 10545 242 l 10576 209 l
 10606 173 l 10633 136 l 10658 97 l 10680 57 l 10700 15 l
 10716 -27 l 10730 -71 l 10740 -116 l 10748 -161 l 10753 -207 l
 10754 -253 l 10754 -11746 l 10754 -11772 l 10750 -11818 l 10744 -11864 l
 10735 -11909 l 10722 -11953 l 10707 -11997 l 10689 -12039 l 10668 -12080 l
 10645 -12119 l 10618 -12157 l 10590 -12193 l 10559 -12228 l 10526 -12260 l
 10490 -12289 l 10453 -12316 l 10414 -12341 l 10374 -12363 l 10332 -12383 l
 10289 -12399 l 10245 -12413 l 10200 -12423 l 10155 -12431 l 10109 -12436 l
 10063 -12437 l 9882 -12437 l 9856 -12437 l 9810 -12433 l 9765 -12427 l
 9720 -12418 l 9675 -12405 l 9632 -12390 l 9590 -12372 l 9548 -12351 l
 9509 -12328 l 9471 -12301 l 9435 -12273 l 9401 -12242 l 9369 -12209 l
 9339 -12173 l 9312 -12136 l 9287 -12097 l 9265 -12057 l 9246 -12015 l
 9229 -11972 l 9216 -11928 l 9205 -11883 l 9197 -11838 l 9193 -11792 l
 9191 -11746 l 9191 -3800 l 9191 -3798 l 9193 -3752 l 9198 -3706 l
 9205 -3661 l 9376 -2834 l 9376 -2832 l 9384 -2786 l 9388 -2740 l
 9390 -2694 l 9390 -253 l 9390 -227 l 9394 -181 l 9400 -135 l
 9409 -90 l 9422 -46 l 9437 -2 l 9455 39 l 9476 80 l
 9499 119 l 9526 157 l 9554 193 l 9585 228 l 9618 260 l
 9654 289 l 9691 316 l 9730 341 l 9770 363 l 9812 383 l
 9855 399 l 9899 413 l 9944 423 l 9989 431 l 10035 436 l
 10081 437 l 10504 437 l 10530 437 l 10576 433 l 10621 427 l
 10667 418 l 10711 405 l 10754 390 l 10797 372 l 10838 351 l
 10877 328 l 10915 301 l 10951 273 l 10985 242 l 11017 209 l
 11047 173 l 11074 136 l 11099 97 l 11121 57 l 11140 15 l
 11157 -27 l 11171 -71 l 11181 -116 l 11189 -161 l 11193 -207 l
 11195 -253 l 11195 -11746 l 11195 -11772 l 11191 -11818 l 11185 -11864 l
 11176 -11909 l 11163 -11953 l 11148 -11997 l 11130 -12039 l 11109 -12080 l
 11085 -12119 l 11059 -12157 l 11031 -12193 l 11000 -12228 l 10967 -12260 l
 10931 -12289 l 10894 -12316 l 10855 -12341 l 10815 -12363 l 10773 -12383 l
 10730 -12399 l 10686 -12413 l 10641 -12423 l 10596 -12431 l 10550 -12436 l
 10504 -12437 l 10322 -12437 l 10296 -12437 l 10250 -12433 l 10204 -12427 l
 10159 -12418 l 10115 -12405 l 10071 -12390 l 10029 -12372 l 9988 -12351 l
 9948 -12328 l 9910 -12301 l 9874 -12273 l 9840 -12242 l 9808 -12209 l
 9779 -12173 l 9751 -12136 l 9727 -12097 l 9705 -12057 l 9685 -12015 l
 9669 -11972 l 9655 -11928 l 9644 -11883 l 9637 -11838 l 9632 -11792 l
 9631 -11746 l 9631 -3662 l 9631 -3632 l 9635 -3586 l 9641 -3541 l
 9651 -3496 l 9663 -3452 l 9679 -3408 l 9697 -3366 l 9775 -3202 l
 9787 -3175 l 9803 -3132 l 9817 -3088 l 9828 -3043 l 9835 -2998 l
 9840 -2952 l 9841 -2906 l 9841 -253 l 9841 -227 l 9838 -181 l
 9831 -135 l 9822 -90 l 9810 -46 l 9794 -2 l 9776 39 l
 9755 80 l 9732 119 l 9706 157 l 9677 193 l 9646 228 l
 9613 260 l 9578 289 l 9541 316 l 9502 341 l 9461 363 l
 9419 383 l 9376 399 l 9332 413 l 9288 423 l 9242 431 l
 9196 436 l 9150 437 l 8952 437 l 8926 437 l 8880 433 l
 8835 427 l 8790 418 l 8745 405 l 8702 390 l 8660 372 l
 8619 351 l 8579 328 l 8541 301 l 8505 273 l 8471 242 l
 8439 209 l 8409 173 l 8382 136 l 8357 97 l 8335 57 l
 8316 15 l 8299 -27 l 8286 -71 l 8275 -116 l 8267 -161 l
 8263 -207 l 8261 -253 l 8261 -2510 l 8260 -2549 l 8256 -2595 l
 8098 -3877 l 8094 -3915 l 8093 -3961 l 8093 -11746 l 8093 -11772 l
 8097 -11818 l 8103 -11864 l 8112 -11909 l 8125 -11953 l 8140 -11997 l
 8158 -12039 l 8179 -12080 l 8202 -12119 l 8229 -12157 l 8257 -12193 l
 8288 -12228 l 8321 -12260 l 8357 -12289 l 8394 -12316 l 8432 -12341 l
 8473 -12363 l 8515 -12383 l 8558 -12399 l 8602 -12413 l 8647 -12423 l
 8692 -12431 l 8738 -12436 l 8784 -12437 l 9379 -12437 l 9405 -12437 l
 9451 -12433 l 9497 -12427 l 9542 -12418 l 9586 -12405 l 9629 -12390 l
 9672 -12372 l 9713 -12351 l 9752 -12328 l 9790 -12301 l 9826 -12273 l
 9861 -12242 l 9892 -12209 l 9922 -12173 l 9949 -12136 l 9974 -12097 l
 9996 -12057 l 10016 -12015 l 10032 -11972 l 10046 -11928 l 10056 -11883 l
 10064 -11838 l 10069 -11792 l 10070 -11746 l 10070 -3270 l 10069 -3228 l
 10065 -3183 l 10057 -3137 l 10047 -3092 l 10033 -3048 l 10017 -3005 l
 8984 -518 l 8984 -517 l 8967 -474 l 8954 -429 l 8944 -385 l
 8937 -339 l 8932 -293 l 8931 -247 l 8933 -201 l 8938 -155 l
 8946 -110 l 8957 -65 l 8971 -21 l 8988 20 l 9008 62 l
 9030 102 l 9055 141 l 9083 178 l 9113 213 l 9145 246 l
 9179 276 l 9216 305 l 9254 331 l 9293 354 l 9335 374 l
 9377 392 l 9421 407 l 9465 419 l 9510 428 l 9556 434 l
 9602 437 l 9648 437 l 9694 433 l 9740 427 l 9785 418 l
 9829 405 l 9873 390 l 9915 372 l 9956 351 l 9996 328 l
 10033 301 l 10070 273 l 10104 242 l 10136 209 l 10165 173 l
 10192 136 l 10217 97 l 10239 57 l 10259 15 l 10275 -27 l
 10289 -71 l 10299 -116 l 10307 -161 l 10312 -207 l 10313 -253 l
 10313 -11746 l 10313 -11772 l 10309 -11818 l 10303 -11864 l 10294 -11909 l
 10281 -11953 l 10266 -11997 l 10248 -12039 l 10227 -12080 l 10204 -12119 l
 10177 -12157 l 10149 -12193 l 10118 -12228 l 10085 -12260 l 10049 -12289 l
 10012 -12316 l 9974 -12341 l 9933 -12363 l 9891 -12383 l 9848 -12399 l
 9804 -12413 l 9759 -12423 l 9714 -12431 l 9668 -12436 l 9622 -12437 l
 9443 -12437 l 9417 -12437 l 9371 -12433 l 9325 -12427 l 9280 -12418 l
 9236 -12405 l 9192 -12390 l 9150 -12372 l 9109 -12351 l 9070 -12328 l
 9032 -12301 l 8996 -12273 l 8961 -12242 l 8930 -12209 l 8900 -12173 l
 8873 -12136 l 8848 -12097 l 8826 -12057 l 8806 -12015 l 8790 -11972 l
 8776 -11928 l 8766 -11883 l 8758 -11838 l 8753 -11792 l 8752 -11746 l
 8752 -3892 l 8752 -3881 l 8750 -3835 l 8744 -3789 l 8736 -3744 l
 8503 -2681 l 8501 -2670 l 8493 -2625 l 8489 -2579 l 8487 -2533 l
 8487 -253 l 8487 -227 l 8483 -181 l 8477 -135 l 8468 -90 l
 8455 -46 l 8440 -2 l 8422 39 l 8401 80 l 8377 119 l
 8351 157 l 8323 193 l 8292 228 l 8259 260 l 8223 289 l
 8186 316 l 8147 341 l 8107 363 l 8065 383 l 8022 399 l
 7978 413 l 7933 423 l 7888 431 l 7842 436 l 7796 437 l
 7598 437 l 7572 437 l 7526 433 l 7481 427 l 7435 418 l
 7391 405 l 7348 390 l 7305 372 l 7264 351 l 7225 328 l
 7187 301 l 7151 273 l 7117 242 l 7085 209 l 7055 173 l
 7028 136 l 7003 97 l 6981 57 l 6962 15 l 6945 -27 l
 6931 -71 l 6921 -116 l 6913 -161 l 6909 -207 l 6907 -253 l
 6907 -2579 l 6909 -2625 l 6913 -2671 l 6921 -2716 l 6931 -2761 l
 6945 -2805 l 6962 -2848 l 6981 -2890 l 7003 -2930 l 7028 -2969 l
 7030 -2973 l 7055 -3012 l 7077 -3053 l 7096 -3095 l 7112 -3138 l
 7125 -3182 l 7135 -3227 l 7143 -3272 l 7147 -3318 l 7148 -3364 l
 7147 -3410 l 7142 -3456 l 7134 -3501 l 7123 -3546 l 7109 -3590 l
 7092 -3633 l 7072 -3674 l 7050 -3715 l 7025 -3753 l 6998 -3790 l
 6968 -3825 l 6936 -3858 l 6901 -3889 l 6865 -3917 l 6827 -3943 l
 6787 -3967 l 6746 -3987 l 6704 -4005 l 6660 -4020 l 6615 -4032 l
 6570 -4041 l 6525 -4047 l 6479 -4050 l 6433 -4050 l 6387 -4047 l
 6341 -4041 l 6296 -4031 l 6252 -4019 l 6208 -4004 l 6166 -3986 l
 6125 -3965 l 6085 -3942 l 6047 -3915 l 6011 -3887 l 5977 -3856 l
 5945 -3823 l 5915 -3788 l 5888 -3751 l 5863 -3712 l 5841 -3671 l
 5821 -3630 l 5805 -3587 l 5791 -3543 l 5780 -3498 l 5773 -3452 l
 5768 -3407 l 5766 -3361 l 5768 -3315 l 5772 -3269 l 5777 -3224 l
 5778 -3178 l 5778 -253 l 5779 -227 l 5782 -181 l 5788 -135 l
 5798 -90 l 5810 -46 l 5825 -2 l 5843 39 l 5864 80 l
 5888 119 l 5914 157 l 5943 193 l 5974 228 l 6007 260 l
 6042 289 l 6079 316 l 6118 341 l 6158 363 l 6200 383 l
 6243 399 l 6287 413 l 6332 423 l 6378 431 l 6423 436 l
 6469 437 l 6667 437 l 6693 437 l 6739 433 l 6785 427 l
 6830 418 l 6874 405 l 6918 390 l 6960 372 l 7001 351 l
 7041 328 l 7079 301 l 7115 273 l 7149 242 l 7181 209 l
 7210 173 l 7238 136 l 7262 97 l 7285 57 l 7304 15 l
 7320 -27 l 7334 -71 l 7345 -116 l 7352 -161 l 7357 -207 l
 7358 -253 l 7358 -2533 l 7358 -2567 l 7354 -2613 l 7347 -2658 l
 7337 -2703 l 7324 -2747 l 7028 -3655 l 7019 -3687 l 7008 -3732 l
 7000 -3777 l 6996 -3823 l 6994 -3869 l 6994 -7050 l 6993 -7092 l
 6989 -7138 l 6981 -7183 l 6971 -7228 l 6958 -7272 l 6942 -7315 l
 6922 -7357 l 6901 -7398 l 6876 -7437 l 6849 -7474 l 6820 -7509 l
 6788 -7543 l 6754 -7574 l 6718 -7603 l 6681 -7629 l 6641 -7653 l
 6600 -7674 l 6558 -7693 l 6515 -7708 l 6470 -7721 l 6425 -7730 l
 6380 -7737 l 6334 -7741 l 6288 -7741 l 6242 -7739 l 6196 -7733 l
 6151 -7724 l 6106 -7713 l 6063 -7698 l 6020 -7681 l 5979 -7660 l
 5939 -7637 l 5900 -7612 l 5864 -7584 l 5329 -7143 l 5321 -7137 l
 5287 -7106 l 5255 -7072 l 5225 -7037 l 5198 -7000 l 5173 -6961 l
 5151 -6921 l 5132 -6879 l 5116 -6836 l 5102 -6792 l 5091 -6747 l
 5084 -6702 l 5079 -6656 l 5077 -6610 l 5077 -253 l 5077 -227 l
 5074 -181 l 5067 -135 l 5058 -90 l 5046 -46 l 5031 -2 l
 5012 39 l 4992 80 l 4968 119 l 4942 157 l 4913 193 l
 4882 228 l 4849 260 l 4814 289 l 4777 316 l 4738 341 l
 4697 363 l 4656 383 l 4613 399 l 4569 413 l 4524 423 l
 4478 431 l 4433 436 l 4386 437 l 1928 437 l 1903 437 l
 1857 433 l 1811 427 l 1766 418 l 1722 405 l 1678 390 l
 1636 372 l 1595 351 l 1555 328 l 1517 301 l 1481 273 l
 1447 242 l 1415 209 l 1385 173 l 1358 136 l 1333 97 l
 1311 57 l 1292 15 l 1276 -27 l 1262 -71 l 1251 -116 l
 1244 -161 l 1239 -207 l 1238 -253 l 1238 -11746 l 1238 -11772 l
 1241 -11818 l 1248 -11864 l 1257 -11909 l 1269 -11953 l 1284 -11997 l
 1303 -12039 l 1323 -12080 l 1347 -12119 l 1373 -12157 l 1402 -12193 l
 1433 -12228 l 1466 -12260 l 1501 -12289 l 1538 -12316 l 1577 -12341 l
 1618 -12363 l 1659 -12383 l 1702 -12399 l 1746 -12413 l 1791 -12423 l
 1837 -12431 l 1882 -12436 l 1928 -12437 l 2138 -12437 l 2164 -12437 l
 2210 -12433 l 2255 -12427 l 2301 -12418 l 2345 -12405 l 2388 -12390 l
 2431 -12372 l 2472 -12351 l 2511 -12328 l 2549 -12301 l 2585 -12273 l
 2619 -12242 l 2651 -12209 l 2681 -12173 l 2708 -12136 l 2733 -12097 l
 2755 -12057 l 2774 -12015 l 2791 -11972 l 2805 -11928 l 2815 -11883 l
 2823 -11838 l 2827 -11792 l 2829 -11746 l 2829 -7877 l 2829 -7869 l
 2817 -6848 l 2817 -6840 l 2817 -253 l 2817 -227 l 2814 -181 l
 2807 -135 l 2798 -90 l 2786 -46 l 2770 -2 l 2752 39 l
 2731 80 l 2708 119 l 2682 157 l 2653 193 l 2622 228 l
 2589 260 l 2554 289 l 2517 316 l 2478 341 l 2437 363 l
 2395 383 l 2353 399 l 2309 413 l 2264 423 l 2218 431 l
 2172 436 l 2126 437 l 1491 437 l 1465 437 l 1419 433 l
 1373 427 l 1328 418 l 1284 405 l 1240 390 l 1198 372 l
 1157 351 l 1118 328 l 1080 301 l 1044 273 l 1009 242 l
 978 209 l 948 173 l 921 136 l 896 97 l 874 57 l
 854 15 l 838 -27 l 824 -71 l 814 -116 l 806 -161 l
 801 -207 l 800 -253 l 800 -11746 l 799 -11788 l 794 -11834 l
 787 -11879 l 777 -11924 l 763 -11968 l 747 -12011 l 728 -12053 l
 710 -12093 l 693 -12136 l 680 -12180 l 669 -12224 l 662 -12270 l
 657 -12316 l 656 -12362 l 658 -12408 l 662 -12454 l 670 -12499 l
 681 -12544 l 694 -12588 l 711 -12631 l 730 -12672 l 753 -12713 l
 777 -12752 l 805 -12789 l 835 -12824 l 867 -12857 l 901 -12888 l
 937 -12916 l 975 -12942 l 1014 -12966 l 1055 -12987 l 1098 -13005 l
 1141 -13020 l 1186 -13032 l 1231 -13041 l 1277 -13048 l 1322 -13051 l
 1369 -13051 l 1414 -13048 l 1460 -13042 l 1505 -13033 l 1550 -13021 l
 1593 -13006 l 1636 -12988 l 1677 -12967 l 1717 -12944 l 1755 -12918 l
 1791 -12890 l 1825 -12859 l 1857 -12826 l 1887 -12791 l 1915 -12754 l
 1940 -12715 l 1962 -12675 l 1982 -12633 l 1998 -12590 l 2012 -12546 l
 2023 -12502 l 2031 -12456 l 2036 -12411 l 2038 -12365 l 2037 -12318 l
 2032 -12273 l 2025 -12227 l 2015 -12182 l 2001 -12138 l 1985 -12095 l
 1966 -12053 l 1948 -12015 l 1932 -11972 l 1918 -11928 l 1908 -11883 l
 1900 -11838 l 1895 -11792 l 1894 -11746 l 1894 -253 l 1893 -227 l
 1890 -181 l 1884 -135 l 1875 -90 l 1862 -46 l 1847 -2 l
 1829 39 l 1808 80 l 1784 119 l 1758 157 l 1730 193 l
 1699 228 l 1665 260 l 1630 289 l 1593 316 l 1554 341 l
 1514 363 l 1472 383 l 1429 399 l 1385 413 l 1340 423 l
 1295 431 l 1249 436 l 1203 437 l 1053 437 l 1027 437 l
 981 433 l 936 427 l 891 418 l 846 405 l 803 390 l
 761 372 l 719 351 l 680 328 l 642 301 l 606 273 l
 572 242 l 540 209 l 510 173 l 483 136 l 458 97 l
 436 57 l 417 15 l 400 -27 l 387 -71 l 376 -116 l
 368 -161 l 364 -207 l 362 -253 l 362 -11746 l 362 -11752 l
 360 -11798 l 355 -11844 l 347 -11889 l 336 -11934 l 322 -11978 l
 306 -12020 l 286 -12062 l 263 -12102 l 238 -12141 l 211 -12178 l
 181 -12213 l 170 -12225 l 141 -12261 l 114 -12299 l 90 -12338 l
 68 -12379 l 50 -12421 l 34 -12464 l 21 -12508 l 11 -12553 l
 4 -12599 l 0 -12645 l 0 -12691 l 2 -12737 l 7 -12782 l
 16 -12828 l 27 -12872 l 41 -12916 l 59 -12959 l 79 -13000 l
 101 -13040 l 127 -13079 l 155 -13116 l 185 -13150 l 217 -13183 l
 252 -13213 l 288 -13241 l 327 -13267 l 367 -13290 l 408 -13310 l
 451 -13327 l 494 -13342 l 539 -13354 l 584 -13362 l 630 -13368 l
 676 -13370 l 722 -13370 l 768 -13366 l 813 -13359 l 858 -13350 l
 903 -13337 l 946 -13321 l 988 -13303 l 1029 -13282 l 1069 -13258 l
 1106 -13231 l 1142 -13202 l 1176 -13171 l 1208 -13138 l 1237 -13102 l
 1264 -13065 l 1288 -13026 l 1310 -12985 l 1329 -12943 l 1345 -12900 l
 1358 -12856 l 1369 -12811 l 1376 -12766 l 1380 -12720 l 1381 -12674 l
 1380 -12628 l 1375 -12582 l 1367 -12537 l 1356 -12492 l 1342 -12448 l
 1325 -12405 l 1305 -12364 l 1283 -12323 l 1258 -12285 l 1230 -12248 l
 1200 -12213 l 1196 -12209 l 1167 -12173 l 1139 -12136 l 1115 -12097 l
 1093 -12057 l 1073 -12015 l 1057 -11972 l 1043 -11928 l 1032 -11883 l
 1025 -11838 l 1020 -11792 l 1019 -11746 l 1019 -253 l 1019 -227 l
 1022 -181 l 1029 -135 l 1038 -90 l 1050 -46 l 1066 -2 l
 1084 39 l 1105 80 l 1128 119 l 1154 157 l 1183 193 l
 1214 228 l 1247 260 l 1282 289 l 1320 316 l 1358 341 l
 1399 363 l 1441 383 l 1484 399 l 1528 413 l 1572 423 l
 1618 431 l 1664 436 l 1710 437 l 1900 437 l 1926 437 l
 1972 433 l 2018 427 l 2063 418 l 2107 405 l 2151 390 l
 2193 372 l 2234 351 l 2274 328 l 2312 301 l 2348 273 l
 2382 242 l 2414 209 l 2443 173 l 2471 136 l 2495 97 l
 2518 57 l 2537 15 l 2553 -27 l 2567 -71 l 2578 -116 l
 2585 -161 l 2590 -207 l 2591 -253 l 2591 -6932 l 2591 -6939 l
 2600 -7778 l 2600 -7785 l 2600 -11746 l 2600 -11772 l 2603 -11818 l
 2610 -11864 l 2619 -11909 l 2631 -11953 l 2647 -11997 l 2665 -12039 l
 2686 -12080 l 2709 -12119 l 2735 -12157 l 2764 -12193 l 2795 -12228 l
 2828 -12260 l 2863 -12289 l 2901 -12316 l 2939 -12341 l 2980 -12363 l
 3022 -12383 l 3065 -12399 l 3109 -12413 l 3153 -12423 l 3199 -12431 l
 3245 -12436 l 3291 -12437 l 3973 -12437 l 3999 -12437 l 4044 -12433 l
 4090 -12427 l 4135 -12418 l 4180 -12405 l 4223 -12390 l 4265 -12372 l
 4306 -12351 l 4346 -12328 l 4384 -12301 l 4420 -12273 l 4454 -12242 l
 4486 -12209 l 4516 -12173 l 4543 -12136 l 4568 -12097 l 4590 -12057 l
 4609 -12015 l 4626 -11972 l 4639 -11928 l 4650 -11883 l 4657 -11838 l
 4662 -11792 l 4664 -11746 l 4664 -8130 l 4665 -8089 l 4669 -8043 l
 4676 -7997 l 4687 -7953 l 4700 -7908 l 4716 -7865 l 4735 -7823 l
 4757 -7783 l 4782 -7744 l 4809 -7707 l 4838 -7671 l 4870 -7638 l
 4904 -7606 l 4939 -7578 l 4977 -7551 l 5017 -7527 l 5058 -7506 l
 5100 -7488 l 5143 -7472 l 5493 -7360 l 5532 -7346 l 5574 -7328 l
 5615 -7307 l 5655 -7283 l 5692 -7257 l 5728 -7229 l 5763 -7198 l
 5795 -7165 l 5824 -7129 l 5851 -7092 l 5876 -7053 l 5898 -7013 l
 5918 -6971 l 5934 -6928 l 5948 -6884 l 5958 -6839 l 5966 -6794 l
 5971 -6748 l 5972 -6702 l 5972 -3523 l 5973 -3494 l 5976 -3448 l
 5983 -3403 l 5992 -3358 l 6005 -3313 l 6020 -3270 l 6039 -3228 l
 6060 -3187 l 6084 -3147 l 6110 -3109 l 6139 -3074 l 6170 -3040 l
 6203 -3008 l 6239 -2978 l 6276 -2951 l 6315 -2927 l 6355 -2905 l
 6397 -2886 l 6440 -2869 l 6484 -2856 l 6529 -2846 l 6575 -2838 l
 6621 -2834 l 6667 -2833 l 9163 -2845 l 9185 -2845 l 9231 -2849 l
 9277 -2855 l 9322 -2864 l 9366 -2877 l 9410 -2892 l 9452 -2910 l
 9493 -2931 l 9533 -2954 l 9571 -2981 l 9607 -3009 l 9641 -3040 l
 9673 -3073 l 9702 -3109 l 9730 -3146 l 9754 -3185 l 9776 -3225 l
 9796 -3267 l 9812 -3310 l 9826 -3354 l 9837 -3399 l 9844 -3444 l
 9849 -3490 l 9850 -3536 l 9850 -11746 l 9850 -11772 l 9847 -11818 l
 9840 -11864 l 9831 -11909 l 9819 -11953 l 9803 -11997 l 9785 -12039 l
 9764 -12080 l 9741 -12119 l 9715 -12157 l 9686 -12193 l 9655 -12228 l
 9622 -12260 l 9587 -12289 l 9550 -12316 l 9511 -12341 l 9470 -12363 l
 9428 -12383 l 9385 -12399 l 9341 -12413 l 9297 -12423 l 9251 -12431 l
 9205 -12436 l 9159 -12437 l 9003 -12437 l 8978 -12437 l 8932 -12433 l
 8886 -12427 l 8841 -12418 l 8797 -12405 l 8753 -12390 l 8711 -12372 l
 8670 -12351 l 8630 -12328 l 8592 -12301 l 8556 -12273 l 8522 -12242 l
 8490 -12209 l 8460 -12173 l 8433 -12136 l 8408 -12097 l 8386 -12057 l
 8367 -12015 l 8351 -11972 l 8337 -11928 l 8326 -11883 l 8319 -11838 l
 8314 -11792 l 8313 -11746 l 8313 -3938 l 8312 -3904 l 8308 -3858 l
 8301 -3813 l 8291 -3768 l 8278 -3723 l 8263 -3680 l 8244 -3638 l
 8223 -3597 l 8198 -3558 l 8172 -3520 l 8143 -3485 l 8111 -3451 l
 8078 -3419 l 8042 -3390 l 8005 -3363 l 7966 -3339 l 6803 -2671 l
 6787 -2662 l 6746 -2642 l 6704 -2624 l 6660 -2609 l 6616 -2597 l
 6571 -2588 l 6525 -2582 l 6479 -2579 l 6433 -2580 l 6387 -2583 l
 6341 -2589 l 6296 -2599 l 6252 -2611 l 6208 -2626 l 6166 -2644 l
 6125 -2665 l 6085 -2689 l 6047 -2715 l 6011 -2743 l 5977 -2774 l
 5945 -2808 l 5916 -2843 l 5888 -2880 l 5864 -2919 l 5842 -2959 l
 5822 -3001 l 5806 -3044 l 5792 -3088 l 5782 -3133 l 5774 -3178 l
 5769 -3224 l 5768 -3270 l 5768 -6679 l 5767 -6712 l 5763 -6758 l
 5756 -6804 l 5747 -6849 l 5734 -6893 l 5718 -6936 l 5700 -6978 l
 5678 -7019 l 5654 -7058 l 5628 -7096 l 5599 -7132 l 5567 -7166 l
 5534 -7197 l 5498 -7226 l 5461 -7253 l 5422 -7278 l 5381 -7299 l
 5339 -7318 l 5296 -7334 l 4906 -7465 l 4875 -7476 l 4833 -7494 l
 4791 -7515 l 4752 -7539 l 4714 -7565 l 4678 -7593 l 4644 -7624 l
 4612 -7657 l 4582 -7693 l 4555 -7730 l 4530 -7769 l 4508 -7809 l
 4489 -7851 l 4472 -7894 l 4459 -7938 l 4448 -7983 l 4440 -8028 l
 4436 -8074 l 4434 -8120 l 4434 -11746 l 4435 -11772 l 4438 -11818 l
 4444 -11864 l 4454 -11909 l 4466 -11953 l 4481 -11997 l 4499 -12039 l
 4520 -12080 l 4544 -12119 l 4570 -12157 l 4599 -12193 l 4630 -12228 l
 4663 -12260 l 4698 -12289 l 4735 -12316 l 4774 -12341 l 4814 -12363 l
 4856 -12383 l 4899 -12399 l 4943 -12413 l 4988 -12423 l 5033 -12431 l
 5079 -12436 l 5125 -12437 l 5349 -12437 l 5374 -12437 l 5420 -12433 l
 5466 -12427 l 5511 -12418 l 5556 -12405 l 5599 -12390 l 5641 -12372 l
 5682 -12351 l 5722 -12328 l 5760 -12301 l 5796 -12273 l 5830 -12242 l
 5862 -12209 l 5892 -12173 l 5919 -12136 l 5944 -12097 l 5966 -12057 l
 5985 -12015 l 6002 -11972 l 6015 -11928 l 6026 -11883 l 6033 -11838 l
 6038 -11792 l 6040 -11746 l 6040 -7992 l 6040 -7990 l 6038 -7944 l
 6033 -7898 l 6025 -7853 l 6015 -7808 l 6001 -7764 l 5984 -7721 l
 5965 -7679 l 5604 -6969 l 5603 -6967 l 5584 -6925 l 5568 -6882 l
 5554 -6838 l 5543 -6793 l 5536 -6748 l 5531 -6702 l 5529 -6656 l
 5529 -253 l 5529 -227 l 5526 -181 l 5519 -135 l 5510 -90 l
 5498 -46 l 5483 -2 l 5464 39 l 5444 80 l 5420 119 l
 5394 157 l 5365 193 l 5334 228 l 5301 260 l 5266 289 l
 5229 316 l 5190 341 l 5149 363 l 5108 383 l 5065 399 l
 5021 413 l 4976 423 l 4930 431 l 4885 436 l 4839 437 l
 4638 437 l 4613 437 l 4567 433 l 4521 427 l 4476 418 l
 4431 405 l 4388 390 l 4346 372 l 4305 351 l 4265 328 l
 4227 301 l 4191 273 l 4157 242 l 4125 209 l 4095 173 l
 4068 136 l 4043 97 l 4021 57 l 4002 15 l 3985 -27 l
 3972 -71 l 3961 -116 l 3954 -161 l 3949 -207 l 3947 -253 l
 3947 -6633 l 3947 -6649 l 3945 -6695 l 3939 -6741 l 3930 -6786 l
 3919 -6830 l 3904 -6874 l 3560 -7797 l 3555 -7812 l 3541 -7856 l
 3531 -7901 l 3523 -7946 l 3519 -7992 l 3517 -8038 l 3517 -11746 l
 3516 -11772 l 3513 -11818 l 3507 -11864 l 3498 -11909 l 3485 -11953 l
 3470 -11997 l 3452 -12039 l 3431 -12080 l 3407 -12119 l 3381 -12157 l
 3353 -12193 l 3322 -12228 l 3289 -12260 l 3253 -12289 l 3216 -12316 l
 3177 -12341 l 3137 -12363 l 3095 -12383 l 3052 -12399 l 3008 -12413 l
 2963 -12423 l 2918 -12431 l 2872 -12436 l 2826 -12437 l 1272 -12437 l
 1246 -12437 l 1200 -12433 l 1155 -12427 l 1110 -12418 l 1065 -12405 l
 1022 -12390 l 979 -12372 l 938 -12351 l 899 -12328 l 861 -12301 l
 825 -12273 l 791 -12242 l 759 -12209 l 729 -12173 l 702 -12136 l
 677 -12097 l 655 -12057 l 636 -12015 l 619 -11972 l 605 -11928 l
 595 -11883 l 587 -11838 l 583 -11792 l 581 -11746 l 581 -253 l
 582 -227 l 585 -181 l 591 -135 l 600 -90 l 613 -46 l
 628 -2 l 646 39 l 667 80 l 691 119 l 717 157 l
 745 193 l 776 228 l 810 260 l 845 289 l 882 316 l
 921 341 l 961 363 l 1003 383 l 1046 399 l 1090 413 l
 1135 423 l 1180 431 l 1226 436 l 1272 437 l 1448 437 l
 1474 437 l 1520 433 l 1566 427 l 1611 418 l 1655 405 l
 1699 390 l 1741 372 l 1782 351 l 1822 328 l 1860 301 l
 1896 273 l 1930 242 l 1962 209 l 1991 173 l 2019 136 l
 2043 97 l 2065 57 l 2085 15 l 2101 -27 l 2115 -71 l
 2126 -116 l 2133 -161 l 2138 -207 l 2139 -253 l 2139 -7301 l
 2139 -7312 l 2141 -7405 l 2141 -7416 l 2141 -11746 l 2142 -11772 l
 2145 -11818 l 2151 -11864 l 2160 -11909 l 2173 -11953 l 2188 -11997 l
 2206 -12039 l 2227 -12080 l 2251 -12119 l 2277 -12157 l 2305 -12193 l
 2336 -12228 l 2370 -12260 l 2405 -12289 l 2442 -12316 l 2481 -12341 l
 2521 -12363 l 2563 -12383 l 2606 -12399 l 2650 -12413 l 2695 -12423 l
 2740 -12431 l 2786 -12436 l 2832 -12437 l 3055 -12437 l 3081 -12437 l
 3127 -12433 l 3173 -12427 l 3218 -12418 l 3262 -12405 l 3306 -12390 l
 3348 -12372 l 3389 -12351 l 3429 -12328 l 3467 -12301 l 3503 -12273 l
 3537 -12242 l 3569 -12209 l 3598 -12173 l 3626 -12136 l 3650 -12097 l
 3672 -12057 l 3692 -12015 l 3708 -11972 l 3722 -11928 l 3733 -11883 l
 3740 -11838 l 3745 -11792 l 3746 -11746 l 3746 -8061 l 3747 -8041 l
 3749 -7995 l 3755 -7949 l 3764 -7904 l 3776 -7859 l 3791 -7816 l
 3809 -7773 l 3830 -7732 l 3853 -7692 l 3879 -7654 l 3907 -7618 l
 3938 -7584 l 4434 -7064 l 4448 -7049 l 4478 -7014 l 4505 -6977 l
 4529 -6938 l 4552 -6898 l 4571 -6856 l 4587 -6813 l 4601 -6769 l
 4612 -6724 l 4619 -6679 l 4624 -6633 l 4625 -6587 l 4625 -253 l
 4625 -227 l 4622 -181 l 4615 -135 l 4606 -90 l 4594 -46 l
 4579 -2 l 4560 39 l 4539 80 l 4516 119 l 4490 157 l
 4461 193 l 4430 228 l 4397 260 l 4362 289 l 4325 316 l
 4286 341 l 4245 363 l 4204 383 l 4161 399 l 4117 413 l
 4072 423 l 4026 431 l 3981 436 l 3934 437 l 3734 437 l
 3709 437 l 3663 433 l 3617 427 l 3572 418 l 3527 405 l
 3484 390 l 3442 372 l 3401 351 l 3361 328 l 3323 301 l
 3287 273 l 3253 242 l 3221 209 l 3191 173 l 3164 136 l
 3139 97 l 3117 57 l 3098 15 l 3081 -27 l 3068 -71 l
 3057 -116 l 3050 -161 l 3045 -207 l 3043 -253 l 3043 -6771 l
 3043 -6780 l 3058 -7937 l 3058 -7946 l 3058 -11746 l 3058 -11772 l
 3055 -11818 l 3048 -11864 l 3039 -11909 l 3027 -11953 l 3011 -11997 l
 2993 -12039 l 2972 -12080 l 2949 -12119 l 2923 -12157 l 2894 -12193 l
 2863 -12228 l 2830 -12260 l 2795 -12289 l 2758 -12316 l 2719 -12341 l
 2678 -12363 l 2636 -12383 l 2593 -12399 l 2549 -12413 l 2505 -12423 l
 2459 -12431 l 2413 -12436 l 2367 -12437 l 2147 -12437 l 2121 -12437 l
 2075 -12433 l 2030 -12427 l 1985 -12418 l 1940 -12405 l 1897 -12390 l
 1855 -12372 l 1814 -12351 l 1774 -12328 l 1736 -12301 l 1700 -12273 l
 1666 -12242 l 1634 -12209 l 1604 -12173 l 1577 -12136 l 1552 -12097 l
 1530 -12057 l 1511 -12015 l 1494 -11972 l 1481 -11928 l 1470 -11883 l
 1462 -11838 l 1458 -11792 l 1456 -11746 l 1456 -253 l 1457 -227 l
 1460 -181 l 1466 -135 l 1476 -90 l 1488 -46 l 1503 -2 l
 1521 39 l 1542 80 l 1566 119 l 1592 157 l 1621 193 l
 1652 228 l 1685 260 l 1720 289 l 1757 316 l 1796 341 l
 1836 363 l 1878 383 l 1921 399 l 1965 413 l 2010 423 l
 2055 431 l 2101 436 l 2147 437 l 2804 437 l 2830 437 l
 2876 433 l 2922 427 l 2967 418 l 3011 405 l 3055 390 l
 3097 372 l 3138 351 l 3178 328 l 3216 301 l 3252 273 l
 3286 242 l 3318 209 l 3347 173 l 3375 136 l 3399 97 l
 3422 57 l 3441 15 l 3457 -27 l 3471 -71 l 3482 -116 l
 3489 -161 l 3494 -207 l 3495 -253 l 3495 -6682 l 3495 -6686 l
 3497 -6732 l 3502 -6778 l 3510 -6823 l 3521 -6868 l 3535 -6912 l
 3552 -6955 l 3920 -7811 l 3921 -7815 l 3938 -7858 l 3951 -7902 l
 3962 -7947 l 3969 -7992 l 3974 -8038 l 3976 -8084 l 3976 -11746 l
 3975 -11772 l 3972 -11818 l 3966 -11864 l 3956 -11909 l 3944 -11953 l
 3929 -11997 l 3911 -12039 l 3890 -12080 l 3866 -12119 l 3840 -12157 l
 3811 -12193 l 3780 -12228 l 3747 -12260 l 3712 -12289 l 3675 -12316 l
 3636 -12341 l 3596 -12363 l 3554 -12383 l 3511 -12399 l 3467 -12413 l
 3422 -12423 l 3377 -12431 l 3331 -12436 l 3285 -12437 l 3061 -12437 l
 3035 -12437 l 2990 -12433 l 2944 -12427 l 2899 -12418 l 2854 -12405 l
 2811 -12390 l 2769 -12372 l 2728 -12351 l 2688 -12328 l 2650 -12301 l
 2614 -12273 l 2580 -12242 l 2548 -12209 l 2518 -12173 l 2491 -12136 l
 2466 -12097 l 2444 -12057 l 2425 -12015 l 2408 -11972 l 2395 -11928 l
 2384 -11883 l 2376 -11838 l 2372 -11792 l 2370 -11746 l 2370 -7669 l
 2370 -7664 l 2365 -7053 l 2365 -7047 l 2365 -253 l 2366 -227 l
 2369 -181 l 2375 -135 l 2385 -90 l 2397 -46 l 2412 -2 l
 2430 39 l 2451 80 l 2475 119 l 2501 157 l 2530 193 l
 2561 228 l 2594 260 l 2629 289 l 2666 316 l 2705 341 l
 2745 363 l 2787 383 l 2830 399 l 2874 413 l 2919 423 l
 2965 431 l 3010 436 l 3056 437 l 3708 437 l 3734 437 l
 3780 433 l 3826 427 l 3871 418 l 3915 405 l 3959 390 l
 4001 372 l 4042 351 l 4082 328 l 4120 301 l 4156 273 l
 4190 242 l 4222 209 l 4252 173 l 4279 136 l 4303 97 l
 4326 57 l 4345 15 l 4361 -27 l 4375 -71 l 4386 -116 l
 4393 -161 l 4398 -207 l 4399 -253 l 4399 -6610 l 4400 -6635 l
 4403 -6681 l 4409 -6726 l 4419 -6771 l 4431 -6816 l 4446 -6859 l
 4464 -6902 l 4485 -6943 l 4508 -6982 l 4535 -7020 l 4563 -7056 l
 4594 -7091 l 4627 -7123 l 5124 -7571 l 5142 -7588 l 5174 -7621 l
 5204 -7657 l 5231 -7694 l 5256 -7733 l 5278 -7773 l 5297 -7815 l
 5314 -7858 l 5327 -7902 l 5338 -7947 l 5345 -7992 l 5350 -8038 l
 5352 -8084 l 5352 -11746 l 5352 -11772 l 5355 -11818 l 5362 -11864 l
 5371 -11909 l 5383 -11953 l 5399 -11997 l 5417 -12039 l 5438 -12080 l
 5461 -12119 l 5487 -12157 l 5516 -12193 l 5547 -12228 l 5580 -12260 l
 5615 -12289 l 5652 -12316 l 5691 -12341 l 5732 -12363 l 5773 -12383 l
 5816 -12399 l 5860 -12413 l 5905 -12423 l 5951 -12431 l 5997 -12436 l
 6043 -12437 l 6743 -12437 l 6769 -12437 l 6815 -12433 l 6860 -12427 l
 6905 -12418 l 6950 -12405 l 6993 -12390 l 7035 -12372 l 7077 -12351 l
 7116 -12328 l 7154 -12301 l 7190 -12273 l 7224 -12242 l 7256 -12209 l
 7286 -12173 l 7313 -12136 l 7338 -12097 l 7360 -12057 l 7379 -12015 l
 7396 -11972 l 7409 -11928 l 7420 -11883 l 7428 -11838 l 7432 -11792 l
 7434 -11746 l 7434 -3938 l
 7434 -3938 l gs col37 s gr 
% Ellipse
n 7434 -3914 115 115 0 360 DrawEllipse gs col34 s gr
% Ellipse
n 7434 -3938 115 115 0 360 DrawEllipse gs col33 s gr
% Polyline
n 7434 -3914 m
 7426 -4029 l gs col34 s gr 
% Polyline
n 7434 -3938 m
 7549 -3938 l gs col33 s gr 
% here ends figure;
pagefooter
showpage
%%Trailer
%EOF
%%EndDocument
 @endspecial Black Black eop end
%%Trailer
userdict /end-hook known{end-hook}if
%%Trailer
cleartomark
countdictstack
exch sub { end } repeat
restore
%%EOF
