%!PS-Adobe-3.0 EPSF-3.0
%%BoundingBox: 149 1 1014 866
%%HiResBoundingBox: 149.000000 1.000000 1013.666016 865.664062
%%Creator: dvips(k) 5.993 Copyright 2013 Radical Eye Software
%%Title: fig2ps-env02_cutoff.dvi
%%CreationDate: Thu Feb  7 00:29:35 2019
%%EndComments
% EPSF created by ps2eps 1.68
%%BeginProlog
0 199 translate
save
countdictstack
mark
newpath
/showpage {} def
/setpagedevice {pop} def
%%EndProlog
%%Page 1 1
%DVIPSWebPage: (www.radicaleye.com)
%DVIPSCommandLine: dvips -Ppdf -G0 -q -E fig2ps-env02_cutoff.dvi -o
%+ fig2ps-env02_cutoff.ps
%DVIPSParameters: dpi=8000
%DVIPSSource:  TeX output 2019.02.07:0029
%%BeginProcSet: tex.pro 0 0
%!
/TeXDict 300 dict def TeXDict begin/N{def}def/B{bind def}N/S{exch}N/X{S
N}B/A{dup}B/TR{translate}N/isls false N/vsize 11 72 mul N/hsize 8.5 72
mul N/landplus90{false}def/@rigin{isls{[0 landplus90{1 -1}{-1 1}ifelse 0
0 0]concat}if 72 Resolution div 72 VResolution div neg scale isls{
landplus90{VResolution 72 div vsize mul 0 exch}{Resolution -72 div hsize
mul 0}ifelse TR}if Resolution VResolution vsize -72 div 1 add mul TR[
matrix currentmatrix{A A round sub abs 0.00001 lt{round}if}forall round
exch round exch]setmatrix}N/@landscape{/isls true N}B/@manualfeed{
statusdict/manualfeed true put}B/@copies{/#copies X}B/FMat[1 0 0 -1 0 0]
N/FBB[0 0 0 0]N/nn 0 N/IEn 0 N/ctr 0 N/df-tail{/nn 8 dict N nn begin
/FontType 3 N/FontMatrix fntrx N/FontBBox FBB N string/base X array
/BitMaps X/BuildChar{CharBuilder}N/Encoding IEn N end A{/foo setfont}2
array copy cvx N load 0 nn put/ctr 0 N[}B/sf 0 N/df{/sf 1 N/fntrx FMat N
df-tail}B/dfs{div/sf X/fntrx[sf 0 0 sf neg 0 0]N df-tail}B/E{pop nn A
definefont setfont}B/Cw{Cd A length 5 sub get}B/Ch{Cd A length 4 sub get
}B/Cx{128 Cd A length 3 sub get sub}B/Cy{Cd A length 2 sub get 127 sub}
B/Cdx{Cd A length 1 sub get}B/Ci{Cd A type/stringtype ne{ctr get/ctr ctr
1 add N}if}B/CharBuilder{save 3 1 roll S A/base get 2 index get S
/BitMaps get S get/Cd X pop/ctr 0 N Cdx 0 Cx Cy Ch sub Cx Cw add Cy
setcachedevice Cw Ch true[1 0 0 -1 -.1 Cx sub Cy .1 sub]{Ci}imagemask
restore}B/D{/cc X A type/stringtype ne{]}if nn/base get cc ctr put nn
/BitMaps get S ctr S sf 1 ne{A A length 1 sub A 2 index S get sf div put
}if put/ctr ctr 1 add N}B/I{cc 1 add D}B/bop{userdict/bop-hook known{
bop-hook}if/SI save N @rigin 0 0 moveto/V matrix currentmatrix A 1 get A
mul exch 0 get A mul add .99 lt{/QV}{/RV}ifelse load def pop pop}N/eop{
SI restore userdict/eop-hook known{eop-hook}if showpage}N/@start{
userdict/start-hook known{start-hook}if pop/VResolution X/Resolution X
1000 div/DVImag X/IEn 256 array N 2 string 0 1 255{IEn S A 360 add 36 4
index cvrs cvn put}for pop 65781.76 div/vsize X 65781.76 div/hsize X}N
/dir 0 def/dyy{/dir 0 def}B/dyt{/dir 1 def}B/dty{/dir 2 def}B/dtt{/dir 3
def}B/p{dir 2 eq{-90 rotate show 90 rotate}{dir 3 eq{-90 rotate show 90
rotate}{show}ifelse}ifelse}N/RMat[1 0 0 -1 0 0]N/BDot 260 string N/Rx 0
N/Ry 0 N/V{}B/RV/v{/Ry X/Rx X V}B statusdict begin/product where{pop
false[(Display)(NeXT)(LaserWriter 16/600)]{A length product length le{A
length product exch 0 exch getinterval eq{pop true exit}if}{pop}ifelse}
forall}{false}ifelse end{{gsave TR -.1 .1 TR 1 1 scale Rx Ry false RMat{
BDot}imagemask grestore}}{{gsave TR -.1 .1 TR Rx Ry scale 1 1 false RMat
{BDot}imagemask grestore}}ifelse B/QV{gsave newpath transform round exch
round exch itransform moveto Rx 0 rlineto 0 Ry neg rlineto Rx neg 0
rlineto fill grestore}B/a{moveto}B/delta 0 N/tail{A/delta X 0 rmoveto}B
/M{S p delta add tail}B/b{S p tail}B/c{-4 M}B/d{-3 M}B/e{-2 M}B/f{-1 M}
B/g{0 M}B/h{1 M}B/i{2 M}B/j{3 M}B/k{4 M}B/w{0 rmoveto}B/l{p -4 w}B/m{p
-3 w}B/n{p -2 w}B/o{p -1 w}B/q{p 1 w}B/r{p 2 w}B/s{p 3 w}B/t{p 4 w}B/x{
0 S rmoveto}B/y{3 2 roll p a}B/bos{/SS save N}B/eos{SS restore}B end
%%EndProcSet
%%BeginProcSet: alt-rule.pro 0 0
%!
% Patch by TVZ
% Makes dvips files draw rules with stroke rather than fill.
% Makes narrow rules more predictable at low resolutions
% after distilling to PDF.
% May have unknown consequences for very thick rules.
% Tested only with dvips 5.85(k).
TeXDict begin
/QV {
  gsave newpath /ruleY X /ruleX X
  Rx Ry gt
  { ruleX ruleY Ry 2 div sub moveto Rx 0 rlineto Ry }
  { ruleX Rx 2 div add ruleY moveto 0 Ry neg rlineto Rx }
  ifelse
  setlinewidth 0 setlinecap stroke grestore
} bind def
end
%%EndProcSet
%%BeginProcSet: special.pro 0 0
%!
TeXDict begin/SDict 200 dict N SDict begin/@SpecialDefaults{/hs 612 N
/vs 792 N/ho 0 N/vo 0 N/hsc 1 N/vsc 1 N/ang 0 N/CLIP 0 N/rwiSeen false N
/rhiSeen false N/letter{}N/note{}N/a4{}N/legal{}N}B/@scaleunit 100 N
/@hscale{@scaleunit div/hsc X}B/@vscale{@scaleunit div/vsc X}B/@hsize{
/hs X/CLIP 1 N}B/@vsize{/vs X/CLIP 1 N}B/@clip{/CLIP 2 N}B/@hoffset{/ho
X}B/@voffset{/vo X}B/@angle{/ang X}B/@rwi{10 div/rwi X/rwiSeen true N}B
/@rhi{10 div/rhi X/rhiSeen true N}B/@llx{/llx X}B/@lly{/lly X}B/@urx{
/urx X}B/@ury{/ury X}B/magscale true def end/@MacSetUp{userdict/md known
{userdict/md get type/dicttype eq{userdict begin md length 10 add md
maxlength ge{/md md dup length 20 add dict copy def}if end md begin
/letter{}N/note{}N/legal{}N/od{txpose 1 0 mtx defaultmatrix dtransform S
atan/pa X newpath clippath mark{transform{itransform moveto}}{transform{
itransform lineto}}{6 -2 roll transform 6 -2 roll transform 6 -2 roll
transform{itransform 6 2 roll itransform 6 2 roll itransform 6 2 roll
curveto}}{{closepath}}pathforall newpath counttomark array astore/gc xdf
pop ct 39 0 put 10 fz 0 fs 2 F/|______Courier fnt invertflag{PaintBlack}
if}N/txpose{pxs pys scale ppr aload pop por{noflips{pop S neg S TR pop 1
-1 scale}if xflip yflip and{pop S neg S TR 180 rotate 1 -1 scale ppr 3
get ppr 1 get neg sub neg ppr 2 get ppr 0 get neg sub neg TR}if xflip
yflip not and{pop S neg S TR pop 180 rotate ppr 3 get ppr 1 get neg sub
neg 0 TR}if yflip xflip not and{ppr 1 get neg ppr 0 get neg TR}if}{
noflips{TR pop pop 270 rotate 1 -1 scale}if xflip yflip and{TR pop pop
90 rotate 1 -1 scale ppr 3 get ppr 1 get neg sub neg ppr 2 get ppr 0 get
neg sub neg TR}if xflip yflip not and{TR pop pop 90 rotate ppr 3 get ppr
1 get neg sub neg 0 TR}if yflip xflip not and{TR pop pop 270 rotate ppr
2 get ppr 0 get neg sub neg 0 S TR}if}ifelse scaleby96{ppr aload pop 4
-1 roll add 2 div 3 1 roll add 2 div 2 copy TR .96 dup scale neg S neg S
TR}if}N/cp{pop pop showpage pm restore}N end}if}if}N/normalscale{
Resolution 72 div VResolution 72 div neg scale magscale{DVImag dup scale
}if 0 setgray}N/psfts{S 65781.76 div N}N/startTexFig{/psf$SavedState
save N userdict maxlength dict begin/magscale true def normalscale
currentpoint TR/psf$ury psfts/psf$urx psfts/psf$lly psfts/psf$llx psfts
/psf$y psfts/psf$x psfts currentpoint/psf$cy X/psf$cx X/psf$sx psf$x
psf$urx psf$llx sub div N/psf$sy psf$y psf$ury psf$lly sub div N psf$sx
psf$sy scale psf$cx psf$sx div psf$llx sub psf$cy psf$sy div psf$ury sub
TR/showpage{}N/erasepage{}N/setpagedevice{pop}N/copypage{}N/p 3 def
@MacSetUp}N/doclip{psf$llx psf$lly psf$urx psf$ury currentpoint 6 2 roll
newpath 4 copy 4 2 roll moveto 6 -1 roll S lineto S lineto S lineto
closepath clip newpath moveto}N/endTexFig{end psf$SavedState restore}N
/@beginspecial{SDict begin/SpecialSave save N gsave normalscale
currentpoint TR @SpecialDefaults count/ocount X/dcount countdictstack N}
N/@setspecial{CLIP 1 eq{newpath 0 0 moveto hs 0 rlineto 0 vs rlineto hs
neg 0 rlineto closepath clip}if ho vo TR hsc vsc scale ang rotate
rwiSeen{rwi urx llx sub div rhiSeen{rhi ury lly sub div}{dup}ifelse
scale llx neg lly neg TR}{rhiSeen{rhi ury lly sub div dup scale llx neg
lly neg TR}if}ifelse CLIP 2 eq{newpath llx lly moveto urx lly lineto urx
ury lineto llx ury lineto closepath clip}if/showpage{}N/erasepage{}N
/setpagedevice{pop}N/copypage{}N newpath}N/@endspecial{count ocount sub{
pop}repeat countdictstack dcount sub{end}repeat grestore SpecialSave
restore end}N/@defspecial{SDict begin}N/@fedspecial{end}B/li{lineto}B
/rl{rlineto}B/rc{rcurveto}B/np{/SaveX currentpoint/SaveY X N 1
setlinecap newpath}N/st{stroke SaveX SaveY moveto}N/fil{fill SaveX SaveY
moveto}N/ellipse{/endangle X/startangle X/yrad X/xrad X/savematrix
matrix currentmatrix N TR xrad yrad scale 0 0 1 startangle endangle arc
savematrix setmatrix}N end
%%EndProcSet
%%BeginProcSet: color.pro 0 0
%!
TeXDict begin/setcmykcolor where{pop}{/setcmykcolor{dup 10 eq{pop
setrgbcolor}{1 sub 4 1 roll 3{3 index add neg dup 0 lt{pop 0}if 3 1 roll
}repeat setrgbcolor pop}ifelse}B}ifelse/TeXcolorcmyk{setcmykcolor}def
/TeXcolorrgb{setrgbcolor}def/TeXcolorgrey{setgray}def/TeXcolorgray{
setgray}def/TeXcolorhsb{sethsbcolor}def/currentcmykcolor where{pop}{
/currentcmykcolor{currentrgbcolor 10}B}ifelse/DC{exch dup userdict exch
known{pop pop}{X}ifelse}B/GreenYellow{0.15 0 0.69 0 setcmykcolor}DC
/Yellow{0 0 1 0 setcmykcolor}DC/Goldenrod{0 0.10 0.84 0 setcmykcolor}DC
/Dandelion{0 0.29 0.84 0 setcmykcolor}DC/Apricot{0 0.32 0.52 0
setcmykcolor}DC/Peach{0 0.50 0.70 0 setcmykcolor}DC/Melon{0 0.46 0.50 0
setcmykcolor}DC/YellowOrange{0 0.42 1 0 setcmykcolor}DC/Orange{0 0.61
0.87 0 setcmykcolor}DC/BurntOrange{0 0.51 1 0 setcmykcolor}DC
/Bittersweet{0 0.75 1 0.24 setcmykcolor}DC/RedOrange{0 0.77 0.87 0
setcmykcolor}DC/Mahogany{0 0.85 0.87 0.35 setcmykcolor}DC/Maroon{0 0.87
0.68 0.32 setcmykcolor}DC/BrickRed{0 0.89 0.94 0.28 setcmykcolor}DC/Red{
0 1 1 0 setcmykcolor}DC/OrangeRed{0 1 0.50 0 setcmykcolor}DC/RubineRed{
0 1 0.13 0 setcmykcolor}DC/WildStrawberry{0 0.96 0.39 0 setcmykcolor}DC
/Salmon{0 0.53 0.38 0 setcmykcolor}DC/CarnationPink{0 0.63 0 0
setcmykcolor}DC/Magenta{0 1 0 0 setcmykcolor}DC/VioletRed{0 0.81 0 0
setcmykcolor}DC/Rhodamine{0 0.82 0 0 setcmykcolor}DC/Mulberry{0.34 0.90
0 0.02 setcmykcolor}DC/RedViolet{0.07 0.90 0 0.34 setcmykcolor}DC
/Fuchsia{0.47 0.91 0 0.08 setcmykcolor}DC/Lavender{0 0.48 0 0
setcmykcolor}DC/Thistle{0.12 0.59 0 0 setcmykcolor}DC/Orchid{0.32 0.64 0
0 setcmykcolor}DC/DarkOrchid{0.40 0.80 0.20 0 setcmykcolor}DC/Purple{
0.45 0.86 0 0 setcmykcolor}DC/Plum{0.50 1 0 0 setcmykcolor}DC/Violet{
0.79 0.88 0 0 setcmykcolor}DC/RoyalPurple{0.75 0.90 0 0 setcmykcolor}DC
/BlueViolet{0.86 0.91 0 0.04 setcmykcolor}DC/Periwinkle{0.57 0.55 0 0
setcmykcolor}DC/CadetBlue{0.62 0.57 0.23 0 setcmykcolor}DC
/CornflowerBlue{0.65 0.13 0 0 setcmykcolor}DC/MidnightBlue{0.98 0.13 0
0.43 setcmykcolor}DC/NavyBlue{0.94 0.54 0 0 setcmykcolor}DC/RoyalBlue{1
0.50 0 0 setcmykcolor}DC/Blue{1 1 0 0 setcmykcolor}DC/Cerulean{0.94 0.11
0 0 setcmykcolor}DC/Cyan{1 0 0 0 setcmykcolor}DC/ProcessBlue{0.96 0 0 0
setcmykcolor}DC/SkyBlue{0.62 0 0.12 0 setcmykcolor}DC/Turquoise{0.85 0
0.20 0 setcmykcolor}DC/TealBlue{0.86 0 0.34 0.02 setcmykcolor}DC
/Aquamarine{0.82 0 0.30 0 setcmykcolor}DC/BlueGreen{0.85 0 0.33 0
setcmykcolor}DC/Emerald{1 0 0.50 0 setcmykcolor}DC/JungleGreen{0.99 0
0.52 0 setcmykcolor}DC/SeaGreen{0.69 0 0.50 0 setcmykcolor}DC/Green{1 0
1 0 setcmykcolor}DC/ForestGreen{0.91 0 0.88 0.12 setcmykcolor}DC
/PineGreen{0.92 0 0.59 0.25 setcmykcolor}DC/LimeGreen{0.50 0 1 0
setcmykcolor}DC/YellowGreen{0.44 0 0.74 0 setcmykcolor}DC/SpringGreen{
0.26 0 0.76 0 setcmykcolor}DC/OliveGreen{0.64 0 0.95 0.40 setcmykcolor}
DC/RawSienna{0 0.72 1 0.45 setcmykcolor}DC/Sepia{0 0.83 1 0.70
setcmykcolor}DC/Brown{0 0.81 1 0.60 setcmykcolor}DC/Tan{0.14 0.42 0.56 0
setcmykcolor}DC/Gray{0 0 0 0.50 setcmykcolor}DC/Black{0 0 0 1
setcmykcolor}DC/White{0 0 0 0 setcmykcolor}DC end
%%EndProcSet
TeXDict begin 40258437 52099154 1000 8000 8000 (fig2ps-env02_cutoff.dvi)
@start end
%%EndProlog
%%BeginSetup
%%Feature: *Resolution 8000dpi
TeXDict begin
 end
%%EndSetup
TeXDict begin 1 0 bop Black Black 8524 102029 a @beginspecial
0 @llx 0 @lly 866 @urx 866 @ury 8660 @rwi @setspecial
%%BeginDocument: fig2ps-env02_cutoff.pstex
%!PS-Adobe-3.0 EPSF-3.0
%%Title: fig2ps-env02_cutoff.fig2
%%Creator: fig2dev Version 3.2 Patchlevel 5e
%%CreationDate: Thu Feb  7 00:29:34 2019
%%BoundingBox: 0 0 866 866
%Magnification: 1.0000
%%EndComments
%%BeginProlog
/$F2psDict 200 dict def
$F2psDict begin
$F2psDict /mtrx matrix put
/col-1 {0 setgray} bind def
/col0 {0.000 0.000 0.000 srgb} bind def
/col1 {0.000 0.000 1.000 srgb} bind def
/col2 {0.000 1.000 0.000 srgb} bind def
/col3 {0.000 1.000 1.000 srgb} bind def
/col4 {1.000 0.000 0.000 srgb} bind def
/col5 {1.000 0.000 1.000 srgb} bind def
/col6 {1.000 1.000 0.000 srgb} bind def
/col7 {1.000 1.000 1.000 srgb} bind def
/col8 {0.000 0.000 0.560 srgb} bind def
/col9 {0.000 0.000 0.690 srgb} bind def
/col10 {0.000 0.000 0.820 srgb} bind def
/col11 {0.530 0.810 1.000 srgb} bind def
/col12 {0.000 0.560 0.000 srgb} bind def
/col13 {0.000 0.690 0.000 srgb} bind def
/col14 {0.000 0.820 0.000 srgb} bind def
/col15 {0.000 0.560 0.560 srgb} bind def
/col16 {0.000 0.690 0.690 srgb} bind def
/col17 {0.000 0.820 0.820 srgb} bind def
/col18 {0.560 0.000 0.000 srgb} bind def
/col19 {0.690 0.000 0.000 srgb} bind def
/col20 {0.820 0.000 0.000 srgb} bind def
/col21 {0.560 0.000 0.560 srgb} bind def
/col22 {0.690 0.000 0.690 srgb} bind def
/col23 {0.820 0.000 0.820 srgb} bind def
/col24 {0.500 0.190 0.000 srgb} bind def
/col25 {0.630 0.250 0.000 srgb} bind def
/col26 {0.750 0.380 0.000 srgb} bind def
/col27 {1.000 0.500 0.500 srgb} bind def
/col28 {1.000 0.630 0.630 srgb} bind def
/col29 {1.000 0.750 0.750 srgb} bind def
/col30 {1.000 0.880 0.880 srgb} bind def
/col31 {1.000 0.840 0.000 srgb} bind def
/col32 {0.306 0.773 0.925 srgb} bind def
/col33 {0.498 0.000 0.000 srgb} bind def
/col34 {0.498 0.122 0.122 srgb} bind def
/col35 {0.624 0.871 0.945 srgb} bind def
/col36 {0.698 0.698 0.698 srgb} bind def
/col37 {0.749 0.000 0.000 srgb} bind def
end
/cp {closepath} bind def
/ef {eofill} bind def
/gr {grestore} bind def
/gs {gsave} bind def
/sa {save} bind def
/rs {restore} bind def
/l {lineto} bind def
/m {moveto} bind def
/rm {rmoveto} bind def
/n {newpath} bind def
/s {stroke} bind def
/sh {show} bind def
/slc {setlinecap} bind def
/slj {setlinejoin} bind def
/slw {setlinewidth} bind def
/srgb {setrgbcolor} bind def
/rot {rotate} bind def
/sc {scale} bind def
/sd {setdash} bind def
/ff {findfont} bind def
/sf {setfont} bind def
/scf {scalefont} bind def
/sw {stringwidth} bind def
/tr {translate} bind def
/tnt {dup dup currentrgbcolor
  4 -2 roll dup 1 exch sub 3 -1 roll mul add
  4 -2 roll dup 1 exch sub 3 -1 roll mul add
  4 -2 roll dup 1 exch sub 3 -1 roll mul add srgb}
  bind def
/shd {dup dup currentrgbcolor 4 -2 roll mul 4 -2 roll mul
  4 -2 roll mul srgb} bind def
 /DrawEllipse {
	/endangle exch def
	/startangle exch def
	/yrad exch def
	/xrad exch def
	/y exch def
	/x exch def
	/savematrix mtrx currentmatrix def
	x y tr xrad yrad sc 0 0 1 startangle endangle arc
	closepath
	savematrix setmatrix
	} def
/$F2psBegin {$F2psDict begin /$F2psEnteredState save def} def
/$F2psEnd {$F2psEnteredState restore end} def
/pageheader {
save
newpath 0 866 moveto 0 0 lineto 866 0 lineto 866 866 lineto closepath clip newpath
72.7 72.7 translate
1 -1 scale
$F2psBegin
10 setmiterlimit
0 slj 0 slc
 0.06000 0.06000 sc
} bind def
/pagefooter {
$F2psEnd
restore
} bind def
%%EndProlog
pageheader
%
% Fig objects follow
%
% 
% here starts figure with depth 50
% Polyline
1 slj
0 slc
7.500 slw
n -1200 1200 m -1200 -13200 l 13200 -13200 l 13200 1200 l
 cp gs 0.00 setgray ef gr gs col0 s gr 
% Polyline
n -975 975 m -975 -13050 l 12975 -13050 l 12975 975 l
 cp gs col7 1.00 shd ef gr gs col7 s gr 
% Polyline
n 368 -3293 m 7831 -3293 l 7831 -253 l 368 -253 l
 cp gs col36 1.00 shd ef gr gs col36 s gr 
% Polyline
n 368 -11516 m 7831 -11516 l 7831 -8291 l 368 -8291 l
 cp gs col36 1.00 shd ef gr gs col36 s gr 
% Polyline
n 7854 -11516 m 11631 -11516 l 11631 -253 l 7854 -253 l
 cp gs col36 1.00 shd ef gr gs col36 s gr 
% Polyline
n 368 -3293 m 807 -3293 l 807 -253 l 368 -253 l
 cp gs col32 1.00 shd ef gr gs col32 s gr 
% Polyline
n 807 -3293 m 1246 -3293 l 1246 -253 l 807 -253 l
 cp gs col35 1.00 shd ef gr gs col35 s gr 
% Polyline
n 1246 -3293 m 1685 -3293 l 1685 -253 l 1246 -253 l
 cp gs col32 1.00 shd ef gr gs col32 s gr 
% Polyline
n 1685 -3293 m 2124 -3293 l 2124 -253 l 1685 -253 l
 cp gs col35 1.00 shd ef gr gs col35 s gr 
% Polyline
n 2124 -3293 m 2563 -3293 l 2563 -253 l 2124 -253 l
 cp gs col32 1.00 shd ef gr gs col32 s gr 
% Polyline
n 2563 -3293 m 3002 -3293 l 3002 -253 l 2563 -253 l
 cp gs col35 1.00 shd ef gr gs col35 s gr 
% Polyline
n 3002 -3293 m 3441 -3293 l 3441 -253 l 3002 -253 l
 cp gs col32 1.00 shd ef gr gs col32 s gr 
% Polyline
n 3441 -3293 m 3880 -3293 l 3880 -253 l 3441 -253 l
 cp gs col35 1.00 shd ef gr gs col35 s gr 
% Polyline
n 3880 -3293 m 4319 -3293 l 4319 -253 l 3880 -253 l
 cp gs col32 1.00 shd ef gr gs col32 s gr 
% Polyline
n 4319 -3293 m 4758 -3293 l 4758 -253 l 4319 -253 l
 cp gs col35 1.00 shd ef gr gs col35 s gr 
% Polyline
n 4758 -3293 m 5197 -3293 l 5197 -253 l 4758 -253 l
 cp gs col32 1.00 shd ef gr gs col32 s gr 
% Polyline
n 5197 -3293 m 5636 -3293 l 5636 -253 l 5197 -253 l
 cp gs col35 1.00 shd ef gr gs col35 s gr 
% Polyline
n 5636 -3293 m 6075 -3293 l 6075 -253 l 5636 -253 l
 cp gs col32 1.00 shd ef gr gs col32 s gr 
% Polyline
n 6075 -3293 m 6514 -3293 l 6514 -253 l 6075 -253 l
 cp gs col35 1.00 shd ef gr gs col35 s gr 
% Polyline
n 6514 -3293 m 6953 -3293 l 6953 -253 l 6514 -253 l
 cp gs col32 1.00 shd ef gr gs col32 s gr 
% Polyline
n 6953 -3293 m 7392 -3293 l 7392 -253 l 6953 -253 l
 cp gs col35 1.00 shd ef gr gs col35 s gr 
% Polyline
n 7392 -3293 m 7831 -3293 l 7831 -253 l 7392 -253 l
 cp gs col32 1.00 shd ef gr gs col32 s gr 
% Polyline
n 368 -11516 m 807 -11516 l 807 -8291 l 368 -8291 l
 cp gs col35 1.00 shd ef gr gs col35 s gr 
% Polyline
n 807 -11516 m 1246 -11516 l 1246 -8291 l 807 -8291 l
 cp gs col32 1.00 shd ef gr gs col32 s gr 
% Polyline
n 1246 -11516 m 1685 -11516 l 1685 -8291 l 1246 -8291 l
 cp gs col35 1.00 shd ef gr gs col35 s gr 
% Polyline
n 1685 -11516 m 2124 -11516 l 2124 -8291 l 1685 -8291 l
 cp gs col32 1.00 shd ef gr gs col32 s gr 
% Polyline
n 2124 -11516 m 2563 -11516 l 2563 -8291 l 2124 -8291 l
 cp gs col35 1.00 shd ef gr gs col35 s gr 
% Polyline
n 2563 -11516 m 3002 -11516 l 3002 -8291 l 2563 -8291 l
 cp gs col32 1.00 shd ef gr gs col32 s gr 
% Polyline
n 3002 -11516 m 3441 -11516 l 3441 -8291 l 3002 -8291 l
 cp gs col35 1.00 shd ef gr gs col35 s gr 
% Polyline
n 3441 -11516 m 3880 -11516 l 3880 -8291 l 3441 -8291 l
 cp gs col32 1.00 shd ef gr gs col32 s gr 
% Polyline
n 3880 -11516 m 4319 -11516 l 4319 -8291 l 3880 -8291 l
 cp gs col35 1.00 shd ef gr gs col35 s gr 
% Polyline
n 4319 -11516 m 4758 -11516 l 4758 -8291 l 4319 -8291 l
 cp gs col32 1.00 shd ef gr gs col32 s gr 
% Polyline
n 4758 -11516 m 5197 -11516 l 5197 -8291 l 4758 -8291 l
 cp gs col35 1.00 shd ef gr gs col35 s gr 
% Polyline
n 5197 -11516 m 5636 -11516 l 5636 -8291 l 5197 -8291 l
 cp gs col32 1.00 shd ef gr gs col32 s gr 
% Polyline
n 5636 -11516 m 6075 -11516 l 6075 -8291 l 5636 -8291 l
 cp gs col35 1.00 shd ef gr gs col35 s gr 
% Polyline
n 6075 -11516 m 6514 -11516 l 6514 -8291 l 6075 -8291 l
 cp gs col32 1.00 shd ef gr gs col32 s gr 
% Polyline
n 6514 -11516 m 6953 -11516 l 6953 -8291 l 6514 -8291 l
 cp gs col35 1.00 shd ef gr gs col35 s gr 
% Polyline
n 6953 -11516 m 7392 -11516 l 7392 -8291 l 6953 -8291 l
 cp gs col32 1.00 shd ef gr gs col32 s gr 
% Polyline
n 7392 -11516 m 7831 -11516 l 7831 -8291 l 7392 -8291 l
 cp gs col35 1.00 shd ef gr gs col35 s gr 
% Polyline
n 7854 -11516 m 8273 -11516 l 8273 -253 l 7854 -253 l
 cp gs col32 1.00 shd ef gr gs col32 s gr 
% Polyline
n 8273 -11516 m 8693 -11516 l 8693 -253 l 8273 -253 l
 cp gs col35 1.00 shd ef gr gs col35 s gr 
% Polyline
n 8693 -11516 m 9113 -11516 l 9113 -253 l 8693 -253 l
 cp gs col32 1.00 shd ef gr gs col32 s gr 
% Polyline
n 9113 -11516 m 9532 -11516 l 9532 -253 l 9113 -253 l
 cp gs col35 1.00 shd ef gr gs col35 s gr 
% Polyline
n 9532 -11516 m 9952 -11516 l 9952 -253 l 9532 -253 l
 cp gs col32 1.00 shd ef gr gs col32 s gr 
% Polyline
n 9952 -11516 m 10372 -11516 l 10372 -253 l 9952 -253 l
 cp gs col35 1.00 shd ef gr gs col35 s gr 
% Polyline
n 10372 -11516 m 10792 -11516 l 10792 -253 l 10372 -253 l
 cp gs col32 1.00 shd ef gr gs col32 s gr 
% Polyline
n 10792 -11516 m 11211 -11516 l 11211 -253 l 10792 -253 l
 cp gs col35 1.00 shd ef gr gs col35 s gr 
% Polyline
n 11211 -11516 m 11631 -11516 l 11631 -253 l 11211 -253 l
 cp gs col32 1.00 shd ef gr gs col32 s gr 
% Ellipse
n 7611 -3293 115 115 0 360 DrawEllipse gs col4 1.00 shd ef gr gs col4 s gr
% Polyline
n 368 -3293 m 7831 -3293 l 7831 -253 l 368 -253 l
 cp gs col0 s gr 
% Polyline
n 368 -11516 m 7831 -11516 l 7831 -8291 l 368 -8291 l
 cp gs col0 s gr 
% Polyline
n 7854 -11516 m 11631 -11516 l 11631 -253 l 7854 -253 l
 cp gs col0 s gr 
% Polyline
n 368 -3293 m 807 -3293 l 807 -253 l 368 -253 l
 cp gs col0 s gr 
% Polyline
n 807 -3293 m 1246 -3293 l 1246 -253 l 807 -253 l
 cp gs col0 s gr 
% Polyline
n 1246 -3293 m 1685 -3293 l 1685 -253 l 1246 -253 l
 cp gs col0 s gr 
% Polyline
n 1685 -3293 m 2124 -3293 l 2124 -253 l 1685 -253 l
 cp gs col0 s gr 
% Polyline
n 2124 -3293 m 2563 -3293 l 2563 -253 l 2124 -253 l
 cp gs col0 s gr 
% Polyline
n 2563 -3293 m 3002 -3293 l 3002 -253 l 2563 -253 l
 cp gs col0 s gr 
% Polyline
n 3002 -3293 m 3441 -3293 l 3441 -253 l 3002 -253 l
 cp gs col0 s gr 
% Polyline
n 3441 -3293 m 3880 -3293 l 3880 -253 l 3441 -253 l
 cp gs col0 s gr 
% Polyline
n 3880 -3293 m 4319 -3293 l 4319 -253 l 3880 -253 l
 cp gs col0 s gr 
% Polyline
n 4319 -3293 m 4758 -3293 l 4758 -253 l 4319 -253 l
 cp gs col0 s gr 
% Polyline
n 4758 -3293 m 5197 -3293 l 5197 -253 l 4758 -253 l
 cp gs col0 s gr 
% Polyline
n 5197 -3293 m 5636 -3293 l 5636 -253 l 5197 -253 l
 cp gs col0 s gr 
% Polyline
n 5636 -3293 m 6075 -3293 l 6075 -253 l 5636 -253 l
 cp gs col0 s gr 
% Polyline
n 6075 -3293 m 6514 -3293 l 6514 -253 l 6075 -253 l
 cp gs col0 s gr 
% Polyline
n 6514 -3293 m 6953 -3293 l 6953 -253 l 6514 -253 l
 cp gs col0 s gr 
% Polyline
n 6953 -3293 m 7392 -3293 l 7392 -253 l 6953 -253 l
 cp gs col0 s gr 
% Polyline
n 7392 -3293 m 7831 -3293 l 7831 -253 l 7392 -253 l
 cp gs col0 s gr 
% Polyline
n 368 -11516 m 807 -11516 l 807 -8291 l 368 -8291 l
 cp gs col0 s gr 
% Polyline
n 807 -11516 m 1246 -11516 l 1246 -8291 l 807 -8291 l
 cp gs col0 s gr 
% Polyline
n 1246 -11516 m 1685 -11516 l 1685 -8291 l 1246 -8291 l
 cp gs col0 s gr 
% Polyline
n 1685 -11516 m 2124 -11516 l 2124 -8291 l 1685 -8291 l
 cp gs col0 s gr 
% Polyline
n 2124 -11516 m 2563 -11516 l 2563 -8291 l 2124 -8291 l
 cp gs col0 s gr 
% Polyline
n 2563 -11516 m 3002 -11516 l 3002 -8291 l 2563 -8291 l
 cp gs col0 s gr 
% Polyline
n 3002 -11516 m 3441 -11516 l 3441 -8291 l 3002 -8291 l
 cp gs col0 s gr 
% Polyline
n 3441 -11516 m 3880 -11516 l 3880 -8291 l 3441 -8291 l
 cp gs col0 s gr 
% Polyline
n 3880 -11516 m 4319 -11516 l 4319 -8291 l 3880 -8291 l
 cp gs col0 s gr 
% Polyline
n 4319 -11516 m 4758 -11516 l 4758 -8291 l 4319 -8291 l
 cp gs col0 s gr 
% Polyline
n 4758 -11516 m 5197 -11516 l 5197 -8291 l 4758 -8291 l
 cp gs col0 s gr 
% Polyline
n 5197 -11516 m 5636 -11516 l 5636 -8291 l 5197 -8291 l
 cp gs col0 s gr 
% Polyline
n 5636 -11516 m 6075 -11516 l 6075 -8291 l 5636 -8291 l
 cp gs col0 s gr 
% Polyline
n 6075 -11516 m 6514 -11516 l 6514 -8291 l 6075 -8291 l
 cp gs col0 s gr 
% Polyline
n 6514 -11516 m 6953 -11516 l 6953 -8291 l 6514 -8291 l
 cp gs col0 s gr 
% Polyline
n 6953 -11516 m 7392 -11516 l 7392 -8291 l 6953 -8291 l
 cp gs col0 s gr 
% Polyline
n 7392 -11516 m 7831 -11516 l 7831 -8291 l 7392 -8291 l
 cp gs col0 s gr 
% Polyline
n 7854 -11516 m 8273 -11516 l 8273 -253 l 7854 -253 l
 cp gs col0 s gr 
% Polyline
n 8273 -11516 m 8693 -11516 l 8693 -253 l 8273 -253 l
 cp gs col0 s gr 
% Polyline
n 8693 -11516 m 9113 -11516 l 9113 -253 l 8693 -253 l
 cp gs col0 s gr 
% Polyline
n 9113 -11516 m 9532 -11516 l 9532 -253 l 9113 -253 l
 cp gs col0 s gr 
% Polyline
n 9532 -11516 m 9952 -11516 l 9952 -253 l 9532 -253 l
 cp gs col0 s gr 
% Polyline
n 9952 -11516 m 10372 -11516 l 10372 -253 l 9952 -253 l
 cp gs col0 s gr 
% Polyline
n 10372 -11516 m 10792 -11516 l 10792 -253 l 10372 -253 l
 cp gs col0 s gr 
% Polyline
n 10792 -11516 m 11211 -11516 l 11211 -253 l 10792 -253 l
 cp gs col0 s gr 
% Polyline
n 11211 -11516 m 11631 -11516 l 11631 -253 l 11211 -253 l
 cp gs col0 s gr 
% Polyline
60.000 slw
n 7610 -3322 m 7606 -3368 l 7598 -3414 l 7587 -3458 l 7572 -3502 l 7554 -3544 l
 7532 -3585 l 7507 -3623 l 7479 -3660 l 7448 -3694 l 7415 -3726 l
 7379 -3755 l 7341 -3781 l 7301 -3804 l 7260 -3824 l 7216 -3840 l
 7172 -3852 l 7127 -3862 l 7081 -3867 l 7035 -3869 l 6870 -3869 l
 6841 -3868 l 6795 -3864 l 6750 -3856 l 6705 -3845 l 6661 -3830 l
 6619 -3811 l 6579 -3790 l 6540 -3765 l 6503 -3737 l 6469 -3706 l
 6437 -3673 l 6408 -3637 l 6382 -3599 l 6359 -3559 l 6340 -3517 l
 6323 -3474 l 6311 -3430 l 6302 -3385 l 6296 -3339 l 6294 -3293 l
 6294 -253 l 6294 -246 l 6297 -200 l 6303 -154 l 6312 -109 l
 6326 -65 l 6342 -22 l 6363 18 l 6375 42 l 6393 85 l
 6408 128 l 6419 173 l 6426 218 l 6430 264 l 6431 310 l
 6427 356 l 6420 402 l 6410 446 l 6395 490 l 6378 533 l
 6357 574 l 6332 613 l 6305 650 l 6275 685 l 6242 717 l
 6207 747 l 6169 773 l 6130 797 l 6088 817 l 6045 834 l
 6001 848 l 5956 857 l 5911 864 l 5865 866 l 5819 865 l
 5773 861 l 5728 852 l 5683 840 l 5640 825 l 5598 806 l
 5558 784 l 5519 758 l 5483 730 l 5449 699 l 5418 665 l
 5389 629 l 5364 590 l 5341 550 l 5322 508 l 5306 465 l
 5294 421 l 5286 375 l 5281 329 l 5279 283 l 5282 237 l
 5288 192 l 5298 147 l 5311 103 l 5328 60 l 5348 18 l
 5351 12 l 5371 -29 l 5387 -72 l 5400 -116 l 5409 -161 l
 5414 -207 l 5416 -253 l 5416 -3293 l 5415 -3322 l 5411 -3368 l
 5403 -3414 l 5392 -3458 l 5377 -3502 l 5359 -3544 l 5337 -3585 l
 5312 -3623 l 5284 -3660 l 5253 -3694 l 5220 -3726 l 5184 -3755 l
 5146 -3781 l 5106 -3804 l 5065 -3824 l 5022 -3840 l 4977 -3852 l
 4932 -3862 l 4886 -3867 l 4840 -3869 l 4675 -3869 l 4646 -3868 l
 4600 -3864 l 4555 -3856 l 4510 -3845 l 4466 -3830 l 4424 -3811 l
 4384 -3790 l 4345 -3765 l 4308 -3737 l 4274 -3706 l 4242 -3673 l
 4213 -3637 l 4187 -3599 l 4164 -3559 l 4145 -3517 l 4129 -3474 l
 4116 -3430 l 4107 -3385 l 4101 -3339 l 4099 -3293 l 4099 -253 l
 4099 -224 l 4094 -178 l 4087 -132 l 4075 -88 l 4060 -44 l
 4042 -2 l 4020 38 l 3995 76 l 3967 113 l 3937 147 l
 3903 179 l 3867 208 l 3829 234 l 3789 257 l 3748 277 l
 3705 293 l 3660 305 l 3615 315 l 3570 320 l 3523 322 l
 3358 322 l 3329 321 l 3283 317 l 3238 309 l 3193 298 l
 3150 283 l 3107 264 l 3067 243 l 3028 218 l 2991 190 l
 2957 159 l 2925 126 l 2896 90 l 2870 52 l 2847 12 l
 2828 -29 l 2812 -72 l 2799 -116 l 2790 -161 l 2784 -207 l
 2782 -253 l 2782 -3293 l 2782 -3322 l 2777 -3368 l 2770 -3414 l
 2758 -3458 l 2743 -3502 l 2725 -3544 l 2703 -3585 l 2678 -3623 l
 2650 -3660 l 2620 -3694 l 2586 -3726 l 2550 -3755 l 2512 -3781 l
 2472 -3804 l 2431 -3824 l 2388 -3840 l 2343 -3852 l 2298 -3862 l
 2253 -3867 l 2207 -3869 l 2041 -3869 l 2012 -3868 l 1966 -3864 l
 1921 -3856 l 1876 -3845 l 1833 -3830 l 1790 -3811 l 1750 -3790 l
 1711 -3765 l 1674 -3737 l 1640 -3706 l 1608 -3673 l 1579 -3637 l
 1553 -3599 l 1531 -3559 l 1511 -3517 l 1495 -3474 l 1482 -3430 l
 1473 -3385 l 1467 -3339 l 1465 -3293 l 1465 -253 l 1466 -246 l
 1468 -200 l 1474 -154 l 1484 -109 l 1497 -65 l 1514 -22 l
 1534 18 l 1546 42 l 1564 85 l 1579 128 l 1590 173 l
 1598 218 l 1602 264 l 1602 310 l 1599 356 l 1591 402 l
 1581 446 l 1567 490 l 1549 533 l 1528 574 l 1504 613 l
 1476 650 l 1446 685 l 1413 717 l 1378 747 l 1340 773 l
 1301 797 l 1260 817 l 1217 834 l 1173 848 l 1128 857 l
 1082 864 l 1036 866 l 990 865 l 944 861 l 899 852 l
 855 840 l 811 825 l 769 806 l 729 784 l 690 758 l
 654 730 l 620 699 l 589 665 l 560 629 l 535 590 l
 512 550 l 493 508 l 478 465 l 466 421 l 457 375 l
 452 329 l 451 283 l 453 237 l 459 192 l 469 147 l
 482 103 l 499 60 l 519 18 l 522 12 l 542 -29 l
 558 -72 l 571 -116 l 580 -161 l 586 -207 l 588 -253 l
 588 -3293 l 588 -3322 l 592 -3368 l 600 -3414 l 612 -3458 l
 627 -3502 l 645 -3544 l 667 -3585 l 692 -3623 l 720 -3660 l
 750 -3694 l 784 -3726 l 819 -3755 l 857 -3781 l 897 -3804 l
 939 -3824 l 982 -3840 l 1026 -3852 l 1072 -3862 l 1117 -3867 l
 1163 -3869 l 1329 -3869 l 1358 -3868 l 1404 -3864 l 1449 -3856 l
 1494 -3845 l 1537 -3830 l 1579 -3811 l 1620 -3790 l 1659 -3765 l
 1695 -3737 l 1730 -3706 l 1762 -3673 l 1790 -3637 l 1816 -3599 l
 1839 -3559 l 1859 -3517 l 1875 -3474 l 1888 -3430 l 1897 -3385 l
 1903 -3339 l 1904 -3293 l 1904 -253 l 1905 -224 l 1909 -178 l
 1917 -132 l 1929 -88 l 1944 -44 l 1962 -2 l 1984 38 l
 2009 76 l 2036 113 l 2067 147 l 2101 179 l 2136 208 l
 2174 234 l 2214 257 l 2256 277 l 2299 293 l 2343 305 l
 2389 315 l 2434 320 l 2480 322 l 3085 322 l 3114 321 l
 3160 317 l 3205 309 l 3250 298 l 3293 283 l 3335 264 l
 3376 243 l 3415 218 l 3451 190 l 3486 159 l 3517 126 l
 3546 90 l 3572 52 l 3595 12 l 3615 -29 l 3631 -72 l
 3644 -116 l 3653 -161 l 3658 -207 l 3660 -253 l 3660 -3293 l
 3660 -3322 l 3655 -3368 l 3648 -3414 l 3636 -3458 l 3621 -3502 l
 3603 -3544 l 3581 -3585 l 3556 -3623 l 3528 -3660 l 3498 -3694 l
 3464 -3726 l 3428 -3755 l 3390 -3781 l 3350 -3804 l 3309 -3824 l
 3266 -3840 l 3221 -3852 l 3176 -3862 l 3131 -3867 l 3085 -3869 l
 2919 -3869 l 2890 -3868 l 2844 -3864 l 2799 -3856 l 2754 -3845 l
 2711 -3830 l 2668 -3811 l 2628 -3790 l 2589 -3765 l 2552 -3737 l
 2518 -3706 l 2486 -3673 l 2457 -3637 l 2431 -3599 l 2408 -3559 l
 2389 -3517 l 2373 -3474 l 2360 -3430 l 2351 -3385 l 2345 -3339 l
 2343 -3293 l 2343 -253 l 2343 -224 l 2338 -178 l 2331 -132 l
 2319 -88 l 2304 -44 l 2286 -2 l 2264 38 l 2239 76 l
 2211 113 l 2181 147 l 2147 179 l 2111 208 l 2073 234 l
 2033 257 l 1992 277 l 1949 293 l 1904 305 l 1859 315 l
 1814 320 l 1768 322 l 1602 322 l 1573 321 l 1527 317 l
 1482 309 l 1437 298 l 1394 283 l 1351 264 l 1311 243 l
 1272 218 l 1235 190 l 1201 159 l 1169 126 l 1140 90 l
 1114 52 l 1092 12 l 1072 -29 l 1056 -72 l 1043 -116 l
 1034 -161 l 1028 -207 l 1026 -253 l 1026 -3293 l 1026 -3298 l
 1024 -3344 l 590 -8240 l 589 -8245 l 588 -8291 l 588 -11516 l
 588 -11545 l 592 -11591 l 600 -11636 l 612 -11681 l 627 -11724 l
 645 -11767 l 667 -11807 l 692 -11846 l 720 -11883 l 750 -11917 l
 784 -11949 l 819 -11978 l 857 -12004 l 897 -12027 l 939 -12046 l
 982 -12062 l 1026 -12075 l 1072 -12084 l 1117 -12090 l 1163 -12092 l
 1329 -12092 l 1358 -12091 l 1404 -12087 l 1449 -12079 l 1494 -12067 l
 1537 -12052 l 1579 -12034 l 1620 -12012 l 1659 -11988 l 1695 -11960 l
 1730 -11929 l 1762 -11895 l 1790 -11860 l 1816 -11822 l 1839 -11782 l
 1859 -11740 l 1875 -11697 l 1888 -11653 l 1897 -11608 l 1903 -11562 l
 1904 -11516 l 1904 -8291 l 1905 -8262 l 1909 -8216 l 1917 -8171 l
 1929 -8126 l 1944 -8083 l 1962 -8040 l 1984 -8000 l 2009 -7961 l
 2036 -7924 l 2067 -7890 l 2101 -7858 l 2136 -7829 l 2174 -7803 l
 2214 -7781 l 2256 -7761 l 2299 -7745 l 2343 -7732 l 2389 -7723 l
 2434 -7717 l 2480 -7715 l 3523 -7715 l 3553 -7716 l 3599 -7720 l
 3644 -7728 l 3689 -7740 l 3732 -7755 l 3774 -7773 l 3815 -7795 l
 3854 -7820 l 3890 -7847 l 3925 -7878 l 3956 -7912 l 3985 -7947 l
 4011 -7985 l 4034 -8025 l 4054 -8067 l 4070 -8110 l 4083 -8154 l
 4092 -8200 l 4097 -8245 l 4099 -8291 l 4099 -11516 l 4100 -11545 l
 4104 -11591 l 4112 -11636 l 4123 -11681 l 4138 -11724 l 4157 -11767 l
 4179 -11807 l 4203 -11846 l 4231 -11883 l 4262 -11917 l 4295 -11949 l
 4331 -11978 l 4369 -12004 l 4409 -12027 l 4451 -12046 l 4494 -12062 l
 4538 -12075 l 4583 -12084 l 4629 -12090 l 4675 -12092 l 4840 -12092 l
 4870 -12091 l 4916 -12087 l 4961 -12079 l 5006 -12067 l 5049 -12052 l
 5091 -12034 l 5132 -12012 l 5171 -11988 l 5207 -11960 l 5242 -11929 l
 5273 -11895 l 5302 -11860 l 5328 -11822 l 5351 -11782 l 5371 -11740 l
 5387 -11697 l 5400 -11653 l 5409 -11608 l 5414 -11562 l 5416 -11516 l
 5416 -8291 l 5417 -8262 l 5421 -8216 l 5429 -8171 l 5440 -8126 l
 5455 -8083 l 5474 -8040 l 5495 -8000 l 5520 -7961 l 5548 -7924 l
 5579 -7890 l 5612 -7858 l 5648 -7829 l 5686 -7803 l 5726 -7781 l
 5768 -7761 l 5811 -7745 l 5855 -7732 l 5900 -7723 l 5946 -7717 l
 5992 -7715 l 6157 -7715 l 6187 -7716 l 6232 -7720 l 6278 -7728 l
 6322 -7740 l 6366 -7755 l 6408 -7773 l 6449 -7795 l 6488 -7820 l
 6524 -7847 l 6559 -7878 l 6590 -7912 l 6619 -7947 l 6645 -7985 l
 6668 -8025 l 6688 -8067 l 6704 -8110 l 6717 -8154 l 6726 -8200 l
 6731 -8245 l 6733 -8291 l 6733 -11516 l 6734 -11545 l 6738 -11591 l
 6746 -11636 l 6757 -11681 l 6772 -11724 l 6791 -11767 l 6812 -11807 l
 6837 -11846 l 6865 -11883 l 6896 -11917 l 6929 -11949 l 6965 -11978 l
 7003 -12004 l 7043 -12027 l 7085 -12046 l 7128 -12062 l 7172 -12075 l
 7217 -12084 l 7263 -12090 l 7309 -12092 l 7488 -12092 l 7517 -12091 l
 7563 -12087 l 7608 -12079 l 7653 -12067 l 7696 -12052 l 7739 -12034 l
 7779 -12012 l 7818 -11988 l 7855 -11960 l 7889 -11929 l 7921 -11895 l
 7950 -11860 l 7976 -11822 l 7998 -11782 l 8018 -11740 l 8034 -11697 l
 8047 -11653 l 8056 -11608 l 8062 -11562 l 8063 -11516 l 8063 -253 l
 8063 -224 l 8059 -178 l 8051 -132 l 8039 -88 l 8024 -44 l
 8006 -2 l 7984 38 l 7959 76 l 7931 113 l 7901 147 l
 7867 179 l 7832 208 l 7794 234 l 7754 257 l 7712 277 l
 7669 293 l 7625 305 l 7579 315 l 7534 320 l 7488 322 l
 7309 322 l 7280 321 l 7234 317 l 7188 309 l 7144 298 l
 7100 283 l 7058 264 l 7017 243 l 6979 218 l 6942 190 l
 6908 159 l 6876 126 l 6847 90 l 6821 52 l 6798 12 l
 6779 -29 l 6762 -72 l 6750 -116 l 6741 -161 l 6735 -207 l
 6733 -253 l 6733 -3293 l 6732 -3322 l 6728 -3368 l 6720 -3414 l
 6709 -3458 l 6694 -3502 l 6676 -3544 l 6654 -3585 l 6629 -3623 l
 6601 -3660 l 6570 -3694 l 6537 -3726 l 6501 -3755 l 6463 -3781 l
 6423 -3804 l 6382 -3824 l 6338 -3840 l 6294 -3852 l 6249 -3862 l
 6203 -3867 l 6157 -3869 l 5553 -3869 l 5524 -3868 l 5478 -3864 l
 5433 -3856 l 5388 -3845 l 5344 -3830 l 5302 -3811 l 5262 -3790 l
 5223 -3765 l 5186 -3737 l 5152 -3706 l 5120 -3673 l 5091 -3637 l
 5065 -3599 l 5042 -3559 l 5023 -3517 l 5006 -3474 l 4994 -3430 l
 4985 -3385 l 4979 -3339 l 4977 -3293 l 4977 -253 l 4977 -224 l
 4972 -178 l 4965 -132 l 4953 -88 l 4938 -44 l 4920 -2 l
 4898 38 l 4873 76 l 4845 113 l 4815 147 l 4781 179 l
 4745 208 l 4707 234 l 4667 257 l 4626 277 l 4583 293 l
 4538 305 l 4493 315 l 4447 320 l 4401 322 l 3797 322 l
 3768 321 l 3722 317 l 3677 309 l 3632 298 l 3589 283 l
 3546 264 l 3506 243 l 3467 218 l 3430 190 l 3396 159 l
 3364 126 l 3335 90 l 3309 52 l 3286 12 l 3267 -29 l
 3251 -72 l 3238 -116 l 3229 -161 l 3223 -207 l 3221 -253 l
 3221 -3293 l 3222 -3322 l 3226 -3368 l 3234 -3414 l 3246 -3458 l
 3260 -3502 l 3279 -3544 l 3301 -3585 l 3325 -3623 l 3353 -3660 l
 3384 -3694 l 3417 -3726 l 3453 -3755 l 3491 -3781 l 3531 -3804 l
 3573 -3824 l 3616 -3840 l 3660 -3852 l 3705 -3862 l 3751 -3867 l
 3797 -3869 l 3962 -3869 l 3992 -3868 l 4038 -3864 l 4083 -3856 l
 4128 -3845 l 4171 -3830 l 4213 -3811 l 4254 -3790 l 4293 -3765 l
 4329 -3737 l 4364 -3706 l 4395 -3673 l 4424 -3637 l 4450 -3599 l
 4473 -3559 l 4493 -3517 l 4509 -3474 l 4522 -3430 l 4531 -3385 l
 4536 -3339 l 4538 -3293 l 4538 -253 l 4539 -224 l 4543 -178 l
 4551 -132 l 4562 -88 l 4577 -44 l 4596 -2 l 4618 38 l
 4642 76 l 4670 113 l 4701 147 l 4734 179 l 4770 208 l
 4808 234 l 4848 257 l 4890 277 l 4933 293 l 4977 305 l
 5022 315 l 5068 320 l 5114 322 l 5279 322 l 5309 321 l
 5354 317 l 5400 309 l 5444 298 l 5488 283 l 5530 264 l
 5571 243 l 5610 218 l 5646 190 l 5681 159 l 5712 126 l
 5741 90 l 5767 52 l 5790 12 l 5810 -29 l 5826 -72 l
 5839 -116 l 5848 -161 l 5853 -207 l 5855 -253 l 5855 -3293 l
 5856 -3322 l 5860 -3368 l 5868 -3414 l 5879 -3458 l 5894 -3502 l
 5913 -3544 l 5934 -3585 l 5959 -3623 l 5987 -3660 l 6018 -3694 l
 6051 -3726 l 6087 -3755 l 6125 -3781 l 6165 -3804 l 6207 -3824 l
 6250 -3840 l 6294 -3852 l 6339 -3862 l 6385 -3867 l 6431 -3869 l
 6596 -3869 l 6626 -3868 l 6671 -3864 l 6717 -3856 l 6761 -3845 l
 6805 -3830 l 6847 -3811 l 6888 -3790 l 6927 -3765 l 6963 -3737 l
 6997 -3706 l 7029 -3673 l 7058 -3637 l 7084 -3599 l 7107 -3559 l
 7127 -3517 l 7143 -3474 l 7156 -3430 l 7165 -3385 l 7170 -3339 l
 7172 -3293 l 7172 -253 l 7173 -224 l 7177 -178 l 7185 -132 l
 7196 -88 l 7211 -44 l 7230 -2 l 7251 38 l 7276 76 l
 7304 113 l 7335 147 l 7368 179 l 7404 208 l 7442 234 l
 7482 257 l 7524 277 l 7567 293 l 7611 305 l 7656 315 l
 7702 320 l 7748 322 l 7907 322 l 7937 321 l 7982 317 l
 8028 309 l 8072 298 l 8116 283 l 8158 264 l 8199 243 l
 8238 218 l 8274 190 l 8309 159 l 8340 126 l 8369 90 l
 8395 52 l 8418 12 l 8438 -29 l 8454 -72 l 8467 -116 l
 8476 -161 l 8481 -207 l 8483 -253 l 8483 -11516 l 8482 -11545 l
 8478 -11591 l 8470 -11636 l 8459 -11681 l 8444 -11724 l 8426 -11767 l
 8404 -11807 l 8379 -11846 l 8351 -11883 l 8320 -11917 l 8287 -11949 l
 8251 -11978 l 8213 -12004 l 8173 -12027 l 8132 -12046 l 8089 -12062 l
 8044 -12075 l 7999 -12084 l 7953 -12090 l 7907 -12092 l 7748 -12092 l
 7719 -12091 l 7673 -12087 l 7627 -12079 l 7583 -12067 l 7539 -12052 l
 7497 -12034 l 7456 -12012 l 7418 -11988 l 7381 -11960 l 7347 -11929 l
 7315 -11895 l 7286 -11860 l 7260 -11822 l 7237 -11782 l 7218 -11740 l
 7201 -11697 l 7189 -11653 l 7179 -11608 l 7174 -11562 l 7172 -11516 l
 7172 -8291 l 7171 -8262 l 7167 -8216 l 7159 -8171 l 7148 -8126 l
 7133 -8083 l 7115 -8040 l 7093 -8000 l 7068 -7961 l 7040 -7924 l
 7009 -7890 l 6976 -7858 l 6940 -7829 l 6902 -7803 l 6862 -7781 l
 6821 -7761 l 6777 -7745 l 6733 -7732 l 6688 -7723 l 6642 -7717 l
 6596 -7715 l 6431 -7715 l 6402 -7716 l 6356 -7720 l 6311 -7728 l
 6266 -7740 l 6222 -7755 l 6180 -7773 l 6140 -7795 l 6101 -7820 l
 6064 -7847 l 6030 -7878 l 5998 -7912 l 5969 -7947 l 5943 -7985 l
 5920 -8025 l 5901 -8067 l 5884 -8110 l 5872 -8154 l 5863 -8200 l
 5857 -8245 l 5855 -8291 l 5855 -11516 l 5854 -11545 l 5850 -11591 l
 5842 -11636 l 5831 -11681 l 5816 -11724 l 5798 -11767 l 5776 -11807 l
 5751 -11846 l 5723 -11883 l 5692 -11917 l 5659 -11949 l 5623 -11978 l
 5585 -12004 l 5545 -12027 l 5504 -12046 l 5461 -12062 l 5416 -12075 l
 5371 -12084 l 5325 -12090 l 5279 -12092 l 5114 -12092 l 5085 -12091 l
 5039 -12087 l 4994 -12079 l 4949 -12067 l 4905 -12052 l 4863 -12034 l
 4823 -12012 l 4784 -11988 l 4747 -11960 l 4713 -11929 l 4681 -11895 l
 4652 -11860 l 4626 -11822 l 4603 -11782 l 4584 -11740 l 4568 -11697 l
 4555 -11653 l 4546 -11608 l 4540 -11562 l 4538 -11516 l 4538 -8291 l
 4538 -8262 l 4533 -8216 l 4526 -8171 l 4514 -8126 l 4499 -8083 l
 4481 -8040 l 4459 -8000 l 4434 -7961 l 4406 -7924 l 4376 -7890 l
 4342 -7858 l 4306 -7829 l 4268 -7803 l 4228 -7781 l 4187 -7761 l
 4144 -7745 l 4099 -7732 l 4054 -7723 l 4008 -7717 l 3962 -7715 l
 3797 -7715 l 3768 -7716 l 3722 -7720 l 3677 -7728 l 3632 -7740 l
 3589 -7755 l 3546 -7773 l 3506 -7795 l 3467 -7820 l 3430 -7847 l
 3396 -7878 l 3364 -7912 l 3335 -7947 l 3309 -7985 l 3286 -8025 l
 3267 -8067 l 3251 -8110 l 3238 -8154 l 3229 -8200 l 3223 -8245 l
 3221 -8291 l 3221 -11516 l 3221 -11545 l 3216 -11591 l 3209 -11636 l
 3197 -11681 l 3182 -11724 l 3164 -11767 l 3142 -11807 l 3117 -11846 l
 3089 -11883 l 3059 -11917 l 3025 -11949 l 2989 -11978 l 2951 -12004 l
 2911 -12027 l 2870 -12046 l 2827 -12062 l 2782 -12075 l 2737 -12084 l
 2692 -12090 l 2646 -12092 l 2041 -12092 l 2012 -12091 l 1966 -12087 l
 1921 -12079 l 1876 -12067 l 1833 -12052 l 1790 -12034 l 1750 -12012 l
 1711 -11988 l 1674 -11960 l 1640 -11929 l 1608 -11895 l 1579 -11860 l
 1553 -11822 l 1531 -11782 l 1511 -11740 l 1495 -11697 l 1482 -11653 l
 1473 -11608 l 1467 -11562 l 1465 -11516 l 1465 -8291 l 1466 -8262 l
 1470 -8216 l 1478 -8171 l 1490 -8126 l 1505 -8083 l 1523 -8040 l
 1545 -8000 l 1570 -7961 l 1597 -7924 l 1628 -7890 l 1662 -7858 l
 1697 -7829 l 1735 -7803 l 1775 -7781 l 1817 -7761 l 1860 -7745 l
 1904 -7732 l 1950 -7723 l 1995 -7717 l 2041 -7715 l 2207 -7715 l
 2236 -7716 l 2282 -7720 l 2327 -7728 l 2372 -7740 l 2415 -7755 l
 2457 -7773 l 2498 -7795 l 2537 -7820 l 2573 -7847 l 2608 -7878 l
 2639 -7912 l 2668 -7947 l 2694 -7985 l 2717 -8025 l 2737 -8067 l
 2753 -8110 l 2766 -8154 l 2775 -8200 l 2781 -8245 l 2782 -8291 l
 2782 -11516 l 2782 -11545 l 2777 -11591 l 2770 -11636 l 2758 -11681 l
 2743 -11724 l 2725 -11767 l 2703 -11807 l 2678 -11846 l 2650 -11883 l
 2620 -11917 l 2586 -11949 l 2550 -11978 l 2512 -12004 l 2472 -12027 l
 2431 -12046 l 2388 -12062 l 2343 -12075 l 2298 -12084 l 2253 -12090 l
 2207 -12092 l 1602 -12092 l 1573 -12091 l 1527 -12087 l 1482 -12079 l
 1437 -12067 l 1394 -12052 l 1351 -12034 l 1311 -12012 l 1272 -11988 l
 1235 -11960 l 1201 -11929 l 1169 -11895 l 1140 -11860 l 1114 -11822 l
 1092 -11782 l 1072 -11740 l 1056 -11697 l 1043 -11653 l 1034 -11608 l
 1028 -11562 l 1026 -11516 l 1026 -8291 l 1027 -8262 l 1031 -8216 l
 1039 -8171 l 1051 -8126 l 1066 -8083 l 1084 -8040 l 1106 -8000 l
 1131 -7961 l 1158 -7924 l 1189 -7890 l 1223 -7858 l 1258 -7829 l
 1296 -7803 l 1336 -7781 l 1378 -7761 l 1421 -7745 l 1465 -7732 l
 1511 -7723 l 1556 -7717 l 1602 -7715 l 1768 -7715 l 1797 -7716 l
 1843 -7720 l 1888 -7728 l 1933 -7740 l 1976 -7755 l 2018 -7773 l
 2059 -7795 l 2098 -7820 l 2134 -7847 l 2169 -7878 l 2200 -7912 l
 2229 -7947 l 2255 -7985 l 2278 -8025 l 2298 -8067 l 2314 -8110 l
 2327 -8154 l 2336 -8200 l 2342 -8245 l 2343 -8291 l 2343 -11516 l
 2344 -11545 l 2348 -11591 l 2356 -11636 l 2368 -11681 l 2383 -11724 l
 2401 -11767 l 2423 -11807 l 2448 -11846 l 2475 -11883 l 2506 -11917 l
 2540 -11949 l 2575 -11978 l 2613 -12004 l 2653 -12027 l 2695 -12046 l
 2738 -12062 l 2782 -12075 l 2827 -12084 l 2873 -12090 l 2919 -12092 l
 3085 -12092 l 3114 -12091 l 3160 -12087 l 3205 -12079 l 3250 -12067 l
 3293 -12052 l 3335 -12034 l 3376 -12012 l 3415 -11988 l 3451 -11960 l
 3486 -11929 l 3517 -11895 l 3546 -11860 l 3572 -11822 l 3595 -11782 l
 3615 -11740 l 3631 -11697 l 3644 -11653 l 3653 -11608 l 3658 -11562 l
 3660 -11516 l 3660 -8291 l 3661 -8262 l 3665 -8216 l 3673 -8171 l
 3685 -8126 l 3699 -8083 l 3718 -8040 l 3740 -8000 l 3764 -7961 l
 3792 -7924 l 3823 -7890 l 3856 -7858 l 3892 -7829 l 3930 -7803 l
 3970 -7781 l 4012 -7761 l 4055 -7745 l 4099 -7732 l 4144 -7723 l
 4190 -7717 l 4236 -7715 l 4401 -7715 l 4431 -7716 l 4477 -7720 l
 4522 -7728 l 4567 -7740 l 4610 -7755 l 4652 -7773 l 4693 -7795 l
 4732 -7820 l 4768 -7847 l 4803 -7878 l 4834 -7912 l 4863 -7947 l
 4889 -7985 l 4912 -8025 l 4932 -8067 l 4948 -8110 l 4961 -8154 l
 4970 -8200 l 4975 -8245 l 4977 -8291 l 4977 -11516 l 4978 -11545 l
 4982 -11591 l 4990 -11636 l 5001 -11681 l 5016 -11724 l 5035 -11767 l
 5056 -11807 l 5081 -11846 l 5109 -11883 l 5140 -11917 l 5173 -11949 l
 5209 -11978 l 5247 -12004 l 5287 -12027 l 5329 -12046 l 5372 -12062 l
 5416 -12075 l 5461 -12084 l 5507 -12090 l 5553 -12092 l 5718 -12092 l
 5748 -12091 l 5793 -12087 l 5839 -12079 l 5883 -12067 l 5927 -12052 l
 5969 -12034 l 6010 -12012 l 6049 -11988 l 6085 -11960 l 6120 -11929 l
 6151 -11895 l 6180 -11860 l 6206 -11822 l 6229 -11782 l 6249 -11740 l
 6265 -11697 l 6278 -11653 l 6287 -11608 l 6292 -11562 l 6294 -11516 l
 6294 -8291 l 6295 -8262 l 6299 -8216 l 6307 -8171 l 6318 -8126 l
 6333 -8083 l 6352 -8040 l 6373 -8000 l 6398 -7961 l 6426 -7924 l
 6457 -7890 l 6490 -7858 l 6526 -7829 l 6564 -7803 l 6604 -7781 l
 6646 -7761 l 6689 -7745 l 6733 -7732 l 6778 -7723 l 6824 -7717 l
 6870 -7715 l 7035 -7715 l 7065 -7716 l 7110 -7720 l 7156 -7728 l
 7200 -7740 l 7244 -7755 l 7286 -7773 l 7327 -7795 l 7366 -7820 l
 7402 -7847 l 7436 -7878 l 7468 -7912 l 7497 -7947 l 7523 -7985 l
 7546 -8025 l 7566 -8067 l 7582 -8110 l 7595 -8154 l 7604 -8200 l
 7609 -8245 l 7611 -8291 l 7611 -11516 l 7612 -11545 l 7616 -11591 l
 7624 -11636 l 7635 -11681 l 7650 -11724 l 7669 -11767 l 7690 -11807 l
 7715 -11846 l 7743 -11883 l 7774 -11917 l 7807 -11949 l 7843 -11978 l
 7881 -12004 l 7921 -12027 l 7963 -12046 l 8006 -12062 l 8050 -12075 l
 8095 -12084 l 8141 -12090 l 8187 -12092 l 9166 -12092 l 9196 -12091 l
 9242 -12087 l 9287 -12079 l 9332 -12067 l 9375 -12052 l 9417 -12034 l
 9458 -12012 l 9497 -11988 l 9533 -11960 l 9568 -11929 l 9599 -11895 l
 9628 -11860 l 9654 -11822 l 9677 -11782 l 9697 -11740 l 9713 -11697 l
 9726 -11653 l 9735 -11608 l 9740 -11562 l 9742 -11516 l 9742 -253 l
 9743 -224 l 9747 -178 l 9755 -132 l 9766 -88 l 9781 -44 l
 9800 -2 l 9822 38 l 9846 76 l 9874 113 l 9905 147 l
 9938 179 l 9974 208 l 10012 234 l 10052 257 l 10094 277 l
 10137 293 l 10181 305 l 10226 315 l 10272 320 l 10318 322 l
 10426 322 l 10455 321 l 10501 317 l 10546 309 l 10591 298 l
 10634 283 l 10676 264 l 10717 243 l 10756 218 l 10792 190 l
 10827 159 l 10859 126 l 10887 90 l 10913 52 l 10936 12 l
 10956 -29 l 10972 -72 l 10985 -116 l 10994 -161 l 11000 -207 l
 11001 -253 l 11001 -11516 l 11001 -11545 l 10997 -11591 l 10989 -11636 l
 10977 -11681 l 10962 -11724 l 10944 -11767 l 10922 -11807 l 10897 -11846 l
 10869 -11883 l 10839 -11917 l 10805 -11949 l 10769 -11978 l 10731 -12004 l
 10692 -12027 l 10650 -12046 l 10607 -12062 l 10562 -12075 l 10517 -12084 l
 10472 -12090 l 10426 -12092 l 9898 -12092 l 9869 -12091 l 9823 -12087 l
 9778 -12079 l 9733 -12067 l 9690 -12052 l 9648 -12034 l 9607 -12012 l
 9568 -11988 l 9532 -11960 l 9497 -11929 l 9466 -11895 l 9437 -11860 l
 9411 -11822 l 9388 -11782 l 9368 -11740 l 9352 -11697 l 9339 -11653 l
 9330 -11608 l 9324 -11562 l 9323 -11516 l 9323 -253 l 9323 -224 l
 9328 -178 l 9335 -132 l 9347 -88 l 9362 -44 l 9380 -2 l
 9402 38 l 9427 76 l 9455 113 l 9485 147 l 9519 179 l
 9555 208 l 9593 234 l 9633 257 l 9674 277 l 9717 293 l
 9762 305 l 9807 315 l 9852 320 l 9898 322 l 10006 322 l
 10035 321 l 10081 317 l 10126 309 l 10171 298 l 10215 283 l
 10257 264 l 10297 243 l 10336 218 l 10373 190 l 10407 159 l
 10439 126 l 10468 90 l 10494 52 l 10517 12 l 10536 -29 l
 10552 -72 l 10565 -116 l 10574 -161 l 10580 -207 l 10582 -253 l
 10582 -11516 l 10581 -11543 l 10577 -11589 l 10569 -11634 l 10558 -11679 l
 10543 -11722 l 10525 -11765 l 10504 -11805 l 10494 -11823 l 10474 -11864 l
 10457 -11907 l 10444 -11951 l 10434 -11996 l 10428 -12042 l 10426 -12088 l
 10427 -12134 l 10432 -12180 l 10441 -12225 l 10453 -12270 l 10468 -12313 l
 10488 -12355 l 10510 -12395 l 10536 -12433 l 10564 -12469 l 10595 -12503 l
 10629 -12534 l 10666 -12563 l 10704 -12588 l 10745 -12610 l 10787 -12629 l
 10830 -12644 l 10874 -12656 l 10920 -12665 l 10965 -12669 l 11012 -12670 l
 11058 -12668 l 11103 -12662 l 11148 -12652 l 11192 -12638 l 11235 -12621 l
 11276 -12601 l 11316 -12577 l 11353 -12551 l 11389 -12521 l 11421 -12489 l
 11452 -12454 l 11479 -12417 l 11503 -12378 l 11524 -12337 l 11542 -12294 l
 11556 -12250 l 11567 -12205 l 11574 -12160 l 11577 -12114 l 11577 -12068 l
 11573 -12022 l 11565 -11977 l 11554 -11932 l 11539 -11888 l 11521 -11846 l
 11499 -11805 l 11486 -11782 l 11467 -11740 l 11450 -11697 l 11438 -11653 l
 11428 -11608 l 11423 -11562 l 11421 -11516 l 11421 -253 l 11420 -224 l
 11416 -178 l 11408 -132 l 11397 -88 l 11382 -44 l 11364 -2 l
 11342 38 l 11317 76 l 11289 113 l 11258 147 l 11225 179 l
 11189 208 l 11151 234 l 11111 257 l 11070 277 l 11026 293 l
 10982 305 l 10937 315 l 10891 320 l 10845 322 l 10738 322 l
 10709 321 l 10663 317 l 10617 309 l 10573 298 l 10529 283 l
 10487 264 l 10446 243 l 10408 218 l 10371 190 l 10337 159 l
 10305 126 l 10276 90 l 10250 52 l 10227 12 l 10207 -29 l
 10191 -72 l 10179 -116 l 10169 -161 l 10164 -207 l 10162 -253 l
 10162 -11516 l 10161 -11545 l 10157 -11591 l 10149 -11636 l 10138 -11681 l
 10123 -11724 l 10104 -11767 l 10083 -11807 l 10058 -11846 l 10030 -11883 l
 9999 -11917 l 9966 -11949 l 9930 -11978 l 9892 -12004 l 9852 -12027 l
 9810 -12046 l 9767 -12062 l 9723 -12075 l 9678 -12084 l 9632 -12090 l
 9586 -12092 l 9479 -12092 l 9449 -12091 l 9404 -12087 l 9358 -12079 l
 9314 -12067 l 9270 -12052 l 9228 -12034 l 9187 -12012 l 9148 -11988 l
 9112 -11960 l 9078 -11929 l 9046 -11895 l 9017 -11860 l 8991 -11822 l
 8968 -11782 l 8948 -11740 l 8932 -11697 l 8919 -11653 l 8910 -11608 l
 8905 -11562 l 8903 -11516 l 8903 -253 l 8902 -224 l 8898 -178 l
 8890 -132 l 8879 -88 l 8864 -44 l 8845 -2 l 8824 38 l
 8799 76 l 8771 113 l 8740 147 l 8707 179 l 8671 208 l
 8633 234 l 8593 257 l 8551 277 l 8508 293 l 8464 305 l
 8419 315 l 8373 320 l 8327 322 l 8187 322 l 8158 321 l
 8112 317 l 8066 309 l 8022 298 l 7978 283 l 7936 264 l
 7895 243 l 7857 218 l 7820 190 l 7786 159 l 7754 126 l
 7725 90 l 7699 52 l 7676 12 l 7657 -29 l 7640 -72 l
 7628 -116 l 7618 -161 l 7613 -207 l 7611 -253 l
 7611 -3293 l gs col37 s gr 
% Ellipse
7.500 slw
n 7610 -3322 115 115 0 360 DrawEllipse gs col34 s gr
% Ellipse
n 7611 -3293 115 115 0 360 DrawEllipse gs col33 s gr
% Polyline
n 7610 -3322 m
 7621 -3208 l gs col34 s gr 
% Polyline
n 7611 -3293 m
 7726 -3293 l gs col33 s gr 
% here ends figure;
pagefooter
showpage
%%Trailer
%EOF
%%EndDocument
 @endspecial Black Black eop end
%%Trailer
userdict /end-hook known{end-hook}if
%%Trailer
cleartomark
countdictstack
exch sub { end } repeat
restore
%%EOF
