%!PS-Adobe-3.0 EPSF-3.0
%%BoundingBox: 149 1 1014 866
%%HiResBoundingBox: 149.000000 1.000000 1013.666016 865.664062
%%Creator: dvips(k) 5.993 Copyright 2013 Radical Eye Software
%%Title: fig2ps-env02_ffa.dvi
%%CreationDate: Thu Feb  7 00:29:32 2019
%%EndComments
% EPSF created by ps2eps 1.68
%%BeginProlog
0 199 translate
save
countdictstack
mark
newpath
/showpage {} def
/setpagedevice {pop} def
%%EndProlog
%%Page 1 1
%DVIPSWebPage: (www.radicaleye.com)
%DVIPSCommandLine: dvips -Ppdf -G0 -q -E fig2ps-env02_ffa.dvi -o
%+ fig2ps-env02_ffa.ps
%DVIPSParameters: dpi=8000
%DVIPSSource:  TeX output 2019.02.07:0029
%%BeginProcSet: tex.pro 0 0
%!
/TeXDict 300 dict def TeXDict begin/N{def}def/B{bind def}N/S{exch}N/X{S
N}B/A{dup}B/TR{translate}N/isls false N/vsize 11 72 mul N/hsize 8.5 72
mul N/landplus90{false}def/@rigin{isls{[0 landplus90{1 -1}{-1 1}ifelse 0
0 0]concat}if 72 Resolution div 72 VResolution div neg scale isls{
landplus90{VResolution 72 div vsize mul 0 exch}{Resolution -72 div hsize
mul 0}ifelse TR}if Resolution VResolution vsize -72 div 1 add mul TR[
matrix currentmatrix{A A round sub abs 0.00001 lt{round}if}forall round
exch round exch]setmatrix}N/@landscape{/isls true N}B/@manualfeed{
statusdict/manualfeed true put}B/@copies{/#copies X}B/FMat[1 0 0 -1 0 0]
N/FBB[0 0 0 0]N/nn 0 N/IEn 0 N/ctr 0 N/df-tail{/nn 8 dict N nn begin
/FontType 3 N/FontMatrix fntrx N/FontBBox FBB N string/base X array
/BitMaps X/BuildChar{CharBuilder}N/Encoding IEn N end A{/foo setfont}2
array copy cvx N load 0 nn put/ctr 0 N[}B/sf 0 N/df{/sf 1 N/fntrx FMat N
df-tail}B/dfs{div/sf X/fntrx[sf 0 0 sf neg 0 0]N df-tail}B/E{pop nn A
definefont setfont}B/Cw{Cd A length 5 sub get}B/Ch{Cd A length 4 sub get
}B/Cx{128 Cd A length 3 sub get sub}B/Cy{Cd A length 2 sub get 127 sub}
B/Cdx{Cd A length 1 sub get}B/Ci{Cd A type/stringtype ne{ctr get/ctr ctr
1 add N}if}B/CharBuilder{save 3 1 roll S A/base get 2 index get S
/BitMaps get S get/Cd X pop/ctr 0 N Cdx 0 Cx Cy Ch sub Cx Cw add Cy
setcachedevice Cw Ch true[1 0 0 -1 -.1 Cx sub Cy .1 sub]{Ci}imagemask
restore}B/D{/cc X A type/stringtype ne{]}if nn/base get cc ctr put nn
/BitMaps get S ctr S sf 1 ne{A A length 1 sub A 2 index S get sf div put
}if put/ctr ctr 1 add N}B/I{cc 1 add D}B/bop{userdict/bop-hook known{
bop-hook}if/SI save N @rigin 0 0 moveto/V matrix currentmatrix A 1 get A
mul exch 0 get A mul add .99 lt{/QV}{/RV}ifelse load def pop pop}N/eop{
SI restore userdict/eop-hook known{eop-hook}if showpage}N/@start{
userdict/start-hook known{start-hook}if pop/VResolution X/Resolution X
1000 div/DVImag X/IEn 256 array N 2 string 0 1 255{IEn S A 360 add 36 4
index cvrs cvn put}for pop 65781.76 div/vsize X 65781.76 div/hsize X}N
/dir 0 def/dyy{/dir 0 def}B/dyt{/dir 1 def}B/dty{/dir 2 def}B/dtt{/dir 3
def}B/p{dir 2 eq{-90 rotate show 90 rotate}{dir 3 eq{-90 rotate show 90
rotate}{show}ifelse}ifelse}N/RMat[1 0 0 -1 0 0]N/BDot 260 string N/Rx 0
N/Ry 0 N/V{}B/RV/v{/Ry X/Rx X V}B statusdict begin/product where{pop
false[(Display)(NeXT)(LaserWriter 16/600)]{A length product length le{A
length product exch 0 exch getinterval eq{pop true exit}if}{pop}ifelse}
forall}{false}ifelse end{{gsave TR -.1 .1 TR 1 1 scale Rx Ry false RMat{
BDot}imagemask grestore}}{{gsave TR -.1 .1 TR Rx Ry scale 1 1 false RMat
{BDot}imagemask grestore}}ifelse B/QV{gsave newpath transform round exch
round exch itransform moveto Rx 0 rlineto 0 Ry neg rlineto Rx neg 0
rlineto fill grestore}B/a{moveto}B/delta 0 N/tail{A/delta X 0 rmoveto}B
/M{S p delta add tail}B/b{S p tail}B/c{-4 M}B/d{-3 M}B/e{-2 M}B/f{-1 M}
B/g{0 M}B/h{1 M}B/i{2 M}B/j{3 M}B/k{4 M}B/w{0 rmoveto}B/l{p -4 w}B/m{p
-3 w}B/n{p -2 w}B/o{p -1 w}B/q{p 1 w}B/r{p 2 w}B/s{p 3 w}B/t{p 4 w}B/x{
0 S rmoveto}B/y{3 2 roll p a}B/bos{/SS save N}B/eos{SS restore}B end
%%EndProcSet
%%BeginProcSet: alt-rule.pro 0 0
%!
% Patch by TVZ
% Makes dvips files draw rules with stroke rather than fill.
% Makes narrow rules more predictable at low resolutions
% after distilling to PDF.
% May have unknown consequences for very thick rules.
% Tested only with dvips 5.85(k).
TeXDict begin
/QV {
  gsave newpath /ruleY X /ruleX X
  Rx Ry gt
  { ruleX ruleY Ry 2 div sub moveto Rx 0 rlineto Ry }
  { ruleX Rx 2 div add ruleY moveto 0 Ry neg rlineto Rx }
  ifelse
  setlinewidth 0 setlinecap stroke grestore
} bind def
end
%%EndProcSet
%%BeginProcSet: special.pro 0 0
%!
TeXDict begin/SDict 200 dict N SDict begin/@SpecialDefaults{/hs 612 N
/vs 792 N/ho 0 N/vo 0 N/hsc 1 N/vsc 1 N/ang 0 N/CLIP 0 N/rwiSeen false N
/rhiSeen false N/letter{}N/note{}N/a4{}N/legal{}N}B/@scaleunit 100 N
/@hscale{@scaleunit div/hsc X}B/@vscale{@scaleunit div/vsc X}B/@hsize{
/hs X/CLIP 1 N}B/@vsize{/vs X/CLIP 1 N}B/@clip{/CLIP 2 N}B/@hoffset{/ho
X}B/@voffset{/vo X}B/@angle{/ang X}B/@rwi{10 div/rwi X/rwiSeen true N}B
/@rhi{10 div/rhi X/rhiSeen true N}B/@llx{/llx X}B/@lly{/lly X}B/@urx{
/urx X}B/@ury{/ury X}B/magscale true def end/@MacSetUp{userdict/md known
{userdict/md get type/dicttype eq{userdict begin md length 10 add md
maxlength ge{/md md dup length 20 add dict copy def}if end md begin
/letter{}N/note{}N/legal{}N/od{txpose 1 0 mtx defaultmatrix dtransform S
atan/pa X newpath clippath mark{transform{itransform moveto}}{transform{
itransform lineto}}{6 -2 roll transform 6 -2 roll transform 6 -2 roll
transform{itransform 6 2 roll itransform 6 2 roll itransform 6 2 roll
curveto}}{{closepath}}pathforall newpath counttomark array astore/gc xdf
pop ct 39 0 put 10 fz 0 fs 2 F/|______Courier fnt invertflag{PaintBlack}
if}N/txpose{pxs pys scale ppr aload pop por{noflips{pop S neg S TR pop 1
-1 scale}if xflip yflip and{pop S neg S TR 180 rotate 1 -1 scale ppr 3
get ppr 1 get neg sub neg ppr 2 get ppr 0 get neg sub neg TR}if xflip
yflip not and{pop S neg S TR pop 180 rotate ppr 3 get ppr 1 get neg sub
neg 0 TR}if yflip xflip not and{ppr 1 get neg ppr 0 get neg TR}if}{
noflips{TR pop pop 270 rotate 1 -1 scale}if xflip yflip and{TR pop pop
90 rotate 1 -1 scale ppr 3 get ppr 1 get neg sub neg ppr 2 get ppr 0 get
neg sub neg TR}if xflip yflip not and{TR pop pop 90 rotate ppr 3 get ppr
1 get neg sub neg 0 TR}if yflip xflip not and{TR pop pop 270 rotate ppr
2 get ppr 0 get neg sub neg 0 S TR}if}ifelse scaleby96{ppr aload pop 4
-1 roll add 2 div 3 1 roll add 2 div 2 copy TR .96 dup scale neg S neg S
TR}if}N/cp{pop pop showpage pm restore}N end}if}if}N/normalscale{
Resolution 72 div VResolution 72 div neg scale magscale{DVImag dup scale
}if 0 setgray}N/psfts{S 65781.76 div N}N/startTexFig{/psf$SavedState
save N userdict maxlength dict begin/magscale true def normalscale
currentpoint TR/psf$ury psfts/psf$urx psfts/psf$lly psfts/psf$llx psfts
/psf$y psfts/psf$x psfts currentpoint/psf$cy X/psf$cx X/psf$sx psf$x
psf$urx psf$llx sub div N/psf$sy psf$y psf$ury psf$lly sub div N psf$sx
psf$sy scale psf$cx psf$sx div psf$llx sub psf$cy psf$sy div psf$ury sub
TR/showpage{}N/erasepage{}N/setpagedevice{pop}N/copypage{}N/p 3 def
@MacSetUp}N/doclip{psf$llx psf$lly psf$urx psf$ury currentpoint 6 2 roll
newpath 4 copy 4 2 roll moveto 6 -1 roll S lineto S lineto S lineto
closepath clip newpath moveto}N/endTexFig{end psf$SavedState restore}N
/@beginspecial{SDict begin/SpecialSave save N gsave normalscale
currentpoint TR @SpecialDefaults count/ocount X/dcount countdictstack N}
N/@setspecial{CLIP 1 eq{newpath 0 0 moveto hs 0 rlineto 0 vs rlineto hs
neg 0 rlineto closepath clip}if ho vo TR hsc vsc scale ang rotate
rwiSeen{rwi urx llx sub div rhiSeen{rhi ury lly sub div}{dup}ifelse
scale llx neg lly neg TR}{rhiSeen{rhi ury lly sub div dup scale llx neg
lly neg TR}if}ifelse CLIP 2 eq{newpath llx lly moveto urx lly lineto urx
ury lineto llx ury lineto closepath clip}if/showpage{}N/erasepage{}N
/setpagedevice{pop}N/copypage{}N newpath}N/@endspecial{count ocount sub{
pop}repeat countdictstack dcount sub{end}repeat grestore SpecialSave
restore end}N/@defspecial{SDict begin}N/@fedspecial{end}B/li{lineto}B
/rl{rlineto}B/rc{rcurveto}B/np{/SaveX currentpoint/SaveY X N 1
setlinecap newpath}N/st{stroke SaveX SaveY moveto}N/fil{fill SaveX SaveY
moveto}N/ellipse{/endangle X/startangle X/yrad X/xrad X/savematrix
matrix currentmatrix N TR xrad yrad scale 0 0 1 startangle endangle arc
savematrix setmatrix}N end
%%EndProcSet
%%BeginProcSet: color.pro 0 0
%!
TeXDict begin/setcmykcolor where{pop}{/setcmykcolor{dup 10 eq{pop
setrgbcolor}{1 sub 4 1 roll 3{3 index add neg dup 0 lt{pop 0}if 3 1 roll
}repeat setrgbcolor pop}ifelse}B}ifelse/TeXcolorcmyk{setcmykcolor}def
/TeXcolorrgb{setrgbcolor}def/TeXcolorgrey{setgray}def/TeXcolorgray{
setgray}def/TeXcolorhsb{sethsbcolor}def/currentcmykcolor where{pop}{
/currentcmykcolor{currentrgbcolor 10}B}ifelse/DC{exch dup userdict exch
known{pop pop}{X}ifelse}B/GreenYellow{0.15 0 0.69 0 setcmykcolor}DC
/Yellow{0 0 1 0 setcmykcolor}DC/Goldenrod{0 0.10 0.84 0 setcmykcolor}DC
/Dandelion{0 0.29 0.84 0 setcmykcolor}DC/Apricot{0 0.32 0.52 0
setcmykcolor}DC/Peach{0 0.50 0.70 0 setcmykcolor}DC/Melon{0 0.46 0.50 0
setcmykcolor}DC/YellowOrange{0 0.42 1 0 setcmykcolor}DC/Orange{0 0.61
0.87 0 setcmykcolor}DC/BurntOrange{0 0.51 1 0 setcmykcolor}DC
/Bittersweet{0 0.75 1 0.24 setcmykcolor}DC/RedOrange{0 0.77 0.87 0
setcmykcolor}DC/Mahogany{0 0.85 0.87 0.35 setcmykcolor}DC/Maroon{0 0.87
0.68 0.32 setcmykcolor}DC/BrickRed{0 0.89 0.94 0.28 setcmykcolor}DC/Red{
0 1 1 0 setcmykcolor}DC/OrangeRed{0 1 0.50 0 setcmykcolor}DC/RubineRed{
0 1 0.13 0 setcmykcolor}DC/WildStrawberry{0 0.96 0.39 0 setcmykcolor}DC
/Salmon{0 0.53 0.38 0 setcmykcolor}DC/CarnationPink{0 0.63 0 0
setcmykcolor}DC/Magenta{0 1 0 0 setcmykcolor}DC/VioletRed{0 0.81 0 0
setcmykcolor}DC/Rhodamine{0 0.82 0 0 setcmykcolor}DC/Mulberry{0.34 0.90
0 0.02 setcmykcolor}DC/RedViolet{0.07 0.90 0 0.34 setcmykcolor}DC
/Fuchsia{0.47 0.91 0 0.08 setcmykcolor}DC/Lavender{0 0.48 0 0
setcmykcolor}DC/Thistle{0.12 0.59 0 0 setcmykcolor}DC/Orchid{0.32 0.64 0
0 setcmykcolor}DC/DarkOrchid{0.40 0.80 0.20 0 setcmykcolor}DC/Purple{
0.45 0.86 0 0 setcmykcolor}DC/Plum{0.50 1 0 0 setcmykcolor}DC/Violet{
0.79 0.88 0 0 setcmykcolor}DC/RoyalPurple{0.75 0.90 0 0 setcmykcolor}DC
/BlueViolet{0.86 0.91 0 0.04 setcmykcolor}DC/Periwinkle{0.57 0.55 0 0
setcmykcolor}DC/CadetBlue{0.62 0.57 0.23 0 setcmykcolor}DC
/CornflowerBlue{0.65 0.13 0 0 setcmykcolor}DC/MidnightBlue{0.98 0.13 0
0.43 setcmykcolor}DC/NavyBlue{0.94 0.54 0 0 setcmykcolor}DC/RoyalBlue{1
0.50 0 0 setcmykcolor}DC/Blue{1 1 0 0 setcmykcolor}DC/Cerulean{0.94 0.11
0 0 setcmykcolor}DC/Cyan{1 0 0 0 setcmykcolor}DC/ProcessBlue{0.96 0 0 0
setcmykcolor}DC/SkyBlue{0.62 0 0.12 0 setcmykcolor}DC/Turquoise{0.85 0
0.20 0 setcmykcolor}DC/TealBlue{0.86 0 0.34 0.02 setcmykcolor}DC
/Aquamarine{0.82 0 0.30 0 setcmykcolor}DC/BlueGreen{0.85 0 0.33 0
setcmykcolor}DC/Emerald{1 0 0.50 0 setcmykcolor}DC/JungleGreen{0.99 0
0.52 0 setcmykcolor}DC/SeaGreen{0.69 0 0.50 0 setcmykcolor}DC/Green{1 0
1 0 setcmykcolor}DC/ForestGreen{0.91 0 0.88 0.12 setcmykcolor}DC
/PineGreen{0.92 0 0.59 0.25 setcmykcolor}DC/LimeGreen{0.50 0 1 0
setcmykcolor}DC/YellowGreen{0.44 0 0.74 0 setcmykcolor}DC/SpringGreen{
0.26 0 0.76 0 setcmykcolor}DC/OliveGreen{0.64 0 0.95 0.40 setcmykcolor}
DC/RawSienna{0 0.72 1 0.45 setcmykcolor}DC/Sepia{0 0.83 1 0.70
setcmykcolor}DC/Brown{0 0.81 1 0.60 setcmykcolor}DC/Tan{0.14 0.42 0.56 0
setcmykcolor}DC/Gray{0 0 0 0.50 setcmykcolor}DC/Black{0 0 0 1
setcmykcolor}DC/White{0 0 0 0 setcmykcolor}DC end
%%EndProcSet
TeXDict begin 40258437 52099154 1000 8000 8000 (fig2ps-env02_ffa.dvi)
@start end
%%EndProlog
%%BeginSetup
%%Feature: *Resolution 8000dpi
TeXDict begin
 end
%%EndSetup
TeXDict begin 1 0 bop Black Black 8524 102029 a @beginspecial
0 @llx 0 @lly 866 @urx 866 @ury 8660 @rwi @setspecial
%%BeginDocument: fig2ps-env02_ffa.pstex
%!PS-Adobe-3.0 EPSF-3.0
%%Title: fig2ps-env02_ffa.fig2
%%Creator: fig2dev Version 3.2 Patchlevel 5e
%%CreationDate: Thu Feb  7 00:29:32 2019
%%BoundingBox: 0 0 866 866
%Magnification: 1.0000
%%EndComments
%%BeginProlog
/$F2psDict 200 dict def
$F2psDict begin
$F2psDict /mtrx matrix put
/col-1 {0 setgray} bind def
/col0 {0.000 0.000 0.000 srgb} bind def
/col1 {0.000 0.000 1.000 srgb} bind def
/col2 {0.000 1.000 0.000 srgb} bind def
/col3 {0.000 1.000 1.000 srgb} bind def
/col4 {1.000 0.000 0.000 srgb} bind def
/col5 {1.000 0.000 1.000 srgb} bind def
/col6 {1.000 1.000 0.000 srgb} bind def
/col7 {1.000 1.000 1.000 srgb} bind def
/col8 {0.000 0.000 0.560 srgb} bind def
/col9 {0.000 0.000 0.690 srgb} bind def
/col10 {0.000 0.000 0.820 srgb} bind def
/col11 {0.530 0.810 1.000 srgb} bind def
/col12 {0.000 0.560 0.000 srgb} bind def
/col13 {0.000 0.690 0.000 srgb} bind def
/col14 {0.000 0.820 0.000 srgb} bind def
/col15 {0.000 0.560 0.560 srgb} bind def
/col16 {0.000 0.690 0.690 srgb} bind def
/col17 {0.000 0.820 0.820 srgb} bind def
/col18 {0.560 0.000 0.000 srgb} bind def
/col19 {0.690 0.000 0.000 srgb} bind def
/col20 {0.820 0.000 0.000 srgb} bind def
/col21 {0.560 0.000 0.560 srgb} bind def
/col22 {0.690 0.000 0.690 srgb} bind def
/col23 {0.820 0.000 0.820 srgb} bind def
/col24 {0.500 0.190 0.000 srgb} bind def
/col25 {0.630 0.250 0.000 srgb} bind def
/col26 {0.750 0.380 0.000 srgb} bind def
/col27 {1.000 0.500 0.500 srgb} bind def
/col28 {1.000 0.630 0.630 srgb} bind def
/col29 {1.000 0.750 0.750 srgb} bind def
/col30 {1.000 0.880 0.880 srgb} bind def
/col31 {1.000 0.840 0.000 srgb} bind def
/col32 {0.306 0.773 0.925 srgb} bind def
/col33 {0.498 0.000 0.000 srgb} bind def
/col34 {0.498 0.122 0.122 srgb} bind def
/col35 {0.624 0.871 0.945 srgb} bind def
/col36 {0.698 0.698 0.698 srgb} bind def
/col37 {0.749 0.000 0.000 srgb} bind def
end
/cp {closepath} bind def
/ef {eofill} bind def
/gr {grestore} bind def
/gs {gsave} bind def
/sa {save} bind def
/rs {restore} bind def
/l {lineto} bind def
/m {moveto} bind def
/rm {rmoveto} bind def
/n {newpath} bind def
/s {stroke} bind def
/sh {show} bind def
/slc {setlinecap} bind def
/slj {setlinejoin} bind def
/slw {setlinewidth} bind def
/srgb {setrgbcolor} bind def
/rot {rotate} bind def
/sc {scale} bind def
/sd {setdash} bind def
/ff {findfont} bind def
/sf {setfont} bind def
/scf {scalefont} bind def
/sw {stringwidth} bind def
/tr {translate} bind def
/tnt {dup dup currentrgbcolor
  4 -2 roll dup 1 exch sub 3 -1 roll mul add
  4 -2 roll dup 1 exch sub 3 -1 roll mul add
  4 -2 roll dup 1 exch sub 3 -1 roll mul add srgb}
  bind def
/shd {dup dup currentrgbcolor 4 -2 roll mul 4 -2 roll mul
  4 -2 roll mul srgb} bind def
 /DrawEllipse {
	/endangle exch def
	/startangle exch def
	/yrad exch def
	/xrad exch def
	/y exch def
	/x exch def
	/savematrix mtrx currentmatrix def
	x y tr xrad yrad sc 0 0 1 startangle endangle arc
	closepath
	savematrix setmatrix
	} def
/$F2psBegin {$F2psDict begin /$F2psEnteredState save def} def
/$F2psEnd {$F2psEnteredState restore end} def
/pageheader {
save
newpath 0 866 moveto 0 0 lineto 866 0 lineto 866 866 lineto closepath clip newpath
72.7 72.7 translate
1 -1 scale
$F2psBegin
10 setmiterlimit
0 slj 0 slc
 0.06000 0.06000 sc
} bind def
/pagefooter {
$F2psEnd
restore
} bind def
%%EndProlog
pageheader
%
% Fig objects follow
%
% 
% here starts figure with depth 50
% Polyline
1 slj
0 slc
7.500 slw
n -1200 1200 m -1200 -13200 l 13200 -13200 l 13200 1200 l
 cp gs 0.00 setgray ef gr gs col0 s gr 
% Polyline
n -975 975 m -975 -12975 l 12975 -12975 l 12975 975 l
 cp gs col7 1.00 shd ef gr gs col7 s gr 
% Polyline
n 368 -3293 m 7831 -3293 l 7831 -253 l 368 -253 l
 cp gs col36 1.00 shd ef gr gs col36 s gr 
% Polyline
n 368 -11516 m 7831 -11516 l 7831 -8291 l 368 -8291 l
 cp gs col36 1.00 shd ef gr gs col36 s gr 
% Polyline
n 7854 -11516 m 11631 -11516 l 11631 -253 l 7854 -253 l
 cp gs col36 1.00 shd ef gr gs col36 s gr 
% Polyline
n 368 -3293 m 807 -3293 l 807 -253 l 368 -253 l
 cp gs col32 1.00 shd ef gr gs col32 s gr 
% Polyline
n 807 -3293 m 1246 -3293 l 1246 -253 l 807 -253 l
 cp gs col35 1.00 shd ef gr gs col35 s gr 
% Polyline
n 1246 -3293 m 1685 -3293 l 1685 -253 l 1246 -253 l
 cp gs col32 1.00 shd ef gr gs col32 s gr 
% Polyline
n 1685 -3293 m 2124 -3293 l 2124 -253 l 1685 -253 l
 cp gs col35 1.00 shd ef gr gs col35 s gr 
% Polyline
n 2124 -3293 m 2563 -3293 l 2563 -253 l 2124 -253 l
 cp gs col32 1.00 shd ef gr gs col32 s gr 
% Polyline
n 2563 -3293 m 3002 -3293 l 3002 -253 l 2563 -253 l
 cp gs col35 1.00 shd ef gr gs col35 s gr 
% Polyline
n 3002 -3293 m 3441 -3293 l 3441 -253 l 3002 -253 l
 cp gs col32 1.00 shd ef gr gs col32 s gr 
% Polyline
n 3441 -3293 m 3880 -3293 l 3880 -253 l 3441 -253 l
 cp gs col35 1.00 shd ef gr gs col35 s gr 
% Polyline
n 3880 -3293 m 4319 -3293 l 4319 -253 l 3880 -253 l
 cp gs col32 1.00 shd ef gr gs col32 s gr 
% Polyline
n 4319 -3293 m 4758 -3293 l 4758 -253 l 4319 -253 l
 cp gs col35 1.00 shd ef gr gs col35 s gr 
% Polyline
n 4758 -3293 m 5197 -3293 l 5197 -253 l 4758 -253 l
 cp gs col32 1.00 shd ef gr gs col32 s gr 
% Polyline
n 5197 -3293 m 5636 -3293 l 5636 -253 l 5197 -253 l
 cp gs col35 1.00 shd ef gr gs col35 s gr 
% Polyline
n 5636 -3293 m 6075 -3293 l 6075 -253 l 5636 -253 l
 cp gs col32 1.00 shd ef gr gs col32 s gr 
% Polyline
n 6075 -3293 m 6514 -3293 l 6514 -253 l 6075 -253 l
 cp gs col35 1.00 shd ef gr gs col35 s gr 
% Polyline
n 6514 -3293 m 6953 -3293 l 6953 -253 l 6514 -253 l
 cp gs col32 1.00 shd ef gr gs col32 s gr 
% Polyline
n 6953 -3293 m 7392 -3293 l 7392 -253 l 6953 -253 l
 cp gs col35 1.00 shd ef gr gs col35 s gr 
% Polyline
n 7392 -3293 m 7831 -3293 l 7831 -253 l 7392 -253 l
 cp gs col32 1.00 shd ef gr gs col32 s gr 
% Polyline
n 368 -11516 m 807 -11516 l 807 -8291 l 368 -8291 l
 cp gs col35 1.00 shd ef gr gs col35 s gr 
% Polyline
n 807 -11516 m 1246 -11516 l 1246 -8291 l 807 -8291 l
 cp gs col32 1.00 shd ef gr gs col32 s gr 
% Polyline
n 1246 -11516 m 1685 -11516 l 1685 -8291 l 1246 -8291 l
 cp gs col35 1.00 shd ef gr gs col35 s gr 
% Polyline
n 1685 -11516 m 2124 -11516 l 2124 -8291 l 1685 -8291 l
 cp gs col32 1.00 shd ef gr gs col32 s gr 
% Polyline
n 2124 -11516 m 2563 -11516 l 2563 -8291 l 2124 -8291 l
 cp gs col35 1.00 shd ef gr gs col35 s gr 
% Polyline
n 2563 -11516 m 3002 -11516 l 3002 -8291 l 2563 -8291 l
 cp gs col32 1.00 shd ef gr gs col32 s gr 
% Polyline
n 3002 -11516 m 3441 -11516 l 3441 -8291 l 3002 -8291 l
 cp gs col35 1.00 shd ef gr gs col35 s gr 
% Polyline
n 3441 -11516 m 3880 -11516 l 3880 -8291 l 3441 -8291 l
 cp gs col32 1.00 shd ef gr gs col32 s gr 
% Polyline
n 3880 -11516 m 4319 -11516 l 4319 -8291 l 3880 -8291 l
 cp gs col35 1.00 shd ef gr gs col35 s gr 
% Polyline
n 4319 -11516 m 4758 -11516 l 4758 -8291 l 4319 -8291 l
 cp gs col32 1.00 shd ef gr gs col32 s gr 
% Polyline
n 4758 -11516 m 5197 -11516 l 5197 -8291 l 4758 -8291 l
 cp gs col35 1.00 shd ef gr gs col35 s gr 
% Polyline
n 5197 -11516 m 5636 -11516 l 5636 -8291 l 5197 -8291 l
 cp gs col32 1.00 shd ef gr gs col32 s gr 
% Polyline
n 5636 -11516 m 6075 -11516 l 6075 -8291 l 5636 -8291 l
 cp gs col35 1.00 shd ef gr gs col35 s gr 
% Polyline
n 6075 -11516 m 6514 -11516 l 6514 -8291 l 6075 -8291 l
 cp gs col32 1.00 shd ef gr gs col32 s gr 
% Polyline
n 6514 -11516 m 6953 -11516 l 6953 -8291 l 6514 -8291 l
 cp gs col35 1.00 shd ef gr gs col35 s gr 
% Polyline
n 6953 -11516 m 7392 -11516 l 7392 -8291 l 6953 -8291 l
 cp gs col32 1.00 shd ef gr gs col32 s gr 
% Polyline
n 7392 -11516 m 7831 -11516 l 7831 -8291 l 7392 -8291 l
 cp gs col35 1.00 shd ef gr gs col35 s gr 
% Polyline
n 7854 -11516 m 8273 -11516 l 8273 -253 l 7854 -253 l
 cp gs col32 1.00 shd ef gr gs col32 s gr 
% Polyline
n 8273 -11516 m 8693 -11516 l 8693 -253 l 8273 -253 l
 cp gs col35 1.00 shd ef gr gs col35 s gr 
% Polyline
n 8693 -11516 m 9113 -11516 l 9113 -253 l 8693 -253 l
 cp gs col32 1.00 shd ef gr gs col32 s gr 
% Polyline
n 9113 -11516 m 9532 -11516 l 9532 -253 l 9113 -253 l
 cp gs col35 1.00 shd ef gr gs col35 s gr 
% Polyline
n 9532 -11516 m 9952 -11516 l 9952 -253 l 9532 -253 l
 cp gs col32 1.00 shd ef gr gs col32 s gr 
% Polyline
n 9952 -11516 m 10372 -11516 l 10372 -253 l 9952 -253 l
 cp gs col35 1.00 shd ef gr gs col35 s gr 
% Polyline
n 10372 -11516 m 10792 -11516 l 10792 -253 l 10372 -253 l
 cp gs col32 1.00 shd ef gr gs col32 s gr 
% Polyline
n 10792 -11516 m 11211 -11516 l 11211 -253 l 10792 -253 l
 cp gs col35 1.00 shd ef gr gs col35 s gr 
% Polyline
n 11211 -11516 m 11631 -11516 l 11631 -253 l 11211 -253 l
 cp gs col32 1.00 shd ef gr gs col32 s gr 
% Ellipse
n 8483 -253 115 115 0 360 DrawEllipse gs col4 1.00 shd ef gr gs col4 s gr
% Polyline
n 368 -3293 m 7831 -3293 l 7831 -253 l 368 -253 l
 cp gs col0 s gr 
% Polyline
n 368 -11516 m 7831 -11516 l 7831 -8291 l 368 -8291 l
 cp gs col0 s gr 
% Polyline
n 7854 -11516 m 11631 -11516 l 11631 -253 l 7854 -253 l
 cp gs col0 s gr 
% Polyline
n 368 -3293 m 807 -3293 l 807 -253 l 368 -253 l
 cp gs col0 s gr 
% Polyline
n 807 -3293 m 1246 -3293 l 1246 -253 l 807 -253 l
 cp gs col0 s gr 
% Polyline
n 1246 -3293 m 1685 -3293 l 1685 -253 l 1246 -253 l
 cp gs col0 s gr 
% Polyline
n 1685 -3293 m 2124 -3293 l 2124 -253 l 1685 -253 l
 cp gs col0 s gr 
% Polyline
n 2124 -3293 m 2563 -3293 l 2563 -253 l 2124 -253 l
 cp gs col0 s gr 
% Polyline
n 2563 -3293 m 3002 -3293 l 3002 -253 l 2563 -253 l
 cp gs col0 s gr 
% Polyline
n 3002 -3293 m 3441 -3293 l 3441 -253 l 3002 -253 l
 cp gs col0 s gr 
% Polyline
n 3441 -3293 m 3880 -3293 l 3880 -253 l 3441 -253 l
 cp gs col0 s gr 
% Polyline
n 3880 -3293 m 4319 -3293 l 4319 -253 l 3880 -253 l
 cp gs col0 s gr 
% Polyline
n 4319 -3293 m 4758 -3293 l 4758 -253 l 4319 -253 l
 cp gs col0 s gr 
% Polyline
n 4758 -3293 m 5197 -3293 l 5197 -253 l 4758 -253 l
 cp gs col0 s gr 
% Polyline
n 5197 -3293 m 5636 -3293 l 5636 -253 l 5197 -253 l
 cp gs col0 s gr 
% Polyline
n 5636 -3293 m 6075 -3293 l 6075 -253 l 5636 -253 l
 cp gs col0 s gr 
% Polyline
n 6075 -3293 m 6514 -3293 l 6514 -253 l 6075 -253 l
 cp gs col0 s gr 
% Polyline
n 6514 -3293 m 6953 -3293 l 6953 -253 l 6514 -253 l
 cp gs col0 s gr 
% Polyline
n 6953 -3293 m 7392 -3293 l 7392 -253 l 6953 -253 l
 cp gs col0 s gr 
% Polyline
n 7392 -3293 m 7831 -3293 l 7831 -253 l 7392 -253 l
 cp gs col0 s gr 
% Polyline
n 368 -11516 m 807 -11516 l 807 -8291 l 368 -8291 l
 cp gs col0 s gr 
% Polyline
n 807 -11516 m 1246 -11516 l 1246 -8291 l 807 -8291 l
 cp gs col0 s gr 
% Polyline
n 1246 -11516 m 1685 -11516 l 1685 -8291 l 1246 -8291 l
 cp gs col0 s gr 
% Polyline
n 1685 -11516 m 2124 -11516 l 2124 -8291 l 1685 -8291 l
 cp gs col0 s gr 
% Polyline
n 2124 -11516 m 2563 -11516 l 2563 -8291 l 2124 -8291 l
 cp gs col0 s gr 
% Polyline
n 2563 -11516 m 3002 -11516 l 3002 -8291 l 2563 -8291 l
 cp gs col0 s gr 
% Polyline
n 3002 -11516 m 3441 -11516 l 3441 -8291 l 3002 -8291 l
 cp gs col0 s gr 
% Polyline
n 3441 -11516 m 3880 -11516 l 3880 -8291 l 3441 -8291 l
 cp gs col0 s gr 
% Polyline
n 3880 -11516 m 4319 -11516 l 4319 -8291 l 3880 -8291 l
 cp gs col0 s gr 
% Polyline
n 4319 -11516 m 4758 -11516 l 4758 -8291 l 4319 -8291 l
 cp gs col0 s gr 
% Polyline
n 4758 -11516 m 5197 -11516 l 5197 -8291 l 4758 -8291 l
 cp gs col0 s gr 
% Polyline
n 5197 -11516 m 5636 -11516 l 5636 -8291 l 5197 -8291 l
 cp gs col0 s gr 
% Polyline
n 5636 -11516 m 6075 -11516 l 6075 -8291 l 5636 -8291 l
 cp gs col0 s gr 
% Polyline
n 6075 -11516 m 6514 -11516 l 6514 -8291 l 6075 -8291 l
 cp gs col0 s gr 
% Polyline
n 6514 -11516 m 6953 -11516 l 6953 -8291 l 6514 -8291 l
 cp gs col0 s gr 
% Polyline
n 6953 -11516 m 7392 -11516 l 7392 -8291 l 6953 -8291 l
 cp gs col0 s gr 
% Polyline
n 7392 -11516 m 7831 -11516 l 7831 -8291 l 7392 -8291 l
 cp gs col0 s gr 
% Polyline
n 7854 -11516 m 8273 -11516 l 8273 -253 l 7854 -253 l
 cp gs col0 s gr 
% Polyline
n 8273 -11516 m 8693 -11516 l 8693 -253 l 8273 -253 l
 cp gs col0 s gr 
% Polyline
n 8693 -11516 m 9113 -11516 l 9113 -253 l 8693 -253 l
 cp gs col0 s gr 
% Polyline
n 9113 -11516 m 9532 -11516 l 9532 -253 l 9113 -253 l
 cp gs col0 s gr 
% Polyline
n 9532 -11516 m 9952 -11516 l 9952 -253 l 9532 -253 l
 cp gs col0 s gr 
% Polyline
n 9952 -11516 m 10372 -11516 l 10372 -253 l 9952 -253 l
 cp gs col0 s gr 
% Polyline
n 10372 -11516 m 10792 -11516 l 10792 -253 l 10372 -253 l
 cp gs col0 s gr 
% Polyline
n 10792 -11516 m 11211 -11516 l 11211 -253 l 10792 -253 l
 cp gs col0 s gr 
% Polyline
n 11211 -11516 m 11631 -11516 l 11631 -253 l 11211 -253 l
 cp gs col0 s gr 
% Polyline
60.000 slw
n 8482 -224 m 8478 -178 l 8470 -132 l 8459 -88 l 8444 -44 l 8426 -2 l
 8404 38 l 8379 76 l 8351 113 l 8320 147 l 8287 179 l
 8251 208 l 8213 234 l 8173 257 l 8132 277 l 8089 293 l
 8044 305 l 7999 315 l 7953 320 l 7907 322 l 7748 322 l
 7719 321 l 7673 317 l 7627 309 l 7583 298 l 7539 283 l
 7497 264 l 7456 243 l 7418 218 l 7381 190 l 7347 159 l
 7315 126 l 7286 90 l 7260 52 l 7237 12 l 7218 -29 l
 7201 -72 l 7189 -116 l 7179 -161 l 7174 -207 l 7172 -253 l
 7172 -3293 l 7171 -3322 l 7167 -3368 l 7159 -3414 l 7148 -3458 l
 7133 -3502 l 7115 -3544 l 7093 -3585 l 7068 -3623 l 7040 -3660 l
 7009 -3694 l 6976 -3726 l 6940 -3755 l 6902 -3781 l 6862 -3804 l
 6821 -3824 l 6777 -3840 l 6733 -3852 l 6688 -3862 l 6642 -3867 l
 6596 -3869 l 6431 -3869 l 6402 -3868 l 6356 -3864 l 6311 -3856 l
 6266 -3845 l 6222 -3830 l 6180 -3811 l 6140 -3790 l 6101 -3765 l
 6064 -3737 l 6030 -3706 l 5998 -3673 l 5969 -3637 l 5943 -3599 l
 5920 -3559 l 5901 -3517 l 5884 -3474 l 5872 -3430 l 5863 -3385 l
 5857 -3339 l 5855 -3293 l 5855 -253 l 5854 -224 l 5850 -178 l
 5842 -132 l 5831 -88 l 5816 -44 l 5798 -2 l 5776 38 l
 5751 76 l 5723 113 l 5692 147 l 5659 179 l 5623 208 l
 5585 234 l 5545 257 l 5504 277 l 5461 293 l 5416 305 l
 5371 315 l 5325 320 l 5279 322 l 5114 322 l 5085 321 l
 5039 317 l 4994 309 l 4949 298 l 4905 283 l 4863 264 l
 4823 243 l 4784 218 l 4747 190 l 4713 159 l 4681 126 l
 4652 90 l 4626 52 l 4603 12 l 4584 -29 l 4568 -72 l
 4555 -116 l 4546 -161 l 4540 -207 l 4538 -253 l 4538 -3293 l
 4538 -3322 l 4533 -3368 l 4526 -3414 l 4514 -3458 l 4499 -3502 l
 4481 -3544 l 4459 -3585 l 4434 -3623 l 4406 -3660 l 4376 -3694 l
 4342 -3726 l 4306 -3755 l 4268 -3781 l 4228 -3804 l 4187 -3824 l
 4144 -3840 l 4099 -3852 l 4054 -3862 l 4008 -3867 l 3962 -3869 l
 3797 -3869 l 3768 -3868 l 3722 -3864 l 3677 -3856 l 3632 -3845 l
 3589 -3830 l 3546 -3811 l 3506 -3790 l 3467 -3765 l 3430 -3737 l
 3396 -3706 l 3364 -3673 l 3335 -3637 l 3309 -3599 l 3286 -3559 l
 3267 -3517 l 3251 -3474 l 3238 -3430 l 3229 -3385 l 3223 -3339 l
 3221 -3293 l 3221 -253 l 3221 -224 l 3216 -178 l 3209 -132 l
 3197 -88 l 3182 -44 l 3164 -2 l 3142 38 l 3117 76 l
 3089 113 l 3059 147 l 3025 179 l 2989 208 l 2951 234 l
 2911 257 l 2870 277 l 2827 293 l 2782 305 l 2737 315 l
 2692 320 l 2646 322 l 2041 322 l 2012 321 l 1966 317 l
 1921 309 l 1876 298 l 1833 283 l 1790 264 l 1750 243 l
 1711 218 l 1674 190 l 1640 159 l 1608 126 l 1579 90 l
 1553 52 l 1531 12 l 1511 -29 l 1495 -72 l 1482 -116 l
 1473 -161 l 1467 -207 l 1465 -253 l 1465 -3293 l 1466 -3322 l
 1470 -3368 l 1478 -3414 l 1490 -3458 l 1505 -3502 l 1523 -3544 l
 1545 -3585 l 1570 -3623 l 1597 -3660 l 1628 -3694 l 1662 -3726 l
 1697 -3755 l 1735 -3781 l 1775 -3804 l 1817 -3824 l 1860 -3840 l
 1904 -3852 l 1950 -3862 l 1995 -3867 l 2041 -3869 l 2207 -3869 l
 2236 -3868 l 2282 -3864 l 2327 -3856 l 2372 -3845 l 2415 -3830 l
 2457 -3811 l 2498 -3790 l 2537 -3765 l 2573 -3737 l 2608 -3706 l
 2639 -3673 l 2668 -3637 l 2694 -3599 l 2717 -3559 l 2737 -3517 l
 2753 -3474 l 2766 -3430 l 2775 -3385 l 2781 -3339 l 2782 -3293 l
 2782 -253 l 2782 -224 l 2777 -178 l 2770 -132 l 2758 -88 l
 2743 -44 l 2725 -2 l 2703 38 l 2678 76 l 2650 113 l
 2620 147 l 2586 179 l 2550 208 l 2512 234 l 2472 257 l
 2431 277 l 2388 293 l 2343 305 l 2298 315 l 2253 320 l
 2207 322 l 1602 322 l 1573 321 l 1527 317 l 1482 309 l
 1437 298 l 1394 283 l 1351 264 l 1311 243 l 1272 218 l
 1235 190 l 1201 159 l 1169 126 l 1140 90 l 1114 52 l
 1092 12 l 1072 -29 l 1056 -72 l 1043 -116 l 1034 -161 l
 1028 -207 l 1026 -253 l 1026 -3293 l 1027 -3322 l 1031 -3368 l
 1039 -3414 l 1051 -3458 l 1066 -3502 l 1084 -3544 l 1106 -3585 l
 1131 -3623 l 1158 -3660 l 1189 -3694 l 1223 -3726 l 1258 -3755 l
 1296 -3781 l 1336 -3804 l 1378 -3824 l 1421 -3840 l 1465 -3852 l
 1511 -3862 l 1556 -3867 l 1602 -3869 l 1768 -3869 l 1797 -3868 l
 1843 -3864 l 1888 -3856 l 1933 -3845 l 1976 -3830 l 2018 -3811 l
 2059 -3790 l 2098 -3765 l 2134 -3737 l 2169 -3706 l 2200 -3673 l
 2229 -3637 l 2255 -3599 l 2278 -3559 l 2298 -3517 l 2314 -3474 l
 2327 -3430 l 2336 -3385 l 2342 -3339 l 2343 -3293 l 2343 -253 l
 2344 -224 l 2348 -178 l 2356 -132 l 2368 -88 l 2383 -44 l
 2401 -2 l 2423 38 l 2448 76 l 2475 113 l 2506 147 l
 2540 179 l 2575 208 l 2613 234 l 2653 257 l 2695 277 l
 2738 293 l 2782 305 l 2827 315 l 2873 320 l 2919 322 l
 3085 322 l 3114 321 l 3160 317 l 3205 309 l 3250 298 l
 3293 283 l 3335 264 l 3376 243 l 3415 218 l 3451 190 l
 3486 159 l 3517 126 l 3546 90 l 3572 52 l 3595 12 l
 3615 -29 l 3631 -72 l 3644 -116 l 3653 -161 l 3658 -207 l
 3660 -253 l 3660 -3293 l 3661 -3322 l 3665 -3368 l 3673 -3414 l
 3685 -3458 l 3699 -3502 l 3718 -3544 l 3740 -3585 l 3764 -3623 l
 3792 -3660 l 3823 -3694 l 3856 -3726 l 3892 -3755 l 3930 -3781 l
 3970 -3804 l 4012 -3824 l 4055 -3840 l 4099 -3852 l 4144 -3862 l
 4190 -3867 l 4236 -3869 l 4401 -3869 l 4431 -3868 l 4477 -3864 l
 4522 -3856 l 4567 -3845 l 4610 -3830 l 4652 -3811 l 4693 -3790 l
 4732 -3765 l 4768 -3737 l 4803 -3706 l 4834 -3673 l 4863 -3637 l
 4889 -3599 l 4912 -3559 l 4932 -3517 l 4948 -3474 l 4961 -3430 l
 4970 -3385 l 4975 -3339 l 4977 -3293 l 4977 -253 l 4978 -224 l
 4982 -178 l 4990 -132 l 5001 -88 l 5016 -44 l 5035 -2 l
 5056 38 l 5081 76 l 5109 113 l 5140 147 l 5173 179 l
 5209 208 l 5247 234 l 5287 257 l 5329 277 l 5372 293 l
 5416 305 l 5461 315 l 5507 320 l 5553 322 l 5718 322 l
 5748 321 l 5793 317 l 5839 309 l 5883 298 l 5927 283 l
 5969 264 l 6010 243 l 6049 218 l 6085 190 l 6120 159 l
 6151 126 l 6180 90 l 6206 52 l 6229 12 l 6249 -29 l
 6265 -72 l 6278 -116 l 6287 -161 l 6292 -207 l 6294 -253 l
 6294 -3293 l 6295 -3322 l 6299 -3368 l 6307 -3414 l 6318 -3458 l
 6333 -3502 l 6352 -3544 l 6373 -3585 l 6398 -3623 l 6426 -3660 l
 6457 -3694 l 6490 -3726 l 6526 -3755 l 6564 -3781 l 6604 -3804 l
 6646 -3824 l 6689 -3840 l 6733 -3852 l 6778 -3862 l 6824 -3867 l
 6870 -3869 l 7035 -3869 l 7065 -3868 l 7110 -3864 l 7156 -3856 l
 7200 -3845 l 7244 -3830 l 7286 -3811 l 7327 -3790 l 7366 -3765 l
 7402 -3737 l 7436 -3706 l 7468 -3673 l 7497 -3637 l 7523 -3599 l
 7546 -3559 l 7566 -3517 l 7582 -3474 l 7595 -3430 l 7604 -3385 l
 7609 -3339 l 7611 -3293 l 7611 -253 l 7612 -224 l 7616 -178 l
 7624 -132 l 7635 -88 l 7650 -44 l 7669 -2 l 7690 38 l
 7715 76 l 7743 113 l 7774 147 l 7807 179 l 7843 208 l
 7881 234 l 7921 257 l 7963 277 l 8006 293 l 8050 305 l
 8095 315 l 8141 320 l 8187 322 l 9166 322 l 9196 321 l
 9242 317 l 9287 309 l 9332 298 l 9375 283 l 9417 264 l
 9458 243 l 9497 218 l 9533 190 l 9568 159 l 9599 126 l
 9628 90 l 9654 52 l 9677 12 l 9697 -29 l 9713 -72 l
 9726 -116 l 9735 -161 l 9740 -207 l 9742 -253 l 9742 -11516 l
 9743 -11545 l 9747 -11591 l 9755 -11636 l 9766 -11681 l 9781 -11724 l
 9800 -11767 l 9822 -11807 l 9846 -11846 l 9874 -11883 l 9905 -11917 l
 9938 -11949 l 9974 -11978 l 10012 -12004 l 10052 -12027 l 10094 -12046 l
 10137 -12062 l 10181 -12075 l 10226 -12084 l 10272 -12090 l 10318 -12092 l
 10426 -12092 l 10455 -12091 l 10501 -12087 l 10546 -12079 l 10591 -12067 l
 10634 -12052 l 10676 -12034 l 10717 -12012 l 10756 -11988 l 10792 -11960 l
 10827 -11929 l 10859 -11895 l 10887 -11860 l 10913 -11822 l 10936 -11782 l
 10956 -11740 l 10972 -11697 l 10985 -11653 l 10994 -11608 l 11000 -11562 l
 11001 -11516 l 11001 -253 l 11001 -224 l 10997 -178 l 10989 -132 l
 10977 -88 l 10962 -44 l 10944 -2 l 10922 38 l 10897 76 l
 10869 113 l 10839 147 l 10805 179 l 10769 208 l 10731 234 l
 10692 257 l 10650 277 l 10607 293 l 10562 305 l 10517 315 l
 10472 320 l 10426 322 l 9898 322 l 9869 321 l 9823 317 l
 9778 309 l 9733 298 l 9690 283 l 9648 264 l 9607 243 l
 9568 218 l 9532 190 l 9497 159 l 9466 126 l 9437 90 l
 9411 52 l 9388 12 l 9368 -29 l 9352 -72 l 9339 -116 l
 9330 -161 l 9324 -207 l 9323 -253 l 9323 -11516 l 9323 -11545 l
 9328 -11591 l 9335 -11636 l 9347 -11681 l 9362 -11724 l 9380 -11767 l
 9402 -11807 l 9427 -11846 l 9455 -11883 l 9485 -11917 l 9519 -11949 l
 9555 -11978 l 9593 -12004 l 9633 -12027 l 9674 -12046 l 9717 -12062 l
 9762 -12075 l 9807 -12084 l 9852 -12090 l 9898 -12092 l 10006 -12092 l
 10035 -12091 l 10081 -12087 l 10126 -12079 l 10171 -12067 l 10215 -12052 l
 10257 -12034 l 10297 -12012 l 10336 -11988 l 10373 -11960 l 10407 -11929 l
 10439 -11895 l 10468 -11860 l 10494 -11822 l 10517 -11782 l 10536 -11740 l
 10552 -11697 l 10565 -11653 l 10574 -11608 l 10580 -11562 l 10582 -11516 l
 10582 -253 l 10581 -226 l 10577 -180 l 10569 -135 l 10558 -90 l
 10543 -46 l 10525 -4 l 10504 36 l 10494 53 l 10474 95 l
 10457 138 l 10444 182 l 10434 227 l 10428 272 l 10426 318 l
 10427 364 l 10432 410 l 10441 455 l 10453 500 l 10468 543 l
 10488 585 l 10510 625 l 10536 664 l 10564 700 l 10595 733 l
 10629 765 l 10666 793 l 10704 818 l 10745 840 l 10787 859 l
 10830 875 l 10874 887 l 10920 895 l 10965 900 l 11012 901 l
 11058 898 l 11103 892 l 11148 882 l 11192 868 l 11235 851 l
 11276 831 l 11316 808 l 11353 781 l 11389 751 l 11421 719 l
 11452 684 l 11479 647 l 11503 608 l 11524 567 l 11542 524 l
 11556 480 l 11567 436 l 11574 390 l 11577 344 l 11577 298 l
 11573 252 l 11565 207 l 11554 162 l 11539 119 l 11521 76 l
 11499 36 l 11486 12 l 11467 -29 l 11450 -72 l 11438 -116 l
 11428 -161 l 11423 -207 l 11421 -253 l 11421 -11516 l 11420 -11545 l
 11416 -11591 l 11408 -11636 l 11397 -11681 l 11382 -11724 l 11364 -11767 l
 11342 -11807 l 11317 -11846 l 11289 -11883 l 11258 -11917 l 11225 -11949 l
 11189 -11978 l 11151 -12004 l 11111 -12027 l 11070 -12046 l 11026 -12062 l
 10982 -12075 l 10937 -12084 l 10891 -12090 l 10845 -12092 l 10738 -12092 l
 10709 -12091 l 10663 -12087 l 10617 -12079 l 10573 -12067 l 10529 -12052 l
 10487 -12034 l 10446 -12012 l 10408 -11988 l 10371 -11960 l 10337 -11929 l
 10305 -11895 l 10276 -11860 l 10250 -11822 l 10227 -11782 l 10207 -11740 l
 10191 -11697 l 10179 -11653 l 10169 -11608 l 10164 -11562 l 10162 -11516 l
 10162 -253 l 10161 -224 l 10157 -178 l 10149 -132 l 10138 -88 l
 10123 -44 l 10104 -2 l 10083 38 l 10058 76 l 10030 113 l
 9999 147 l 9966 179 l 9930 208 l 9892 234 l 9852 257 l
 9810 277 l 9767 293 l 9723 305 l 9678 315 l 9632 320 l
 9586 322 l 9479 322 l 9449 321 l 9404 317 l 9358 309 l
 9314 298 l 9270 283 l 9228 264 l 9187 243 l 9148 218 l
 9112 190 l 9078 159 l 9046 126 l 9017 90 l 8991 52 l
 8968 12 l 8948 -29 l 8932 -72 l 8919 -116 l 8910 -161 l
 8905 -207 l 8903 -253 l 8903 -11516 l 8902 -11545 l 8898 -11591 l
 8890 -11636 l 8879 -11681 l 8864 -11724 l 8845 -11767 l 8824 -11807 l
 8799 -11846 l 8771 -11883 l 8740 -11917 l 8707 -11949 l 8671 -11978 l
 8633 -12004 l 8593 -12027 l 8551 -12046 l 8508 -12062 l 8464 -12075 l
 8419 -12084 l 8373 -12090 l 8327 -12092 l 8187 -12092 l 8158 -12091 l
 8112 -12087 l 8066 -12079 l 8022 -12067 l 7978 -12052 l 7936 -12034 l
 7895 -12012 l 7857 -11988 l 7820 -11960 l 7786 -11929 l 7754 -11895 l
 7725 -11860 l 7699 -11822 l 7676 -11782 l 7657 -11740 l 7640 -11697 l
 7628 -11653 l 7618 -11608 l 7613 -11562 l 7611 -11516 l 7611 -8291 l
 7610 -8262 l 7606 -8216 l 7598 -8171 l 7587 -8126 l 7572 -8083 l
 7554 -8040 l 7532 -8000 l 7507 -7961 l 7479 -7924 l 7448 -7890 l
 7415 -7858 l 7379 -7829 l 7341 -7803 l 7301 -7781 l 7260 -7761 l
 7216 -7745 l 7172 -7732 l 7127 -7723 l 7081 -7717 l 7035 -7715 l
 6870 -7715 l 6841 -7716 l 6795 -7720 l 6750 -7728 l 6705 -7740 l
 6661 -7755 l 6619 -7773 l 6579 -7795 l 6540 -7820 l 6503 -7847 l
 6469 -7878 l 6437 -7912 l 6408 -7947 l 6382 -7985 l 6359 -8025 l
 6340 -8067 l 6323 -8110 l 6311 -8154 l 6302 -8200 l 6296 -8245 l
 6294 -8291 l 6294 -11516 l 6293 -11545 l 6289 -11591 l 6281 -11636 l
 6270 -11681 l 6255 -11724 l 6237 -11767 l 6215 -11807 l 6190 -11846 l
 6162 -11883 l 6131 -11917 l 6098 -11949 l 6062 -11978 l 6024 -12004 l
 5984 -12027 l 5943 -12046 l 5899 -12062 l 5855 -12075 l 5810 -12084 l
 5764 -12090 l 5718 -12092 l 5553 -12092 l 5524 -12091 l 5478 -12087 l
 5433 -12079 l 5388 -12067 l 5344 -12052 l 5302 -12034 l 5262 -12012 l
 5223 -11988 l 5186 -11960 l 5152 -11929 l 5120 -11895 l 5091 -11860 l
 5065 -11822 l 5042 -11782 l 5023 -11740 l 5006 -11697 l 4994 -11653 l
 4985 -11608 l 4979 -11562 l 4977 -11516 l 4977 -8291 l 4978 -8262 l
 4982 -8216 l 4990 -8171 l 5001 -8126 l 5016 -8083 l 5035 -8040 l
 5056 -8000 l 5081 -7961 l 5109 -7924 l 5140 -7890 l 5173 -7858 l
 5209 -7829 l 5247 -7803 l 5287 -7781 l 5329 -7761 l 5372 -7745 l
 5416 -7732 l 5461 -7723 l 5507 -7717 l 5553 -7715 l 6157 -7715 l
 6187 -7716 l 6232 -7720 l 6278 -7728 l 6322 -7740 l 6366 -7755 l
 6408 -7773 l 6449 -7795 l 6488 -7820 l 6524 -7847 l 6559 -7878 l
 6590 -7912 l 6619 -7947 l 6645 -7985 l 6668 -8025 l 6688 -8067 l
 6704 -8110 l 6717 -8154 l 6726 -8200 l 6731 -8245 l 6733 -8291 l
 6733 -11516 l 6734 -11545 l 6738 -11591 l 6746 -11636 l 6757 -11681 l
 6772 -11724 l 6791 -11767 l 6812 -11807 l 6837 -11846 l 6865 -11883 l
 6896 -11917 l 6929 -11949 l 6965 -11978 l 7003 -12004 l 7043 -12027 l
 7085 -12046 l 7128 -12062 l 7172 -12075 l 7217 -12084 l 7263 -12090 l
 7309 -12092 l 7488 -12092 l 7517 -12091 l 7563 -12087 l 7608 -12079 l
 7653 -12067 l 7696 -12052 l 7739 -12034 l 7779 -12012 l 7818 -11988 l
 7855 -11960 l 7889 -11929 l 7921 -11895 l 7950 -11860 l 7976 -11822 l
 7998 -11782 l 8018 -11740 l 8034 -11697 l 8047 -11653 l 8056 -11608 l
 8062 -11562 l 8063 -11516 l 8063 -253 l 8063 -224 l 8059 -178 l
 8051 -132 l 8039 -88 l 8024 -44 l 8006 -2 l 7984 38 l
 7959 76 l 7931 113 l 7901 147 l 7867 179 l 7832 208 l
 7794 234 l 7754 257 l 7712 277 l 7669 293 l 7625 305 l
 7579 315 l 7534 320 l 7488 322 l 7309 322 l 7280 321 l
 7234 317 l 7188 309 l 7144 298 l 7100 283 l 7058 264 l
 7017 243 l 6979 218 l 6942 190 l 6908 159 l 6876 126 l
 6847 90 l 6821 52 l 6798 12 l 6779 -29 l 6762 -72 l
 6750 -116 l 6741 -161 l 6735 -207 l 6733 -253 l 6733 -3293 l
 6732 -3322 l 6728 -3368 l 6720 -3414 l 6709 -3458 l 6694 -3502 l
 6676 -3544 l 6654 -3585 l 6629 -3623 l 6601 -3660 l 6570 -3694 l
 6537 -3726 l 6501 -3755 l 6463 -3781 l 6423 -3804 l 6382 -3824 l
 6338 -3840 l 6294 -3852 l 6249 -3862 l 6203 -3867 l 6157 -3869 l
 5992 -3869 l 5963 -3868 l 5917 -3864 l 5872 -3856 l 5827 -3845 l
 5783 -3830 l 5741 -3811 l 5701 -3790 l 5662 -3765 l 5625 -3737 l
 5591 -3706 l 5559 -3673 l 5530 -3637 l 5504 -3599 l 5481 -3559 l
 5462 -3517 l 5445 -3474 l 5433 -3430 l 5424 -3385 l 5418 -3339 l
 5416 -3293 l 5416 -253 l 5415 -224 l 5411 -178 l 5403 -132 l
 5392 -88 l 5377 -44 l 5359 -2 l 5337 38 l 5312 76 l
 5284 113 l 5253 147 l 5220 179 l 5184 208 l 5146 234 l
 5106 257 l 5065 277 l 5022 293 l 4977 305 l 4932 315 l
 4886 320 l 4840 322 l 4675 322 l 4646 321 l 4600 317 l
 4555 309 l 4510 298 l 4466 283 l 4424 264 l 4384 243 l
 4345 218 l 4308 190 l 4274 159 l 4242 126 l 4213 90 l
 4187 52 l 4164 12 l 4145 -29 l 4129 -72 l 4116 -116 l
 4107 -161 l 4101 -207 l 4099 -253 l 4099 -3293 l 4099 -3322 l
 4094 -3368 l 4087 -3414 l 4075 -3458 l 4060 -3502 l 4042 -3544 l
 4020 -3585 l 3995 -3623 l 3967 -3660 l 3937 -3694 l 3903 -3726 l
 3867 -3755 l 3829 -3781 l 3789 -3804 l 3748 -3824 l 3705 -3840 l
 3660 -3852 l 3615 -3862 l 3570 -3867 l 3523 -3869 l 2480 -3869 l
 2451 -3868 l 2405 -3864 l 2360 -3856 l 2315 -3845 l 2272 -3830 l
 2229 -3811 l 2189 -3790 l 2150 -3765 l 2113 -3737 l 2079 -3706 l
 2047 -3673 l 2018 -3637 l 1992 -3599 l 1970 -3559 l 1950 -3517 l
 1934 -3474 l 1921 -3430 l 1912 -3385 l 1906 -3339 l 1904 -3293 l
 1904 -253 l 1904 -224 l 1900 -178 l 1892 -132 l 1880 -88 l
 1865 -44 l 1847 -2 l 1825 38 l 1800 76 l 1772 113 l
 1742 147 l 1708 179 l 1672 208 l 1634 234 l 1595 257 l
 1553 277 l 1510 293 l 1465 305 l 1420 315 l 1375 320 l
 1329 322 l 1163 322 l 1134 321 l 1088 317 l 1043 309 l
 998 298 l 955 283 l 912 264 l 872 243 l 833 218 l
 796 190 l 762 159 l 730 126 l 701 90 l 675 52 l
 653 12 l 633 -29 l 617 -72 l 604 -116 l 595 -161 l
 589 -207 l 588 -253 l 588 -3293 l 588 -3298 l 590 -3344 l
 1024 -8240 l 1025 -8245 l 1026 -8291 l 1026 -11516 l 1027 -11545 l
 1031 -11591 l 1039 -11636 l 1051 -11681 l 1066 -11724 l 1084 -11767 l
 1106 -11807 l 1131 -11846 l 1158 -11883 l 1189 -11917 l 1223 -11949 l
 1258 -11978 l 1296 -12004 l 1336 -12027 l 1378 -12046 l 1421 -12062 l
 1465 -12075 l 1511 -12084 l 1556 -12090 l 1602 -12092 l 1768 -12092 l
 1797 -12091 l 1843 -12087 l 1888 -12079 l 1933 -12067 l 1976 -12052 l
 2018 -12034 l 2059 -12012 l 2098 -11988 l 2134 -11960 l 2169 -11929 l
 2200 -11895 l 2229 -11860 l 2255 -11822 l 2278 -11782 l 2298 -11740 l
 2314 -11697 l 2327 -11653 l 2336 -11608 l 2342 -11562 l 2343 -11516 l
 2343 -8291 l 2343 -8262 l 2338 -8216 l 2331 -8171 l 2319 -8126 l
 2304 -8083 l 2286 -8040 l 2264 -8000 l 2239 -7961 l 2211 -7924 l
 2181 -7890 l 2147 -7858 l 2111 -7829 l 2073 -7803 l 2033 -7781 l
 1992 -7761 l 1949 -7745 l 1904 -7732 l 1859 -7723 l 1814 -7717 l
 1768 -7715 l 1163 -7715 l 1134 -7716 l 1088 -7720 l 1043 -7728 l
 998 -7740 l 955 -7755 l 912 -7773 l 872 -7795 l 833 -7820 l
 796 -7847 l 762 -7878 l 730 -7912 l 701 -7947 l 675 -7985 l
 653 -8025 l 633 -8067 l 617 -8110 l 604 -8154 l 595 -8200 l
 589 -8245 l 588 -8291 l 588 -11516 l 588 -11545 l 592 -11591 l
 600 -11636 l 612 -11681 l 627 -11724 l 645 -11767 l 667 -11807 l
 692 -11846 l 720 -11883 l 750 -11917 l 784 -11949 l 819 -11978 l
 857 -12004 l 897 -12027 l 939 -12046 l 982 -12062 l 1026 -12075 l
 1072 -12084 l 1117 -12090 l 1163 -12092 l 1329 -12092 l 1358 -12091 l
 1404 -12087 l 1449 -12079 l 1494 -12067 l 1537 -12052 l 1579 -12034 l
 1620 -12012 l 1659 -11988 l 1695 -11960 l 1730 -11929 l 1762 -11895 l
 1790 -11860 l 1816 -11822 l 1839 -11782 l 1859 -11740 l 1875 -11697 l
 1888 -11653 l 1897 -11608 l 1903 -11562 l 1904 -11516 l 1904 -8291 l
 1905 -8262 l 1909 -8216 l 1917 -8171 l 1929 -8126 l 1944 -8083 l
 1962 -8040 l 1984 -8000 l 2009 -7961 l 2036 -7924 l 2067 -7890 l
 2101 -7858 l 2136 -7829 l 2174 -7803 l 2214 -7781 l 2256 -7761 l
 2299 -7745 l 2343 -7732 l 2389 -7723 l 2434 -7717 l 2480 -7715 l
 3085 -7715 l 3114 -7716 l 3160 -7720 l 3205 -7728 l 3250 -7740 l
 3293 -7755 l 3335 -7773 l 3376 -7795 l 3415 -7820 l 3451 -7847 l
 3486 -7878 l 3517 -7912 l 3546 -7947 l 3572 -7985 l 3595 -8025 l
 3615 -8067 l 3631 -8110 l 3644 -8154 l 3653 -8200 l 3658 -8245 l
 3660 -8291 l 3660 -11516 l 3661 -11545 l 3665 -11591 l 3673 -11636 l
 3685 -11681 l 3699 -11724 l 3718 -11767 l 3740 -11807 l 3764 -11846 l
 3792 -11883 l 3823 -11917 l 3856 -11949 l 3892 -11978 l 3930 -12004 l
 3970 -12027 l 4012 -12046 l 4055 -12062 l 4099 -12075 l 4144 -12084 l
 4190 -12090 l 4236 -12092 l 4840 -12092 l 4870 -12091 l 4916 -12087 l
 4961 -12079 l 5006 -12067 l 5049 -12052 l 5091 -12034 l 5132 -12012 l
 5171 -11988 l 5207 -11960 l 5242 -11929 l 5273 -11895 l 5302 -11860 l
 5328 -11822 l 5351 -11782 l 5371 -11740 l 5387 -11697 l 5400 -11653 l
 5409 -11608 l 5414 -11562 l 5416 -11516 l 5416 -8291 l 5415 -8262 l
 5411 -8216 l 5403 -8171 l 5392 -8126 l 5377 -8083 l 5359 -8040 l
 5337 -8000 l 5312 -7961 l 5284 -7924 l 5253 -7890 l 5220 -7858 l
 5184 -7829 l 5146 -7803 l 5106 -7781 l 5065 -7761 l 5022 -7745 l
 4977 -7732 l 4932 -7723 l 4886 -7717 l 4840 -7715 l 4675 -7715 l
 4646 -7716 l 4600 -7720 l 4555 -7728 l 4510 -7740 l 4466 -7755 l
 4424 -7773 l 4384 -7795 l 4345 -7820 l 4308 -7847 l 4274 -7878 l
 4242 -7912 l 4213 -7947 l 4187 -7985 l 4164 -8025 l 4145 -8067 l
 4129 -8110 l 4116 -8154 l 4107 -8200 l 4101 -8245 l 4099 -8291 l
 4099 -11516 l 4099 -11545 l 4094 -11591 l 4087 -11636 l 4075 -11681 l
 4060 -11724 l 4042 -11767 l 4020 -11807 l 3995 -11846 l 3967 -11883 l
 3937 -11917 l 3903 -11949 l 3867 -11978 l 3829 -12004 l 3789 -12027 l
 3748 -12046 l 3705 -12062 l 3660 -12075 l 3615 -12084 l 3570 -12090 l
 3523 -12092 l 3358 -12092 l 3329 -12091 l 3283 -12087 l 3238 -12079 l
 3193 -12067 l 3150 -12052 l 3107 -12034 l 3067 -12012 l 3028 -11988 l
 2991 -11960 l 2957 -11929 l 2925 -11895 l 2896 -11860 l 2870 -11822 l
 2847 -11782 l 2828 -11740 l 2812 -11697 l 2799 -11653 l 2790 -11608 l
 2784 -11562 l 2782 -11516 l 2782 -8291 l 2782 -8262 l 2777 -8216 l
 2770 -8171 l 2758 -8126 l 2743 -8083 l 2725 -8040 l 2703 -8000 l
 2678 -7961 l 2650 -7924 l 2620 -7890 l 2586 -7858 l 2550 -7829 l
 2512 -7803 l 2472 -7781 l 2431 -7761 l 2388 -7745 l 2343 -7732 l
 2298 -7723 l 2253 -7717 l 2207 -7715 l 2041 -7715 l 2012 -7716 l
 1966 -7720 l 1921 -7728 l 1876 -7740 l 1833 -7755 l 1790 -7773 l
 1750 -7795 l 1711 -7820 l 1674 -7847 l 1640 -7878 l 1608 -7912 l
 1579 -7947 l 1553 -7985 l 1531 -8025 l 1511 -8067 l 1495 -8110 l
 1482 -8154 l 1473 -8200 l 1467 -8245 l 1465 -8291 l 1465 -11516 l
 1466 -11545 l 1470 -11591 l 1478 -11636 l 1490 -11681 l 1505 -11724 l
 1523 -11767 l 1545 -11807 l 1570 -11846 l 1597 -11883 l 1628 -11917 l
 1662 -11949 l 1697 -11978 l 1735 -12004 l 1775 -12027 l 1817 -12046 l
 1860 -12062 l 1904 -12075 l 1950 -12084 l 1995 -12090 l 2041 -12092 l
 2646 -12092 l 2675 -12091 l 2721 -12087 l 2766 -12079 l 2811 -12067 l
 2854 -12052 l 2896 -12034 l 2937 -12012 l 2976 -11988 l 3012 -11960 l
 3047 -11929 l 3078 -11895 l 3107 -11860 l 3133 -11822 l 3156 -11782 l
 3176 -11740 l 3192 -11697 l 3205 -11653 l 3214 -11608 l 3220 -11562 l
 3221 -11516 l 3221 -8291 l 3222 -8262 l 3226 -8216 l 3234 -8171 l
 3246 -8126 l 3260 -8083 l 3279 -8040 l 3301 -8000 l 3325 -7961 l
 3353 -7924 l 3384 -7890 l 3417 -7858 l 3453 -7829 l 3491 -7803 l
 3531 -7781 l 3573 -7761 l 3616 -7745 l 3660 -7732 l 3705 -7723 l
 3751 -7717 l 3797 -7715 l 3962 -7715 l 3992 -7716 l 4038 -7720 l
 4083 -7728 l 4128 -7740 l 4171 -7755 l 4213 -7773 l 4254 -7795 l
 4293 -7820 l 4329 -7847 l 4364 -7878 l 4395 -7912 l 4424 -7947 l
 4450 -7985 l 4473 -8025 l 4493 -8067 l 4509 -8110 l 4522 -8154 l
 4531 -8200 l 4536 -8245 l 4538 -8291 l 4538 -11516 l 4539 -11545 l
 4543 -11591 l 4551 -11636 l 4562 -11681 l 4577 -11724 l 4596 -11767 l
 4618 -11807 l 4642 -11846 l 4670 -11883 l 4701 -11917 l 4734 -11949 l
 4770 -11978 l 4808 -12004 l 4848 -12027 l 4890 -12046 l 4933 -12062 l
 4977 -12075 l 5022 -12084 l 5068 -12090 l 5114 -12092 l 5279 -12092 l
 5309 -12091 l 5354 -12087 l 5400 -12079 l 5444 -12067 l 5488 -12052 l
 5530 -12034 l 5571 -12012 l 5610 -11988 l 5646 -11960 l 5681 -11929 l
 5712 -11895 l 5741 -11860 l 5767 -11822 l 5790 -11782 l 5810 -11740 l
 5826 -11697 l 5839 -11653 l 5848 -11608 l 5853 -11562 l 5855 -11516 l
 5855 -8291 l 5856 -8262 l 5860 -8216 l 5868 -8171 l 5879 -8126 l
 5894 -8083 l 5913 -8040 l 5934 -8000 l 5959 -7961 l 5987 -7924 l
 6018 -7890 l 6051 -7858 l 6087 -7829 l 6125 -7803 l 6165 -7781 l
 6207 -7761 l 6250 -7745 l 6294 -7732 l 6339 -7723 l 6385 -7717 l
 6431 -7715 l 6596 -7715 l 6626 -7716 l 6671 -7720 l 6717 -7728 l
 6761 -7740 l 6805 -7755 l 6847 -7773 l 6888 -7795 l 6927 -7820 l
 6963 -7847 l 6997 -7878 l 7029 -7912 l 7058 -7947 l 7084 -7985 l
 7107 -8025 l 7127 -8067 l 7143 -8110 l 7156 -8154 l 7165 -8200 l
 7170 -8245 l 7172 -8291 l 7172 -11516 l 7173 -11545 l 7177 -11591 l
 7185 -11636 l 7196 -11681 l 7211 -11724 l 7230 -11767 l 7251 -11807 l
 7276 -11846 l 7304 -11883 l 7335 -11917 l 7368 -11949 l 7404 -11978 l
 7442 -12004 l 7482 -12027 l 7524 -12046 l 7567 -12062 l 7611 -12075 l
 7656 -12084 l 7702 -12090 l 7748 -12092 l 7907 -12092 l 7937 -12091 l
 7982 -12087 l 8028 -12079 l 8072 -12067 l 8116 -12052 l 8158 -12034 l
 8199 -12012 l 8238 -11988 l 8274 -11960 l 8309 -11929 l 8340 -11895 l
 8369 -11860 l 8395 -11822 l 8418 -11782 l 8438 -11740 l 8454 -11697 l
 8467 -11653 l 8476 -11608 l 8481 -11562 l 8483 -11516 l
 8483 -253 l gs col37 s gr 
% Ellipse
7.500 slw
n 8482 -224 115 115 0 360 DrawEllipse gs col34 s gr
% Ellipse
n 8483 -253 115 115 0 360 DrawEllipse gs col33 s gr
% Polyline
n 8482 -224 m
 8493 -338 l gs col34 s gr 
% Polyline
n 8483 -253 m
 8598 -253 l gs col33 s gr 
% here ends figure;
pagefooter
showpage
%%Trailer
%EOF
%%EndDocument
 @endspecial Black Black eop end
%%Trailer
userdict /end-hook known{end-hook}if
%%Trailer
cleartomark
countdictstack
exch sub { end } repeat
restore
%%EOF
