%!PS-Adobe-3.0 EPSF-3.0
%%BoundingBox: 149 1 1014 866
%%HiResBoundingBox: 149.000000 1.000000 1013.666016 865.664062
%%Creator: dvips(k) 5.993 Copyright 2013 Radical Eye Software
%%Title: fig2ps-env04_ffa.dvi
%%CreationDate: Sun Jan  6 02:04:14 2019
%%EndComments
% EPSF created by ps2eps 1.68
%%BeginProlog
0 199 translate
save
countdictstack
mark
newpath
/showpage {} def
/setpagedevice {pop} def
%%EndProlog
%%Page 1 1
%DVIPSWebPage: (www.radicaleye.com)
%DVIPSCommandLine: dvips -Ppdf -G0 -q -E fig2ps-env04_ffa.dvi -o
%+ fig2ps-env04_ffa.ps
%DVIPSParameters: dpi=8000
%DVIPSSource:  TeX output 2019.01.06:0204
%%BeginProcSet: tex.pro 0 0
%!
/TeXDict 300 dict def TeXDict begin/N{def}def/B{bind def}N/S{exch}N/X{S
N}B/A{dup}B/TR{translate}N/isls false N/vsize 11 72 mul N/hsize 8.5 72
mul N/landplus90{false}def/@rigin{isls{[0 landplus90{1 -1}{-1 1}ifelse 0
0 0]concat}if 72 Resolution div 72 VResolution div neg scale isls{
landplus90{VResolution 72 div vsize mul 0 exch}{Resolution -72 div hsize
mul 0}ifelse TR}if Resolution VResolution vsize -72 div 1 add mul TR[
matrix currentmatrix{A A round sub abs 0.00001 lt{round}if}forall round
exch round exch]setmatrix}N/@landscape{/isls true N}B/@manualfeed{
statusdict/manualfeed true put}B/@copies{/#copies X}B/FMat[1 0 0 -1 0 0]
N/FBB[0 0 0 0]N/nn 0 N/IEn 0 N/ctr 0 N/df-tail{/nn 8 dict N nn begin
/FontType 3 N/FontMatrix fntrx N/FontBBox FBB N string/base X array
/BitMaps X/BuildChar{CharBuilder}N/Encoding IEn N end A{/foo setfont}2
array copy cvx N load 0 nn put/ctr 0 N[}B/sf 0 N/df{/sf 1 N/fntrx FMat N
df-tail}B/dfs{div/sf X/fntrx[sf 0 0 sf neg 0 0]N df-tail}B/E{pop nn A
definefont setfont}B/Cw{Cd A length 5 sub get}B/Ch{Cd A length 4 sub get
}B/Cx{128 Cd A length 3 sub get sub}B/Cy{Cd A length 2 sub get 127 sub}
B/Cdx{Cd A length 1 sub get}B/Ci{Cd A type/stringtype ne{ctr get/ctr ctr
1 add N}if}B/CharBuilder{save 3 1 roll S A/base get 2 index get S
/BitMaps get S get/Cd X pop/ctr 0 N Cdx 0 Cx Cy Ch sub Cx Cw add Cy
setcachedevice Cw Ch true[1 0 0 -1 -.1 Cx sub Cy .1 sub]{Ci}imagemask
restore}B/D{/cc X A type/stringtype ne{]}if nn/base get cc ctr put nn
/BitMaps get S ctr S sf 1 ne{A A length 1 sub A 2 index S get sf div put
}if put/ctr ctr 1 add N}B/I{cc 1 add D}B/bop{userdict/bop-hook known{
bop-hook}if/SI save N @rigin 0 0 moveto/V matrix currentmatrix A 1 get A
mul exch 0 get A mul add .99 lt{/QV}{/RV}ifelse load def pop pop}N/eop{
SI restore userdict/eop-hook known{eop-hook}if showpage}N/@start{
userdict/start-hook known{start-hook}if pop/VResolution X/Resolution X
1000 div/DVImag X/IEn 256 array N 2 string 0 1 255{IEn S A 360 add 36 4
index cvrs cvn put}for pop 65781.76 div/vsize X 65781.76 div/hsize X}N
/dir 0 def/dyy{/dir 0 def}B/dyt{/dir 1 def}B/dty{/dir 2 def}B/dtt{/dir 3
def}B/p{dir 2 eq{-90 rotate show 90 rotate}{dir 3 eq{-90 rotate show 90
rotate}{show}ifelse}ifelse}N/RMat[1 0 0 -1 0 0]N/BDot 260 string N/Rx 0
N/Ry 0 N/V{}B/RV/v{/Ry X/Rx X V}B statusdict begin/product where{pop
false[(Display)(NeXT)(LaserWriter 16/600)]{A length product length le{A
length product exch 0 exch getinterval eq{pop true exit}if}{pop}ifelse}
forall}{false}ifelse end{{gsave TR -.1 .1 TR 1 1 scale Rx Ry false RMat{
BDot}imagemask grestore}}{{gsave TR -.1 .1 TR Rx Ry scale 1 1 false RMat
{BDot}imagemask grestore}}ifelse B/QV{gsave newpath transform round exch
round exch itransform moveto Rx 0 rlineto 0 Ry neg rlineto Rx neg 0
rlineto fill grestore}B/a{moveto}B/delta 0 N/tail{A/delta X 0 rmoveto}B
/M{S p delta add tail}B/b{S p tail}B/c{-4 M}B/d{-3 M}B/e{-2 M}B/f{-1 M}
B/g{0 M}B/h{1 M}B/i{2 M}B/j{3 M}B/k{4 M}B/w{0 rmoveto}B/l{p -4 w}B/m{p
-3 w}B/n{p -2 w}B/o{p -1 w}B/q{p 1 w}B/r{p 2 w}B/s{p 3 w}B/t{p 4 w}B/x{
0 S rmoveto}B/y{3 2 roll p a}B/bos{/SS save N}B/eos{SS restore}B end
%%EndProcSet
%%BeginProcSet: alt-rule.pro 0 0
%!
% Patch by TVZ
% Makes dvips files draw rules with stroke rather than fill.
% Makes narrow rules more predictable at low resolutions
% after distilling to PDF.
% May have unknown consequences for very thick rules.
% Tested only with dvips 5.85(k).
TeXDict begin
/QV {
  gsave newpath /ruleY X /ruleX X
  Rx Ry gt
  { ruleX ruleY Ry 2 div sub moveto Rx 0 rlineto Ry }
  { ruleX Rx 2 div add ruleY moveto 0 Ry neg rlineto Rx }
  ifelse
  setlinewidth 0 setlinecap stroke grestore
} bind def
end
%%EndProcSet
%%BeginProcSet: special.pro 0 0
%!
TeXDict begin/SDict 200 dict N SDict begin/@SpecialDefaults{/hs 612 N
/vs 792 N/ho 0 N/vo 0 N/hsc 1 N/vsc 1 N/ang 0 N/CLIP 0 N/rwiSeen false N
/rhiSeen false N/letter{}N/note{}N/a4{}N/legal{}N}B/@scaleunit 100 N
/@hscale{@scaleunit div/hsc X}B/@vscale{@scaleunit div/vsc X}B/@hsize{
/hs X/CLIP 1 N}B/@vsize{/vs X/CLIP 1 N}B/@clip{/CLIP 2 N}B/@hoffset{/ho
X}B/@voffset{/vo X}B/@angle{/ang X}B/@rwi{10 div/rwi X/rwiSeen true N}B
/@rhi{10 div/rhi X/rhiSeen true N}B/@llx{/llx X}B/@lly{/lly X}B/@urx{
/urx X}B/@ury{/ury X}B/magscale true def end/@MacSetUp{userdict/md known
{userdict/md get type/dicttype eq{userdict begin md length 10 add md
maxlength ge{/md md dup length 20 add dict copy def}if end md begin
/letter{}N/note{}N/legal{}N/od{txpose 1 0 mtx defaultmatrix dtransform S
atan/pa X newpath clippath mark{transform{itransform moveto}}{transform{
itransform lineto}}{6 -2 roll transform 6 -2 roll transform 6 -2 roll
transform{itransform 6 2 roll itransform 6 2 roll itransform 6 2 roll
curveto}}{{closepath}}pathforall newpath counttomark array astore/gc xdf
pop ct 39 0 put 10 fz 0 fs 2 F/|______Courier fnt invertflag{PaintBlack}
if}N/txpose{pxs pys scale ppr aload pop por{noflips{pop S neg S TR pop 1
-1 scale}if xflip yflip and{pop S neg S TR 180 rotate 1 -1 scale ppr 3
get ppr 1 get neg sub neg ppr 2 get ppr 0 get neg sub neg TR}if xflip
yflip not and{pop S neg S TR pop 180 rotate ppr 3 get ppr 1 get neg sub
neg 0 TR}if yflip xflip not and{ppr 1 get neg ppr 0 get neg TR}if}{
noflips{TR pop pop 270 rotate 1 -1 scale}if xflip yflip and{TR pop pop
90 rotate 1 -1 scale ppr 3 get ppr 1 get neg sub neg ppr 2 get ppr 0 get
neg sub neg TR}if xflip yflip not and{TR pop pop 90 rotate ppr 3 get ppr
1 get neg sub neg 0 TR}if yflip xflip not and{TR pop pop 270 rotate ppr
2 get ppr 0 get neg sub neg 0 S TR}if}ifelse scaleby96{ppr aload pop 4
-1 roll add 2 div 3 1 roll add 2 div 2 copy TR .96 dup scale neg S neg S
TR}if}N/cp{pop pop showpage pm restore}N end}if}if}N/normalscale{
Resolution 72 div VResolution 72 div neg scale magscale{DVImag dup scale
}if 0 setgray}N/psfts{S 65781.76 div N}N/startTexFig{/psf$SavedState
save N userdict maxlength dict begin/magscale true def normalscale
currentpoint TR/psf$ury psfts/psf$urx psfts/psf$lly psfts/psf$llx psfts
/psf$y psfts/psf$x psfts currentpoint/psf$cy X/psf$cx X/psf$sx psf$x
psf$urx psf$llx sub div N/psf$sy psf$y psf$ury psf$lly sub div N psf$sx
psf$sy scale psf$cx psf$sx div psf$llx sub psf$cy psf$sy div psf$ury sub
TR/showpage{}N/erasepage{}N/setpagedevice{pop}N/copypage{}N/p 3 def
@MacSetUp}N/doclip{psf$llx psf$lly psf$urx psf$ury currentpoint 6 2 roll
newpath 4 copy 4 2 roll moveto 6 -1 roll S lineto S lineto S lineto
closepath clip newpath moveto}N/endTexFig{end psf$SavedState restore}N
/@beginspecial{SDict begin/SpecialSave save N gsave normalscale
currentpoint TR @SpecialDefaults count/ocount X/dcount countdictstack N}
N/@setspecial{CLIP 1 eq{newpath 0 0 moveto hs 0 rlineto 0 vs rlineto hs
neg 0 rlineto closepath clip}if ho vo TR hsc vsc scale ang rotate
rwiSeen{rwi urx llx sub div rhiSeen{rhi ury lly sub div}{dup}ifelse
scale llx neg lly neg TR}{rhiSeen{rhi ury lly sub div dup scale llx neg
lly neg TR}if}ifelse CLIP 2 eq{newpath llx lly moveto urx lly lineto urx
ury lineto llx ury lineto closepath clip}if/showpage{}N/erasepage{}N
/setpagedevice{pop}N/copypage{}N newpath}N/@endspecial{count ocount sub{
pop}repeat countdictstack dcount sub{end}repeat grestore SpecialSave
restore end}N/@defspecial{SDict begin}N/@fedspecial{end}B/li{lineto}B
/rl{rlineto}B/rc{rcurveto}B/np{/SaveX currentpoint/SaveY X N 1
setlinecap newpath}N/st{stroke SaveX SaveY moveto}N/fil{fill SaveX SaveY
moveto}N/ellipse{/endangle X/startangle X/yrad X/xrad X/savematrix
matrix currentmatrix N TR xrad yrad scale 0 0 1 startangle endangle arc
savematrix setmatrix}N end
%%EndProcSet
%%BeginProcSet: color.pro 0 0
%!
TeXDict begin/setcmykcolor where{pop}{/setcmykcolor{dup 10 eq{pop
setrgbcolor}{1 sub 4 1 roll 3{3 index add neg dup 0 lt{pop 0}if 3 1 roll
}repeat setrgbcolor pop}ifelse}B}ifelse/TeXcolorcmyk{setcmykcolor}def
/TeXcolorrgb{setrgbcolor}def/TeXcolorgrey{setgray}def/TeXcolorgray{
setgray}def/TeXcolorhsb{sethsbcolor}def/currentcmykcolor where{pop}{
/currentcmykcolor{currentrgbcolor 10}B}ifelse/DC{exch dup userdict exch
known{pop pop}{X}ifelse}B/GreenYellow{0.15 0 0.69 0 setcmykcolor}DC
/Yellow{0 0 1 0 setcmykcolor}DC/Goldenrod{0 0.10 0.84 0 setcmykcolor}DC
/Dandelion{0 0.29 0.84 0 setcmykcolor}DC/Apricot{0 0.32 0.52 0
setcmykcolor}DC/Peach{0 0.50 0.70 0 setcmykcolor}DC/Melon{0 0.46 0.50 0
setcmykcolor}DC/YellowOrange{0 0.42 1 0 setcmykcolor}DC/Orange{0 0.61
0.87 0 setcmykcolor}DC/BurntOrange{0 0.51 1 0 setcmykcolor}DC
/Bittersweet{0 0.75 1 0.24 setcmykcolor}DC/RedOrange{0 0.77 0.87 0
setcmykcolor}DC/Mahogany{0 0.85 0.87 0.35 setcmykcolor}DC/Maroon{0 0.87
0.68 0.32 setcmykcolor}DC/BrickRed{0 0.89 0.94 0.28 setcmykcolor}DC/Red{
0 1 1 0 setcmykcolor}DC/OrangeRed{0 1 0.50 0 setcmykcolor}DC/RubineRed{
0 1 0.13 0 setcmykcolor}DC/WildStrawberry{0 0.96 0.39 0 setcmykcolor}DC
/Salmon{0 0.53 0.38 0 setcmykcolor}DC/CarnationPink{0 0.63 0 0
setcmykcolor}DC/Magenta{0 1 0 0 setcmykcolor}DC/VioletRed{0 0.81 0 0
setcmykcolor}DC/Rhodamine{0 0.82 0 0 setcmykcolor}DC/Mulberry{0.34 0.90
0 0.02 setcmykcolor}DC/RedViolet{0.07 0.90 0 0.34 setcmykcolor}DC
/Fuchsia{0.47 0.91 0 0.08 setcmykcolor}DC/Lavender{0 0.48 0 0
setcmykcolor}DC/Thistle{0.12 0.59 0 0 setcmykcolor}DC/Orchid{0.32 0.64 0
0 setcmykcolor}DC/DarkOrchid{0.40 0.80 0.20 0 setcmykcolor}DC/Purple{
0.45 0.86 0 0 setcmykcolor}DC/Plum{0.50 1 0 0 setcmykcolor}DC/Violet{
0.79 0.88 0 0 setcmykcolor}DC/RoyalPurple{0.75 0.90 0 0 setcmykcolor}DC
/BlueViolet{0.86 0.91 0 0.04 setcmykcolor}DC/Periwinkle{0.57 0.55 0 0
setcmykcolor}DC/CadetBlue{0.62 0.57 0.23 0 setcmykcolor}DC
/CornflowerBlue{0.65 0.13 0 0 setcmykcolor}DC/MidnightBlue{0.98 0.13 0
0.43 setcmykcolor}DC/NavyBlue{0.94 0.54 0 0 setcmykcolor}DC/RoyalBlue{1
0.50 0 0 setcmykcolor}DC/Blue{1 1 0 0 setcmykcolor}DC/Cerulean{0.94 0.11
0 0 setcmykcolor}DC/Cyan{1 0 0 0 setcmykcolor}DC/ProcessBlue{0.96 0 0 0
setcmykcolor}DC/SkyBlue{0.62 0 0.12 0 setcmykcolor}DC/Turquoise{0.85 0
0.20 0 setcmykcolor}DC/TealBlue{0.86 0 0.34 0.02 setcmykcolor}DC
/Aquamarine{0.82 0 0.30 0 setcmykcolor}DC/BlueGreen{0.85 0 0.33 0
setcmykcolor}DC/Emerald{1 0 0.50 0 setcmykcolor}DC/JungleGreen{0.99 0
0.52 0 setcmykcolor}DC/SeaGreen{0.69 0 0.50 0 setcmykcolor}DC/Green{1 0
1 0 setcmykcolor}DC/ForestGreen{0.91 0 0.88 0.12 setcmykcolor}DC
/PineGreen{0.92 0 0.59 0.25 setcmykcolor}DC/LimeGreen{0.50 0 1 0
setcmykcolor}DC/YellowGreen{0.44 0 0.74 0 setcmykcolor}DC/SpringGreen{
0.26 0 0.76 0 setcmykcolor}DC/OliveGreen{0.64 0 0.95 0.40 setcmykcolor}
DC/RawSienna{0 0.72 1 0.45 setcmykcolor}DC/Sepia{0 0.83 1 0.70
setcmykcolor}DC/Brown{0 0.81 1 0.60 setcmykcolor}DC/Tan{0.14 0.42 0.56 0
setcmykcolor}DC/Gray{0 0 0 0.50 setcmykcolor}DC/Black{0 0 0 1
setcmykcolor}DC/White{0 0 0 0 setcmykcolor}DC end
%%EndProcSet
TeXDict begin 40258437 52099154 1000 8000 8000 (fig2ps-env04_ffa.dvi)
@start end
%%EndProlog
%%BeginSetup
%%Feature: *Resolution 8000dpi
TeXDict begin
 end
%%EndSetup
TeXDict begin 1 0 bop Black Black 8524 102029 a @beginspecial
0 @llx 0 @lly 866 @urx 866 @ury 8660 @rwi @setspecial
%%BeginDocument: fig2ps-env04_ffa.pstex
%!PS-Adobe-3.0 EPSF-3.0
%%Title: fig2ps-env04_ffa.fig2
%%Creator: fig2dev Version 3.2 Patchlevel 5e
%%CreationDate: Sun Jan  6 02:04:14 2019
%%BoundingBox: 0 0 866 866
%Magnification: 1.0000
%%EndComments
%%BeginProlog
/$F2psDict 200 dict def
$F2psDict begin
$F2psDict /mtrx matrix put
/col-1 {0 setgray} bind def
/col0 {0.000 0.000 0.000 srgb} bind def
/col1 {0.000 0.000 1.000 srgb} bind def
/col2 {0.000 1.000 0.000 srgb} bind def
/col3 {0.000 1.000 1.000 srgb} bind def
/col4 {1.000 0.000 0.000 srgb} bind def
/col5 {1.000 0.000 1.000 srgb} bind def
/col6 {1.000 1.000 0.000 srgb} bind def
/col7 {1.000 1.000 1.000 srgb} bind def
/col8 {0.000 0.000 0.560 srgb} bind def
/col9 {0.000 0.000 0.690 srgb} bind def
/col10 {0.000 0.000 0.820 srgb} bind def
/col11 {0.530 0.810 1.000 srgb} bind def
/col12 {0.000 0.560 0.000 srgb} bind def
/col13 {0.000 0.690 0.000 srgb} bind def
/col14 {0.000 0.820 0.000 srgb} bind def
/col15 {0.000 0.560 0.560 srgb} bind def
/col16 {0.000 0.690 0.690 srgb} bind def
/col17 {0.000 0.820 0.820 srgb} bind def
/col18 {0.560 0.000 0.000 srgb} bind def
/col19 {0.690 0.000 0.000 srgb} bind def
/col20 {0.820 0.000 0.000 srgb} bind def
/col21 {0.560 0.000 0.560 srgb} bind def
/col22 {0.690 0.000 0.690 srgb} bind def
/col23 {0.820 0.000 0.820 srgb} bind def
/col24 {0.500 0.190 0.000 srgb} bind def
/col25 {0.630 0.250 0.000 srgb} bind def
/col26 {0.750 0.380 0.000 srgb} bind def
/col27 {1.000 0.500 0.500 srgb} bind def
/col28 {1.000 0.630 0.630 srgb} bind def
/col29 {1.000 0.750 0.750 srgb} bind def
/col30 {1.000 0.880 0.880 srgb} bind def
/col31 {1.000 0.840 0.000 srgb} bind def
/col32 {0.306 0.773 0.925 srgb} bind def
/col33 {0.498 0.000 0.000 srgb} bind def
/col34 {0.498 0.122 0.122 srgb} bind def
/col35 {0.624 0.871 0.945 srgb} bind def
/col36 {0.698 0.698 0.698 srgb} bind def
/col37 {0.749 0.000 0.000 srgb} bind def
end
/cp {closepath} bind def
/ef {eofill} bind def
/gr {grestore} bind def
/gs {gsave} bind def
/sa {save} bind def
/rs {restore} bind def
/l {lineto} bind def
/m {moveto} bind def
/rm {rmoveto} bind def
/n {newpath} bind def
/s {stroke} bind def
/sh {show} bind def
/slc {setlinecap} bind def
/slj {setlinejoin} bind def
/slw {setlinewidth} bind def
/srgb {setrgbcolor} bind def
/rot {rotate} bind def
/sc {scale} bind def
/sd {setdash} bind def
/ff {findfont} bind def
/sf {setfont} bind def
/scf {scalefont} bind def
/sw {stringwidth} bind def
/tr {translate} bind def
/tnt {dup dup currentrgbcolor
  4 -2 roll dup 1 exch sub 3 -1 roll mul add
  4 -2 roll dup 1 exch sub 3 -1 roll mul add
  4 -2 roll dup 1 exch sub 3 -1 roll mul add srgb}
  bind def
/shd {dup dup currentrgbcolor 4 -2 roll mul 4 -2 roll mul
  4 -2 roll mul srgb} bind def
 /DrawEllipse {
	/endangle exch def
	/startangle exch def
	/yrad exch def
	/xrad exch def
	/y exch def
	/x exch def
	/savematrix mtrx currentmatrix def
	x y tr xrad yrad sc 0 0 1 startangle endangle arc
	closepath
	savematrix setmatrix
	} def
/$F2psBegin {$F2psDict begin /$F2psEnteredState save def} def
/$F2psEnd {$F2psEnteredState restore end} def
/pageheader {
save
newpath 0 866 moveto 0 0 lineto 866 0 lineto 866 866 lineto closepath clip newpath
72.7 72.7 translate
1 -1 scale
$F2psBegin
10 setmiterlimit
0 slj 0 slc
 0.06000 0.06000 sc
} bind def
/pagefooter {
$F2psEnd
restore
} bind def
%%EndProlog
pageheader
%
% Fig objects follow
%
% 
% here starts figure with depth 50
% Polyline
1 slj
0 slc
7.500 slw
n -1200 1200 m -1200 -13200 l 13200 -13200 l 13200 1200 l
 cp gs 0.00 setgray ef gr gs col0 s gr 
% Polyline
n 0 0 m 0 -12000 l 12000 -12000 l 12000 0 l
 cp gs col7 1.00 shd ef gr gs col7 s gr 
% Polyline
n 253 -11746 m 2003 -11746 l 2003 -253 l 253 -253 l
 cp gs col36 1.00 shd ef gr gs col36 s gr 
% Polyline
n 2026 -7301 m 2072 -7209 l 2234 -7047 l 2257 -7047 l 2280 -7024 l 2303 -7024 l
 2349 -6978 l 2372 -6978 l 2395 -6955 l 2441 -6955 l 2464 -6932 l
 2487 -6932 l 2510 -6909 l 2533 -6909 l 2556 -6886 l 2602 -6886 l
 2625 -6863 l 2671 -6863 l 2694 -6840 l 2740 -6840 l 2763 -6817 l
 2833 -6817 l 2856 -6794 l 2902 -6794 l 2925 -6771 l 2994 -6771 l
 3017 -6748 l 3109 -6748 l 3132 -6725 l 3224 -6725 l 3247 -6702 l
 3362 -6702 l 3385 -6679 l 3500 -6679 l 3523 -6656 l 3685 -6656 l
 3708 -6633 l 3915 -6633 l 3938 -6610 l 4307 -6610 l 4330 -6587 l
 4998 -6587 l 5021 -6610 l 5389 -6610 l 5412 -6633 l 5619 -6633 l
 5642 -6656 l 5642 -253 l 2026 -253 l
 cp gs col36 1.00 shd ef gr gs col36 s gr 
% Polyline
n 5666 -6656 m 5804 -6656 l 5827 -6679 l 5942 -6679 l 5965 -6702 l 6080 -6702 l
 6103 -6725 l 6195 -6725 l 6218 -6748 l 6310 -6748 l 6333 -6771 l
 6403 -6771 l 6426 -6794 l 6472 -6794 l 6495 -6817 l 6564 -6817 l
 6587 -6840 l 6633 -6840 l 6656 -6863 l 6702 -6863 l 6725 -6886 l
 6771 -6886 l 6794 -6909 l 6817 -6909 l 6840 -6932 l 6863 -6932 l
 6886 -6955 l 6932 -6955 l 6955 -6978 l 6978 -6978 l 7024 -7024 l
 7047 -7024 l 7071 -7047 l 7094 -7047 l 7255 -7209 l 7301 -7301 l
 7301 -3938 l 7278 -3915 l 7094 -3915 l 7071 -3892 l 6932 -3892 l
 6909 -3869 l 6794 -3869 l 6771 -3846 l 6679 -3846 l 6656 -3823 l
 6587 -3823 l 6564 -3800 l 6495 -3800 l 6472 -3777 l 6403 -3777 l
 6380 -3754 l 6333 -3754 l 6310 -3731 l 6264 -3731 l 6241 -3708 l
 6195 -3708 l 6172 -3685 l 6149 -3685 l 6126 -3662 l 6103 -3662 l
 6080 -3639 l 6057 -3639 l 6034 -3616 l 6011 -3616 l 5988 -3593 l
 5965 -3593 l 5942 -3570 l 5919 -3570 l 5873 -3523 l 5850 -3523 l
 5712 -3385 l 5689 -3339 l 5666 -3270 l
 cp gs col36 1.00 shd ef gr gs col36 s gr 
% Polyline
n 2026 -11746 m 7301 -11746 l 7301 -7416 l 7255 -7508 l 7094 -7669 l 7071 -7669 l
 7047 -7692 l 7024 -7692 l 6978 -7738 l 6955 -7738 l 6932 -7761 l
 6886 -7761 l 6863 -7785 l 6840 -7785 l 6817 -7808 l 6794 -7808 l
 6771 -7831 l 6725 -7831 l 6702 -7854 l 6656 -7854 l 6633 -7877 l
 6587 -7877 l 6564 -7900 l 6495 -7900 l 6472 -7923 l 6426 -7923 l
 6403 -7946 l 6333 -7946 l 6310 -7969 l 6218 -7969 l 6195 -7992 l
 6103 -7992 l 6080 -8015 l 5965 -8015 l 5942 -8038 l 5827 -8038 l
 5804 -8061 l 5642 -8061 l 5619 -8084 l 5412 -8084 l 5389 -8107 l
 5021 -8107 l 4998 -8130 l 4330 -8130 l 4307 -8107 l 3938 -8107 l
 3915 -8084 l 3708 -8084 l 3685 -8061 l 3523 -8061 l 3500 -8038 l
 3385 -8038 l 3362 -8015 l 3247 -8015 l 3224 -7992 l 3132 -7992 l
 3109 -7969 l 3017 -7969 l 2994 -7946 l 2925 -7946 l 2902 -7923 l
 2856 -7923 l 2833 -7900 l 2763 -7900 l 2740 -7877 l 2694 -7877 l
 2671 -7854 l 2625 -7854 l 2602 -7831 l 2556 -7831 l 2533 -7808 l
 2510 -7808 l 2487 -7785 l 2464 -7785 l 2441 -7761 l 2395 -7761 l
 2372 -7738 l 2349 -7738 l 2303 -7692 l 2280 -7692 l 2257 -7669 l
 2234 -7669 l 2072 -7508 l 2026 -7416 l
 cp gs col36 1.00 shd ef gr gs col36 s gr 
% Polyline
n 5666 -3178 m 5689 -3109 l 5712 -3063 l 5850 -2925 l 5873 -2925 l 5919 -2879 l
 5942 -2879 l 5965 -2856 l 5988 -2856 l 6011 -2833 l 6034 -2833 l
 6057 -2809 l 6080 -2809 l 6103 -2786 l 6126 -2786 l 6149 -2763 l
 6172 -2763 l 6195 -2740 l 6241 -2740 l 6264 -2717 l 6310 -2717 l
 6333 -2694 l 6380 -2694 l 6403 -2671 l 6472 -2671 l 6495 -2648 l
 6564 -2648 l 6587 -2625 l 6656 -2625 l 6679 -2602 l 6771 -2602 l
 6794 -2579 l 6909 -2579 l 6932 -2556 l 7071 -2556 l 7094 -2533 l
 7278 -2533 l 7301 -2510 l 7600 -2510 l 7623 -2487 l 8222 -2487 l
 8245 -2510 l 8545 -2510 l 8568 -2533 l 8752 -2533 l 8775 -2556 l
 8913 -2556 l 8936 -2579 l 9051 -2579 l 9074 -2602 l 9166 -2602 l
 9190 -2625 l 9259 -2625 l 9282 -2648 l 9351 -2648 l 9374 -2671 l
 9443 -2671 l 9466 -2694 l 9512 -2694 l 9535 -2717 l 9581 -2717 l
 9604 -2740 l 9650 -2740 l 9673 -2763 l 9696 -2763 l 9719 -2786 l
 9742 -2786 l 9765 -2809 l 9788 -2809 l 9811 -2833 l 9834 -2833 l
 9857 -2856 l 9880 -2856 l 9904 -2879 l 9927 -2879 l 9973 -2925 l
 9996 -2925 l 10134 -3063 l 10157 -3109 l 10180 -3178 l 10180 -253 l
 5666 -253 l
 cp gs col36 1.00 shd ef gr gs col36 s gr 
% Polyline
n 7324 -11746 m 10180 -11746 l 10180 -3270 l 10157 -3339 l 10134 -3385 l 9996 -3523 l
 9973 -3523 l 9927 -3570 l 9904 -3570 l 9880 -3593 l 9857 -3593 l
 9834 -3616 l 9811 -3616 l 9788 -3639 l 9765 -3639 l 9742 -3662 l
 9719 -3662 l 9696 -3685 l 9673 -3685 l 9650 -3708 l 9604 -3708 l
 9581 -3731 l 9535 -3731 l 9512 -3754 l 9466 -3754 l 9443 -3777 l
 9374 -3777 l 9351 -3800 l 9282 -3800 l 9259 -3823 l 9190 -3823 l
 9166 -3846 l 9074 -3846 l 9051 -3869 l 8936 -3869 l 8913 -3892 l
 8775 -3892 l 8752 -3915 l 8568 -3915 l 8545 -3938 l 8245 -3938 l
 8222 -3961 l 7623 -3961 l 7600 -3938 l 7324 -3938 l
 cp gs col36 1.00 shd ef gr gs col36 s gr 
% Polyline
n 10203 -11746 m 11746 -11746 l 11746 -253 l 10203 -253 l
 cp gs col36 1.00 shd ef gr gs col36 s gr 
% Polyline
n 253 -11746 m 472 -11746 l 472 -253 l 253 -253 l
 cp gs col32 1.00 shd ef gr gs col32 s gr 
% Polyline
n 472 -11746 m 690 -11746 l 690 -253 l 472 -253 l
 cp gs col35 1.00 shd ef gr gs col35 s gr 
% Polyline
n 690 -11746 m 909 -11746 l 909 -253 l 690 -253 l
 cp gs col32 1.00 shd ef gr gs col32 s gr 
% Polyline
n 909 -11746 m 1128 -11746 l 1128 -253 l 909 -253 l
 cp gs col35 1.00 shd ef gr gs col35 s gr 
% Polyline
n 1128 -11746 m 1347 -11746 l 1347 -253 l 1128 -253 l
 cp gs col32 1.00 shd ef gr gs col32 s gr 
% Polyline
n 1347 -11746 m 1566 -11746 l 1566 -253 l 1347 -253 l
 cp gs col35 1.00 shd ef gr gs col35 s gr 
% Polyline
n 1566 -11746 m 1785 -11746 l 1785 -253 l 1566 -253 l
 cp gs col32 1.00 shd ef gr gs col32 s gr 
% Polyline
n 1785 -11746 m 2003 -11746 l 2003 -253 l 1785 -253 l
 cp gs col35 1.00 shd ef gr gs col35 s gr 
% Polyline
n 2026 -7301 m 2252 -7047 l 2252 -253 l 2026 -253 l
 cp gs col32 1.00 shd ef gr gs col32 s gr 
% Polyline
n 2252 -7047 m 2478 -6932 l 2478 -253 l 2252 -253 l
 cp gs col35 1.00 shd ef gr gs col35 s gr 
% Polyline
n 2478 -6932 m 2704 -6840 l 2704 -253 l 2478 -253 l
 cp gs col32 1.00 shd ef gr gs col32 s gr 
% Polyline
n 2704 -6840 m 2930 -6771 l 2930 -253 l 2704 -253 l
 cp gs col35 1.00 shd ef gr gs col35 s gr 
% Polyline
n 2930 -6771 m 3156 -6725 l 3156 -253 l 2930 -253 l
 cp gs col32 1.00 shd ef gr gs col32 s gr 
% Polyline
n 3156 -6725 m 3382 -6682 l 3382 -253 l 3156 -253 l
 cp gs col35 1.00 shd ef gr gs col35 s gr 
% Polyline
n 3382 -6682 m 3608 -6656 l 3608 -253 l 3382 -253 l
 cp gs col32 1.00 shd ef gr gs col32 s gr 
% Polyline
n 3608 -6656 m 3834 -6633 l 3834 -253 l 3608 -253 l
 cp gs col35 1.00 shd ef gr gs col35 s gr 
% Polyline
n 3834 -6633 m 4060 -6610 l 4060 -253 l 3834 -253 l
 cp gs col32 1.00 shd ef gr gs col32 s gr 
% Polyline
n 4060 -6610 m 4286 -6610 l 4286 -253 l 4060 -253 l
 cp gs col35 1.00 shd ef gr gs col35 s gr 
% Polyline
n 4286 -6610 m 4512 -6587 l 4512 -253 l 4286 -253 l
 cp gs col32 1.00 shd ef gr gs col32 s gr 
% Polyline
n 4512 -6587 m 4738 -6587 l 4738 -253 l 4512 -253 l
 cp gs col35 1.00 shd ef gr gs col35 s gr 
% Polyline
n 4738 -6587 m 4964 -6587 l 4964 -253 l 4738 -253 l
 cp gs col32 1.00 shd ef gr gs col32 s gr 
% Polyline
n 4964 -6587 m 5190 -6610 l 5190 -253 l 4964 -253 l
 cp gs col35 1.00 shd ef gr gs col35 s gr 
% Polyline
n 5190 -6610 m 5416 -6633 l 5416 -253 l 5190 -253 l
 cp gs col32 1.00 shd ef gr gs col32 s gr 
% Polyline
n 5416 -6633 m 5642 -6656 l 5642 -253 l 5416 -253 l
 cp gs col35 1.00 shd ef gr gs col35 s gr 
% Polyline
n 5666 -6656 m 5870 -6679 l 5870 -3523 l 5666 -3270 l
 cp gs col32 1.00 shd ef gr gs col32 s gr 
% Polyline
n 5870 -6679 m 6074 -6702 l 6074 -3639 l 5870 -3523 l
 cp gs col35 1.00 shd ef gr gs col35 s gr 
% Polyline
n 6074 -6702 m 6279 -6748 l 6279 -3731 l 6074 -3639 l
 cp gs col32 1.00 shd ef gr gs col32 s gr 
% Polyline
n 6279 -6748 m 6483 -6806 l 6483 -3788 l 6279 -3731 l
 cp gs col35 1.00 shd ef gr gs col35 s gr 
% Polyline
n 6483 -6806 m 6688 -6863 l 6688 -3846 l 6483 -3788 l
 cp gs col32 1.00 shd ef gr gs col32 s gr 
% Polyline
n 6688 -6863 m 6892 -6955 l 6892 -3869 l 6688 -3846 l
 cp gs col35 1.00 shd ef gr gs col35 s gr 
% Polyline
n 6892 -6955 m 7096 -7050 l 7096 -3915 l 6892 -3869 l
 cp gs col32 1.00 shd ef gr gs col32 s gr 
% Polyline
n 7096 -7050 m 7301 -7301 l 7301 -3938 l 7096 -3915 l
 cp gs col35 1.00 shd ef gr gs col35 s gr 
% Polyline
n 2026 -11746 m 2256 -11746 l 2256 -7669 l 2026 -7416 l
 cp gs col32 1.00 shd ef gr gs col32 s gr 
% Polyline
n 2256 -11746 m 2485 -11746 l 2485 -7785 l 2256 -7669 l
 cp gs col35 1.00 shd ef gr gs col35 s gr 
% Polyline
n 2485 -11746 m 2714 -11746 l 2714 -7877 l 2485 -7785 l
 cp gs col32 1.00 shd ef gr gs col32 s gr 
% Polyline
n 2714 -11746 m 2944 -11746 l 2944 -7946 l 2714 -7877 l
 cp gs col35 1.00 shd ef gr gs col35 s gr 
% Polyline
n 2944 -11746 m 3173 -11746 l 3173 -7992 l 2944 -7946 l
 cp gs col32 1.00 shd ef gr gs col32 s gr 
% Polyline
n 3173 -11746 m 3402 -11746 l 3402 -8038 l 3173 -7992 l
 cp gs col35 1.00 shd ef gr gs col35 s gr 
% Polyline
n 3402 -11746 m 3632 -11746 l 3632 -8061 l 3402 -8038 l
 cp gs col32 1.00 shd ef gr gs col32 s gr 
% Polyline
n 3632 -11746 m 3861 -11746 l 3861 -8084 l 3632 -8061 l
 cp gs col35 1.00 shd ef gr gs col35 s gr 
% Polyline
n 3861 -11746 m 4090 -11746 l 4090 -8107 l 3861 -8084 l
 cp gs col32 1.00 shd ef gr gs col32 s gr 
% Polyline
n 4090 -11746 m 4320 -11746 l 4320 -8120 l 4090 -8107 l
 cp gs col35 1.00 shd ef gr gs col35 s gr 
% Polyline
n 4320 -11746 m 4549 -11746 l 4549 -8130 l 4320 -8120 l
 cp gs col32 1.00 shd ef gr gs col32 s gr 
% Polyline
n 4549 -11746 m 4778 -11746 l 4778 -8130 l 4549 -8130 l
 cp gs col35 1.00 shd ef gr gs col35 s gr 
% Polyline
n 4778 -11746 m 5008 -11746 l 5008 -8120 l 4778 -8130 l
 cp gs col32 1.00 shd ef gr gs col32 s gr 
% Polyline
n 5008 -11746 m 5237 -11746 l 5237 -8107 l 5008 -8120 l
 cp gs col35 1.00 shd ef gr gs col35 s gr 
% Polyline
n 5237 -11746 m 5466 -11746 l 5466 -8084 l 5237 -8107 l
 cp gs col32 1.00 shd ef gr gs col32 s gr 
% Polyline
n 5466 -11746 m 5696 -11746 l 5696 -8061 l 5466 -8084 l
 cp gs col35 1.00 shd ef gr gs col35 s gr 
% Polyline
n 5696 -11746 m 5925 -11746 l 5925 -8038 l 5696 -8061 l
 cp gs col32 1.00 shd ef gr gs col32 s gr 
% Polyline
n 5925 -11746 m 6154 -11746 l 6154 -7992 l 5925 -8038 l
 cp gs col35 1.00 shd ef gr gs col35 s gr 
% Polyline
n 6154 -11746 m 6384 -11746 l 6384 -7946 l 6154 -7992 l
 cp gs col32 1.00 shd ef gr gs col32 s gr 
% Polyline
n 6384 -11746 m 6613 -11746 l 6613 -7877 l 6384 -7946 l
 cp gs col35 1.00 shd ef gr gs col35 s gr 
% Polyline
n 6613 -11746 m 6842 -11746 l 6842 -7785 l 6613 -7877 l
 cp gs col32 1.00 shd ef gr gs col32 s gr 
% Polyline
n 6842 -11746 m 7072 -11746 l 7072 -7669 l 6842 -7785 l
 cp gs col35 1.00 shd ef gr gs col35 s gr 
% Polyline
n 7072 -11746 m 7301 -11746 l 7301 -7416 l 7072 -7669 l
 cp gs col32 1.00 shd ef gr gs col32 s gr 
% Polyline
n 5666 -3178 m 5891 -2906 l 5891 -253 l 5666 -253 l
 cp gs col35 1.00 shd ef gr gs col35 s gr 
% Polyline
n 5891 -2906 m 6117 -2786 l 6117 -253 l 5891 -253 l
 cp gs col32 1.00 shd ef gr gs col32 s gr 
% Polyline
n 6117 -2786 m 6343 -2694 l 6343 -253 l 6117 -253 l
 cp gs col35 1.00 shd ef gr gs col35 s gr 
% Polyline
n 6343 -2694 m 6568 -2644 l 6568 -253 l 6343 -253 l
 cp gs col32 1.00 shd ef gr gs col32 s gr 
% Polyline
n 6568 -2644 m 6794 -2579 l 6794 -253 l 6568 -253 l
 cp gs col35 1.00 shd ef gr gs col35 s gr 
% Polyline
n 6794 -2579 m 7020 -2556 l 7020 -253 l 6794 -253 l
 cp gs col32 1.00 shd ef gr gs col32 s gr 
% Polyline
n 7020 -2556 m 7246 -2533 l 7246 -253 l 7020 -253 l
 cp gs col35 1.00 shd ef gr gs col35 s gr 
% Polyline
n 7246 -2533 m 7471 -2510 l 7471 -253 l 7246 -253 l
 cp gs col32 1.00 shd ef gr gs col32 s gr 
% Polyline
n 7471 -2510 m 7697 -2487 l 7697 -253 l 7471 -253 l
 cp gs col35 1.00 shd ef gr gs col35 s gr 
% Polyline
n 7697 -2487 m 7923 -2487 l 7923 -253 l 7697 -253 l
 cp gs col32 1.00 shd ef gr gs col32 s gr 
% Polyline
n 7923 -2487 m 8148 -2487 l 8148 -253 l 7923 -253 l
 cp gs col35 1.00 shd ef gr gs col35 s gr 
% Polyline
n 8148 -2487 m 8374 -2510 l 8374 -253 l 8148 -253 l
 cp gs col32 1.00 shd ef gr gs col32 s gr 
% Polyline
n 8374 -2510 m 8600 -2533 l 8600 -253 l 8374 -253 l
 cp gs col35 1.00 shd ef gr gs col35 s gr 
% Polyline
n 8600 -2533 m 8826 -2556 l 8826 -253 l 8600 -253 l
 cp gs col32 1.00 shd ef gr gs col32 s gr 
% Polyline
n 8826 -2556 m 9051 -2579 l 9051 -253 l 8826 -253 l
 cp gs col35 1.00 shd ef gr gs col35 s gr 
% Polyline
n 9051 -2579 m 9277 -2644 l 9277 -253 l 9051 -253 l
 cp gs col32 1.00 shd ef gr gs col32 s gr 
% Polyline
n 9277 -2644 m 9503 -2694 l 9503 -253 l 9277 -253 l
 cp gs col35 1.00 shd ef gr gs col35 s gr 
% Polyline
n 9503 -2694 m 9728 -2786 l 9728 -253 l 9503 -253 l
 cp gs col32 1.00 shd ef gr gs col32 s gr 
% Polyline
n 9728 -2786 m 9954 -2906 l 9954 -253 l 9728 -253 l
 cp gs col35 1.00 shd ef gr gs col35 s gr 
% Polyline
n 9954 -2906 m 10180 -3178 l 10180 -253 l 9954 -253 l
 cp gs col32 1.00 shd ef gr gs col32 s gr 
% Polyline
n 7324 -11746 m 7544 -11746 l 7544 -3938 l 7324 -3938 l
 cp gs col35 1.00 shd ef gr gs col35 s gr 
% Polyline
n 7544 -11746 m 7763 -11746 l 7763 -3961 l 7544 -3938 l
 cp gs col32 1.00 shd ef gr gs col32 s gr 
% Polyline
n 7763 -11746 m 7983 -11746 l 7983 -3961 l 7763 -3961 l
 cp gs col35 1.00 shd ef gr gs col35 s gr 
% Polyline
n 7983 -11746 m 8203 -11746 l 8203 -3961 l 7983 -3961 l
 cp gs col32 1.00 shd ef gr gs col32 s gr 
% Polyline
n 8203 -11746 m 8422 -11746 l 8422 -3938 l 8203 -3961 l
 cp gs col35 1.00 shd ef gr gs col35 s gr 
% Polyline
n 8422 -11746 m 8642 -11746 l 8642 -3915 l 8422 -3938 l
 cp gs col32 1.00 shd ef gr gs col32 s gr 
% Polyline
n 8642 -11746 m 8862 -11746 l 8862 -3892 l 8642 -3915 l
 cp gs col35 1.00 shd ef gr gs col35 s gr 
% Polyline
n 8862 -11746 m 9081 -11746 l 9081 -3846 l 8862 -3892 l
 cp gs col32 1.00 shd ef gr gs col32 s gr 
% Polyline
n 9081 -11746 m 9301 -11746 l 9301 -3800 l 9081 -3846 l
 cp gs col35 1.00 shd ef gr gs col35 s gr 
% Polyline
n 9301 -11746 m 9521 -11746 l 9521 -3745 l 9301 -3800 l
 cp gs col32 1.00 shd ef gr gs col32 s gr 
% Polyline
n 9521 -11746 m 9741 -11746 l 9741 -3662 l 9521 -3745 l
 cp gs col35 1.00 shd ef gr gs col35 s gr 
% Polyline
n 9741 -11746 m 9960 -11746 l 9960 -3536 l 9741 -3662 l
 cp gs col32 1.00 shd ef gr gs col32 s gr 
% Polyline
n 9960 -11746 m 10180 -11746 l 10180 -3270 l 9960 -3536 l
 cp gs col35 1.00 shd ef gr gs col35 s gr 
% Polyline
n 10203 -11746 m 10423 -11746 l 10423 -253 l 10203 -253 l
 cp gs col32 1.00 shd ef gr gs col32 s gr 
% Polyline
n 10423 -11746 m 10644 -11746 l 10644 -253 l 10423 -253 l
 cp gs col35 1.00 shd ef gr gs col35 s gr 
% Polyline
n 10644 -11746 m 10864 -11746 l 10864 -253 l 10644 -253 l
 cp gs col32 1.00 shd ef gr gs col32 s gr 
% Polyline
n 10864 -11746 m 11085 -11746 l 11085 -253 l 10864 -253 l
 cp gs col35 1.00 shd ef gr gs col35 s gr 
% Polyline
n 11085 -11746 m 11305 -11746 l 11305 -253 l 11085 -253 l
 cp gs col32 1.00 shd ef gr gs col32 s gr 
% Polyline
n 11305 -11746 m 11526 -11746 l 11526 -253 l 11305 -253 l
 cp gs col35 1.00 shd ef gr gs col35 s gr 
% Polyline
n 11526 -11746 m 11746 -11746 l 11746 -253 l 11526 -253 l
 cp gs col32 1.00 shd ef gr gs col32 s gr 
% Ellipse
n 4205 -8107 115 115 0 360 DrawEllipse gs col4 1.00 shd ef gr gs col4 s gr
% Polyline
n 253 -11746 m 2003 -11746 l 2003 -253 l 253 -253 l
 cp gs col0 s gr 
% Polyline
n 2026 -7301 m 2072 -7209 l 2234 -7047 l 2257 -7047 l 2280 -7024 l 2303 -7024 l
 2349 -6978 l 2372 -6978 l 2395 -6955 l 2441 -6955 l 2464 -6932 l
 2487 -6932 l 2510 -6909 l 2533 -6909 l 2556 -6886 l 2602 -6886 l
 2625 -6863 l 2671 -6863 l 2694 -6840 l 2740 -6840 l 2763 -6817 l
 2833 -6817 l 2856 -6794 l 2902 -6794 l 2925 -6771 l 2994 -6771 l
 3017 -6748 l 3109 -6748 l 3132 -6725 l 3224 -6725 l 3247 -6702 l
 3362 -6702 l 3385 -6679 l 3500 -6679 l 3523 -6656 l 3685 -6656 l
 3708 -6633 l 3915 -6633 l 3938 -6610 l 4307 -6610 l 4330 -6587 l
 4998 -6587 l 5021 -6610 l 5389 -6610 l 5412 -6633 l 5619 -6633 l
 5642 -6656 l 5642 -253 l 2026 -253 l
 cp gs col0 s gr 
% Polyline
n 5666 -6656 m 5804 -6656 l 5827 -6679 l 5942 -6679 l 5965 -6702 l 6080 -6702 l
 6103 -6725 l 6195 -6725 l 6218 -6748 l 6310 -6748 l 6333 -6771 l
 6403 -6771 l 6426 -6794 l 6472 -6794 l 6495 -6817 l 6564 -6817 l
 6587 -6840 l 6633 -6840 l 6656 -6863 l 6702 -6863 l 6725 -6886 l
 6771 -6886 l 6794 -6909 l 6817 -6909 l 6840 -6932 l 6863 -6932 l
 6886 -6955 l 6932 -6955 l 6955 -6978 l 6978 -6978 l 7024 -7024 l
 7047 -7024 l 7071 -7047 l 7094 -7047 l 7255 -7209 l 7301 -7301 l
 7301 -3938 l 7278 -3915 l 7094 -3915 l 7071 -3892 l 6932 -3892 l
 6909 -3869 l 6794 -3869 l 6771 -3846 l 6679 -3846 l 6656 -3823 l
 6587 -3823 l 6564 -3800 l 6495 -3800 l 6472 -3777 l 6403 -3777 l
 6380 -3754 l 6333 -3754 l 6310 -3731 l 6264 -3731 l 6241 -3708 l
 6195 -3708 l 6172 -3685 l 6149 -3685 l 6126 -3662 l 6103 -3662 l
 6080 -3639 l 6057 -3639 l 6034 -3616 l 6011 -3616 l 5988 -3593 l
 5965 -3593 l 5942 -3570 l 5919 -3570 l 5873 -3523 l 5850 -3523 l
 5712 -3385 l 5689 -3339 l 5666 -3270 l
 cp gs col0 s gr 
% Polyline
n 2026 -11746 m 7301 -11746 l 7301 -7416 l 7255 -7508 l 7094 -7669 l 7071 -7669 l
 7047 -7692 l 7024 -7692 l 6978 -7738 l 6955 -7738 l 6932 -7761 l
 6886 -7761 l 6863 -7785 l 6840 -7785 l 6817 -7808 l 6794 -7808 l
 6771 -7831 l 6725 -7831 l 6702 -7854 l 6656 -7854 l 6633 -7877 l
 6587 -7877 l 6564 -7900 l 6495 -7900 l 6472 -7923 l 6426 -7923 l
 6403 -7946 l 6333 -7946 l 6310 -7969 l 6218 -7969 l 6195 -7992 l
 6103 -7992 l 6080 -8015 l 5965 -8015 l 5942 -8038 l 5827 -8038 l
 5804 -8061 l 5642 -8061 l 5619 -8084 l 5412 -8084 l 5389 -8107 l
 5021 -8107 l 4998 -8130 l 4330 -8130 l 4307 -8107 l 3938 -8107 l
 3915 -8084 l 3708 -8084 l 3685 -8061 l 3523 -8061 l 3500 -8038 l
 3385 -8038 l 3362 -8015 l 3247 -8015 l 3224 -7992 l 3132 -7992 l
 3109 -7969 l 3017 -7969 l 2994 -7946 l 2925 -7946 l 2902 -7923 l
 2856 -7923 l 2833 -7900 l 2763 -7900 l 2740 -7877 l 2694 -7877 l
 2671 -7854 l 2625 -7854 l 2602 -7831 l 2556 -7831 l 2533 -7808 l
 2510 -7808 l 2487 -7785 l 2464 -7785 l 2441 -7761 l 2395 -7761 l
 2372 -7738 l 2349 -7738 l 2303 -7692 l 2280 -7692 l 2257 -7669 l
 2234 -7669 l 2072 -7508 l 2026 -7416 l
 cp gs col0 s gr 
% Polyline
n 5666 -3178 m 5689 -3109 l 5712 -3063 l 5850 -2925 l 5873 -2925 l 5919 -2879 l
 5942 -2879 l 5965 -2856 l 5988 -2856 l 6011 -2833 l 6034 -2833 l
 6057 -2809 l 6080 -2809 l 6103 -2786 l 6126 -2786 l 6149 -2763 l
 6172 -2763 l 6195 -2740 l 6241 -2740 l 6264 -2717 l 6310 -2717 l
 6333 -2694 l 6380 -2694 l 6403 -2671 l 6472 -2671 l 6495 -2648 l
 6564 -2648 l 6587 -2625 l 6656 -2625 l 6679 -2602 l 6771 -2602 l
 6794 -2579 l 6909 -2579 l 6932 -2556 l 7071 -2556 l 7094 -2533 l
 7278 -2533 l 7301 -2510 l 7600 -2510 l 7623 -2487 l 8222 -2487 l
 8245 -2510 l 8545 -2510 l 8568 -2533 l 8752 -2533 l 8775 -2556 l
 8913 -2556 l 8936 -2579 l 9051 -2579 l 9074 -2602 l 9166 -2602 l
 9190 -2625 l 9259 -2625 l 9282 -2648 l 9351 -2648 l 9374 -2671 l
 9443 -2671 l 9466 -2694 l 9512 -2694 l 9535 -2717 l 9581 -2717 l
 9604 -2740 l 9650 -2740 l 9673 -2763 l 9696 -2763 l 9719 -2786 l
 9742 -2786 l 9765 -2809 l 9788 -2809 l 9811 -2833 l 9834 -2833 l
 9857 -2856 l 9880 -2856 l 9904 -2879 l 9927 -2879 l 9973 -2925 l
 9996 -2925 l 10134 -3063 l 10157 -3109 l 10180 -3178 l 10180 -253 l
 5666 -253 l
 cp gs col0 s gr 
% Polyline
n 7324 -11746 m 10180 -11746 l 10180 -3270 l 10157 -3339 l 10134 -3385 l 9996 -3523 l
 9973 -3523 l 9927 -3570 l 9904 -3570 l 9880 -3593 l 9857 -3593 l
 9834 -3616 l 9811 -3616 l 9788 -3639 l 9765 -3639 l 9742 -3662 l
 9719 -3662 l 9696 -3685 l 9673 -3685 l 9650 -3708 l 9604 -3708 l
 9581 -3731 l 9535 -3731 l 9512 -3754 l 9466 -3754 l 9443 -3777 l
 9374 -3777 l 9351 -3800 l 9282 -3800 l 9259 -3823 l 9190 -3823 l
 9166 -3846 l 9074 -3846 l 9051 -3869 l 8936 -3869 l 8913 -3892 l
 8775 -3892 l 8752 -3915 l 8568 -3915 l 8545 -3938 l 8245 -3938 l
 8222 -3961 l 7623 -3961 l 7600 -3938 l 7324 -3938 l
 cp gs col0 s gr 
% Polyline
n 10203 -11746 m 11746 -11746 l 11746 -253 l 10203 -253 l
 cp gs col0 s gr 
% Polyline
n 253 -11746 m 472 -11746 l 472 -253 l 253 -253 l
 cp gs col0 s gr 
% Polyline
n 472 -11746 m 690 -11746 l 690 -253 l 472 -253 l
 cp gs col0 s gr 
% Polyline
n 690 -11746 m 909 -11746 l 909 -253 l 690 -253 l
 cp gs col0 s gr 
% Polyline
n 909 -11746 m 1128 -11746 l 1128 -253 l 909 -253 l
 cp gs col0 s gr 
% Polyline
n 1128 -11746 m 1347 -11746 l 1347 -253 l 1128 -253 l
 cp gs col0 s gr 
% Polyline
n 1347 -11746 m 1566 -11746 l 1566 -253 l 1347 -253 l
 cp gs col0 s gr 
% Polyline
n 1566 -11746 m 1785 -11746 l 1785 -253 l 1566 -253 l
 cp gs col0 s gr 
% Polyline
n 1785 -11746 m 2003 -11746 l 2003 -253 l 1785 -253 l
 cp gs col0 s gr 
% Polyline
n 2026 -7301 m 2252 -7047 l 2252 -253 l 2026 -253 l
 cp gs col0 s gr 
% Polyline
n 2252 -7047 m 2478 -6932 l 2478 -253 l 2252 -253 l
 cp gs col0 s gr 
% Polyline
n 2478 -6932 m 2704 -6840 l 2704 -253 l 2478 -253 l
 cp gs col0 s gr 
% Polyline
n 2704 -6840 m 2930 -6771 l 2930 -253 l 2704 -253 l
 cp gs col0 s gr 
% Polyline
n 2930 -6771 m 3156 -6725 l 3156 -253 l 2930 -253 l
 cp gs col0 s gr 
% Polyline
n 3156 -6725 m 3382 -6682 l 3382 -253 l 3156 -253 l
 cp gs col0 s gr 
% Polyline
n 3382 -6682 m 3608 -6656 l 3608 -253 l 3382 -253 l
 cp gs col0 s gr 
% Polyline
n 3608 -6656 m 3834 -6633 l 3834 -253 l 3608 -253 l
 cp gs col0 s gr 
% Polyline
n 3834 -6633 m 4060 -6610 l 4060 -253 l 3834 -253 l
 cp gs col0 s gr 
% Polyline
n 4060 -6610 m 4286 -6610 l 4286 -253 l 4060 -253 l
 cp gs col0 s gr 
% Polyline
n 4286 -6610 m 4512 -6587 l 4512 -253 l 4286 -253 l
 cp gs col0 s gr 
% Polyline
n 4512 -6587 m 4738 -6587 l 4738 -253 l 4512 -253 l
 cp gs col0 s gr 
% Polyline
n 4738 -6587 m 4964 -6587 l 4964 -253 l 4738 -253 l
 cp gs col0 s gr 
% Polyline
n 4964 -6587 m 5190 -6610 l 5190 -253 l 4964 -253 l
 cp gs col0 s gr 
% Polyline
n 5190 -6610 m 5416 -6633 l 5416 -253 l 5190 -253 l
 cp gs col0 s gr 
% Polyline
n 5416 -6633 m 5642 -6656 l 5642 -253 l 5416 -253 l
 cp gs col0 s gr 
% Polyline
n 5666 -6656 m 5870 -6679 l 5870 -3523 l 5666 -3270 l
 cp gs col0 s gr 
% Polyline
n 5870 -6679 m 6074 -6702 l 6074 -3639 l 5870 -3523 l
 cp gs col0 s gr 
% Polyline
n 6074 -6702 m 6279 -6748 l 6279 -3731 l 6074 -3639 l
 cp gs col0 s gr 
% Polyline
n 6279 -6748 m 6483 -6806 l 6483 -3788 l 6279 -3731 l
 cp gs col0 s gr 
% Polyline
n 6483 -6806 m 6688 -6863 l 6688 -3846 l 6483 -3788 l
 cp gs col0 s gr 
% Polyline
n 6688 -6863 m 6892 -6955 l 6892 -3869 l 6688 -3846 l
 cp gs col0 s gr 
% Polyline
n 6892 -6955 m 7096 -7050 l 7096 -3915 l 6892 -3869 l
 cp gs col0 s gr 
% Polyline
n 7096 -7050 m 7301 -7301 l 7301 -3938 l 7096 -3915 l
 cp gs col0 s gr 
% Polyline
n 2026 -11746 m 2256 -11746 l 2256 -7669 l 2026 -7416 l
 cp gs col0 s gr 
% Polyline
n 2256 -11746 m 2485 -11746 l 2485 -7785 l 2256 -7669 l
 cp gs col0 s gr 
% Polyline
n 2485 -11746 m 2714 -11746 l 2714 -7877 l 2485 -7785 l
 cp gs col0 s gr 
% Polyline
n 2714 -11746 m 2944 -11746 l 2944 -7946 l 2714 -7877 l
 cp gs col0 s gr 
% Polyline
n 2944 -11746 m 3173 -11746 l 3173 -7992 l 2944 -7946 l
 cp gs col0 s gr 
% Polyline
n 3173 -11746 m 3402 -11746 l 3402 -8038 l 3173 -7992 l
 cp gs col0 s gr 
% Polyline
n 3402 -11746 m 3632 -11746 l 3632 -8061 l 3402 -8038 l
 cp gs col0 s gr 
% Polyline
n 3632 -11746 m 3861 -11746 l 3861 -8084 l 3632 -8061 l
 cp gs col0 s gr 
% Polyline
n 3861 -11746 m 4090 -11746 l 4090 -8107 l 3861 -8084 l
 cp gs col0 s gr 
% Polyline
n 4090 -11746 m 4320 -11746 l 4320 -8120 l 4090 -8107 l
 cp gs col0 s gr 
% Polyline
n 4320 -11746 m 4549 -11746 l 4549 -8130 l 4320 -8120 l
 cp gs col0 s gr 
% Polyline
n 4549 -11746 m 4778 -11746 l 4778 -8130 l 4549 -8130 l
 cp gs col0 s gr 
% Polyline
n 4778 -11746 m 5008 -11746 l 5008 -8120 l 4778 -8130 l
 cp gs col0 s gr 
% Polyline
n 5008 -11746 m 5237 -11746 l 5237 -8107 l 5008 -8120 l
 cp gs col0 s gr 
% Polyline
n 5237 -11746 m 5466 -11746 l 5466 -8084 l 5237 -8107 l
 cp gs col0 s gr 
% Polyline
n 5466 -11746 m 5696 -11746 l 5696 -8061 l 5466 -8084 l
 cp gs col0 s gr 
% Polyline
n 5696 -11746 m 5925 -11746 l 5925 -8038 l 5696 -8061 l
 cp gs col0 s gr 
% Polyline
n 5925 -11746 m 6154 -11746 l 6154 -7992 l 5925 -8038 l
 cp gs col0 s gr 
% Polyline
n 6154 -11746 m 6384 -11746 l 6384 -7946 l 6154 -7992 l
 cp gs col0 s gr 
% Polyline
n 6384 -11746 m 6613 -11746 l 6613 -7877 l 6384 -7946 l
 cp gs col0 s gr 
% Polyline
n 6613 -11746 m 6842 -11746 l 6842 -7785 l 6613 -7877 l
 cp gs col0 s gr 
% Polyline
n 6842 -11746 m 7072 -11746 l 7072 -7669 l 6842 -7785 l
 cp gs col0 s gr 
% Polyline
n 7072 -11746 m 7301 -11746 l 7301 -7416 l 7072 -7669 l
 cp gs col0 s gr 
% Polyline
n 5666 -3178 m 5891 -2906 l 5891 -253 l 5666 -253 l
 cp gs col0 s gr 
% Polyline
n 5891 -2906 m 6117 -2786 l 6117 -253 l 5891 -253 l
 cp gs col0 s gr 
% Polyline
n 6117 -2786 m 6343 -2694 l 6343 -253 l 6117 -253 l
 cp gs col0 s gr 
% Polyline
n 6343 -2694 m 6568 -2644 l 6568 -253 l 6343 -253 l
 cp gs col0 s gr 
% Polyline
n 6568 -2644 m 6794 -2579 l 6794 -253 l 6568 -253 l
 cp gs col0 s gr 
% Polyline
n 6794 -2579 m 7020 -2556 l 7020 -253 l 6794 -253 l
 cp gs col0 s gr 
% Polyline
n 7020 -2556 m 7246 -2533 l 7246 -253 l 7020 -253 l
 cp gs col0 s gr 
% Polyline
n 7246 -2533 m 7471 -2510 l 7471 -253 l 7246 -253 l
 cp gs col0 s gr 
% Polyline
n 7471 -2510 m 7697 -2487 l 7697 -253 l 7471 -253 l
 cp gs col0 s gr 
% Polyline
n 7697 -2487 m 7923 -2487 l 7923 -253 l 7697 -253 l
 cp gs col0 s gr 
% Polyline
n 7923 -2487 m 8148 -2487 l 8148 -253 l 7923 -253 l
 cp gs col0 s gr 
% Polyline
n 8148 -2487 m 8374 -2510 l 8374 -253 l 8148 -253 l
 cp gs col0 s gr 
% Polyline
n 8374 -2510 m 8600 -2533 l 8600 -253 l 8374 -253 l
 cp gs col0 s gr 
% Polyline
n 8600 -2533 m 8826 -2556 l 8826 -253 l 8600 -253 l
 cp gs col0 s gr 
% Polyline
n 8826 -2556 m 9051 -2579 l 9051 -253 l 8826 -253 l
 cp gs col0 s gr 
% Polyline
n 9051 -2579 m 9277 -2644 l 9277 -253 l 9051 -253 l
 cp gs col0 s gr 
% Polyline
n 9277 -2644 m 9503 -2694 l 9503 -253 l 9277 -253 l
 cp gs col0 s gr 
% Polyline
n 9503 -2694 m 9728 -2786 l 9728 -253 l 9503 -253 l
 cp gs col0 s gr 
% Polyline
n 9728 -2786 m 9954 -2906 l 9954 -253 l 9728 -253 l
 cp gs col0 s gr 
% Polyline
n 9954 -2906 m 10180 -3178 l 10180 -253 l 9954 -253 l
 cp gs col0 s gr 
% Polyline
n 7324 -11746 m 7544 -11746 l 7544 -3938 l 7324 -3938 l
 cp gs col0 s gr 
% Polyline
n 7544 -11746 m 7763 -11746 l 7763 -3961 l 7544 -3938 l
 cp gs col0 s gr 
% Polyline
n 7763 -11746 m 7983 -11746 l 7983 -3961 l 7763 -3961 l
 cp gs col0 s gr 
% Polyline
n 7983 -11746 m 8203 -11746 l 8203 -3961 l 7983 -3961 l
 cp gs col0 s gr 
% Polyline
n 8203 -11746 m 8422 -11746 l 8422 -3938 l 8203 -3961 l
 cp gs col0 s gr 
% Polyline
n 8422 -11746 m 8642 -11746 l 8642 -3915 l 8422 -3938 l
 cp gs col0 s gr 
% Polyline
n 8642 -11746 m 8862 -11746 l 8862 -3892 l 8642 -3915 l
 cp gs col0 s gr 
% Polyline
n 8862 -11746 m 9081 -11746 l 9081 -3846 l 8862 -3892 l
 cp gs col0 s gr 
% Polyline
n 9081 -11746 m 9301 -11746 l 9301 -3800 l 9081 -3846 l
 cp gs col0 s gr 
% Polyline
n 9301 -11746 m 9521 -11746 l 9521 -3745 l 9301 -3800 l
 cp gs col0 s gr 
% Polyline
n 9521 -11746 m 9741 -11746 l 9741 -3662 l 9521 -3745 l
 cp gs col0 s gr 
% Polyline
n 9741 -11746 m 9960 -11746 l 9960 -3536 l 9741 -3662 l
 cp gs col0 s gr 
% Polyline
n 9960 -11746 m 10180 -11746 l 10180 -3270 l 9960 -3536 l
 cp gs col0 s gr 
% Polyline
n 10203 -11746 m 10423 -11746 l 10423 -253 l 10203 -253 l
 cp gs col0 s gr 
% Polyline
n 10423 -11746 m 10644 -11746 l 10644 -253 l 10423 -253 l
 cp gs col0 s gr 
% Polyline
n 10644 -11746 m 10864 -11746 l 10864 -253 l 10644 -253 l
 cp gs col0 s gr 
% Polyline
n 10864 -11746 m 11085 -11746 l 11085 -253 l 10864 -253 l
 cp gs col0 s gr 
% Polyline
n 11085 -11746 m 11305 -11746 l 11305 -253 l 11085 -253 l
 cp gs col0 s gr 
% Polyline
n 11305 -11746 m 11526 -11746 l 11526 -253 l 11305 -253 l
 cp gs col0 s gr 
% Polyline
n 11526 -11746 m 11746 -11746 l 11746 -253 l 11526 -253 l
 cp gs col0 s gr 
% Polyline
n 4205 -8104 m 4207 -8058 l 4212 -8012 l 4393 -6705 l 4393 -6702 l 4398 -6656 l
 4399 -6610 l 4399 -253 l 4400 -244 l 4402 -198 l 4407 -152 l
 4415 -107 l 4426 -62 l 4440 -18 l 4457 23 l 4477 65 l
 4500 105 l 4525 144 l 4553 180 l 4583 215 l 4615 248 l
 4650 278 l 4686 307 l 4725 332 l 4764 355 l 4806 376 l
 4848 393 l 4892 408 l 4936 420 l 4982 429 l 5027 434 l
 5073 437 l 5119 437 l 5165 433 l 5211 427 l 5256 417 l
 5300 404 l 5344 389 l 5386 371 l 5427 350 l 5466 326 l
 5504 300 l 5540 271 l 5574 240 l 5606 206 l 5635 171 l
 5662 134 l 5687 95 l 5709 54 l 5728 12 l 5744 -30 l
 5758 -74 l 5768 -119 l 5776 -164 l 5780 -210 l 5781 -256 l
 5768 -3267 l 5768 -3270 l 5768 -6679 l 5768 -6686 l 5766 -6732 l
 5761 -6777 l 5753 -6823 l 5742 -6867 l 5728 -6911 l 5392 -7852 l
 5390 -7858 l 5376 -7902 l 5365 -7947 l 5358 -7992 l 5353 -8038 l
 5352 -8084 l 5352 -11746 l 5350 -11792 l 5350 -11796 l 5349 -11842 l
 5350 -11888 l 5355 -11934 l 5363 -11980 l 5374 -12024 l 5388 -12068 l
 5405 -12111 l 5425 -12153 l 5447 -12193 l 5472 -12232 l 5500 -12269 l
 5530 -12304 l 5562 -12337 l 5596 -12367 l 5633 -12396 l 5671 -12421 l
 5710 -12445 l 5752 -12465 l 5794 -12483 l 5838 -12498 l 5882 -12510 l
 5927 -12519 l 5973 -12525 l 6019 -12528 l 6065 -12528 l 6111 -12525 l
 6157 -12518 l 6202 -12509 l 6246 -12497 l 6289 -12481 l 6332 -12463 l
 6373 -12442 l 6412 -12419 l 6450 -12393 l 6486 -12364 l 6521 -12333 l
 6553 -12300 l 6582 -12265 l 6610 -12228 l 6634 -12189 l 6656 -12149 l
 6676 -12107 l 6692 -12064 l 6706 -12020 l 6717 -11975 l 6724 -11930 l
 6729 -11884 l 6731 -11838 l 6729 -11792 l 6728 -11746 l 6728 -7785 l
 6727 -7755 l 6723 -7709 l 6717 -7664 l 6596 -6984 l 6592 -6955 l
 6587 -6909 l 6585 -6863 l 6585 -3788 l 6586 -3773 l 6588 -3727 l
 6679 -2705 l 6680 -2690 l 6681 -2644 l 6681 -253 l 6681 -227 l
 6678 -181 l 6671 -135 l 6662 -90 l 6650 -46 l 6634 -2 l
 6616 39 l 6595 80 l 6572 119 l 6546 157 l 6517 193 l
 6486 228 l 6453 260 l 6418 289 l 6380 316 l 6342 341 l
 6301 363 l 6259 383 l 6216 399 l 6172 413 l 6128 423 l
 6082 431 l 6036 436 l 5990 437 l 5768 437 l 5743 437 l
 5697 433 l 5651 427 l 5606 418 l 5562 405 l 5518 390 l
 5476 372 l 5435 351 l 5395 328 l 5357 301 l 5321 273 l
 5287 242 l 5255 209 l 5225 173 l 5198 136 l 5173 97 l
 5151 57 l 5132 15 l 5116 -27 l 5102 -71 l 5091 -116 l
 5084 -161 l 5079 -207 l 5077 -253 l 5077 -6610 l 5077 -6627 l
 5075 -6673 l 5069 -6719 l 5060 -6764 l 5048 -6809 l 5033 -6853 l
 5016 -6895 l 4995 -6936 l 4972 -6976 l 4947 -7014 l 4918 -7051 l
 4888 -7085 l 4855 -7118 l 4820 -7148 l 4783 -7175 l 4745 -7201 l
 4705 -7223 l 4663 -7243 l 4620 -7260 l 4420 -7332 l 4388 -7343 l
 4343 -7355 l 4298 -7364 l 4253 -7370 l 4207 -7373 l 4161 -7372 l
 4115 -7369 l 4069 -7363 l 4024 -7353 l 3979 -7341 l 3936 -7326 l
 3894 -7308 l 3853 -7287 l 3813 -7263 l 3775 -7237 l 3739 -7208 l
 3705 -7178 l 3673 -7144 l 3643 -7109 l 3616 -7072 l 3591 -7033 l
 3569 -6993 l 3550 -6951 l 3533 -6908 l 3520 -6864 l 3509 -6819 l
 3502 -6774 l 3497 -6728 l 3495 -6682 l 3495 -253 l 3495 -250 l
 3494 -204 l 3489 -158 l 3488 -148 l 3483 -102 l 3483 -56 l
 3485 -10 l 3490 35 l 3498 80 l 3509 125 l 3523 169 l
 3540 212 l 3560 253 l 3583 293 l 3608 332 l 3636 369 l
 3666 404 l 3698 436 l 3732 467 l 3769 495 l 3807 521 l
 3847 544 l 3888 564 l 3931 582 l 3974 597 l 4019 608 l
 4064 617 l 4110 623 l 4156 626 l 4202 625 l 4248 622 l
 4293 615 l 4338 606 l 4383 593 l 4426 578 l 4468 560 l
 4509 539 l 4549 515 l 4587 489 l 4623 460 l 4657 429 l
 4689 396 l 4718 360 l 4745 323 l 4770 284 l 4792 244 l
 4811 202 l 4827 159 l 4841 115 l 4851 70 l 4859 24 l
 4863 -21 l 4864 -67 l 4863 -113 l 4858 -158 l 4858 -161 l
 4853 -207 l 4851 -253 l 4851 -6587 l 4850 -6630 l 4846 -6675 l
 4669 -8041 l 4665 -8084 l 4664 -8130 l 4664 -11746 l 4665 -11792 l
 4665 -11796 l 4667 -11842 l 4665 -11888 l 4660 -11934 l 4652 -11980 l
 4641 -12024 l 4627 -12068 l 4610 -12111 l 4590 -12153 l 4568 -12193 l
 4543 -12232 l 4515 -12269 l 4485 -12304 l 4453 -12337 l 4419 -12367 l
 4383 -12396 l 4345 -12421 l 4305 -12445 l 4264 -12465 l 4221 -12483 l
 4178 -12498 l 4133 -12510 l 4088 -12519 l 4042 -12525 l 3996 -12528 l
 3950 -12528 l 3904 -12525 l 3859 -12518 l 3814 -12509 l 3769 -12497 l
 3726 -12481 l 3683 -12463 l 3642 -12442 l 3603 -12419 l 3565 -12393 l
 3529 -12364 l 3495 -12333 l 3463 -12300 l 3433 -12265 l 3406 -12228 l
 3381 -12189 l 3359 -12149 l 3339 -12107 l 3323 -12064 l 3309 -12020 l
 3299 -11975 l 3291 -11930 l 3286 -11884 l 3285 -11838 l 3286 -11792 l
 3288 -11746 l 3288 -7992 l 3288 -7982 l 3269 -6735 l 3269 -6725 l
 3269 -253 l 3269 -227 l 3266 -181 l 3259 -135 l 3250 -90 l
 3238 -46 l 3222 -2 l 3204 39 l 3183 80 l 3160 119 l
 3134 157 l 3105 193 l 3074 228 l 3041 260 l 3006 289 l
 2969 316 l 2930 341 l 2889 363 l 2848 383 l 2805 399 l
 2761 413 l 2716 423 l 2670 431 l 2624 436 l 2578 437 l
 1710 437 l 1684 437 l 1638 433 l 1592 427 l 1547 418 l
 1503 405 l 1459 390 l 1417 372 l 1376 351 l 1336 328 l
 1298 301 l 1262 273 l 1228 242 l 1196 209 l 1167 173 l
 1139 136 l 1115 97 l 1093 57 l 1073 15 l 1057 -27 l
 1043 -71 l 1032 -116 l 1025 -161 l 1020 -207 l 1019 -253 l
 1019 -11746 l 1019 -11756 l 1016 -11802 l 1011 -11848 l 1008 -11874 l
 1004 -11920 l 1004 -11966 l 1006 -12012 l 1012 -12058 l 1021 -12103 l
 1032 -12148 l 1047 -12191 l 1064 -12234 l 1085 -12275 l 1108 -12315 l
 1133 -12353 l 1162 -12390 l 1192 -12424 l 1225 -12457 l 1259 -12487 l
 1296 -12515 l 1335 -12540 l 1375 -12563 l 1416 -12583 l 1459 -12600 l
 1503 -12614 l 1548 -12625 l 1593 -12634 l 1639 -12639 l 1685 -12641 l
 1731 -12640 l 1777 -12636 l 1822 -12629 l 1867 -12619 l 1911 -12606 l
 1954 -12590 l 1997 -12572 l 2037 -12550 l 2076 -12526 l 2114 -12499 l
 2150 -12470 l 2183 -12439 l 2215 -12405 l 2244 -12369 l 2271 -12332 l
 2295 -12293 l 2316 -12252 l 2335 -12210 l 2351 -12167 l 2364 -12122 l
 2374 -12077 l 2381 -12032 l 2385 -11986 l 2385 -11940 l 2383 -11894 l
 2378 -11848 l 2376 -11838 l 2372 -11792 l 2370 -11746 l 2370 -7669 l
 2370 -7664 l 2365 -7053 l 2365 -7047 l 2365 -253 l 2365 -227 l
 2362 -181 l 2355 -135 l 2346 -90 l 2334 -46 l 2318 -2 l
 2300 39 l 2279 80 l 2256 119 l 2230 157 l 2201 193 l
 2170 228 l 2137 260 l 2102 289 l 2065 316 l 2026 341 l
 1985 363 l 1943 383 l 1900 399 l 1856 413 l 1812 423 l
 1766 431 l 1720 436 l 1674 437 l 1491 437 l 1465 437 l
 1419 433 l 1373 427 l 1328 418 l 1284 405 l 1240 390 l
 1198 372 l 1157 351 l 1118 328 l 1080 301 l 1044 273 l
 1009 242 l 978 209 l 948 173 l 921 136 l 896 97 l
 874 57 l 854 15 l 838 -27 l 824 -71 l 814 -116 l
 806 -161 l 801 -207 l 800 -253 l 800 -11746 l 800 -11772 l
 804 -11818 l 810 -11864 l 819 -11909 l 832 -11953 l 847 -11997 l
 865 -12039 l 886 -12080 l 909 -12119 l 936 -12157 l 964 -12193 l
 995 -12228 l 1028 -12260 l 1064 -12289 l 1101 -12316 l 1140 -12341 l
 1180 -12363 l 1222 -12383 l 1265 -12399 l 1309 -12413 l 1354 -12423 l
 1399 -12431 l 1445 -12436 l 1491 -12437 l 1909 -12437 l 1935 -12437 l
 1981 -12433 l 2026 -12427 l 2071 -12418 l 2116 -12405 l 2159 -12390 l
 2201 -12372 l 2242 -12351 l 2282 -12328 l 2320 -12301 l 2356 -12273 l
 2390 -12242 l 2422 -12209 l 2452 -12173 l 2479 -12136 l 2504 -12097 l
 2526 -12057 l 2545 -12015 l 2562 -11972 l 2575 -11928 l 2586 -11883 l
 2594 -11838 l 2598 -11792 l 2600 -11746 l 2600 -7785 l 2600 -7778 l
 2591 -6939 l 2591 -6932 l 2591 -253 l 2592 -227 l 2595 -181 l
 2601 -135 l 2611 -90 l 2623 -46 l 2638 -2 l 2656 39 l
 2677 80 l 2701 119 l 2727 157 l 2756 193 l 2787 228 l
 2820 260 l 2855 289 l 2892 316 l 2931 341 l 2971 363 l
 3013 383 l 3056 399 l 3100 413 l 3145 423 l 3191 431 l
 3236 436 l 3282 437 l 3482 437 l 3508 437 l 3554 433 l
 3600 427 l 3645 418 l 3689 405 l 3733 390 l 3775 372 l
 3816 351 l 3856 328 l 3894 301 l 3930 273 l 3964 242 l
 3996 209 l 4025 173 l 4053 136 l 4077 97 l 4100 57 l
 4119 15 l 4135 -27 l 4149 -71 l 4160 -116 l 4167 -161 l
 4172 -207 l 4173 -253 l 4173 -6610 l 4173 -6616 l 4171 -6662 l
 4166 -6708 l 3983 -7986 l 3982 -7992 l 3977 -8038 l 3976 -8084 l
 3976 -11746 l 3975 -11772 l 3972 -11818 l 3966 -11864 l 3956 -11909 l
 3944 -11953 l 3929 -11997 l 3911 -12039 l 3890 -12080 l 3866 -12119 l
 3840 -12157 l 3811 -12193 l 3780 -12228 l 3747 -12260 l 3712 -12289 l
 3675 -12316 l 3636 -12341 l 3596 -12363 l 3554 -12383 l 3511 -12399 l
 3467 -12413 l 3422 -12423 l 3377 -12431 l 3331 -12436 l 3285 -12437 l
 2585 -12437 l 2559 -12437 l 2513 -12433 l 2467 -12427 l 2422 -12418 l
 2378 -12405 l 2335 -12390 l 2292 -12372 l 2251 -12351 l 2212 -12328 l
 2174 -12301 l 2138 -12273 l 2104 -12242 l 2072 -12209 l 2042 -12173 l
 2015 -12136 l 1990 -12097 l 1968 -12057 l 1948 -12015 l 1932 -11972 l
 1918 -11928 l 1908 -11883 l 1900 -11838 l 1895 -11792 l 1894 -11746 l
 1894 -253 l 1894 -236 l 1897 -190 l 1902 -145 l 1911 -99 l
 1919 -61 l 1925 -15 l 1928 30 l 1928 76 l 1925 122 l
 1919 167 l 1910 212 l 1898 257 l 1883 300 l 1865 343 l
 1844 384 l 1821 424 l 1795 462 l 1766 498 l 1736 532 l
 1703 564 l 1668 594 l 1631 621 l 1592 646 l 1552 669 l
 1510 688 l 1467 705 l 1423 719 l 1378 730 l 1333 738 l
 1287 742 l 1241 744 l 1195 743 l 1149 739 l 1104 731 l
 1059 721 l 1015 707 l 972 691 l 930 672 l 889 650 l
 850 626 l 813 598 l 778 569 l 744 537 l 713 503 l
 684 467 l 658 430 l 634 390 l 613 349 l 595 307 l
 579 264 l 567 219 l 557 174 l 551 129 l 547 83 l
 547 37 l 549 -8 l 555 -54 l 564 -99 l 567 -116 l
 575 -161 l 580 -207 l 581 -253 l 581 -11746 l 582 -11772 l
 585 -11818 l 591 -11864 l 600 -11909 l 613 -11953 l 628 -11997 l
 646 -12039 l 667 -12080 l 691 -12119 l 717 -12157 l 745 -12193 l
 776 -12228 l 810 -12260 l 845 -12289 l 882 -12316 l 921 -12341 l
 961 -12363 l 1003 -12383 l 1046 -12399 l 1090 -12413 l 1135 -12423 l
 1180 -12431 l 1226 -12436 l 1272 -12437 l 1450 -12437 l 1476 -12437 l
 1522 -12433 l 1567 -12427 l 1613 -12418 l 1657 -12405 l 1700 -12390 l
 1743 -12372 l 1784 -12351 l 1823 -12328 l 1861 -12301 l 1897 -12273 l
 1931 -12242 l 1963 -12209 l 1993 -12173 l 2020 -12136 l 2045 -12097 l
 2067 -12057 l 2086 -12015 l 2103 -11972 l 2117 -11928 l 2127 -11883 l
 2135 -11838 l 2139 -11792 l 2141 -11746 l 2141 -7416 l 2141 -7405 l
 2139 -7312 l 2139 -7301 l 2139 -253 l 2140 -227 l 2143 -181 l
 2149 -135 l 2159 -90 l 2171 -46 l 2186 -2 l 2204 39 l
 2225 80 l 2249 119 l 2275 157 l 2304 193 l 2335 228 l
 2368 260 l 2403 289 l 2440 316 l 2479 341 l 2519 363 l
 2561 383 l 2604 399 l 2648 413 l 2693 423 l 2738 431 l
 2784 436 l 2830 437 l 3030 437 l 3056 437 l 3102 433 l
 3148 427 l 3193 418 l 3237 405 l 3281 390 l 3323 372 l
 3364 351 l 3404 328 l 3442 301 l 3478 273 l 3512 242 l
 3544 209 l 3573 173 l 3601 136 l 3625 97 l 3648 57 l
 3667 15 l 3683 -27 l 3697 -71 l 3708 -116 l 3715 -161 l
 3720 -207 l 3721 -253 l 3721 -6656 l 3722 -6668 l 3746 -8049 l
 3746 -8061 l 3746 -11746 l 3745 -11792 l 3745 -11796 l 3743 -11842 l
 3745 -11888 l 3750 -11934 l 3758 -11980 l 3769 -12024 l 3783 -12068 l
 3800 -12111 l 3820 -12153 l 3842 -12193 l 3867 -12232 l 3894 -12269 l
 3924 -12304 l 3957 -12337 l 3991 -12367 l 4027 -12396 l 4065 -12421 l
 4105 -12445 l 4146 -12465 l 4189 -12483 l 4232 -12498 l 4277 -12510 l
 4322 -12519 l 4368 -12525 l 4414 -12528 l 4460 -12528 l 4506 -12525 l
 4551 -12518 l 4596 -12509 l 4641 -12497 l 4684 -12481 l 4727 -12463 l
 4768 -12442 l 4807 -12419 l 4845 -12393 l 4881 -12364 l 4915 -12333 l
 4947 -12300 l 4977 -12265 l 5004 -12228 l 5029 -12189 l 5051 -12149 l
 5071 -12107 l 5087 -12064 l 5101 -12020 l 5111 -11975 l 5119 -11930 l
 5124 -11884 l 5125 -11838 l 5124 -11792 l 5122 -11746 l 5122 -8107 l
 5123 -8070 l 5127 -8024 l 5134 -7979 l 5144 -7934 l 5157 -7889 l
 5494 -6873 l 5505 -6838 l 5516 -6793 l 5523 -6748 l 5528 -6702 l
 5529 -6656 l 5529 -253 l 5529 -227 l 5526 -181 l 5519 -135 l
 5510 -90 l 5498 -46 l 5483 -2 l 5464 39 l 5444 80 l
 5420 119 l 5394 157 l 5365 193 l 5334 228 l 5301 260 l
 5266 289 l 5229 316 l 5190 341 l 5149 363 l 5108 383 l
 5065 399 l 5021 413 l 4976 423 l 4930 431 l 4885 436 l
 4839 437 l 4638 437 l 4613 437 l 4567 433 l 4521 427 l
 4476 418 l 4431 405 l 4388 390 l 4346 372 l 4305 351 l
 4265 328 l 4227 301 l 4191 273 l 4157 242 l 4125 209 l
 4095 173 l 4068 136 l 4043 97 l 4021 57 l 4002 15 l
 3985 -27 l 3972 -71 l 3961 -116 l 3954 -161 l 3949 -207 l
 3947 -253 l 3947 -6633 l 3947 -6649 l 3945 -6695 l 3939 -6741 l
 3930 -6786 l 3919 -6830 l 3904 -6874 l 3560 -7797 l 3555 -7812 l
 3541 -7856 l 3531 -7901 l 3523 -7946 l 3519 -7992 l 3517 -8038 l
 3517 -11746 l 3516 -11772 l 3513 -11818 l 3507 -11864 l 3498 -11909 l
 3485 -11953 l 3470 -11997 l 3452 -12039 l 3431 -12080 l 3407 -12119 l
 3381 -12157 l 3353 -12193 l 3322 -12228 l 3289 -12260 l 3253 -12289 l
 3216 -12316 l 3177 -12341 l 3137 -12363 l 3095 -12383 l 3052 -12399 l
 3008 -12413 l 2963 -12423 l 2918 -12431 l 2872 -12436 l 2826 -12437 l
 2366 -12437 l 2340 -12437 l 2294 -12433 l 2249 -12427 l 2204 -12418 l
 2159 -12405 l 2116 -12390 l 2073 -12372 l 2032 -12351 l 1993 -12328 l
 1955 -12301 l 1919 -12273 l 1885 -12242 l 1853 -12209 l 1823 -12173 l
 1796 -12136 l 1771 -12097 l 1749 -12057 l 1730 -12015 l 1713 -11972 l
 1700 -11928 l 1689 -11883 l 1681 -11838 l 1677 -11792 l 1675 -11746 l
 1675 -253 l 1675 -236 l 1678 -190 l 1684 -145 l 1692 -99 l
 1700 -61 l 1706 -15 l 1709 30 l 1709 76 l 1706 122 l
 1700 167 l 1691 212 l 1679 257 l 1664 300 l 1646 343 l
 1625 384 l 1602 424 l 1576 462 l 1548 498 l 1517 532 l
 1484 564 l 1449 594 l 1412 621 l 1373 646 l 1333 669 l
 1291 688 l 1248 705 l 1204 719 l 1159 730 l 1114 738 l
 1068 742 l 1022 744 l 976 743 l 930 739 l 885 731 l
 840 721 l 796 707 l 753 691 l 711 672 l 670 650 l
 631 626 l 594 598 l 559 569 l 525 537 l 494 503 l
 466 467 l 439 430 l 415 390 l 394 349 l 376 307 l
 360 264 l 348 219 l 338 174 l 332 129 l 328 83 l
 328 37 l 331 -8 l 336 -54 l 345 -99 l 348 -116 l
 356 -161 l 361 -207 l 362 -253 l 362 -11746 l 361 -11788 l
 357 -11834 l 349 -11879 l 339 -11924 l 326 -11968 l 309 -12011 l
 290 -12053 l 272 -12093 l 256 -12136 l 242 -12180 l 232 -12224 l
 224 -12270 l 220 -12316 l 218 -12362 l 220 -12408 l 225 -12454 l
 232 -12499 l 243 -12544 l 257 -12588 l 273 -12631 l 293 -12672 l
 315 -12713 l 340 -12752 l 367 -12789 l 397 -12824 l 429 -12857 l
 463 -12888 l 499 -12916 l 537 -12942 l 577 -12966 l 618 -12987 l
 660 -13005 l 704 -13020 l 748 -13032 l 793 -13041 l 839 -13048 l
 885 -13051 l 931 -13051 l 977 -13048 l 1023 -13042 l 1068 -13033 l
 1112 -13021 l 1156 -13006 l 1198 -12988 l 1239 -12967 l 1279 -12944 l
 1317 -12918 l 1353 -12890 l 1388 -12859 l 1420 -12826 l 1450 -12791 l
 1477 -12754 l 1502 -12715 l 1524 -12675 l 1544 -12633 l 1561 -12590 l
 1575 -12546 l 1586 -12502 l 1594 -12456 l 1598 -12411 l 1600 -12365 l
 1599 -12318 l 1595 -12273 l 1587 -12227 l 1577 -12182 l 1564 -12138 l
 1547 -12095 l 1528 -12053 l 1511 -12015 l 1494 -11972 l 1481 -11928 l
 1470 -11883 l 1462 -11838 l 1458 -11792 l 1456 -11746 l 1456 -253 l
 1457 -227 l 1460 -181 l 1466 -135 l 1476 -90 l 1488 -46 l
 1503 -2 l 1521 39 l 1542 80 l 1566 119 l 1592 157 l
 1621 193 l 1652 228 l 1685 260 l 1720 289 l 1757 316 l
 1796 341 l 1836 363 l 1878 383 l 1921 399 l 1965 413 l
 2010 423 l 2055 431 l 2101 436 l 2147 437 l 2352 437 l
 2378 437 l 2424 433 l 2470 427 l 2515 418 l 2559 405 l
 2603 390 l 2645 372 l 2686 351 l 2726 328 l 2764 301 l
 2800 273 l 2834 242 l 2866 209 l 2895 173 l 2923 136 l
 2947 97 l 2970 57 l 2989 15 l 3005 -27 l 3019 -71 l
 3030 -116 l 3037 -161 l 3042 -207 l 3043 -253 l 3043 -6771 l
 3043 -6786 l 3041 -6832 l 3035 -6878 l 3027 -6923 l 2846 -7725 l
 2843 -7739 l 2835 -7785 l 2831 -7831 l 2829 -7877 l 2829 -11746 l
 2829 -11772 l 2825 -11818 l 2819 -11864 l 2810 -11909 l 2797 -11953 l
 2782 -11997 l 2764 -12039 l 2743 -12080 l 2719 -12119 l 2693 -12157 l
 2665 -12193 l 2634 -12228 l 2601 -12260 l 2565 -12289 l 2528 -12316 l
 2489 -12341 l 2449 -12363 l 2407 -12383 l 2364 -12399 l 2320 -12413 l
 2275 -12423 l 2230 -12431 l 2184 -12436 l 2138 -12437 l 1928 -12437 l
 1903 -12437 l 1857 -12433 l 1811 -12427 l 1766 -12418 l 1722 -12405 l
 1678 -12390 l 1636 -12372 l 1595 -12351 l 1555 -12328 l 1517 -12301 l
 1481 -12273 l 1447 -12242 l 1415 -12209 l 1385 -12173 l 1358 -12136 l
 1333 -12097 l 1311 -12057 l 1292 -12015 l 1276 -11972 l 1262 -11928 l
 1251 -11883 l 1244 -11838 l 1239 -11792 l 1238 -11746 l 1238 -253 l
 1238 -227 l 1241 -181 l 1248 -135 l 1257 -90 l 1269 -46 l
 1284 -2 l 1303 39 l 1323 80 l 1347 119 l 1373 157 l
 1402 193 l 1433 228 l 1466 260 l 1501 289 l 1538 316 l
 1577 341 l 1618 363 l 1659 383 l 1702 399 l 1746 413 l
 1791 423 l 1837 431 l 1882 436 l 1928 437 l 2126 437 l
 2152 437 l 2198 433 l 2244 427 l 2289 418 l 2333 405 l
 2377 390 l 2419 372 l 2460 351 l 2500 328 l 2538 301 l
 2574 273 l 2608 242 l 2640 209 l 2669 173 l 2697 136 l
 2721 97 l 2744 57 l 2763 15 l 2779 -27 l 2793 -71 l
 2804 -116 l 2811 -161 l 2816 -207 l 2817 -253 l 2817 -6840 l
 2818 -6877 l 2822 -6923 l 2829 -6969 l 2840 -7014 l 3036 -7772 l
 3045 -7808 l 3052 -7854 l 3057 -7900 l 3058 -7946 l 3058 -11746 l
 3057 -11792 l 3057 -11796 l 3055 -11842 l 3057 -11888 l 3062 -11934 l
 3070 -11980 l 3081 -12024 l 3095 -12068 l 3112 -12111 l 3132 -12153 l
 3154 -12193 l 3179 -12232 l 3207 -12269 l 3236 -12304 l 3269 -12337 l
 3303 -12367 l 3339 -12396 l 3377 -12421 l 3417 -12445 l 3458 -12465 l
 3501 -12483 l 3544 -12498 l 3589 -12510 l 3634 -12519 l 3680 -12525 l
 3726 -12528 l 3772 -12528 l 3818 -12525 l 3863 -12518 l 3908 -12509 l
 3953 -12497 l 3996 -12481 l 4039 -12463 l 4080 -12442 l 4119 -12419 l
 4157 -12393 l 4193 -12364 l 4227 -12333 l 4259 -12300 l 4289 -12265 l
 4316 -12228 l 4341 -12189 l 4363 -12149 l 4383 -12107 l 4399 -12064 l
 4413 -12020 l 4423 -11975 l 4431 -11930 l 4436 -11884 l 4437 -11838 l
 4436 -11792 l 4434 -11746 l 4434 -8120 l 4436 -8075 l 4440 -8029 l
 4619 -6678 l 4624 -6633 l 4625 -6587 l 4625 -253 l 4625 -219 l
 4624 -192 l 4625 -146 l 4629 -100 l 4636 -54 l 4647 -9 l
 4660 34 l 4676 77 l 4695 119 l 4716 159 l 4741 199 l
 4768 236 l 4797 271 l 4829 305 l 4863 336 l 4898 365 l
 4936 392 l 4975 416 l 5016 437 l 5058 455 l 5102 471 l
 5146 484 l 5191 494 l 5236 500 l 5282 504 l 5328 505 l
 5374 502 l 5420 497 l 5465 488 l 5510 477 l 5554 462 l
 5596 445 l 5638 425 l 5678 402 l 5716 376 l 5753 348 l
 5787 318 l 5820 285 l 5850 251 l 5878 214 l 5903 176 l
 5926 136 l 5946 94 l 5964 51 l 5978 8 l 5989 -36 l
 5998 -81 l 6003 -127 l 6006 -173 l 6005 -219 l 6004 -253 l
 6004 -2906 l 6003 -2944 l 5973 -3485 l 5972 -3523 l 5972 -6702 l
 5971 -6745 l 5966 -6791 l 5816 -7949 l 5812 -7992 l 5810 -8038 l
 5810 -11746 l 5811 -11772 l 5814 -11818 l 5820 -11864 l 5830 -11909 l
 5842 -11953 l 5857 -11997 l 5875 -12039 l 5896 -12080 l 5920 -12119 l
 5946 -12157 l 5975 -12193 l 6006 -12228 l 6039 -12260 l 6074 -12289 l
 6111 -12316 l 6150 -12341 l 6190 -12363 l 6232 -12383 l 6275 -12399 l
 6319 -12413 l 6364 -12423 l 6409 -12431 l 6455 -12436 l 6501 -12437 l
 6962 -12437 l 6988 -12437 l 7034 -12433 l 7080 -12427 l 7125 -12418 l
 7169 -12405 l 7213 -12390 l 7255 -12372 l 7296 -12351 l 7336 -12328 l
 7374 -12301 l 7410 -12273 l 7444 -12242 l 7476 -12209 l 7505 -12173 l
 7533 -12136 l 7557 -12097 l 7580 -12057 l 7599 -12015 l 7615 -11972 l
 7629 -11928 l 7640 -11883 l 7647 -11838 l 7652 -11792 l 7653 -11746 l
 7653 -3938 l 7653 -3910 l 7649 -3864 l 7643 -3819 l 7634 -3774 l
 7621 -3729 l 7526 -3430 l 7519 -3407 l 7502 -3364 l 7482 -3323 l
 7460 -3282 l 7435 -3244 l 7407 -3207 l 7377 -3172 l 7345 -3139 l
 7310 -3108 l 7274 -3080 l 7236 -3054 l 7196 -3031 l 7155 -3010 l
 7113 -2993 l 7069 -2978 l 7025 -2966 l 6979 -2957 l 6934 -2951 l
 6888 -2948 l 6842 -2948 l 6796 -2951 l 6750 -2958 l 6705 -2967 l
 6661 -2979 l 6617 -2995 l 6575 -3013 l 6534 -3034 l 6494 -3057 l
 6456 -3083 l 6420 -3112 l 6386 -3143 l 6354 -3176 l 6325 -3211 l
 6297 -3248 l 6273 -3287 l 6250 -3328 l 6231 -3370 l 6215 -3413 l
 6201 -3457 l 6190 -3501 l 6183 -3547 l 6178 -3593 l 6177 -3639 l
 6177 -6748 l 6176 -6783 l 6172 -6829 l 6044 -7911 l 6041 -7946 l
 6040 -7992 l 6040 -11746 l 6040 -11772 l 6043 -11818 l 6050 -11864 l
 6059 -11909 l 6071 -11953 l 6087 -11997 l 6105 -12039 l 6126 -12080 l
 6149 -12119 l 6175 -12157 l 6204 -12193 l 6235 -12228 l 6268 -12260 l
 6303 -12289 l 6340 -12316 l 6379 -12341 l 6420 -12363 l 6461 -12383 l
 6504 -12399 l 6548 -12413 l 6593 -12423 l 6639 -12431 l 6685 -12436 l
 6731 -12437 l 6743 -12437 l 6769 -12437 l 6815 -12433 l 6860 -12427 l
 6905 -12418 l 6950 -12405 l 6993 -12390 l 7035 -12372 l 7077 -12351 l
 7116 -12328 l 7154 -12301 l 7190 -12273 l 7224 -12242 l 7256 -12209 l
 7286 -12173 l 7313 -12136 l 7338 -12097 l 7360 -12057 l 7379 -12015 l
 7396 -11972 l 7409 -11928 l 7420 -11883 l 7428 -11838 l 7432 -11792 l
 7434 -11746 l 7434 -3938 l 7433 -3900 l 7359 -2571 l 7358 -2533 l
 7358 -253 l 7358 -227 l 7355 -181 l 7348 -135 l 7339 -90 l
 7327 -46 l 7311 -2 l 7293 39 l 7272 80 l 7249 119 l
 7223 157 l 7194 193 l 7163 228 l 7130 260 l 7095 289 l
 7058 316 l 7019 341 l 6978 363 l 6937 383 l 6894 399 l
 6850 413 l 6805 423 l 6759 431 l 6713 436 l 6667 437 l
 6469 437 l 6443 437 l 6398 433 l 6352 427 l 6307 418 l
 6262 405 l 6219 390 l 6177 372 l 6136 351 l 6096 328 l
 6058 301 l 6022 273 l 5988 242 l 5956 209 l 5926 173 l
 5899 136 l 5874 97 l 5852 57 l 5833 15 l 5816 -27 l
 5803 -71 l 5792 -116 l 5785 -161 l 5780 -207 l 5778 -253 l
 5778 -3178 l 5779 -3216 l 5784 -3262 l 5791 -3307 l 5801 -3352 l
 5814 -3397 l 5830 -3440 l 5849 -3482 l 5870 -3522 l 5895 -3562 l
 5921 -3599 l 5951 -3635 l 5982 -3668 l 6016 -3699 l 6052 -3728 l
 6089 -3755 l 6129 -3779 l 6169 -3800 l 6212 -3819 l 6255 -3835 l
 6299 -3848 l 6344 -3858 l 6390 -3864 l 6436 -3868 l 6482 -3869 l
 6528 -3867 l 6573 -3861 l 6619 -3853 l 6663 -3841 l 6707 -3827 l
 6750 -3810 l 6791 -3790 l 6831 -3767 l 6870 -3741 l 6906 -3713 l
 6941 -3683 l 6973 -3651 l 7004 -3616 l 7032 -3579 l 7057 -3541 l
 7080 -3501 l 7100 -3460 l 7118 -3417 l 7132 -3373 l 7144 -3329 l
 7152 -3283 l 7158 -3238 l 7160 -3192 l 7160 -3146 l 7133 -2588 l
 7133 -2556 l 7133 -253 l 7133 -247 l 7131 -201 l 7126 -155 l
 7124 -138 l 7120 -93 l 7119 -47 l 7121 -1 l 7127 44 l
 7135 89 l 7146 134 l 7161 178 l 7178 221 l 7198 262 l
 7221 302 l 7246 341 l 7274 377 l 7304 412 l 7337 445 l
 7371 475 l 7408 503 l 7446 529 l 7486 552 l 7527 572 l
 7570 589 l 7614 604 l 7658 615 l 7704 624 l 7749 629 l
 7795 632 l 7841 631 l 7887 628 l 7933 621 l 7978 611 l
 8022 599 l 8066 583 l 8108 565 l 8149 543 l 8188 519 l
 8226 493 l 8261 464 l 8295 433 l 8327 399 l 8356 364 l
 8383 327 l 8408 287 l 8429 247 l 8448 205 l 8465 162 l
 8478 118 l 8488 73 l 8495 27 l 8500 -18 l 8501 -64 l
 8499 -110 l 8494 -155 l 8493 -161 l 8489 -207 l 8487 -253 l
 8487 -2533 l 8487 -2556 l 8532 -3892 l 8532 -3915 l 8532 -11746 l
 8532 -11772 l 8528 -11818 l 8522 -11864 l 8513 -11909 l 8500 -11953 l
 8485 -11997 l 8467 -12039 l 8446 -12080 l 8423 -12119 l 8397 -12157 l
 8368 -12193 l 8337 -12228 l 8304 -12260 l 8269 -12289 l 8231 -12316 l
 8193 -12341 l 8152 -12363 l 8110 -12383 l 8067 -12399 l 8023 -12413 l
 7979 -12423 l 7933 -12431 l 7887 -12436 l 7841 -12437 l 7648 -12437 l
 7622 -12437 l 7576 -12433 l 7530 -12427 l 7485 -12418 l 7441 -12405 l
 7397 -12390 l 7355 -12372 l 7314 -12351 l 7274 -12328 l 7237 -12301 l
 7201 -12273 l 7166 -12242 l 7134 -12209 l 7105 -12173 l 7078 -12136 l
 7053 -12097 l 7031 -12057 l 7011 -12015 l 6995 -11972 l 6981 -11928 l
 6971 -11883 l 6963 -11838 l 6958 -11792 l 6957 -11746 l 6957 -7669 l
 6958 -7624 l 6993 -7095 l 6994 -7050 l 6994 -3869 l 6994 -3867 l
 6993 -3821 l 6909 -2628 l 6909 -2625 l 6907 -2579 l 6907 -253 l
 6907 -227 l 6903 -181 l 6897 -135 l 6888 -90 l 6875 -46 l
 6860 -2 l 6842 39 l 6821 80 l 6797 119 l 6771 157 l
 6743 193 l 6712 228 l 6679 260 l 6643 289 l 6606 316 l
 6567 341 l 6527 363 l 6485 383 l 6442 399 l 6398 413 l
 6353 423 l 6308 431 l 6262 436 l 6216 437 l 5994 437 l
 5969 437 l 5923 433 l 5877 427 l 5832 418 l 5788 405 l
 5744 390 l 5702 372 l 5661 351 l 5621 328 l 5583 301 l
 5547 273 l 5513 242 l 5481 209 l 5451 173 l 5424 136 l
 5399 97 l 5377 57 l 5358 15 l 5342 -27 l 5328 -71 l
 5317 -116 l 5310 -161 l 5305 -207 l 5303 -253 l 5303 -6633 l
 5303 -6665 l 5299 -6711 l 5292 -6756 l 5283 -6801 l 5270 -6846 l
 4926 -7907 l 4917 -7938 l 4907 -7983 l 4899 -8028 l 4894 -8074 l
 4893 -8120 l 4893 -11746 l 4891 -11792 l 4891 -11796 l 4890 -11842 l
 4892 -11888 l 4897 -11934 l 4905 -11980 l 4916 -12024 l 4930 -12068 l
 4947 -12111 l 4966 -12153 l 4989 -12193 l 5014 -12232 l 5041 -12269 l
 5071 -12304 l 5103 -12337 l 5138 -12367 l 5174 -12396 l 5212 -12421 l
 5252 -12445 l 5293 -12465 l 5335 -12483 l 5379 -12498 l 5423 -12510 l
 5469 -12519 l 5514 -12525 l 5560 -12528 l 5606 -12528 l 5652 -12525 l
 5698 -12518 l 5743 -12509 l 5787 -12497 l 5831 -12481 l 5873 -12463 l
 5914 -12442 l 5954 -12419 l 5992 -12393 l 6028 -12364 l 6062 -12333 l
 6094 -12300 l 6124 -12265 l 6151 -12228 l 6176 -12189 l 6198 -12149 l
 6217 -12107 l 6234 -12064 l 6247 -12020 l 6258 -11975 l 6266 -11930 l
 6270 -11884 l 6272 -11838 l 6270 -11792 l 6269 -11746 l 6269 -7946 l
 6269 -7920 l 6273 -7874 l 6377 -6878 l 6379 -6852 l 6381 -6806 l
 6381 -3731 l 6380 -3697 l 6376 -3651 l 6369 -3605 l 6241 -2912 l
 6236 -2878 l 6231 -2832 l 6230 -2786 l 6230 -253 l 6230 -227 l
 6234 -181 l 6240 -135 l 6249 -90 l 6262 -46 l 6277 -2 l
 6295 39 l 6316 80 l 6339 119 l 6366 157 l 6394 193 l
 6425 228 l 6458 260 l 6494 289 l 6531 316 l 6570 341 l
 6610 363 l 6652 383 l 6695 399 l 6739 413 l 6784 423 l
 6829 431 l 6875 436 l 6921 437 l 7119 437 l 7145 437 l
 7191 433 l 7236 427 l 7281 418 l 7326 405 l 7369 390 l
 7412 372 l 7453 351 l 7492 328 l 7530 301 l 7566 273 l
 7600 242 l 7632 209 l 7662 173 l 7689 136 l 7714 97 l
 7736 57 l 7755 15 l 7772 -27 l 7785 -71 l 7796 -116 l
 7804 -161 l 7808 -207 l 7810 -253 l 7810 -2487 l 7809 -2527 l
 7805 -2573 l 7797 -2618 l 7787 -2663 l 7774 -2707 l 7758 -2750 l
 7739 -2792 l 7717 -2833 l 7291 -3569 l 7273 -3604 l 7253 -3646 l
 7237 -3689 l 7223 -3733 l 7212 -3778 l 7205 -3823 l 7200 -3869 l
 7199 -3915 l 7199 -7301 l 7198 -7332 l 7194 -7378 l 6715 -11669 l
 6712 -11706 l 6711 -11752 l 6713 -11798 l 6718 -11844 l 6726 -11889 l
 6737 -11934 l 6751 -11978 l 6768 -12020 l 6787 -12062 l 6810 -12102 l
 6835 -12141 l 6862 -12178 l 6892 -12213 l 6925 -12246 l 6959 -12276 l
 6995 -12305 l 7033 -12331 l 7073 -12354 l 7114 -12374 l 7157 -12392 l
 7200 -12407 l 7245 -12419 l 7290 -12428 l 7336 -12434 l 7382 -12437 l
 7428 -12437 l 7474 -12433 l 7519 -12427 l 7564 -12418 l 7609 -12405 l
 7652 -12390 l 7695 -12372 l 7736 -12351 l 7775 -12328 l 7813 -12301 l
 7849 -12273 l 7883 -12242 l 7915 -12209 l 7945 -12173 l 7972 -12136 l
 7997 -12097 l 8019 -12057 l 8038 -12015 l 8055 -11972 l 8068 -11928 l
 8079 -11883 l 8087 -11838 l 8091 -11792 l 8093 -11746 l 8093 -3961 l
 8094 -3922 l 8098 -3877 l 8256 -2595 l 8260 -2556 l 8261 -2510 l
 8261 -253 l 8262 -227 l 8265 -181 l 8271 -135 l 8281 -90 l
 8293 -46 l 8308 -2 l 8326 39 l 8347 80 l 8371 119 l
 8397 157 l 8426 193 l 8457 228 l 8490 260 l 8525 289 l
 8562 316 l 8601 341 l 8641 363 l 8683 383 l 8726 399 l
 8770 413 l 8815 423 l 8860 431 l 8906 436 l 8952 437 l
 9622 437 l 9648 437 l 9694 433 l 9740 427 l 9785 418 l
 9829 405 l 9873 390 l 9915 372 l 9956 351 l 9996 328 l
 10033 301 l 10070 273 l 10104 242 l 10136 209 l 10165 173 l
 10192 136 l 10217 97 l 10239 57 l 10259 15 l 10275 -27 l
 10289 -71 l 10299 -116 l 10307 -161 l 10312 -207 l 10313 -253 l
 10313 -11746 l 10313 -11751 l 10311 -11797 l 10306 -11843 l 10298 -11888 l
 10295 -11904 l 10288 -11950 l 10284 -11995 l 10284 -12042 l 10286 -12088 l
 10291 -12133 l 10300 -12179 l 10311 -12223 l 10325 -12267 l 10342 -12310 l
 10362 -12351 l 10385 -12391 l 10410 -12430 l 10438 -12466 l 10468 -12501 l
 10501 -12534 l 10536 -12564 l 10572 -12592 l 10610 -12618 l 10650 -12641 l
 10692 -12661 l 10734 -12679 l 10778 -12693 l 10823 -12705 l 10868 -12713 l
 10913 -12719 l 10959 -12722 l 11006 -12721 l 11051 -12717 l 11097 -12711 l
 11142 -12701 l 11186 -12688 l 11230 -12673 l 11272 -12654 l 11313 -12633 l
 11352 -12609 l 11390 -12583 l 11426 -12554 l 11460 -12523 l 11491 -12489 l
 11521 -12454 l 11548 -12417 l 11572 -12378 l 11594 -12337 l 11613 -12295 l
 11629 -12252 l 11642 -12208 l 11653 -12163 l 11660 -12117 l 11664 -12072 l
 11666 -12026 l 11664 -11980 l 11659 -11934 l 11651 -11888 l 11650 -11883 l
 11642 -11838 l 11637 -11792 l 11636 -11746 l 11636 -253 l 11635 -227 l
 11632 -181 l 11626 -135 l 11617 -90 l 11604 -46 l 11589 -2 l
 11571 39 l 11550 80 l 11526 119 l 11500 157 l 11472 193 l
 11441 228 l 11407 260 l 11372 289 l 11335 316 l 11296 341 l
 11256 363 l 11214 383 l 11171 399 l 11127 413 l 11082 423 l
 11037 431 l 10991 436 l 10945 437 l 10758 437 l 10732 437 l
 10686 433 l 10641 427 l 10595 418 l 10551 405 l 10508 390 l
 10465 372 l 10424 351 l 10385 328 l 10347 301 l 10311 273 l
 10277 242 l 10245 209 l 10215 173 l 10188 136 l 10163 97 l
 10141 57 l 10122 15 l 10105 -27 l 10091 -71 l 10081 -116 l
 10073 -161 l 10069 -207 l 10067 -253 l 10067 -3178 l 10068 -3218 l
 10069 -3231 l 10070 -3270 l 10070 -11746 l 10070 -11767 l 10067 -11813 l
 10061 -11859 l 10055 -11904 l 10052 -11950 l 10052 -11996 l 10056 -12042 l
 10062 -12088 l 10071 -12133 l 10084 -12177 l 10099 -12221 l 10117 -12263 l
 10138 -12304 l 10161 -12344 l 10188 -12382 l 10216 -12418 l 10247 -12452 l
 10280 -12484 l 10316 -12513 l 10353 -12541 l 10392 -12565 l 10432 -12587 l
 10474 -12607 l 10517 -12623 l 10561 -12637 l 10606 -12647 l 10651 -12655 l
 10697 -12660 l 10743 -12661 l 10789 -12660 l 10835 -12655 l 10880 -12647 l
 10925 -12637 l 10969 -12623 l 11012 -12607 l 11054 -12587 l 11094 -12565 l
 11133 -12540 l 11170 -12513 l 11205 -12483 l 11239 -12451 l 11270 -12417 l
 11298 -12381 l 11324 -12343 l 11348 -12304 l 11369 -12263 l 11387 -12220 l
 11402 -12177 l 11414 -12133 l 11424 -12087 l 11430 -12042 l 11433 -11996 l
 11433 -11950 l 11431 -11904 l 11425 -11858 l 11422 -11838 l 11417 -11792 l
 11415 -11746 l 11415 -253 l 11415 -227 l 11412 -181 l 11405 -135 l
 11396 -90 l 11384 -46 l 11368 -2 l 11350 39 l 11329 80 l
 11306 119 l 11280 157 l 11251 193 l 11220 228 l 11187 260 l
 11152 289 l 11115 316 l 11076 341 l 11035 363 l 10994 383 l
 10951 399 l 10907 413 l 10862 423 l 10816 431 l 10771 436 l
 10724 437 l 10532 437 l 10506 437 l 10461 433 l 10415 427 l
 10370 418 l 10325 405 l 10282 390 l 10240 372 l 10199 351 l
 10159 328 l 10121 301 l 10085 273 l 10051 242 l 10019 209 l
 9989 173 l 9962 136 l 9937 97 l 9915 57 l 9896 15 l
 9879 -27 l 9866 -71 l 9855 -116 l 9847 -161 l 9843 -207 l
 9841 -253 l 9841 -2906 l 9841 -2916 l 9850 -3526 l 9850 -3536 l
 9850 -11746 l 9850 -11772 l 9847 -11818 l 9840 -11864 l 9831 -11909 l
 9819 -11953 l 9803 -11997 l 9785 -12039 l 9764 -12080 l 9741 -12119 l
 9715 -12157 l 9686 -12193 l 9655 -12228 l 9622 -12260 l 9587 -12289 l
 9550 -12316 l 9511 -12341 l 9470 -12363 l 9428 -12383 l 9385 -12399 l
 9341 -12413 l 9297 -12423 l 9251 -12431 l 9205 -12436 l 9159 -12437 l
 9003 -12437 l 8978 -12437 l 8932 -12433 l 8886 -12427 l 8841 -12418 l
 8797 -12405 l 8753 -12390 l 8711 -12372 l 8670 -12351 l 8630 -12328 l
 8592 -12301 l 8556 -12273 l 8522 -12242 l 8490 -12209 l 8460 -12173 l
 8433 -12136 l 8408 -12097 l 8386 -12057 l 8367 -12015 l 8351 -11972 l
 8337 -11928 l 8326 -11883 l 8319 -11838 l 8314 -11792 l 8313 -11746 l
 8313 -3938 l 8312 -3932 l 8311 -3886 l 8306 -3840 l 8297 -3795 l
 8051 -2630 l 8049 -2624 l 8042 -2579 l 8037 -2533 l 8036 -2487 l
 8036 -253 l 8035 -227 l 8032 -181 l 8026 -135 l 8016 -90 l
 8004 -46 l 7989 -2 l 7971 39 l 7950 80 l 7926 119 l
 7900 157 l 7871 193 l 7840 228 l 7807 260 l 7772 289 l
 7735 316 l 7696 341 l 7655 363 l 7614 383 l 7571 399 l
 7527 413 l 7482 423 l 7436 431 l 7391 436 l 7345 437 l
 7147 437 l 7121 437 l 7075 433 l 7029 427 l 6984 418 l
 6940 405 l 6896 390 l 6854 372 l 6813 351 l 6773 328 l
 6735 301 l 6699 273 l 6665 242 l 6633 209 l 6603 173 l
 6576 136 l 6552 97 l 6529 57 l 6510 15 l 6494 -27 l
 6480 -71 l 6469 -116 l 6462 -161 l 6457 -207 l 6456 -253 l
 6456 -2694 l 6456 -2709 l 6458 -2755 l 6464 -2800 l 6472 -2846 l
 6484 -2890 l 6498 -2934 l 6747 -3606 l 6752 -3620 l 6765 -3664 l
 6776 -3709 l 6784 -3754 l 6788 -3800 l 6790 -3846 l 6790 -6955 l
 6789 -6989 l 6785 -7035 l 6778 -7080 l 6769 -7125 l 6756 -7169 l
 6740 -7213 l 6722 -7255 l 6567 -7577 l 6553 -7608 l 6536 -7651 l
 6523 -7695 l 6512 -7739 l 6504 -7785 l 6500 -7831 l 6498 -7877 l
 6498 -11746 l 6498 -11749 l 6496 -11795 l 6496 -11808 l 6495 -11854 l
 6497 -11900 l 6502 -11946 l 6510 -11991 l 6522 -12036 l 6536 -12079 l
 6553 -12122 l 6573 -12164 l 6595 -12204 l 6621 -12242 l 6648 -12279 l
 6678 -12314 l 6711 -12347 l 6745 -12377 l 6782 -12405 l 6820 -12431 l
 6860 -12454 l 6901 -12474 l 6944 -12492 l 6987 -12507 l 7032 -12518 l
 7077 -12527 l 7123 -12533 l 7169 -12536 l 7215 -12535 l 7261 -12532 l
 7306 -12525 l 7351 -12516 l 7396 -12503 l 7439 -12488 l 7481 -12469 l
 7522 -12448 l 7562 -12424 l 7600 -12398 l 7635 -12369 l 7669 -12338 l
 7701 -12305 l 7731 -12269 l 7758 -12232 l 7782 -12193 l 7804 -12153 l
 7823 -12111 l 7840 -12068 l 7853 -12024 l 7864 -11979 l 7871 -11933 l
 7875 -11888 l 7877 -11841 l 7875 -11795 l 7875 -11792 l 7873 -11746 l
 7873 -3961 l 7873 -3948 l 7871 -3902 l 7865 -3856 l 7857 -3811 l
 7601 -2660 l 7598 -2647 l 7590 -2602 l 7586 -2556 l 7584 -2510 l
 7584 -253 l 7585 -227 l 7588 -181 l 7594 -135 l 7604 -90 l
 7616 -46 l 7631 -2 l 7649 39 l 7670 80 l 7694 119 l
 7720 157 l 7748 193 l 7779 228 l 7813 260 l 7848 289 l
 7885 316 l 7924 341 l 7964 363 l 8006 383 l 8049 399 l
 8093 413 l 8138 423 l 8183 431 l 8229 436 l 8275 437 l
 8473 437 l 8499 437 l 8545 433 l 8591 427 l 8636 418 l
 8680 405 l 8724 390 l 8766 372 l 8807 351 l 8847 328 l
 8884 301 l 8921 273 l 8955 242 l 8987 209 l 9016 173 l
 9043 136 l 9068 97 l 9090 57 l 9110 15 l 9126 -27 l
 9140 -71 l 9150 -116 l 9158 -161 l 9163 -207 l 9164 -253 l
 9164 -2644 l 9166 -2687 l 9170 -2733 l 9177 -2778 l 9188 -2823 l
 9387 -3566 l 9397 -3608 l 9405 -3653 l 9409 -3699 l 9411 -3745 l
 9411 -11746 l 9411 -11772 l 9415 -11818 l 9421 -11864 l 9430 -11909 l
 9443 -11953 l 9458 -11997 l 9476 -12039 l 9497 -12080 l 9521 -12119 l
 9547 -12157 l 9575 -12193 l 9606 -12228 l 9639 -12260 l 9675 -12289 l
 9712 -12316 l 9751 -12341 l 9791 -12363 l 9833 -12383 l 9876 -12399 l
 9920 -12413 l 9965 -12423 l 10010 -12431 l 10056 -12436 l 10102 -12437 l
 10284 -12437 l 10309 -12437 l 10355 -12433 l 10401 -12427 l 10446 -12418 l
 10490 -12405 l 10534 -12390 l 10576 -12372 l 10617 -12351 l 10657 -12328 l
 10695 -12301 l 10731 -12273 l 10765 -12242 l 10797 -12209 l 10827 -12173 l
 10854 -12136 l 10879 -12097 l 10901 -12057 l 10920 -12015 l 10937 -11972 l
 10950 -11928 l 10961 -11883 l 10968 -11838 l 10973 -11792 l 10975 -11746 l
 10975 -253 l 10974 -227 l 10971 -181 l 10964 -135 l 10955 -90 l
 10943 -46 l 10928 -2 l 10909 39 l 10889 80 l 10865 119 l
 10839 157 l 10810 193 l 10779 228 l 10746 260 l 10711 289 l
 10674 316 l 10635 341 l 10594 363 l 10553 383 l 10510 399 l
 10466 413 l 10421 423 l 10375 431 l 10330 436 l 10284 437 l
 10081 437 l 10055 437 l 10009 433 l 9963 427 l 9918 418 l
 9874 405 l 9831 390 l 9788 372 l 9747 351 l 9708 328 l
 9670 301 l 9634 273 l 9599 242 l 9568 209 l 9538 173 l
 9511 136 l 9486 97 l 9464 57 l 9444 15 l 9428 -27 l
 9414 -71 l 9404 -116 l 9396 -161 l 9391 -207 l 9390 -253 l
 9390 -2694 l 9391 -2724 l 9394 -2770 l 9401 -2816 l 9410 -2861 l
 9423 -2905 l 9598 -3451 l 9606 -3480 l 9617 -3524 l 9625 -3570 l
 9629 -3616 l 9631 -3662 l 9631 -11746 l 9631 -11772 l 9634 -11818 l
 9641 -11864 l 9650 -11909 l 9662 -11953 l 9678 -11997 l 9696 -12039 l
 9717 -12080 l 9740 -12119 l 9766 -12157 l 9795 -12193 l 9826 -12228 l
 9859 -12260 l 9894 -12289 l 9932 -12316 l 9970 -12341 l 10011 -12363 l
 10053 -12383 l 10096 -12399 l 10140 -12413 l 10184 -12423 l 10230 -12431 l
 10276 -12436 l 10322 -12437 l 10504 -12437 l 10530 -12437 l 10576 -12433 l
 10621 -12427 l 10667 -12418 l 10711 -12405 l 10754 -12390 l 10797 -12372 l
 10838 -12351 l 10877 -12328 l 10915 -12301 l 10951 -12273 l 10985 -12242 l
 11017 -12209 l 11047 -12173 l 11074 -12136 l 11099 -12097 l 11121 -12057 l
 11140 -12015 l 11157 -11972 l 11171 -11928 l 11181 -11883 l 11189 -11838 l
 11193 -11792 l 11195 -11746 l 11195 -253 l 11195 -227 l 11191 -181 l
 11185 -135 l 11176 -90 l 11163 -46 l 11148 -2 l 11130 39 l
 11109 80 l 11085 119 l 11059 157 l 11031 193 l 11000 228 l
 10967 260 l 10931 289 l 10894 316 l 10855 341 l 10815 363 l
 10773 383 l 10730 399 l 10686 413 l 10641 423 l 10596 431 l
 10550 436 l 10504 437 l 10307 437 l 10281 437 l 10235 433 l
 10189 427 l 10144 418 l 10100 405 l 10056 390 l 10014 372 l
 9973 351 l 9933 328 l 9895 301 l 9859 273 l 9825 242 l
 9793 209 l 9764 173 l 9736 136 l 9712 97 l 9690 57 l
 9670 15 l 9654 -27 l 9640 -71 l 9629 -116 l 9622 -161 l
 9617 -207 l 9616 -253 l 9616 -2786 l 9616 -2796 l 9613 -2842 l
 9608 -2888 l 9600 -2933 l 9589 -2978 l 9574 -3022 l 9557 -3064 l
 9537 -3106 l 9515 -3146 l 9489 -3184 l 9462 -3221 l 9345 -3365 l
 9339 -3373 l 9312 -3410 l 9287 -3449 l 9265 -3489 l 9246 -3531 l
 9229 -3574 l 9216 -3618 l 9205 -3663 l 9197 -3708 l 9193 -3754 l
 9191 -3800 l 9191 -11746 l 9192 -11772 l 9195 -11818 l 9201 -11864 l
 9211 -11909 l 9223 -11953 l 9238 -11997 l 9256 -12039 l 9277 -12080 l
 9301 -12119 l 9327 -12157 l 9356 -12193 l 9387 -12228 l 9420 -12260 l
 9455 -12289 l 9492 -12316 l 9531 -12341 l 9571 -12363 l 9613 -12383 l
 9656 -12399 l 9700 -12413 l 9745 -12423 l 9790 -12431 l 9836 -12436 l
 9882 -12437 l 10063 -12437 l 10089 -12437 l 10135 -12433 l 10181 -12427 l
 10226 -12418 l 10270 -12405 l 10313 -12390 l 10356 -12372 l 10397 -12351 l
 10436 -12328 l 10474 -12301 l 10510 -12273 l 10545 -12242 l 10576 -12209 l
 10606 -12173 l 10633 -12136 l 10658 -12097 l 10680 -12057 l 10700 -12015 l
 10716 -11972 l 10730 -11928 l 10740 -11883 l 10748 -11838 l 10753 -11792 l
 10754 -11746 l 10754 -253 l 10754 -227 l 10750 -181 l 10744 -135 l
 10735 -90 l 10722 -46 l 10707 -2 l 10689 39 l 10668 80 l
 10645 119 l 10618 157 l 10590 193 l 10559 228 l 10526 260 l
 10490 289 l 10453 316 l 10414 341 l 10374 363 l 10332 383 l
 10289 399 l 10245 413 l 10200 423 l 10155 431 l 10109 436 l
 10063 437 l 9629 437 l 9604 437 l 9558 433 l 9512 427 l
 9467 418 l 9423 405 l 9379 390 l 9337 372 l 9296 351 l
 9256 328 l 9218 301 l 9182 273 l 9148 242 l 9116 209 l
 9086 173 l 9059 136 l 9034 97 l 9012 57 l 8993 15 l
 8976 -27 l 8963 -71 l 8952 -116 l 8945 -161 l 8940 -207 l
 8938 -253 l 8938 -2579 l 8939 -2597 l 8971 -3828 l 8972 -3846 l
 8972 -11746 l 8972 -11772 l 8975 -11818 l 8982 -11864 l 8991 -11909 l
 9003 -11953 l 9019 -11997 l 9037 -12039 l 9058 -12080 l 9081 -12119 l
 9107 -12157 l 9136 -12193 l 9167 -12228 l 9200 -12260 l 9235 -12289 l
 9272 -12316 l 9311 -12341 l 9352 -12363 l 9393 -12383 l 9436 -12399 l
 9480 -12413 l 9525 -12423 l 9571 -12431 l 9617 -12436 l 9663 -12437 l
 9843 -12437 l 9869 -12437 l 9914 -12433 l 9960 -12427 l 10005 -12418 l
 10050 -12405 l 10093 -12390 l 10135 -12372 l 10176 -12351 l 10216 -12328 l
 10254 -12301 l 10290 -12273 l 10324 -12242 l 10356 -12209 l 10386 -12173 l
 10413 -12136 l 10438 -12097 l 10460 -12057 l 10479 -12015 l 10496 -11972 l
 10509 -11928 l 10520 -11883 l 10528 -11838 l 10532 -11792 l 10534 -11746 l
 10534 -253 l 10533 -227 l 10530 -181 l 10524 -135 l 10514 -90 l
 10502 -46 l 10487 -2 l 10469 39 l 10448 80 l 10424 119 l
 10398 157 l 10369 193 l 10338 228 l 10305 260 l 10270 289 l
 10233 316 l 10194 341 l 10154 363 l 10112 383 l 10069 399 l
 10025 413 l 9980 423 l 9935 431 l 9889 436 l 9843 437 l
 9404 437 l 9378 437 l 9332 433 l 9286 427 l 9241 418 l
 9197 405 l 9153 390 l 9111 372 l 9070 351 l 9030 328 l
 8992 301 l 8956 273 l 8922 242 l 8890 209 l 8861 173 l
 8833 136 l 8809 97 l 8787 57 l 8767 15 l 8751 -27 l
 8737 -71 l 8727 -116 l 8719 -161 l 8714 -207 l 8713 -253 l
 8713 -2556 l 8713 -2577 l 8752 -3871 l 8752 -3892 l 8752 -11746 l
 8751 -11772 l 8748 -11818 l 8742 -11864 l 8733 -11909 l 8720 -11953 l
 8705 -11997 l 8687 -12039 l 8666 -12080 l 8642 -12119 l 8616 -12157 l
 8588 -12193 l 8557 -12228 l 8523 -12260 l 8488 -12289 l 8451 -12316 l
 8412 -12341 l 8372 -12363 l 8330 -12383 l 8287 -12399 l 8243 -12413 l
 8198 -12423 l 8153 -12431 l 8107 -12436 l 8061 -12437 l 7877 -12437 l
 7851 -12437 l 7805 -12433 l 7760 -12427 l 7715 -12418 l 7670 -12405 l
 7627 -12390 l 7584 -12372 l 7543 -12351 l 7504 -12328 l 7466 -12301 l
 7430 -12273 l 7396 -12242 l 7364 -12209 l 7334 -12173 l 7307 -12136 l
 7282 -12097 l 7260 -12057 l 7241 -12015 l 7224 -11972 l 7211 -11928 l
 7200 -11883 l 7192 -11838 l 7188 -11792 l 7186 -11746 l 7186 -7416 l
 7186 -7410 l 7184 -7364 l 7179 -7319 l 7171 -7273 l 7160 -7228 l
 7146 -7185 l 7129 -7142 l 7110 -7100 l 7087 -7060 l 7062 -7021 l
 7035 -6984 l 7005 -6949 l 6973 -6916 l 6938 -6886 l 6902 -6857 l
 6864 -6832 l 6824 -6808 l 6783 -6788 l 6740 -6770 l 6697 -6755 l
 6652 -6743 l 6607 -6734 l 6561 -6728 l 6515 -6725 l 6469 -6726 l
 6423 -6729 l 6378 -6735 l 6333 -6744 l 6288 -6757 l 6245 -6772 l
 6202 -6790 l 6161 -6811 l 6122 -6835 l 6084 -6861 l 6048 -6889 l
 6014 -6920 l 5982 -6953 l 5952 -6989 l 5925 -7026 l 5900 -7065 l
 5878 -7105 l 5859 -7147 l 5842 -7190 l 5619 -7835 l 5605 -7879 l
 5595 -7924 l 5587 -7969 l 5582 -8015 l 5581 -8061 l 5581 -11746 l
 5582 -11792 l 5583 -11796 l 5584 -11842 l 5582 -11888 l 5577 -11934 l
 5569 -11980 l 5558 -12024 l 5544 -12068 l 5527 -12111 l 5508 -12153 l
 5485 -12193 l 5460 -12232 l 5433 -12269 l 5403 -12304 l 5371 -12337 l
 5336 -12367 l 5300 -12396 l 5262 -12421 l 5222 -12445 l 5181 -12465 l
 5138 -12483 l 5095 -12498 l 5050 -12510 l 5005 -12519 l 4960 -12525 l
 4914 -12528 l 4868 -12528 l 4822 -12525 l 4776 -12518 l 4731 -12509 l
 4686 -12497 l 4643 -12481 l 4601 -12463 l 4560 -12442 l 4520 -12419 l
 4482 -12393 l 4446 -12364 l 4412 -12333 l 4380 -12300 l 4350 -12265 l
 4323 -12228 l 4298 -12189 l 4276 -12149 l 4257 -12107 l 4240 -12064 l
 4227 -12020 l 4216 -11975 l 4208 -11930 l 4204 -11884 l 4202 -11838 l
 4203 -11792 l 4205 -11746 l 4205 -8107 l
 4205 -8107 l gs col37 s gr 
% Ellipse
n 4205 -8104 115 115 0 360 DrawEllipse gs col34 s gr
% Ellipse
n 4205 -8107 115 115 0 360 DrawEllipse gs col33 s gr
% Polyline
n 4205 -8104 m
 4201 -8219 l gs col34 s gr 
% Polyline
n 4205 -8107 m
 4320 -8107 l gs col33 s gr 
% here ends figure;
pagefooter
showpage
%%Trailer
%EOF
%%EndDocument
 @endspecial Black Black eop end
%%Trailer
userdict /end-hook known{end-hook}if
%%Trailer
cleartomark
countdictstack
exch sub { end } repeat
restore
%%EOF
