%!PS-Adobe-3.0 EPSF-3.0
%%BoundingBox: 149 1 1014 866
%%HiResBoundingBox: 149.000000 1.000000 1013.666016 865.664062
%%Creator: dvips(k) 5.993 Copyright 2013 Radical Eye Software
%%Title: fig2ps-env02_upDown.dvi
%%CreationDate: Thu Feb  7 00:29:34 2019
%%EndComments
% EPSF created by ps2eps 1.68
%%BeginProlog
0 199 translate
save
countdictstack
mark
newpath
/showpage {} def
/setpagedevice {pop} def
%%EndProlog
%%Page 1 1
%DVIPSWebPage: (www.radicaleye.com)
%DVIPSCommandLine: dvips -Ppdf -G0 -q -E fig2ps-env02_upDown.dvi -o
%+ fig2ps-env02_upDown.ps
%DVIPSParameters: dpi=8000
%DVIPSSource:  TeX output 2019.02.07:0029
%%BeginProcSet: tex.pro 0 0
%!
/TeXDict 300 dict def TeXDict begin/N{def}def/B{bind def}N/S{exch}N/X{S
N}B/A{dup}B/TR{translate}N/isls false N/vsize 11 72 mul N/hsize 8.5 72
mul N/landplus90{false}def/@rigin{isls{[0 landplus90{1 -1}{-1 1}ifelse 0
0 0]concat}if 72 Resolution div 72 VResolution div neg scale isls{
landplus90{VResolution 72 div vsize mul 0 exch}{Resolution -72 div hsize
mul 0}ifelse TR}if Resolution VResolution vsize -72 div 1 add mul TR[
matrix currentmatrix{A A round sub abs 0.00001 lt{round}if}forall round
exch round exch]setmatrix}N/@landscape{/isls true N}B/@manualfeed{
statusdict/manualfeed true put}B/@copies{/#copies X}B/FMat[1 0 0 -1 0 0]
N/FBB[0 0 0 0]N/nn 0 N/IEn 0 N/ctr 0 N/df-tail{/nn 8 dict N nn begin
/FontType 3 N/FontMatrix fntrx N/FontBBox FBB N string/base X array
/BitMaps X/BuildChar{CharBuilder}N/Encoding IEn N end A{/foo setfont}2
array copy cvx N load 0 nn put/ctr 0 N[}B/sf 0 N/df{/sf 1 N/fntrx FMat N
df-tail}B/dfs{div/sf X/fntrx[sf 0 0 sf neg 0 0]N df-tail}B/E{pop nn A
definefont setfont}B/Cw{Cd A length 5 sub get}B/Ch{Cd A length 4 sub get
}B/Cx{128 Cd A length 3 sub get sub}B/Cy{Cd A length 2 sub get 127 sub}
B/Cdx{Cd A length 1 sub get}B/Ci{Cd A type/stringtype ne{ctr get/ctr ctr
1 add N}if}B/CharBuilder{save 3 1 roll S A/base get 2 index get S
/BitMaps get S get/Cd X pop/ctr 0 N Cdx 0 Cx Cy Ch sub Cx Cw add Cy
setcachedevice Cw Ch true[1 0 0 -1 -.1 Cx sub Cy .1 sub]{Ci}imagemask
restore}B/D{/cc X A type/stringtype ne{]}if nn/base get cc ctr put nn
/BitMaps get S ctr S sf 1 ne{A A length 1 sub A 2 index S get sf div put
}if put/ctr ctr 1 add N}B/I{cc 1 add D}B/bop{userdict/bop-hook known{
bop-hook}if/SI save N @rigin 0 0 moveto/V matrix currentmatrix A 1 get A
mul exch 0 get A mul add .99 lt{/QV}{/RV}ifelse load def pop pop}N/eop{
SI restore userdict/eop-hook known{eop-hook}if showpage}N/@start{
userdict/start-hook known{start-hook}if pop/VResolution X/Resolution X
1000 div/DVImag X/IEn 256 array N 2 string 0 1 255{IEn S A 360 add 36 4
index cvrs cvn put}for pop 65781.76 div/vsize X 65781.76 div/hsize X}N
/dir 0 def/dyy{/dir 0 def}B/dyt{/dir 1 def}B/dty{/dir 2 def}B/dtt{/dir 3
def}B/p{dir 2 eq{-90 rotate show 90 rotate}{dir 3 eq{-90 rotate show 90
rotate}{show}ifelse}ifelse}N/RMat[1 0 0 -1 0 0]N/BDot 260 string N/Rx 0
N/Ry 0 N/V{}B/RV/v{/Ry X/Rx X V}B statusdict begin/product where{pop
false[(Display)(NeXT)(LaserWriter 16/600)]{A length product length le{A
length product exch 0 exch getinterval eq{pop true exit}if}{pop}ifelse}
forall}{false}ifelse end{{gsave TR -.1 .1 TR 1 1 scale Rx Ry false RMat{
BDot}imagemask grestore}}{{gsave TR -.1 .1 TR Rx Ry scale 1 1 false RMat
{BDot}imagemask grestore}}ifelse B/QV{gsave newpath transform round exch
round exch itransform moveto Rx 0 rlineto 0 Ry neg rlineto Rx neg 0
rlineto fill grestore}B/a{moveto}B/delta 0 N/tail{A/delta X 0 rmoveto}B
/M{S p delta add tail}B/b{S p tail}B/c{-4 M}B/d{-3 M}B/e{-2 M}B/f{-1 M}
B/g{0 M}B/h{1 M}B/i{2 M}B/j{3 M}B/k{4 M}B/w{0 rmoveto}B/l{p -4 w}B/m{p
-3 w}B/n{p -2 w}B/o{p -1 w}B/q{p 1 w}B/r{p 2 w}B/s{p 3 w}B/t{p 4 w}B/x{
0 S rmoveto}B/y{3 2 roll p a}B/bos{/SS save N}B/eos{SS restore}B end
%%EndProcSet
%%BeginProcSet: alt-rule.pro 0 0
%!
% Patch by TVZ
% Makes dvips files draw rules with stroke rather than fill.
% Makes narrow rules more predictable at low resolutions
% after distilling to PDF.
% May have unknown consequences for very thick rules.
% Tested only with dvips 5.85(k).
TeXDict begin
/QV {
  gsave newpath /ruleY X /ruleX X
  Rx Ry gt
  { ruleX ruleY Ry 2 div sub moveto Rx 0 rlineto Ry }
  { ruleX Rx 2 div add ruleY moveto 0 Ry neg rlineto Rx }
  ifelse
  setlinewidth 0 setlinecap stroke grestore
} bind def
end
%%EndProcSet
%%BeginProcSet: special.pro 0 0
%!
TeXDict begin/SDict 200 dict N SDict begin/@SpecialDefaults{/hs 612 N
/vs 792 N/ho 0 N/vo 0 N/hsc 1 N/vsc 1 N/ang 0 N/CLIP 0 N/rwiSeen false N
/rhiSeen false N/letter{}N/note{}N/a4{}N/legal{}N}B/@scaleunit 100 N
/@hscale{@scaleunit div/hsc X}B/@vscale{@scaleunit div/vsc X}B/@hsize{
/hs X/CLIP 1 N}B/@vsize{/vs X/CLIP 1 N}B/@clip{/CLIP 2 N}B/@hoffset{/ho
X}B/@voffset{/vo X}B/@angle{/ang X}B/@rwi{10 div/rwi X/rwiSeen true N}B
/@rhi{10 div/rhi X/rhiSeen true N}B/@llx{/llx X}B/@lly{/lly X}B/@urx{
/urx X}B/@ury{/ury X}B/magscale true def end/@MacSetUp{userdict/md known
{userdict/md get type/dicttype eq{userdict begin md length 10 add md
maxlength ge{/md md dup length 20 add dict copy def}if end md begin
/letter{}N/note{}N/legal{}N/od{txpose 1 0 mtx defaultmatrix dtransform S
atan/pa X newpath clippath mark{transform{itransform moveto}}{transform{
itransform lineto}}{6 -2 roll transform 6 -2 roll transform 6 -2 roll
transform{itransform 6 2 roll itransform 6 2 roll itransform 6 2 roll
curveto}}{{closepath}}pathforall newpath counttomark array astore/gc xdf
pop ct 39 0 put 10 fz 0 fs 2 F/|______Courier fnt invertflag{PaintBlack}
if}N/txpose{pxs pys scale ppr aload pop por{noflips{pop S neg S TR pop 1
-1 scale}if xflip yflip and{pop S neg S TR 180 rotate 1 -1 scale ppr 3
get ppr 1 get neg sub neg ppr 2 get ppr 0 get neg sub neg TR}if xflip
yflip not and{pop S neg S TR pop 180 rotate ppr 3 get ppr 1 get neg sub
neg 0 TR}if yflip xflip not and{ppr 1 get neg ppr 0 get neg TR}if}{
noflips{TR pop pop 270 rotate 1 -1 scale}if xflip yflip and{TR pop pop
90 rotate 1 -1 scale ppr 3 get ppr 1 get neg sub neg ppr 2 get ppr 0 get
neg sub neg TR}if xflip yflip not and{TR pop pop 90 rotate ppr 3 get ppr
1 get neg sub neg 0 TR}if yflip xflip not and{TR pop pop 270 rotate ppr
2 get ppr 0 get neg sub neg 0 S TR}if}ifelse scaleby96{ppr aload pop 4
-1 roll add 2 div 3 1 roll add 2 div 2 copy TR .96 dup scale neg S neg S
TR}if}N/cp{pop pop showpage pm restore}N end}if}if}N/normalscale{
Resolution 72 div VResolution 72 div neg scale magscale{DVImag dup scale
}if 0 setgray}N/psfts{S 65781.76 div N}N/startTexFig{/psf$SavedState
save N userdict maxlength dict begin/magscale true def normalscale
currentpoint TR/psf$ury psfts/psf$urx psfts/psf$lly psfts/psf$llx psfts
/psf$y psfts/psf$x psfts currentpoint/psf$cy X/psf$cx X/psf$sx psf$x
psf$urx psf$llx sub div N/psf$sy psf$y psf$ury psf$lly sub div N psf$sx
psf$sy scale psf$cx psf$sx div psf$llx sub psf$cy psf$sy div psf$ury sub
TR/showpage{}N/erasepage{}N/setpagedevice{pop}N/copypage{}N/p 3 def
@MacSetUp}N/doclip{psf$llx psf$lly psf$urx psf$ury currentpoint 6 2 roll
newpath 4 copy 4 2 roll moveto 6 -1 roll S lineto S lineto S lineto
closepath clip newpath moveto}N/endTexFig{end psf$SavedState restore}N
/@beginspecial{SDict begin/SpecialSave save N gsave normalscale
currentpoint TR @SpecialDefaults count/ocount X/dcount countdictstack N}
N/@setspecial{CLIP 1 eq{newpath 0 0 moveto hs 0 rlineto 0 vs rlineto hs
neg 0 rlineto closepath clip}if ho vo TR hsc vsc scale ang rotate
rwiSeen{rwi urx llx sub div rhiSeen{rhi ury lly sub div}{dup}ifelse
scale llx neg lly neg TR}{rhiSeen{rhi ury lly sub div dup scale llx neg
lly neg TR}if}ifelse CLIP 2 eq{newpath llx lly moveto urx lly lineto urx
ury lineto llx ury lineto closepath clip}if/showpage{}N/erasepage{}N
/setpagedevice{pop}N/copypage{}N newpath}N/@endspecial{count ocount sub{
pop}repeat countdictstack dcount sub{end}repeat grestore SpecialSave
restore end}N/@defspecial{SDict begin}N/@fedspecial{end}B/li{lineto}B
/rl{rlineto}B/rc{rcurveto}B/np{/SaveX currentpoint/SaveY X N 1
setlinecap newpath}N/st{stroke SaveX SaveY moveto}N/fil{fill SaveX SaveY
moveto}N/ellipse{/endangle X/startangle X/yrad X/xrad X/savematrix
matrix currentmatrix N TR xrad yrad scale 0 0 1 startangle endangle arc
savematrix setmatrix}N end
%%EndProcSet
%%BeginProcSet: color.pro 0 0
%!
TeXDict begin/setcmykcolor where{pop}{/setcmykcolor{dup 10 eq{pop
setrgbcolor}{1 sub 4 1 roll 3{3 index add neg dup 0 lt{pop 0}if 3 1 roll
}repeat setrgbcolor pop}ifelse}B}ifelse/TeXcolorcmyk{setcmykcolor}def
/TeXcolorrgb{setrgbcolor}def/TeXcolorgrey{setgray}def/TeXcolorgray{
setgray}def/TeXcolorhsb{sethsbcolor}def/currentcmykcolor where{pop}{
/currentcmykcolor{currentrgbcolor 10}B}ifelse/DC{exch dup userdict exch
known{pop pop}{X}ifelse}B/GreenYellow{0.15 0 0.69 0 setcmykcolor}DC
/Yellow{0 0 1 0 setcmykcolor}DC/Goldenrod{0 0.10 0.84 0 setcmykcolor}DC
/Dandelion{0 0.29 0.84 0 setcmykcolor}DC/Apricot{0 0.32 0.52 0
setcmykcolor}DC/Peach{0 0.50 0.70 0 setcmykcolor}DC/Melon{0 0.46 0.50 0
setcmykcolor}DC/YellowOrange{0 0.42 1 0 setcmykcolor}DC/Orange{0 0.61
0.87 0 setcmykcolor}DC/BurntOrange{0 0.51 1 0 setcmykcolor}DC
/Bittersweet{0 0.75 1 0.24 setcmykcolor}DC/RedOrange{0 0.77 0.87 0
setcmykcolor}DC/Mahogany{0 0.85 0.87 0.35 setcmykcolor}DC/Maroon{0 0.87
0.68 0.32 setcmykcolor}DC/BrickRed{0 0.89 0.94 0.28 setcmykcolor}DC/Red{
0 1 1 0 setcmykcolor}DC/OrangeRed{0 1 0.50 0 setcmykcolor}DC/RubineRed{
0 1 0.13 0 setcmykcolor}DC/WildStrawberry{0 0.96 0.39 0 setcmykcolor}DC
/Salmon{0 0.53 0.38 0 setcmykcolor}DC/CarnationPink{0 0.63 0 0
setcmykcolor}DC/Magenta{0 1 0 0 setcmykcolor}DC/VioletRed{0 0.81 0 0
setcmykcolor}DC/Rhodamine{0 0.82 0 0 setcmykcolor}DC/Mulberry{0.34 0.90
0 0.02 setcmykcolor}DC/RedViolet{0.07 0.90 0 0.34 setcmykcolor}DC
/Fuchsia{0.47 0.91 0 0.08 setcmykcolor}DC/Lavender{0 0.48 0 0
setcmykcolor}DC/Thistle{0.12 0.59 0 0 setcmykcolor}DC/Orchid{0.32 0.64 0
0 setcmykcolor}DC/DarkOrchid{0.40 0.80 0.20 0 setcmykcolor}DC/Purple{
0.45 0.86 0 0 setcmykcolor}DC/Plum{0.50 1 0 0 setcmykcolor}DC/Violet{
0.79 0.88 0 0 setcmykcolor}DC/RoyalPurple{0.75 0.90 0 0 setcmykcolor}DC
/BlueViolet{0.86 0.91 0 0.04 setcmykcolor}DC/Periwinkle{0.57 0.55 0 0
setcmykcolor}DC/CadetBlue{0.62 0.57 0.23 0 setcmykcolor}DC
/CornflowerBlue{0.65 0.13 0 0 setcmykcolor}DC/MidnightBlue{0.98 0.13 0
0.43 setcmykcolor}DC/NavyBlue{0.94 0.54 0 0 setcmykcolor}DC/RoyalBlue{1
0.50 0 0 setcmykcolor}DC/Blue{1 1 0 0 setcmykcolor}DC/Cerulean{0.94 0.11
0 0 setcmykcolor}DC/Cyan{1 0 0 0 setcmykcolor}DC/ProcessBlue{0.96 0 0 0
setcmykcolor}DC/SkyBlue{0.62 0 0.12 0 setcmykcolor}DC/Turquoise{0.85 0
0.20 0 setcmykcolor}DC/TealBlue{0.86 0 0.34 0.02 setcmykcolor}DC
/Aquamarine{0.82 0 0.30 0 setcmykcolor}DC/BlueGreen{0.85 0 0.33 0
setcmykcolor}DC/Emerald{1 0 0.50 0 setcmykcolor}DC/JungleGreen{0.99 0
0.52 0 setcmykcolor}DC/SeaGreen{0.69 0 0.50 0 setcmykcolor}DC/Green{1 0
1 0 setcmykcolor}DC/ForestGreen{0.91 0 0.88 0.12 setcmykcolor}DC
/PineGreen{0.92 0 0.59 0.25 setcmykcolor}DC/LimeGreen{0.50 0 1 0
setcmykcolor}DC/YellowGreen{0.44 0 0.74 0 setcmykcolor}DC/SpringGreen{
0.26 0 0.76 0 setcmykcolor}DC/OliveGreen{0.64 0 0.95 0.40 setcmykcolor}
DC/RawSienna{0 0.72 1 0.45 setcmykcolor}DC/Sepia{0 0.83 1 0.70
setcmykcolor}DC/Brown{0 0.81 1 0.60 setcmykcolor}DC/Tan{0.14 0.42 0.56 0
setcmykcolor}DC/Gray{0 0 0 0.50 setcmykcolor}DC/Black{0 0 0 1
setcmykcolor}DC/White{0 0 0 0 setcmykcolor}DC end
%%EndProcSet
TeXDict begin 40258437 52099154 1000 8000 8000 (fig2ps-env02_upDown.dvi)
@start end
%%EndProlog
%%BeginSetup
%%Feature: *Resolution 8000dpi
TeXDict begin
 end
%%EndSetup
TeXDict begin 1 0 bop Black Black 8524 102029 a @beginspecial
0 @llx 0 @lly 866 @urx 866 @ury 8660 @rwi @setspecial
%%BeginDocument: fig2ps-env02_upDown.pstex
%!PS-Adobe-3.0 EPSF-3.0
%%Title: fig2ps-env02_upDown.fig2
%%Creator: fig2dev Version 3.2 Patchlevel 5e
%%CreationDate: Thu Feb  7 00:29:34 2019
%%BoundingBox: 0 0 866 866
%Magnification: 1.0000
%%EndComments
%%BeginProlog
/$F2psDict 200 dict def
$F2psDict begin
$F2psDict /mtrx matrix put
/col-1 {0 setgray} bind def
/col0 {0.000 0.000 0.000 srgb} bind def
/col1 {0.000 0.000 1.000 srgb} bind def
/col2 {0.000 1.000 0.000 srgb} bind def
/col3 {0.000 1.000 1.000 srgb} bind def
/col4 {1.000 0.000 0.000 srgb} bind def
/col5 {1.000 0.000 1.000 srgb} bind def
/col6 {1.000 1.000 0.000 srgb} bind def
/col7 {1.000 1.000 1.000 srgb} bind def
/col8 {0.000 0.000 0.560 srgb} bind def
/col9 {0.000 0.000 0.690 srgb} bind def
/col10 {0.000 0.000 0.820 srgb} bind def
/col11 {0.530 0.810 1.000 srgb} bind def
/col12 {0.000 0.560 0.000 srgb} bind def
/col13 {0.000 0.690 0.000 srgb} bind def
/col14 {0.000 0.820 0.000 srgb} bind def
/col15 {0.000 0.560 0.560 srgb} bind def
/col16 {0.000 0.690 0.690 srgb} bind def
/col17 {0.000 0.820 0.820 srgb} bind def
/col18 {0.560 0.000 0.000 srgb} bind def
/col19 {0.690 0.000 0.000 srgb} bind def
/col20 {0.820 0.000 0.000 srgb} bind def
/col21 {0.560 0.000 0.560 srgb} bind def
/col22 {0.690 0.000 0.690 srgb} bind def
/col23 {0.820 0.000 0.820 srgb} bind def
/col24 {0.500 0.190 0.000 srgb} bind def
/col25 {0.630 0.250 0.000 srgb} bind def
/col26 {0.750 0.380 0.000 srgb} bind def
/col27 {1.000 0.500 0.500 srgb} bind def
/col28 {1.000 0.630 0.630 srgb} bind def
/col29 {1.000 0.750 0.750 srgb} bind def
/col30 {1.000 0.880 0.880 srgb} bind def
/col31 {1.000 0.840 0.000 srgb} bind def
/col32 {0.306 0.773 0.925 srgb} bind def
/col33 {0.498 0.000 0.000 srgb} bind def
/col34 {0.498 0.122 0.122 srgb} bind def
/col35 {0.624 0.871 0.945 srgb} bind def
/col36 {0.698 0.698 0.698 srgb} bind def
/col37 {0.749 0.000 0.000 srgb} bind def
end
/cp {closepath} bind def
/ef {eofill} bind def
/gr {grestore} bind def
/gs {gsave} bind def
/sa {save} bind def
/rs {restore} bind def
/l {lineto} bind def
/m {moveto} bind def
/rm {rmoveto} bind def
/n {newpath} bind def
/s {stroke} bind def
/sh {show} bind def
/slc {setlinecap} bind def
/slj {setlinejoin} bind def
/slw {setlinewidth} bind def
/srgb {setrgbcolor} bind def
/rot {rotate} bind def
/sc {scale} bind def
/sd {setdash} bind def
/ff {findfont} bind def
/sf {setfont} bind def
/scf {scalefont} bind def
/sw {stringwidth} bind def
/tr {translate} bind def
/tnt {dup dup currentrgbcolor
  4 -2 roll dup 1 exch sub 3 -1 roll mul add
  4 -2 roll dup 1 exch sub 3 -1 roll mul add
  4 -2 roll dup 1 exch sub 3 -1 roll mul add srgb}
  bind def
/shd {dup dup currentrgbcolor 4 -2 roll mul 4 -2 roll mul
  4 -2 roll mul srgb} bind def
 /DrawEllipse {
	/endangle exch def
	/startangle exch def
	/yrad exch def
	/xrad exch def
	/y exch def
	/x exch def
	/savematrix mtrx currentmatrix def
	x y tr xrad yrad sc 0 0 1 startangle endangle arc
	closepath
	savematrix setmatrix
	} def
/$F2psBegin {$F2psDict begin /$F2psEnteredState save def} def
/$F2psEnd {$F2psEnteredState restore end} def
/pageheader {
save
newpath 0 866 moveto 0 0 lineto 866 0 lineto 866 866 lineto closepath clip newpath
72.7 72.7 translate
1 -1 scale
$F2psBegin
10 setmiterlimit
0 slj 0 slc
 0.06000 0.06000 sc
} bind def
/pagefooter {
$F2psEnd
restore
} bind def
%%EndProlog
pageheader
%
% Fig objects follow
%
% 
% here starts figure with depth 50
% Polyline
1 slj
0 slc
7.500 slw
n -1200 1200 m -1200 -13200 l 13200 -13200 l 13200 1200 l
 cp gs 0.00 setgray ef gr gs col0 s gr 
% Polyline
n -975 525 m -975 -12975 l 12975 -12975 l 12975 525 l
 cp gs col7 1.00 shd ef gr gs col7 s gr 
% Polyline
n 368 -3293 m 7831 -3293 l 7831 -253 l 368 -253 l
 cp gs col36 1.00 shd ef gr gs col36 s gr 
% Polyline
n 368 -11516 m 7831 -11516 l 7831 -8291 l 368 -8291 l
 cp gs col36 1.00 shd ef gr gs col36 s gr 
% Polyline
n 7854 -11516 m 11631 -11516 l 11631 -253 l 7854 -253 l
 cp gs col36 1.00 shd ef gr gs col36 s gr 
% Polyline
n 368 -3293 m 807 -3293 l 807 -253 l 368 -253 l
 cp gs col32 1.00 shd ef gr gs col32 s gr 
% Polyline
n 807 -3293 m 1246 -3293 l 1246 -253 l 807 -253 l
 cp gs col35 1.00 shd ef gr gs col35 s gr 
% Polyline
n 1246 -3293 m 1685 -3293 l 1685 -253 l 1246 -253 l
 cp gs col32 1.00 shd ef gr gs col32 s gr 
% Polyline
n 1685 -3293 m 2124 -3293 l 2124 -253 l 1685 -253 l
 cp gs col35 1.00 shd ef gr gs col35 s gr 
% Polyline
n 2124 -3293 m 2563 -3293 l 2563 -253 l 2124 -253 l
 cp gs col32 1.00 shd ef gr gs col32 s gr 
% Polyline
n 2563 -3293 m 3002 -3293 l 3002 -253 l 2563 -253 l
 cp gs col35 1.00 shd ef gr gs col35 s gr 
% Polyline
n 3002 -3293 m 3441 -3293 l 3441 -253 l 3002 -253 l
 cp gs col32 1.00 shd ef gr gs col32 s gr 
% Polyline
n 3441 -3293 m 3880 -3293 l 3880 -253 l 3441 -253 l
 cp gs col35 1.00 shd ef gr gs col35 s gr 
% Polyline
n 3880 -3293 m 4319 -3293 l 4319 -253 l 3880 -253 l
 cp gs col32 1.00 shd ef gr gs col32 s gr 
% Polyline
n 4319 -3293 m 4758 -3293 l 4758 -253 l 4319 -253 l
 cp gs col35 1.00 shd ef gr gs col35 s gr 
% Polyline
n 4758 -3293 m 5197 -3293 l 5197 -253 l 4758 -253 l
 cp gs col32 1.00 shd ef gr gs col32 s gr 
% Polyline
n 5197 -3293 m 5636 -3293 l 5636 -253 l 5197 -253 l
 cp gs col35 1.00 shd ef gr gs col35 s gr 
% Polyline
n 5636 -3293 m 6075 -3293 l 6075 -253 l 5636 -253 l
 cp gs col32 1.00 shd ef gr gs col32 s gr 
% Polyline
n 6075 -3293 m 6514 -3293 l 6514 -253 l 6075 -253 l
 cp gs col35 1.00 shd ef gr gs col35 s gr 
% Polyline
n 6514 -3293 m 6953 -3293 l 6953 -253 l 6514 -253 l
 cp gs col32 1.00 shd ef gr gs col32 s gr 
% Polyline
n 6953 -3293 m 7392 -3293 l 7392 -253 l 6953 -253 l
 cp gs col35 1.00 shd ef gr gs col35 s gr 
% Polyline
n 7392 -3293 m 7831 -3293 l 7831 -253 l 7392 -253 l
 cp gs col32 1.00 shd ef gr gs col32 s gr 
% Polyline
n 368 -11516 m 807 -11516 l 807 -8291 l 368 -8291 l
 cp gs col35 1.00 shd ef gr gs col35 s gr 
% Polyline
n 807 -11516 m 1246 -11516 l 1246 -8291 l 807 -8291 l
 cp gs col32 1.00 shd ef gr gs col32 s gr 
% Polyline
n 1246 -11516 m 1685 -11516 l 1685 -8291 l 1246 -8291 l
 cp gs col35 1.00 shd ef gr gs col35 s gr 
% Polyline
n 1685 -11516 m 2124 -11516 l 2124 -8291 l 1685 -8291 l
 cp gs col32 1.00 shd ef gr gs col32 s gr 
% Polyline
n 2124 -11516 m 2563 -11516 l 2563 -8291 l 2124 -8291 l
 cp gs col35 1.00 shd ef gr gs col35 s gr 
% Polyline
n 2563 -11516 m 3002 -11516 l 3002 -8291 l 2563 -8291 l
 cp gs col32 1.00 shd ef gr gs col32 s gr 
% Polyline
n 3002 -11516 m 3441 -11516 l 3441 -8291 l 3002 -8291 l
 cp gs col35 1.00 shd ef gr gs col35 s gr 
% Polyline
n 3441 -11516 m 3880 -11516 l 3880 -8291 l 3441 -8291 l
 cp gs col32 1.00 shd ef gr gs col32 s gr 
% Polyline
n 3880 -11516 m 4319 -11516 l 4319 -8291 l 3880 -8291 l
 cp gs col35 1.00 shd ef gr gs col35 s gr 
% Polyline
n 4319 -11516 m 4758 -11516 l 4758 -8291 l 4319 -8291 l
 cp gs col32 1.00 shd ef gr gs col32 s gr 
% Polyline
n 4758 -11516 m 5197 -11516 l 5197 -8291 l 4758 -8291 l
 cp gs col35 1.00 shd ef gr gs col35 s gr 
% Polyline
n 5197 -11516 m 5636 -11516 l 5636 -8291 l 5197 -8291 l
 cp gs col32 1.00 shd ef gr gs col32 s gr 
% Polyline
n 5636 -11516 m 6075 -11516 l 6075 -8291 l 5636 -8291 l
 cp gs col35 1.00 shd ef gr gs col35 s gr 
% Polyline
n 6075 -11516 m 6514 -11516 l 6514 -8291 l 6075 -8291 l
 cp gs col32 1.00 shd ef gr gs col32 s gr 
% Polyline
n 6514 -11516 m 6953 -11516 l 6953 -8291 l 6514 -8291 l
 cp gs col35 1.00 shd ef gr gs col35 s gr 
% Polyline
n 6953 -11516 m 7392 -11516 l 7392 -8291 l 6953 -8291 l
 cp gs col32 1.00 shd ef gr gs col32 s gr 
% Polyline
n 7392 -11516 m 7831 -11516 l 7831 -8291 l 7392 -8291 l
 cp gs col35 1.00 shd ef gr gs col35 s gr 
% Polyline
n 7854 -11516 m 8273 -11516 l 8273 -253 l 7854 -253 l
 cp gs col32 1.00 shd ef gr gs col32 s gr 
% Polyline
n 8273 -11516 m 8693 -11516 l 8693 -253 l 8273 -253 l
 cp gs col35 1.00 shd ef gr gs col35 s gr 
% Polyline
n 8693 -11516 m 9113 -11516 l 9113 -253 l 8693 -253 l
 cp gs col32 1.00 shd ef gr gs col32 s gr 
% Polyline
n 9113 -11516 m 9532 -11516 l 9532 -253 l 9113 -253 l
 cp gs col35 1.00 shd ef gr gs col35 s gr 
% Polyline
n 9532 -11516 m 9952 -11516 l 9952 -253 l 9532 -253 l
 cp gs col32 1.00 shd ef gr gs col32 s gr 
% Polyline
n 9952 -11516 m 10372 -11516 l 10372 -253 l 9952 -253 l
 cp gs col35 1.00 shd ef gr gs col35 s gr 
% Polyline
n 10372 -11516 m 10792 -11516 l 10792 -253 l 10372 -253 l
 cp gs col32 1.00 shd ef gr gs col32 s gr 
% Polyline
n 10792 -11516 m 11211 -11516 l 11211 -253 l 10792 -253 l
 cp gs col35 1.00 shd ef gr gs col35 s gr 
% Polyline
n 11211 -11516 m 11631 -11516 l 11631 -253 l 11211 -253 l
 cp gs col32 1.00 shd ef gr gs col32 s gr 
% Ellipse
n 1904 -3293 115 115 0 360 DrawEllipse gs col4 1.00 shd ef gr gs col4 s gr
% Polyline
n 368 -3293 m 7831 -3293 l 7831 -253 l 368 -253 l
 cp gs col0 s gr 
% Polyline
n 368 -11516 m 7831 -11516 l 7831 -8291 l 368 -8291 l
 cp gs col0 s gr 
% Polyline
n 7854 -11516 m 11631 -11516 l 11631 -253 l 7854 -253 l
 cp gs col0 s gr 
% Polyline
n 368 -3293 m 807 -3293 l 807 -253 l 368 -253 l
 cp gs col0 s gr 
% Polyline
n 807 -3293 m 1246 -3293 l 1246 -253 l 807 -253 l
 cp gs col0 s gr 
% Polyline
n 1246 -3293 m 1685 -3293 l 1685 -253 l 1246 -253 l
 cp gs col0 s gr 
% Polyline
n 1685 -3293 m 2124 -3293 l 2124 -253 l 1685 -253 l
 cp gs col0 s gr 
% Polyline
n 2124 -3293 m 2563 -3293 l 2563 -253 l 2124 -253 l
 cp gs col0 s gr 
% Polyline
n 2563 -3293 m 3002 -3293 l 3002 -253 l 2563 -253 l
 cp gs col0 s gr 
% Polyline
n 3002 -3293 m 3441 -3293 l 3441 -253 l 3002 -253 l
 cp gs col0 s gr 
% Polyline
n 3441 -3293 m 3880 -3293 l 3880 -253 l 3441 -253 l
 cp gs col0 s gr 
% Polyline
n 3880 -3293 m 4319 -3293 l 4319 -253 l 3880 -253 l
 cp gs col0 s gr 
% Polyline
n 4319 -3293 m 4758 -3293 l 4758 -253 l 4319 -253 l
 cp gs col0 s gr 
% Polyline
n 4758 -3293 m 5197 -3293 l 5197 -253 l 4758 -253 l
 cp gs col0 s gr 
% Polyline
n 5197 -3293 m 5636 -3293 l 5636 -253 l 5197 -253 l
 cp gs col0 s gr 
% Polyline
n 5636 -3293 m 6075 -3293 l 6075 -253 l 5636 -253 l
 cp gs col0 s gr 
% Polyline
n 6075 -3293 m 6514 -3293 l 6514 -253 l 6075 -253 l
 cp gs col0 s gr 
% Polyline
n 6514 -3293 m 6953 -3293 l 6953 -253 l 6514 -253 l
 cp gs col0 s gr 
% Polyline
n 6953 -3293 m 7392 -3293 l 7392 -253 l 6953 -253 l
 cp gs col0 s gr 
% Polyline
n 7392 -3293 m 7831 -3293 l 7831 -253 l 7392 -253 l
 cp gs col0 s gr 
% Polyline
n 368 -11516 m 807 -11516 l 807 -8291 l 368 -8291 l
 cp gs col0 s gr 
% Polyline
n 807 -11516 m 1246 -11516 l 1246 -8291 l 807 -8291 l
 cp gs col0 s gr 
% Polyline
n 1246 -11516 m 1685 -11516 l 1685 -8291 l 1246 -8291 l
 cp gs col0 s gr 
% Polyline
n 1685 -11516 m 2124 -11516 l 2124 -8291 l 1685 -8291 l
 cp gs col0 s gr 
% Polyline
n 2124 -11516 m 2563 -11516 l 2563 -8291 l 2124 -8291 l
 cp gs col0 s gr 
% Polyline
n 2563 -11516 m 3002 -11516 l 3002 -8291 l 2563 -8291 l
 cp gs col0 s gr 
% Polyline
n 3002 -11516 m 3441 -11516 l 3441 -8291 l 3002 -8291 l
 cp gs col0 s gr 
% Polyline
n 3441 -11516 m 3880 -11516 l 3880 -8291 l 3441 -8291 l
 cp gs col0 s gr 
% Polyline
n 3880 -11516 m 4319 -11516 l 4319 -8291 l 3880 -8291 l
 cp gs col0 s gr 
% Polyline
n 4319 -11516 m 4758 -11516 l 4758 -8291 l 4319 -8291 l
 cp gs col0 s gr 
% Polyline
n 4758 -11516 m 5197 -11516 l 5197 -8291 l 4758 -8291 l
 cp gs col0 s gr 
% Polyline
n 5197 -11516 m 5636 -11516 l 5636 -8291 l 5197 -8291 l
 cp gs col0 s gr 
% Polyline
n 5636 -11516 m 6075 -11516 l 6075 -8291 l 5636 -8291 l
 cp gs col0 s gr 
% Polyline
n 6075 -11516 m 6514 -11516 l 6514 -8291 l 6075 -8291 l
 cp gs col0 s gr 
% Polyline
n 6514 -11516 m 6953 -11516 l 6953 -8291 l 6514 -8291 l
 cp gs col0 s gr 
% Polyline
n 6953 -11516 m 7392 -11516 l 7392 -8291 l 6953 -8291 l
 cp gs col0 s gr 
% Polyline
n 7392 -11516 m 7831 -11516 l 7831 -8291 l 7392 -8291 l
 cp gs col0 s gr 
% Polyline
n 7854 -11516 m 8273 -11516 l 8273 -253 l 7854 -253 l
 cp gs col0 s gr 
% Polyline
n 8273 -11516 m 8693 -11516 l 8693 -253 l 8273 -253 l
 cp gs col0 s gr 
% Polyline
n 8693 -11516 m 9113 -11516 l 9113 -253 l 8693 -253 l
 cp gs col0 s gr 
% Polyline
n 9113 -11516 m 9532 -11516 l 9532 -253 l 9113 -253 l
 cp gs col0 s gr 
% Polyline
n 9532 -11516 m 9952 -11516 l 9952 -253 l 9532 -253 l
 cp gs col0 s gr 
% Polyline
n 9952 -11516 m 10372 -11516 l 10372 -253 l 9952 -253 l
 cp gs col0 s gr 
% Polyline
n 10372 -11516 m 10792 -11516 l 10792 -253 l 10372 -253 l
 cp gs col0 s gr 
% Polyline
n 10792 -11516 m 11211 -11516 l 11211 -253 l 10792 -253 l
 cp gs col0 s gr 
% Polyline
n 11211 -11516 m 11631 -11516 l 11631 -253 l 11211 -253 l
 cp gs col0 s gr 
% Polyline
60.000 slw
n 1904 -3297 m 1902 -3343 l 1896 -3389 l 1887 -3434 l 1874 -3478 l 1857 -3521 l
 1837 -3563 l 1814 -3603 l 1788 -3640 l 1759 -3676 l 1727 -3709 l
 1692 -3740 l 1655 -3767 l 1617 -3792 l 1599 -3803 l 1561 -3829 l
 1525 -3857 l 1492 -3889 l 1461 -3923 l 1433 -3960 l 1408 -3999 l
 1386 -4039 l 1368 -4082 l 1353 -4125 l 1341 -4170 l 1334 -4215 l
 1329 -4261 l 1329 -4307 l 1332 -4353 l 1339 -4399 l 1349 -4443 l
 1363 -4487 l 1381 -4530 l 1402 -4571 l 1426 -4610 l 1453 -4648 l
 1483 -4682 l 1515 -4715 l 1550 -4745 l 1588 -4772 l 1627 -4795 l
 1669 -4816 l 1711 -4833 l 1755 -4847 l 1800 -4857 l 1846 -4863 l
 1892 -4866 l 1938 -4865 l 1984 -4861 l 2029 -4853 l 2073 -4841 l
 2117 -4826 l 2159 -4807 l 2199 -4785 l 2238 -4760 l 2275 -4732 l
 2309 -4701 l 2340 -4667 l 2369 -4631 l 2394 -4593 l 2417 -4553 l
 2436 -4511 l 2452 -4468 l 2465 -4423 l 2474 -4378 l 2479 -4332 l
 2480 -4286 l 2478 -4240 l 2472 -4195 l 2463 -4150 l 2450 -4105 l
 2433 -4062 l 2413 -4021 l 2390 -3981 l 2364 -3943 l 2335 -3908 l
 2303 -3875 l 2268 -3844 l 2231 -3816 l 2192 -3792 l 2189 -3790 l
 2150 -3765 l 2113 -3737 l 2079 -3706 l 2047 -3673 l 2018 -3637 l
 1992 -3599 l 1970 -3559 l 1950 -3517 l 1934 -3474 l 1921 -3430 l
 1912 -3385 l 1906 -3339 l 1904 -3293 l 1904 -253 l 1905 -224 l
 1909 -178 l 1917 -132 l 1929 -88 l 1944 -44 l 1962 -2 l
 1984 38 l 2009 76 l 2036 113 l 2067 147 l 2101 179 l
 2136 208 l 2174 234 l 2214 257 l 2256 277 l 2299 293 l
 2343 305 l 2389 315 l 2434 320 l 2480 322 l 2646 322 l
 2675 321 l 2721 317 l 2766 309 l 2811 298 l 2854 283 l
 2896 264 l 2937 243 l 2976 218 l 3012 190 l 3047 159 l
 3078 126 l 3107 90 l 3133 52 l 3156 12 l 3176 -29 l
 3192 -72 l 3205 -116 l 3214 -161 l 3220 -207 l 3221 -253 l
 3221 -3293 l 3221 -3322 l 3216 -3368 l 3209 -3414 l 3197 -3458 l
 3182 -3502 l 3164 -3544 l 3142 -3585 l 3117 -3623 l 3089 -3660 l
 3059 -3694 l 3025 -3726 l 2989 -3755 l 2951 -3781 l 2911 -3804 l
 2870 -3824 l 2827 -3840 l 2782 -3852 l 2737 -3862 l 2692 -3867 l
 2646 -3869 l 2041 -3869 l 2012 -3868 l 1966 -3864 l 1921 -3856 l
 1876 -3845 l 1833 -3830 l 1790 -3811 l 1750 -3790 l 1711 -3765 l
 1674 -3737 l 1640 -3706 l 1608 -3673 l 1579 -3637 l 1553 -3599 l
 1531 -3559 l 1511 -3517 l 1495 -3474 l 1482 -3430 l 1473 -3385 l
 1467 -3339 l 1465 -3293 l 1465 -253 l 1466 -224 l 1470 -178 l
 1478 -132 l 1490 -88 l 1505 -44 l 1523 -2 l 1545 38 l
 1570 76 l 1597 113 l 1628 147 l 1662 179 l 1697 208 l
 1735 234 l 1775 257 l 1817 277 l 1860 293 l 1904 305 l
 1950 315 l 1995 320 l 2041 322 l 2207 322 l 2236 321 l
 2282 317 l 2327 309 l 2372 298 l 2415 283 l 2457 264 l
 2498 243 l 2537 218 l 2573 190 l 2608 159 l 2639 126 l
 2668 90 l 2694 52 l 2717 12 l 2737 -29 l 2753 -72 l
 2766 -116 l 2775 -161 l 2781 -207 l 2782 -253 l 2782 -3293 l
 2783 -3322 l 2787 -3368 l 2795 -3414 l 2807 -3458 l 2822 -3502 l
 2840 -3544 l 2862 -3585 l 2886 -3623 l 2914 -3660 l 2945 -3694 l
 2979 -3726 l 3014 -3755 l 3052 -3781 l 3092 -3804 l 3134 -3824 l
 3177 -3840 l 3221 -3852 l 3266 -3862 l 3312 -3867 l 3358 -3869 l
 3523 -3869 l 3553 -3868 l 3599 -3864 l 3644 -3856 l 3689 -3845 l
 3732 -3830 l 3774 -3811 l 3815 -3790 l 3854 -3765 l 3890 -3737 l
 3925 -3706 l 3956 -3673 l 3985 -3637 l 4011 -3599 l 4034 -3559 l
 4054 -3517 l 4070 -3474 l 4083 -3430 l 4092 -3385 l 4097 -3339 l
 4099 -3293 l 4099 -253 l 4100 -235 l 4103 -189 l 4110 -144 l
 4120 -99 l 4134 -55 l 4152 -13 l 4173 28 l 4197 67 l
 4224 104 l 4254 139 l 4287 171 l 4322 201 l 4359 228 l
 4399 251 l 4440 272 l 4483 289 l 4527 303 l 4572 313 l
 4618 319 l 4663 322 l 4710 321 l 4755 316 l 4801 308 l
 4845 296 l 4889 281 l 4931 262 l 4971 240 l 5010 215 l
 5046 187 l 5080 156 l 5111 122 l 5140 86 l 5166 48 l
 5188 7 l 5207 -33 l 5223 -77 l 5236 -121 l 5244 -166 l
 5249 -212 l 5251 -258 l 5249 -304 l 4541 -8240 l 4540 -8245 l
 4538 -8291 l 4538 -11516 l 4538 -11545 l 4533 -11591 l 4526 -11636 l
 4514 -11681 l 4499 -11724 l 4481 -11767 l 4459 -11807 l 4434 -11846 l
 4406 -11883 l 4376 -11917 l 4342 -11949 l 4306 -11978 l 4268 -12004 l
 4228 -12027 l 4187 -12046 l 4144 -12062 l 4099 -12075 l 4054 -12084 l
 4008 -12090 l 3962 -12092 l 3797 -12092 l 3768 -12091 l 3722 -12087 l
 3677 -12079 l 3632 -12067 l 3589 -12052 l 3546 -12034 l 3506 -12012 l
 3467 -11988 l 3430 -11960 l 3396 -11929 l 3364 -11895 l 3335 -11860 l
 3309 -11822 l 3286 -11782 l 3267 -11740 l 3251 -11697 l 3238 -11653 l
 3229 -11608 l 3223 -11562 l 3221 -11516 l 3221 -8291 l 3221 -8262 l
 3216 -8216 l 3209 -8171 l 3197 -8126 l 3182 -8083 l 3164 -8040 l
 3142 -8000 l 3117 -7961 l 3089 -7924 l 3059 -7890 l 3025 -7858 l
 2989 -7829 l 2951 -7803 l 2911 -7781 l 2870 -7761 l 2827 -7745 l
 2782 -7732 l 2737 -7723 l 2692 -7717 l 2646 -7715 l 2480 -7715 l
 2451 -7716 l 2405 -7720 l 2360 -7728 l 2315 -7740 l 2272 -7755 l
 2229 -7773 l 2189 -7795 l 2150 -7820 l 2113 -7847 l 2079 -7878 l
 2047 -7912 l 2018 -7947 l 1992 -7985 l 1970 -8025 l 1950 -8067 l
 1934 -8110 l 1921 -8154 l 1912 -8200 l 1906 -8245 l 1904 -8291 l
 1904 -11516 l 1904 -11545 l 1900 -11591 l 1892 -11636 l 1880 -11681 l
 1865 -11724 l 1847 -11767 l 1825 -11807 l 1800 -11846 l 1772 -11883 l
 1742 -11917 l 1708 -11949 l 1672 -11978 l 1634 -12004 l 1595 -12027 l
 1553 -12046 l 1510 -12062 l 1465 -12075 l 1420 -12084 l 1375 -12090 l
 1329 -12092 l 1163 -12092 l 1134 -12091 l 1088 -12087 l 1043 -12079 l
 998 -12067 l 955 -12052 l 912 -12034 l 872 -12012 l 833 -11988 l
 796 -11960 l 762 -11929 l 730 -11895 l 701 -11860 l 675 -11822 l
 653 -11782 l 633 -11740 l 617 -11697 l 604 -11653 l 595 -11608 l
 589 -11562 l 588 -11516 l 588 -8291 l 587 -8284 l 585 -8238 l
 579 -8192 l 569 -8147 l 556 -8103 l 539 -8060 l 519 -8019 l
 507 -7995 l 489 -7953 l 474 -7909 l 463 -7865 l 455 -7819 l
 451 -7773 l 451 -7727 l 454 -7681 l 461 -7636 l 472 -7591 l
 486 -7547 l 504 -7505 l 525 -7464 l 549 -7424 l 577 -7387 l
 607 -7353 l 640 -7320 l 675 -7291 l 712 -7264 l 752 -7241 l
 793 -7220 l 836 -7203 l 880 -7190 l 925 -7180 l 971 -7174 l
 1017 -7171 l 1063 -7172 l 1109 -7177 l 1154 -7185 l 1198 -7197 l
 1242 -7213 l 1284 -7232 l 1324 -7254 l 1363 -7279 l 1399 -7308 l
 1433 -7339 l 1464 -7373 l 1493 -7409 l 1518 -7447 l 1541 -7487 l
 1560 -7529 l 1575 -7572 l 1587 -7617 l 1596 -7662 l 1601 -7708 l
 1602 -7754 l 1600 -7800 l 1594 -7846 l 1584 -7891 l 1571 -7935 l
 1554 -7978 l 1534 -8019 l 1531 -8025 l 1511 -8067 l 1495 -8110 l
 1482 -8154 l 1473 -8200 l 1467 -8245 l 1465 -8291 l 1465 -11516 l
 1466 -11545 l 1470 -11591 l 1478 -11636 l 1490 -11681 l 1505 -11724 l
 1523 -11767 l 1545 -11807 l 1570 -11846 l 1597 -11883 l 1628 -11917 l
 1662 -11949 l 1697 -11978 l 1735 -12004 l 1775 -12027 l 1817 -12046 l
 1860 -12062 l 1904 -12075 l 1950 -12084 l 1995 -12090 l 2041 -12092 l
 2207 -12092 l 2236 -12091 l 2282 -12087 l 2327 -12079 l 2372 -12067 l
 2415 -12052 l 2457 -12034 l 2498 -12012 l 2537 -11988 l 2573 -11960 l
 2608 -11929 l 2639 -11895 l 2668 -11860 l 2694 -11822 l 2717 -11782 l
 2737 -11740 l 2753 -11697 l 2766 -11653 l 2775 -11608 l 2781 -11562 l
 2782 -11516 l 2782 -8291 l 2782 -8262 l 2777 -8216 l 2770 -8171 l
 2758 -8126 l 2743 -8083 l 2725 -8040 l 2703 -8000 l 2678 -7961 l
 2650 -7924 l 2620 -7890 l 2586 -7858 l 2550 -7829 l 2512 -7803 l
 2472 -7781 l 2431 -7761 l 2388 -7745 l 2343 -7732 l 2298 -7723 l
 2253 -7717 l 2207 -7715 l 1602 -7715 l 1573 -7716 l 1527 -7720 l
 1482 -7728 l 1437 -7740 l 1394 -7755 l 1351 -7773 l 1311 -7795 l
 1272 -7820 l 1235 -7847 l 1201 -7878 l 1169 -7912 l 1140 -7947 l
 1114 -7985 l 1092 -8025 l 1072 -8067 l 1056 -8110 l 1043 -8154 l
 1034 -8200 l 1028 -8245 l 1026 -8291 l 1026 -11516 l 1027 -11545 l
 1031 -11591 l 1039 -11636 l 1051 -11681 l 1066 -11724 l 1084 -11767 l
 1106 -11807 l 1131 -11846 l 1158 -11883 l 1189 -11917 l 1223 -11949 l
 1258 -11978 l 1296 -12004 l 1336 -12027 l 1378 -12046 l 1421 -12062 l
 1465 -12075 l 1511 -12084 l 1556 -12090 l 1602 -12092 l 1768 -12092 l
 1797 -12091 l 1843 -12087 l 1888 -12079 l 1933 -12067 l 1976 -12052 l
 2018 -12034 l 2059 -12012 l 2098 -11988 l 2134 -11960 l 2169 -11929 l
 2200 -11895 l 2229 -11860 l 2255 -11822 l 2278 -11782 l 2298 -11740 l
 2314 -11697 l 2327 -11653 l 2336 -11608 l 2342 -11562 l 2343 -11516 l
 2343 -8291 l 2344 -8262 l 2348 -8216 l 2356 -8171 l 2368 -8126 l
 2383 -8083 l 2401 -8040 l 2423 -8000 l 2448 -7961 l 2475 -7924 l
 2506 -7890 l 2540 -7858 l 2575 -7829 l 2613 -7803 l 2653 -7781 l
 2695 -7761 l 2738 -7745 l 2782 -7732 l 2827 -7723 l 2873 -7717 l
 2919 -7715 l 3085 -7715 l 3114 -7716 l 3160 -7720 l 3205 -7728 l
 3250 -7740 l 3293 -7755 l 3335 -7773 l 3376 -7795 l 3415 -7820 l
 3451 -7847 l 3486 -7878 l 3517 -7912 l 3546 -7947 l 3572 -7985 l
 3595 -8025 l 3615 -8067 l 3631 -8110 l 3644 -8154 l 3653 -8200 l
 3658 -8245 l 3660 -8291 l 3660 -11516 l 3661 -11545 l 3665 -11591 l
 3673 -11636 l 3685 -11681 l 3699 -11724 l 3718 -11767 l 3740 -11807 l
 3764 -11846 l 3792 -11883 l 3823 -11917 l 3856 -11949 l 3892 -11978 l
 3930 -12004 l 3970 -12027 l 4012 -12046 l 4055 -12062 l 4099 -12075 l
 4144 -12084 l 4190 -12090 l 4236 -12092 l 4401 -12092 l 4431 -12091 l
 4477 -12087 l 4522 -12079 l 4567 -12067 l 4610 -12052 l 4652 -12034 l
 4693 -12012 l 4732 -11988 l 4768 -11960 l 4803 -11929 l 4834 -11895 l
 4863 -11860 l 4889 -11822 l 4912 -11782 l 4932 -11740 l 4948 -11697 l
 4961 -11653 l 4970 -11608 l 4975 -11562 l 4977 -11516 l 4977 -8291 l
 4978 -8262 l 4982 -8216 l 4990 -8171 l 5001 -8126 l 5016 -8083 l
 5035 -8040 l 5056 -8000 l 5081 -7961 l 5109 -7924 l 5140 -7890 l
 5173 -7858 l 5209 -7829 l 5247 -7803 l 5287 -7781 l 5329 -7761 l
 5372 -7745 l 5416 -7732 l 5461 -7723 l 5507 -7717 l 5553 -7715 l
 6157 -7715 l 6187 -7716 l 6232 -7720 l 6278 -7728 l 6322 -7740 l
 6366 -7755 l 6408 -7773 l 6449 -7795 l 6488 -7820 l 6524 -7847 l
 6559 -7878 l 6590 -7912 l 6619 -7947 l 6645 -7985 l 6668 -8025 l
 6688 -8067 l 6704 -8110 l 6717 -8154 l 6726 -8200 l 6731 -8245 l
 6733 -8291 l 6733 -11516 l 6732 -11545 l 6728 -11591 l 6720 -11636 l
 6709 -11681 l 6694 -11724 l 6676 -11767 l 6654 -11807 l 6629 -11846 l
 6601 -11883 l 6570 -11917 l 6537 -11949 l 6501 -11978 l 6463 -12004 l
 6423 -12027 l 6382 -12046 l 6338 -12062 l 6294 -12075 l 6249 -12084 l
 6203 -12090 l 6157 -12092 l 5992 -12092 l 5963 -12091 l 5917 -12087 l
 5872 -12079 l 5827 -12067 l 5783 -12052 l 5741 -12034 l 5701 -12012 l
 5662 -11988 l 5625 -11960 l 5591 -11929 l 5559 -11895 l 5530 -11860 l
 5504 -11822 l 5481 -11782 l 5462 -11740 l 5445 -11697 l 5433 -11653 l
 5424 -11608 l 5418 -11562 l 5416 -11516 l 5416 -8291 l 5415 -8262 l
 5411 -8216 l 5403 -8171 l 5392 -8126 l 5377 -8083 l 5359 -8040 l
 5337 -8000 l 5312 -7961 l 5284 -7924 l 5253 -7890 l 5220 -7858 l
 5184 -7829 l 5146 -7803 l 5106 -7781 l 5065 -7761 l 5022 -7745 l
 4977 -7732 l 4932 -7723 l 4886 -7717 l 4840 -7715 l 4675 -7715 l
 4646 -7716 l 4600 -7720 l 4555 -7728 l 4510 -7740 l 4466 -7755 l
 4424 -7773 l 4384 -7795 l 4345 -7820 l 4308 -7847 l 4274 -7878 l
 4242 -7912 l 4213 -7947 l 4187 -7985 l 4164 -8025 l 4145 -8067 l
 4129 -8110 l 4116 -8154 l 4107 -8200 l 4101 -8245 l 4099 -8291 l
 4099 -11516 l 4100 -11545 l 4104 -11591 l 4112 -11636 l 4123 -11681 l
 4138 -11724 l 4157 -11767 l 4179 -11807 l 4203 -11846 l 4231 -11883 l
 4262 -11917 l 4295 -11949 l 4331 -11978 l 4369 -12004 l 4409 -12027 l
 4451 -12046 l 4494 -12062 l 4538 -12075 l 4583 -12084 l 4629 -12090 l
 4675 -12092 l 5279 -12092 l 5309 -12091 l 5354 -12087 l 5400 -12079 l
 5444 -12067 l 5488 -12052 l 5530 -12034 l 5571 -12012 l 5610 -11988 l
 5646 -11960 l 5681 -11929 l 5712 -11895 l 5741 -11860 l 5767 -11822 l
 5790 -11782 l 5810 -11740 l 5826 -11697 l 5839 -11653 l 5848 -11608 l
 5853 -11562 l 5855 -11516 l 5855 -8291 l 5856 -8262 l 5860 -8216 l
 5868 -8171 l 5879 -8126 l 5894 -8083 l 5913 -8040 l 5934 -8000 l
 5959 -7961 l 5987 -7924 l 6018 -7890 l 6051 -7858 l 6087 -7829 l
 6125 -7803 l 6165 -7781 l 6207 -7761 l 6250 -7745 l 6294 -7732 l
 6339 -7723 l 6385 -7717 l 6431 -7715 l 6596 -7715 l 6626 -7716 l
 6671 -7720 l 6717 -7728 l 6761 -7740 l 6805 -7755 l 6847 -7773 l
 6888 -7795 l 6927 -7820 l 6963 -7847 l 6997 -7878 l 7029 -7912 l
 7058 -7947 l 7084 -7985 l 7107 -8025 l 7127 -8067 l 7143 -8110 l
 7156 -8154 l 7165 -8200 l 7170 -8245 l 7172 -8291 l 7172 -11516 l
 7173 -11545 l 7177 -11591 l 7185 -11636 l 7196 -11681 l 7211 -11724 l
 7230 -11767 l 7251 -11807 l 7276 -11846 l 7304 -11883 l 7335 -11917 l
 7368 -11949 l 7404 -11978 l 7442 -12004 l 7482 -12027 l 7524 -12046 l
 7567 -12062 l 7611 -12075 l 7656 -12084 l 7702 -12090 l 7748 -12092 l
 7907 -12092 l 7937 -12091 l 7982 -12087 l 8028 -12079 l 8072 -12067 l
 8116 -12052 l 8158 -12034 l 8199 -12012 l 8238 -11988 l 8274 -11960 l
 8309 -11929 l 8340 -11895 l 8369 -11860 l 8395 -11822 l 8418 -11782 l
 8438 -11740 l 8454 -11697 l 8467 -11653 l 8476 -11608 l 8481 -11562 l
 8483 -11516 l 8483 -253 l 8482 -224 l 8478 -178 l 8470 -132 l
 8459 -88 l 8444 -44 l 8426 -2 l 8404 38 l 8379 76 l
 8351 113 l 8320 147 l 8287 179 l 8251 208 l 8213 234 l
 8173 257 l 8132 277 l 8089 293 l 8044 305 l 7999 315 l
 7953 320 l 7907 322 l 7748 322 l 7719 321 l 7673 317 l
 7627 309 l 7583 298 l 7539 283 l 7497 264 l 7456 243 l
 7418 218 l 7381 190 l 7347 159 l 7315 126 l 7286 90 l
 7260 52 l 7237 12 l 7218 -29 l 7201 -72 l 7189 -116 l
 7179 -161 l 7174 -207 l 7172 -253 l 7172 -3293 l 7171 -3322 l
 7167 -3368 l 7159 -3414 l 7148 -3458 l 7133 -3502 l 7115 -3544 l
 7093 -3585 l 7068 -3623 l 7040 -3660 l 7009 -3694 l 6976 -3726 l
 6940 -3755 l 6902 -3781 l 6862 -3804 l 6821 -3824 l 6777 -3840 l
 6733 -3852 l 6688 -3862 l 6642 -3867 l 6596 -3869 l 5992 -3869 l
 5963 -3868 l 5917 -3864 l 5872 -3856 l 5827 -3845 l 5783 -3830 l
 5741 -3811 l 5701 -3790 l 5662 -3765 l 5625 -3737 l 5591 -3706 l
 5559 -3673 l 5530 -3637 l 5504 -3599 l 5481 -3559 l 5462 -3517 l
 5445 -3474 l 5433 -3430 l 5424 -3385 l 5418 -3339 l 5416 -3293 l
 5416 -253 l 5417 -224 l 5421 -178 l 5429 -132 l 5440 -88 l
 5455 -44 l 5474 -2 l 5495 38 l 5520 76 l 5548 113 l
 5579 147 l 5612 179 l 5648 208 l 5686 234 l 5726 257 l
 5768 277 l 5811 293 l 5855 305 l 5900 315 l 5946 320 l
 5992 322 l 6157 322 l 6187 321 l 6232 317 l 6278 309 l
 6322 298 l 6366 283 l 6408 264 l 6449 243 l 6488 218 l
 6524 190 l 6559 159 l 6590 126 l 6619 90 l 6645 52 l
 6668 12 l 6688 -29 l 6704 -72 l 6717 -116 l 6726 -161 l
 6731 -207 l 6733 -253 l 6733 -3293 l 6732 -3322 l 6728 -3368 l
 6720 -3414 l 6709 -3458 l 6694 -3502 l 6676 -3544 l 6654 -3585 l
 6629 -3623 l 6601 -3660 l 6570 -3694 l 6537 -3726 l 6501 -3755 l
 6463 -3781 l 6423 -3804 l 6382 -3824 l 6338 -3840 l 6294 -3852 l
 6249 -3862 l 6203 -3867 l 6157 -3869 l 5114 -3869 l 5085 -3868 l
 5039 -3864 l 4994 -3856 l 4949 -3845 l 4905 -3830 l 4863 -3811 l
 4823 -3790 l 4784 -3765 l 4747 -3737 l 4713 -3706 l 4681 -3673 l
 4652 -3637 l 4626 -3599 l 4603 -3559 l 4584 -3517 l 4568 -3474 l
 4555 -3430 l 4546 -3385 l 4540 -3339 l 4538 -3293 l 4538 -253 l
 4539 -224 l 4543 -178 l 4551 -132 l 4562 -88 l 4577 -44 l
 4596 -2 l 4618 38 l 4642 76 l 4670 113 l 4701 147 l
 4734 179 l 4770 208 l 4808 234 l 4848 257 l 4890 277 l
 4933 293 l 4977 305 l 5022 315 l 5068 320 l 5114 322 l
 5279 322 l 5309 321 l 5354 317 l 5400 309 l 5444 298 l
 5488 283 l 5530 264 l 5571 243 l 5610 218 l 5646 190 l
 5681 159 l 5712 126 l 5741 90 l 5767 52 l 5790 12 l
 5810 -29 l 5826 -72 l 5839 -116 l 5848 -161 l 5853 -207 l
 5855 -253 l 5855 -3293 l 5856 -3322 l 5860 -3368 l 5868 -3414 l
 5879 -3458 l 5894 -3502 l 5913 -3544 l 5934 -3585 l 5959 -3623 l
 5987 -3660 l 6018 -3694 l 6051 -3726 l 6087 -3755 l 6125 -3781 l
 6165 -3804 l 6207 -3824 l 6250 -3840 l 6294 -3852 l 6339 -3862 l
 6385 -3867 l 6431 -3869 l 7035 -3869 l 7065 -3868 l 7110 -3864 l
 7156 -3856 l 7200 -3845 l 7244 -3830 l 7286 -3811 l 7327 -3790 l
 7366 -3765 l 7402 -3737 l 7436 -3706 l 7468 -3673 l 7497 -3637 l
 7523 -3599 l 7546 -3559 l 7566 -3517 l 7582 -3474 l 7595 -3430 l
 7604 -3385 l 7609 -3339 l 7611 -3293 l 7611 -253 l 7612 -224 l
 7616 -178 l 7624 -132 l 7635 -88 l 7650 -44 l 7669 -2 l
 7690 38 l 7715 76 l 7743 113 l 7774 147 l 7807 179 l
 7843 208 l 7881 234 l 7921 257 l 7963 277 l 8006 293 l
 8050 305 l 8095 315 l 8141 320 l 8187 322 l 8327 322 l
 8356 321 l 8402 317 l 8448 309 l 8492 298 l 8536 283 l
 8578 264 l 8619 243 l 8657 218 l 8694 190 l 8728 159 l
 8760 126 l 8789 90 l 8815 52 l 8838 12 l 8857 -29 l
 8874 -72 l 8886 -116 l 8896 -161 l 8901 -207 l 8903 -253 l
 8903 -11516 l 8904 -11545 l 8908 -11591 l 8916 -11636 l 8927 -11681 l
 8942 -11724 l 8960 -11767 l 8982 -11807 l 9007 -11846 l 9035 -11883 l
 9066 -11917 l 9099 -11949 l 9135 -11978 l 9173 -12004 l 9213 -12027 l
 9254 -12046 l 9298 -12062 l 9342 -12075 l 9387 -12084 l 9433 -12090 l
 9479 -12092 l 9586 -12092 l 9615 -12091 l 9661 -12087 l 9707 -12079 l
 9751 -12067 l 9795 -12052 l 9837 -12034 l 9878 -12012 l 9916 -11988 l
 9953 -11960 l 9987 -11929 l 10019 -11895 l 10048 -11860 l 10074 -11822 l
 10097 -11782 l 10117 -11740 l 10133 -11697 l 10146 -11653 l 10155 -11608 l
 10160 -11562 l 10162 -11516 l 10162 -253 l 10163 -224 l 10167 -178 l
 10175 -132 l 10186 -88 l 10201 -44 l 10220 -2 l 10241 38 l
 10266 76 l 10294 113 l 10325 147 l 10358 179 l 10394 208 l
 10432 234 l 10472 257 l 10514 277 l 10557 293 l 10601 305 l
 10646 315 l 10692 320 l 10738 322 l 10845 322 l 10875 321 l
 10920 317 l 10966 309 l 11010 298 l 11054 283 l 11096 264 l
 11137 243 l 11176 218 l 11212 190 l 11246 159 l 11278 126 l
 11307 90 l 11333 52 l 11356 12 l 11376 -29 l 11392 -72 l
 11405 -116 l 11414 -161 l 11419 -207 l 11421 -253 l 11421 -11516 l
 11422 -11543 l 11426 -11589 l 11433 -11634 l 11445 -11679 l 11459 -11722 l
 11478 -11765 l 11499 -11805 l 11509 -11823 l 11529 -11864 l 11546 -11907 l
 11559 -11951 l 11569 -11996 l 11575 -12042 l 11577 -12088 l 11576 -12134 l
 11571 -12180 l 11562 -12225 l 11550 -12270 l 11534 -12313 l 11515 -12355 l
 11493 -12395 l 11467 -12433 l 11439 -12469 l 11407 -12503 l 11373 -12534 l
 11337 -12563 l 11299 -12588 l 11258 -12610 l 11216 -12629 l 11173 -12644 l
 11128 -12656 l 11083 -12665 l 11037 -12669 l 10991 -12670 l 10945 -12668 l
 10900 -12662 l 10855 -12652 l 10811 -12638 l 10768 -12621 l 10727 -12601 l
 10687 -12577 l 10649 -12551 l 10614 -12521 l 10581 -12489 l 10551 -12454 l
 10524 -12417 l 10500 -12378 l 10479 -12337 l 10461 -12294 l 10447 -12250 l
 10436 -12205 l 10429 -12160 l 10426 -12114 l 10426 -12068 l 10430 -12022 l
 10438 -11977 l 10449 -11932 l 10464 -11888 l 10482 -11846 l 10504 -11805 l
 10517 -11782 l 10536 -11740 l 10552 -11697 l 10565 -11653 l 10574 -11608 l
 10580 -11562 l 10582 -11516 l 10582 -253 l 10581 -224 l 10577 -178 l
 10569 -132 l 10558 -88 l 10543 -44 l 10524 -2 l 10502 38 l
 10478 76 l 10450 113 l 10419 147 l 10386 179 l 10350 208 l
 10312 234 l 10272 257 l 10230 277 l 10187 293 l 10143 305 l
 10098 315 l 10052 320 l 10006 322 l 9898 322 l 9869 321 l
 9823 317 l 9778 309 l 9733 298 l 9690 283 l 9648 264 l
 9607 243 l 9568 218 l 9532 190 l 9497 159 l 9466 126 l
 9437 90 l 9411 52 l 9388 12 l 9368 -29 l 9352 -72 l
 9339 -116 l 9330 -161 l 9324 -207 l 9323 -253 l 9323 -11516 l
 9323 -11545 l 9328 -11591 l 9335 -11636 l 9347 -11681 l 9362 -11724 l
 9380 -11767 l 9402 -11807 l 9427 -11846 l 9455 -11883 l 9485 -11917 l
 9519 -11949 l 9555 -11978 l 9593 -12004 l 9633 -12027 l 9674 -12046 l
 9717 -12062 l 9762 -12075 l 9807 -12084 l 9852 -12090 l 9898 -12092 l
 10426 -12092 l 10455 -12091 l 10501 -12087 l 10546 -12079 l 10591 -12067 l
 10634 -12052 l 10676 -12034 l 10717 -12012 l 10756 -11988 l 10792 -11960 l
 10827 -11929 l 10859 -11895 l 10887 -11860 l 10913 -11822 l 10936 -11782 l
 10956 -11740 l 10972 -11697 l 10985 -11653 l 10994 -11608 l 11000 -11562 l
 11001 -11516 l 11001 -253 l 11001 -224 l 10997 -178 l 10989 -132 l
 10977 -88 l 10962 -44 l 10944 -2 l 10922 38 l 10897 76 l
 10869 113 l 10839 147 l 10805 179 l 10769 208 l 10731 234 l
 10692 257 l 10650 277 l 10607 293 l 10562 305 l 10517 315 l
 10472 320 l 10426 322 l 10318 322 l 10289 321 l 10243 317 l
 10198 309 l 10153 298 l 10109 283 l 10067 264 l 10027 243 l
 9988 218 l 9951 190 l 9917 159 l 9885 126 l 9856 90 l
 9830 52 l 9807 12 l 9788 -29 l 9772 -72 l 9759 -116 l
 9750 -161 l 9744 -207 l 9742 -253 l 9742 -11516 l 9742 -11545 l
 9737 -11591 l 9730 -11636 l 9718 -11681 l 9703 -11724 l 9685 -11767 l
 9663 -11807 l 9638 -11846 l 9610 -11883 l 9580 -11917 l 9546 -11949 l
 9510 -11978 l 9472 -12004 l 9432 -12027 l 9391 -12046 l 9348 -12062 l
 9303 -12075 l 9258 -12084 l 9213 -12090 l 9166 -12092 l 8187 -12092 l
 8158 -12091 l 8112 -12087 l 8066 -12079 l 8022 -12067 l 7978 -12052 l
 7936 -12034 l 7895 -12012 l 7857 -11988 l 7820 -11960 l 7786 -11929 l
 7754 -11895 l 7725 -11860 l 7699 -11822 l 7676 -11782 l 7657 -11740 l
 7640 -11697 l 7628 -11653 l 7618 -11608 l 7613 -11562 l 7611 -11516 l
 7611 -8291 l 7610 -8262 l 7606 -8216 l 7598 -8171 l 7587 -8126 l
 7572 -8083 l 7554 -8040 l 7532 -8000 l 7507 -7961 l 7479 -7924 l
 7448 -7890 l 7415 -7858 l 7379 -7829 l 7341 -7803 l 7301 -7781 l
 7260 -7761 l 7216 -7745 l 7172 -7732 l 7127 -7723 l 7081 -7717 l
 7035 -7715 l 6870 -7715 l 6841 -7716 l 6795 -7720 l 6750 -7728 l
 6705 -7740 l 6661 -7755 l 6619 -7773 l 6579 -7795 l 6540 -7820 l
 6503 -7847 l 6469 -7878 l 6437 -7912 l 6408 -7947 l 6382 -7985 l
 6359 -8025 l 6340 -8067 l 6323 -8110 l 6311 -8154 l 6302 -8200 l
 6296 -8245 l 6294 -8291 l 6294 -11516 l 6295 -11545 l 6299 -11591 l
 6307 -11636 l 6318 -11681 l 6333 -11724 l 6352 -11767 l 6373 -11807 l
 6398 -11846 l 6426 -11883 l 6457 -11917 l 6490 -11949 l 6526 -11978 l
 6564 -12004 l 6604 -12027 l 6646 -12046 l 6689 -12062 l 6733 -12075 l
 6778 -12084 l 6824 -12090 l 6870 -12092 l 7488 -12092 l 7517 -12091 l
 7563 -12087 l 7608 -12079 l 7653 -12067 l 7696 -12052 l 7739 -12034 l
 7779 -12012 l 7818 -11988 l 7855 -11960 l 7889 -11929 l 7921 -11895 l
 7950 -11860 l 7976 -11822 l 7998 -11782 l 8018 -11740 l 8034 -11697 l
 8047 -11653 l 8056 -11608 l 8062 -11562 l 8063 -11516 l 8063 -253 l
 8063 -224 l 8059 -178 l 8051 -132 l 8039 -88 l 8024 -44 l
 8006 -2 l 7984 38 l 7959 76 l 7931 113 l 7901 147 l
 7867 179 l 7832 208 l 7794 234 l 7754 257 l 7712 277 l
 7669 293 l 7625 305 l 7579 315 l 7534 320 l 7488 322 l
 6870 322 l 6841 321 l 6795 317 l 6750 309 l 6705 298 l
 6661 283 l 6619 264 l 6579 243 l 6540 218 l 6503 190 l
 6469 159 l 6437 126 l 6408 90 l 6382 52 l 6359 12 l
 6340 -29 l 6323 -72 l 6311 -116 l 6302 -161 l 6296 -207 l
 6294 -253 l 6294 -3293 l 6293 -3322 l 6289 -3368 l 6281 -3414 l
 6270 -3458 l 6255 -3502 l 6237 -3544 l 6215 -3585 l 6190 -3623 l
 6162 -3660 l 6131 -3694 l 6098 -3726 l 6062 -3755 l 6024 -3781 l
 5984 -3804 l 5943 -3824 l 5899 -3840 l 5855 -3852 l 5810 -3862 l
 5764 -3867 l 5718 -3869 l 5553 -3869 l 5524 -3868 l 5478 -3864 l
 5433 -3856 l 5388 -3845 l 5344 -3830 l 5302 -3811 l 5262 -3790 l
 5223 -3765 l 5186 -3737 l 5152 -3706 l 5120 -3673 l 5091 -3637 l
 5065 -3599 l 5042 -3559 l 5023 -3517 l 5006 -3474 l 4994 -3430 l
 4985 -3385 l 4979 -3339 l 4977 -3293 l 4977 -253 l 4977 -224 l
 4972 -178 l 4965 -132 l 4953 -88 l 4938 -44 l 4920 -2 l
 4898 38 l 4873 76 l 4845 113 l 4815 147 l 4781 179 l
 4745 208 l 4707 234 l 4667 257 l 4626 277 l 4583 293 l
 4538 305 l 4493 315 l 4447 320 l 4401 322 l 4236 322 l
 4207 321 l 4161 317 l 4116 309 l 4071 298 l 4027 283 l
 3985 264 l 3945 243 l 3906 218 l 3869 190 l 3835 159 l
 3803 126 l 3774 90 l 3748 52 l 3725 12 l 3706 -29 l
 3690 -72 l 3677 -116 l 3668 -161 l 3662 -207 l 3660 -253 l
 3660 -3293 l 3660 -3322 l 3655 -3368 l 3648 -3414 l 3636 -3458 l
 3621 -3502 l 3603 -3544 l 3581 -3585 l 3556 -3623 l 3528 -3660 l
 3498 -3694 l 3464 -3726 l 3428 -3755 l 3390 -3781 l 3350 -3804 l
 3309 -3824 l 3266 -3840 l 3221 -3852 l 3176 -3862 l 3131 -3867 l
 3085 -3869 l 2919 -3869 l 2890 -3868 l 2844 -3864 l 2799 -3856 l
 2754 -3845 l 2711 -3830 l 2668 -3811 l 2628 -3790 l 2589 -3765 l
 2552 -3737 l 2518 -3706 l 2486 -3673 l 2457 -3637 l 2431 -3599 l
 2408 -3559 l 2389 -3517 l 2373 -3474 l 2360 -3430 l 2351 -3385 l
 2345 -3339 l 2343 -3293 l 2343 -253 l 2343 -224 l 2338 -178 l
 2331 -132 l 2319 -88 l 2304 -44 l 2286 -2 l 2264 38 l
 2239 76 l 2211 113 l 2181 147 l 2147 179 l 2111 208 l
 2073 234 l 2033 257 l 1992 277 l 1949 293 l 1904 305 l
 1859 315 l 1814 320 l 1768 322 l 1602 322 l 1573 321 l
 1527 317 l 1482 309 l 1437 298 l 1394 283 l 1351 264 l
 1311 243 l 1272 218 l 1235 190 l 1201 159 l 1169 126 l
 1140 90 l 1114 52 l 1092 12 l 1072 -29 l 1056 -72 l
 1043 -116 l 1034 -161 l 1028 -207 l 1026 -253 l 1026 -3293 l
 1025 -3329 l 1021 -3375 l 1012 -3420 l 1000 -3465 l 985 -3508 l
 966 -3550 l 944 -3591 l 918 -3629 l 890 -3665 l 859 -3699 l
 825 -3731 l 789 -3759 l 751 -3785 l 710 -3807 l 669 -3826 l
 625 -3842 l 581 -3854 l 536 -3863 l 490 -3868 l 444 -3869 l
 398 -3867 l 352 -3860 l 307 -3851 l 263 -3838 l 220 -3821 l
 179 -3801 l 139 -3777 l 101 -3751 l 66 -3722 l 33 -3689 l
 3 -3655 l -24 -3618 l -48 -3579 l -70 -3538 l -87 -3495 l
 -102 -3452 l -113 -3407 l -120 -3361 l -124 -3316 l -124 -3269 l
 -120 -3224 l -113 -3178 l -102 -3133 l 775 -93 l 786 -60 l
 803 -17 l 824 23 l 847 62 l 874 100 l 904 135 l
 936 168 l 971 198 l 1009 225 l 1048 249 l 1089 270 l
 1132 287 l 1175 301 l 1220 312 l 1266 319 l 1312 322 l
 1358 321 l 1404 317 l 1449 309 l 1494 298 l 1537 283 l
 1579 264 l 1620 243 l 1659 218 l 1695 190 l 1730 159 l
 1762 126 l 1790 90 l 1816 52 l 1839 12 l 1859 -29 l
 1875 -72 l 1888 -116 l 1897 -161 l 1903 -207 l 1904 -253 l
 1904 -3293 l gs col37 s gr 
% Ellipse
7.500 slw
n 1904 -3297 115 115 0 360 DrawEllipse gs col34 s gr
% Ellipse
n 1904 -3293 115 115 0 360 DrawEllipse gs col33 s gr
% Polyline
n 1904 -3297 m
 1910 -3182 l gs col34 s gr 
% Polyline
n 1904 -3293 m
 2020 -3293 l gs col33 s gr 
% here ends figure;
pagefooter
showpage
%%Trailer
%EOF
%%EndDocument
 @endspecial Black Black eop end
%%Trailer
userdict /end-hook known{end-hook}if
%%Trailer
cleartomark
countdictstack
exch sub { end } repeat
restore
%%EOF
