%!PS-Adobe-3.0 EPSF-3.0
%%Creator: graphviz version 2.36.0 (20140111.2315)
%%Title: %3
%%Pages: 1
%%BoundingBox: 36 36 240 86
%%EndComments
save
%%BeginProlog
/DotDict 200 dict def
DotDict begin

/setupLatin1 {
mark
/EncodingVector 256 array def
 EncodingVector 0

ISOLatin1Encoding 0 255 getinterval putinterval
EncodingVector 45 /hyphen put

% Set up ISO Latin 1 character encoding
/starnetISO {
        dup dup findfont dup length dict begin
        { 1 index /FID ne { def }{ pop pop } ifelse
        } forall
        /Encoding EncodingVector def
        currentdict end definefont
} def
/Times-Roman starnetISO def
/Times-Italic starnetISO def
/Times-Bold starnetISO def
/Times-BoldItalic starnetISO def
/Helvetica starnetISO def
/Helvetica-Oblique starnetISO def
/Helvetica-Bold starnetISO def
/Helvetica-BoldOblique starnetISO def
/Courier starnetISO def
/Courier-Oblique starnetISO def
/Courier-Bold starnetISO def
/Courier-BoldOblique starnetISO def
cleartomark
} bind def

%%BeginResource: procset graphviz 0 0
/coord-font-family /Times-Roman def
/default-font-family /Times-Roman def
/coordfont coord-font-family findfont 8 scalefont def

/InvScaleFactor 1.0 def
/set_scale {
       dup 1 exch div /InvScaleFactor exch def
       scale
} bind def

% styles
/solid { [] 0 setdash } bind def
/dashed { [9 InvScaleFactor mul dup ] 0 setdash } bind def
/dotted { [1 InvScaleFactor mul 6 InvScaleFactor mul] 0 setdash } bind def
/invis {/fill {newpath} def /stroke {newpath} def /show {pop newpath} def} bind def
/bold { 2 setlinewidth } bind def
/filled { } bind def
/unfilled { } bind def
/rounded { } bind def
/diagonals { } bind def
/tapered { } bind def

% hooks for setting color 
/nodecolor { sethsbcolor } bind def
/edgecolor { sethsbcolor } bind def
/graphcolor { sethsbcolor } bind def
/nopcolor {pop pop pop} bind def

/beginpage {	% i j npages
	/npages exch def
	/j exch def
	/i exch def
	/str 10 string def
	npages 1 gt {
		gsave
			coordfont setfont
			0 0 moveto
			(\() show i str cvs show (,) show j str cvs show (\)) show
		grestore
	} if
} bind def

/set_font {
	findfont exch
	scalefont setfont
} def

% draw text fitted to its expected width
/alignedtext {			% width text
	/text exch def
	/width exch def
	gsave
		width 0 gt {
			[] 0 setdash
			text stringwidth pop width exch sub text length div 0 text ashow
		} if
	grestore
} def

/boxprim {				% xcorner ycorner xsize ysize
		4 2 roll
		moveto
		2 copy
		exch 0 rlineto
		0 exch rlineto
		pop neg 0 rlineto
		closepath
} bind def

/ellipse_path {
	/ry exch def
	/rx exch def
	/y exch def
	/x exch def
	matrix currentmatrix
	newpath
	x y translate
	rx ry scale
	0 0 1 0 360 arc
	setmatrix
} bind def

/endpage { showpage } bind def
/showpage { } def

/layercolorseq
	[	% layer color sequence - darkest to lightest
		[0 0 0]
		[.2 .8 .8]
		[.4 .8 .8]
		[.6 .8 .8]
		[.8 .8 .8]
	]
def

/layerlen layercolorseq length def

/setlayer {/maxlayer exch def /curlayer exch def
	layercolorseq curlayer 1 sub layerlen mod get
	aload pop sethsbcolor
	/nodecolor {nopcolor} def
	/edgecolor {nopcolor} def
	/graphcolor {nopcolor} def
} bind def

/onlayer { curlayer ne {invis} if } def

/onlayers {
	/myupper exch def
	/mylower exch def
	curlayer mylower lt
	curlayer myupper gt
	or
	{invis} if
} def

/curlayer 0 def

%%EndResource
%%EndProlog
%%BeginSetup
14 default-font-family set_font
1 setmiterlimit
% /arrowlength 10 def
% /arrowwidth 5 def

% make sure pdfmark is harmless for PS-interpreters other than Distiller
/pdfmark where {pop} {userdict /pdfmark /cleartomark load put} ifelse
% make '<<' and '>>' safe on PS Level 1 devices
/languagelevel where {pop languagelevel}{1} ifelse
2 lt {
    userdict (<<) cvn ([) cvn load put
    userdict (>>) cvn ([) cvn load put
} if

%%EndSetup
setupLatin1
%%Page: 1 1
%%PageBoundingBox: 36 36 240 86
%%PageOrientation: Portrait
0 0 1 beginpage
gsave
36 36 204 50 boxprim clip newpath
1 1 set_scale 0 rotate 40 40 translate
% a
gsave
0 1 1 nodecolor
11 11 11 11 ellipse_path fill
2 setlinewidth
filled
0 0 0 nodecolor
11 11 11 11 ellipse_path stroke
0 0 0 nodecolor
14 /Times-Roman set_font
7.5 7.3 moveto 7 (a) alignedtext
grestore
% b
gsave
0.53725 0.24706 0.90196 nodecolor
69 11 11 11 ellipse_path fill
2 setlinewidth
filled
0 0 0 nodecolor
69 11 11 11 ellipse_path stroke
0 0 0 nodecolor
14 /Times-Roman set_font
65.5 7.3 moveto 7 (b) alignedtext
grestore
% a--b
gsave
2 setlinewidth
0 0 0 edgecolor
newpath 22.01 11 moveto
32.08 11 47.53 11 57.7 11 curveto
stroke
grestore
% c
gsave
0 1 1 nodecolor
127 31 11 11 ellipse_path fill
2 setlinewidth
filled
0 0 0 nodecolor
127 31 11 11 ellipse_path stroke
0 0 0 nodecolor
14 /Times-Roman set_font
123.5 27.3 moveto 7 (c) alignedtext
grestore
% b--c
gsave
2 setlinewidth
0 0 0 edgecolor
newpath 79.5 14.39 moveto
89.73 18.05 105.94 23.84 116.27 27.52 curveto
stroke
grestore
% d
gsave
0.33333 0.75294 0.80392 nodecolor
185 11 11 11 ellipse_path fill
2 setlinewidth
filled
0 0 0 nodecolor
185 11 11 11 ellipse_path stroke
0 0 0 nodecolor
14 /Times-Roman set_font
181.5 7.3 moveto 7 (d) alignedtext
grestore
% c--d
gsave
2 setlinewidth
0 0 0 edgecolor
newpath 137.5 27.61 moveto
147.73 23.95 163.94 18.16 174.27 14.48 curveto
stroke
grestore
% d--b
gsave
2 setlinewidth
0 0 0 edgecolor
newpath 173.74 11 moveto
152.04 11 101.7 11 80.12 11 curveto
stroke
grestore
endpage
showpage
grestore
%%PageTrailer
%%EndPage: 1
%%Trailer
end
restore
%%EOF
