#FIG 3.2
# Generated by graphviz version 2.36.0 (20140111.2315)
# Title: %3
# Pages: 1
Portrait
Center
Inches
Letter
100.00
Single
-2
1200 2
0 32 #d3d3d3
0 33 #fffffe
2 3 0 1 33 7 2 0 20 0.0 0 0 0 0 0 5
 0 3800 0 0 5560 0 5560 3800 0 3800
# o1
1 1 0 3 0 7 1 0 -1 0.000 0 0.0000 2100 1600 290 -290 2100 1600 2390 1310
4 1 0 1 0 0 14.0 0.0000 6 0.0 0.0 2100 1730 \\dl{$o_1$}\001
# T
2 3 0 3 0 7 1 0 -1 0.0 0 0 0 0 0 5
 4110 1950 3530 1950 3530 2530 4110 2530 4110 1950
4 1 0 1 0 0 14.0 0.0000 6 0.0 0.0 3820 2370 \\dl{$v_T$}\001
# o1->T
3 4 0 3 0 0 0 0 -1 0.0 0 0 0 7
  2375 1697 2513 1750 2669 1809 2835 1872 3006 1938 3175 2002 3337 2063
 0 1 1 1 1 1 0
2 3 0 3 0 0 0 0 20 0.0 0 0 0 0 0 4
 3364 1999 3526 2135 3314 2130 3364 1999
4 1 0 0 0 0 5.0 0.0000 6 0.0 0.0 2960 1760 \\dl{$\\{y_a, y_c\\}$}\001
# U
2 3 0 3 0 7 1 0 -1 0.0 0 0 0 0 0 5
 4110 810 3530 810 3530 1390 4110 1390 4110 810
4 1 0 1 0 0 14.0 0.0000 6 0.0 0.0 3820 1230 \\dl{$v_U$}\001
# o1->U
3 4 0 3 0 0 0 0 -1 0.0 0 0 0 7
  2383 1522 2520 1481 2673 1435 2837 1387 3006 1336 3173 1287 3332 1239
 0 1 1 1 1 1 0
2 3 0 3 0 0 0 0 20 0.0 0 0 0 0 0 4
 3317 1171 3528 1181 3356 1305 3317 1171
4 1 0 0 0 0 5.0 0.0000 6 0.0 0.0 2960 1220 \\dl{$\\{y_b\\}$}\001
# o2
1 1 0 3 0 7 1 0 -1 0.000 0 0.0000 2100 2540 290 -290 2100 2540 2390 2250
4 1 0 1 0 0 14.0 0.0000 6 0.0 0.0 2100 2670 \\dl{$o_2$}\001
# o2->T
3 4 0 3 0 0 0 0 -1 0.0 0 0 0 7
  2390 2492 2525 2468 2676 2441 2837 2412 3002 2383 3165 2353 3322 2325
 0 1 1 1 1 1 0
2 3 0 3 0 0 0 0 20 0.0 0 0 0 0 0 4
 3316 2255 3525 2289 3341 2393 3316 2255
4 1 0 0 0 0 5.0 0.0000 6 0.0 0.0 2960 2320 \\dl{$\\{y_a,y_b\\}$}\001
# V
2 3 0 3 0 7 1 0 -1 0.0 0 0 0 0 0 5
 4110 2990 3530 2990 3530 3570 4110 3570 4110 2990
4 1 0 1 0 0 14.0 0.0000 6 0.0 0.0 3820 3410 \\dl{$v_V$}\001
# o2->V
3 4 0 3 0 0 0 0 -1 0.0 0 0 0 7
  2368 2649 2506 2710 2663 2779 2831 2853 3004 2929 3175 3005 3338 3077
 0 1 1 1 1 1 0
2 3 0 3 0 0 0 0 20 0.0 0 0 0 0 0 4
 3374 3016 3529 3161 3318 3144 3374 3016
4 1 0 0 0 0 5.0 0.0000 6 0.0 0.0 2960 2700 \\dl{$\\{y_c\\}$}\001
# S
2 3 0 3 0 7 1 0 -1 0.0 0 0 0 0 0 5
 670 1750 90 1750 90 2330 670 2330 670 1750
4 1 0 1 0 0 14.0 0.0000 6 0.0 0.0 380 2170 \\dl{$v_S$}\001
# S->o1
3 4 0 3 0 0 0 0 -1 0.0 0 0 0 7
  677 1967 814 1932 965 1892 1127 1850 1292 1806 1455 1764 1611 1723
 0 1 1 1 1 1 0
2 3 0 3 0 0 0 0 20 0.0 0 0 0 0 0 4
 1602 1653 1813 1670 1638 1788 1602 1653
4 1 0 0 0 0 5.0 0.0000 6 0.0 0.0 1240 1700 \\dl{$\\{u_1, u_2\\}$}\001
# S->o2
3 4 0 3 0 0 0 0 -1 0.0 0 0 0 7
  677 2123 816 2164 970 2210 1135 2259 1302 2309 1468 2358 1625 2405
 0 1 1 1 1 1 0
2 3 0 3 0 0 0 0 20 0.0 0 0 0 0 0 4
 1647 2338 1819 2462 1607 2472 1647 2338
4 1 0 0 0 0 5.0 0.0000 6 0.0 0.0 1240 2160 \\dl{$\\{u_2, u_3\\}$}\001
# finalA
# T->finalA
3 4 0 3 0 0 0 0 -1 0.0 0 0 0 7
  4117 2331 4228 2367 4348 2407 4475 2449 4604 2491 4730 2532 4851 2572
 0 1 1 1 1 1 0
2 3 0 3 0 0 0 0 20 0.0 0 0 0 0 0 4
 4877 2507 5045 2636 4833 2640 4877 2507
4 1 0 0 0 0 5.0 0.0000 6 0.0 0.0 4580 2380 \\dl{$\\{u_1\\}$}\001
# finalB
# T->finalB
3 4 0 3 0 0 0 0 -1 0.0 0 0 0 7
  4117 2173 4226 2146 4346 2117 4471 2087 4598 2056 4724 2025 4844 1996
 0 1 1 1 1 1 0
2 3 0 3 0 0 0 0 20 0.0 0 0 0 0 0 4
 4834 1927 5045 1947 4867 2063 4834 1927
4 1 0 0 0 0 5.0 0.0000 6 0.0 0.0 4580 1980 \\dl{$\\{u_2\\}$}\001
# finalC
# U->finalC
3 4 0 3 0 0 0 0 -1 0.0 0 0 0 7
  4117 1100 4225 1100 4343 1100 4467 1100 4592 1100 4717 1100 4836 1100
 0 1 1 1 1 1 0
2 3 0 3 0 0 0 0 20 0.0 0 0 0 0 0 4
 4837 1030 5037 1100 4837 1170 4837 1030
4 1 0 0 0 0 5.0 0.0000 6 0.0 0.0 4580 1080 \\dl{$\\{u_2\\}$}\001
# finalD
# U->finalD
3 4 0 3 0 0 0 0 -1 0.0 0 0 0 7
  4117 942 4233 876 4359 803 4492 727 4626 651 4757 576 4882 505
 0 1 1 1 1 1 0
2 3 0 3 0 0 0 0 20 0.0 0 0 0 0 0 4
 4853 440 5062 402 4923 562 4853 440
4 1 0 0 0 0 5.0 0.0000 6 0.0 0.0 4580 500 \\dl{$\\{u_3\\}$}\001
# finalE
# V->finalE
3 4 0 3 0 0 0 0 -1 0.0 0 0 0 7
  4117 3323 4225 3341 4343 3359 4467 3378 4592 3398 4717 3418 4836 3436
 0 1 1 1 1 1 0
2 3 0 3 0 0 0 0 20 0.0 0 0 0 0 0 4
 4850 3368 5037 3468 4828 3506 4850 3368
4 1 0 0 0 0 5.0 0.0000 6 0.0 0.0 4580 3320 \\dl{$\\{u_3\\}$}\001
# end of FIG file
