#FIG 3.2  Produced by xfig version 3.2.5c
Portrait
Center
Inches
Letter  
100.00
Single
-2
# Generated by graphviz version 2.36.0 (20140111.2315)
# Title: Tree
# Pages: 1
1200 2
0 32 #d3d3d3
0 33 #399de5
0 34 #e58139
0 35 #fffffe
6 -150 11250 1950 12000
# 1
3 5 0 1 0 34 1 0 -1 0.000 0 0 0 49
	 1660 11250 1547 11250 1263 11250 895 11250 527 11250 243 11250
	 130 11250 71 11259 14 11286 -35 11325 -74 11374 -101 11431
	 -110 11490 -110 11508 -110 11552 -110 11610 -110 11668 -110 11712
	 -110 11730 -101 11789 -74 11846 -35 11895 14 11934 71 11961
	 130 11970 243 11970 527 11970 895 11970 1263 11970 1547 11970
	 1660 11970 1719 11961 1776 11934 1825 11895 1864 11846 1891 11789
	 1900 11730 1900 11712 1900 11668 1900 11610 1900 11552 1900 11508
	 1900 11490 1891 11431 1864 11374 1825 11325 1776 11286 1719 11259
	 1660 11250
	 0.000 1.000 1.000 1.000 1.000 1.000 1.000 1.000
	 1.000 1.000 1.000 1.000 1.000 1.000 1.000 1.000
	 1.000 1.000 1.000 1.000 1.000 1.000 1.000 1.000
	 1.000 1.000 1.000 1.000 1.000 1.000 1.000 1.000
	 1.000 1.000 1.000 1.000 1.000 1.000 1.000 1.000
	 1.000 1.000 1.000 1.000 1.000 1.000 1.000 1.000
	 0.000
4 1 0 1 0 2 16 0.0000 6 135 990 900 11700 Destructive\001
-6
6 -2250 9900 -150 10650
# 1
3 5 0 1 0 34 1 0 -1 0.000 0 0 0 49
	 -440 9900 -553 9900 -837 9900 -1205 9900 -1573 9900 -1857 9900
	 -1970 9900 -2029 9909 -2086 9936 -2135 9975 -2174 10024 -2201 10081
	 -2210 10140 -2210 10158 -2210 10202 -2210 10260 -2210 10318 -2210 10362
	 -2210 10380 -2201 10439 -2174 10496 -2135 10545 -2086 10584 -2029 10611
	 -1970 10620 -1857 10620 -1573 10620 -1205 10620 -837 10620 -553 10620
	 -440 10620 -381 10611 -324 10584 -275 10545 -236 10496 -209 10439
	 -200 10380 -200 10362 -200 10318 -200 10260 -200 10202 -200 10158
	 -200 10140 -209 10081 -236 10024 -275 9975 -324 9936 -381 9909
	 -440 9900
	 0.000 1.000 1.000 1.000 1.000 1.000 1.000 1.000
	 1.000 1.000 1.000 1.000 1.000 1.000 1.000 1.000
	 1.000 1.000 1.000 1.000 1.000 1.000 1.000 1.000
	 1.000 1.000 1.000 1.000 1.000 1.000 1.000 1.000
	 1.000 1.000 1.000 1.000 1.000 1.000 1.000 1.000
	 1.000 1.000 1.000 1.000 1.000 1.000 1.000 1.000
	 0.000
4 1 0 1 0 2 16 0.0000 6 135 990 -1200 10350 Destructive\001
-6
6 2325 11250 4425 12000
6 2325 11250 4425 12000
# 1
3 5 0 1 0 34 1 0 -1 0.000 0 0 0 49
	 4135 11250 4022 11250 3738 11250 3370 11250 3002 11250 2718 11250
	 2605 11250 2546 11259 2489 11286 2440 11325 2401 11374 2374 11431
	 2365 11490 2365 11508 2365 11552 2365 11610 2365 11668 2365 11712
	 2365 11730 2374 11789 2401 11846 2440 11895 2489 11934 2546 11961
	 2605 11970 2718 11970 3002 11970 3370 11970 3738 11970 4022 11970
	 4135 11970 4194 11961 4251 11934 4300 11895 4339 11846 4366 11789
	 4375 11730 4375 11712 4375 11668 4375 11610 4375 11552 4375 11508
	 4375 11490 4366 11431 4339 11374 4300 11325 4251 11286 4194 11259
	 4135 11250
	 0.000 1.000 1.000 1.000 1.000 1.000 1.000 1.000
	 1.000 1.000 1.000 1.000 1.000 1.000 1.000 1.000
	 1.000 1.000 1.000 1.000 1.000 1.000 1.000 1.000
	 1.000 1.000 1.000 1.000 1.000 1.000 1.000 1.000
	 1.000 1.000 1.000 1.000 1.000 1.000 1.000 1.000
	 1.000 1.000 1.000 1.000 1.000 1.000 1.000 1.000
	 0.000
-6
4 0 0 1 0 2 16 0.0000 6 135 1350 2400 11700 Non-destructive\001
-6
2 1 0 1 0 7 50 -1 -1 0.000 0 0 -1 1 0 2
	1 1 3.00 60.00 120.00
	 -590 9476 -1725 9900
2 1 0 1 0 7 50 -1 -1 0.000 0 0 -1 1 0 2
	1 1 3.00 60.00 120.00
	 374 9510 1575 9900
2 1 0 1 0 7 50 -1 -1 0.000 0 0 -1 1 0 2
	1 1 3.00 60.00 120.00
	 1960 10600 750 11250
2 1 0 1 0 7 50 -1 -1 0.000 0 0 -1 1 0 2
	1 1 3.00 60.00 120.00
	 2165 10601 3375 11250
# 1
3 5 0 1 0 33 1 0 -1 0.000 0 0 0 49
	 1127 8775 950 8775 503 8775 -74 8775 -653 8775 -1100 8775
	 -1277 8775 -1370 8784 -1460 8811 -1536 8850 -1598 8899 -1640 8956
	 -1655 9015 -1655 9033 -1655 9077 -1655 9135 -1655 9193 -1655 9237
	 -1655 9255 -1640 9314 -1598 9371 -1536 9420 -1460 9459 -1370 9486
	 -1277 9495 -1100 9495 -653 9495 -74 9495 503 9495 950 9495
	 1127 9495 1220 9486 1310 9459 1386 9420 1448 9371 1490 9314
	 1505 9255 1505 9237 1505 9193 1505 9135 1505 9077 1505 9033
	 1505 9015 1490 8956 1448 8899 1386 8850 1310 8811 1220 8784
	 1127 8775
	 0.000 1.000 1.000 1.000 1.000 1.000 1.000 1.000
	 1.000 1.000 1.000 1.000 1.000 1.000 1.000 1.000
	 1.000 1.000 1.000 1.000 1.000 1.000 1.000 1.000
	 1.000 1.000 1.000 1.000 1.000 1.000 1.000 1.000
	 1.000 1.000 1.000 1.000 1.000 1.000 1.000 1.000
	 1.000 1.000 1.000 1.000 1.000 1.000 1.000 1.000
	 0.000
# 1
3 5 0 1 0 33 1 0 -1 0.000 0 0 0 49
	 3077 9900 2900 9900 2453 9900 1876 9900 1297 9900 850 9900
	 673 9900 580 9909 490 9936 414 9975 352 10024 310 10081
	 295 10140 295 10158 295 10202 295 10260 295 10318 295 10362
	 295 10380 310 10439 352 10496 414 10545 490 10584 580 10611
	 673 10620 850 10620 1297 10620 1876 10620 2453 10620 2900 10620
	 3077 10620 3170 10611 3260 10584 3336 10545 3398 10496 3440 10439
	 3455 10380 3455 10362 3455 10318 3455 10260 3455 10202 3455 10158
	 3455 10140 3440 10081 3398 10024 3336 9975 3260 9936 3170 9909
	 3077 9900
	 0.000 1.000 1.000 1.000 1.000 1.000 1.000 1.000
	 1.000 1.000 1.000 1.000 1.000 1.000 1.000 1.000
	 1.000 1.000 1.000 1.000 1.000 1.000 1.000 1.000
	 1.000 1.000 1.000 1.000 1.000 1.000 1.000 1.000
	 1.000 1.000 1.000 1.000 1.000 1.000 1.000 1.000
	 1.000 1.000 1.000 1.000 1.000 1.000 1.000 1.000
	 0.000
4 1 0 0 0 16 20 0.0000 6 135 630 1575 9750 $False$\001
4 1 0 0 0 16 20 0.0000 6 135 540 -1725 9750 $True$\001
4 0 0 1 0 2 20 0.0000 6 165 1800 -975 9225 $h ( 7 ) = h ( 8 )$ \001
4 0 0 1 0 2 20 0.0000 6 165 1800 975 10350 $h ( 5 ) = h ( 6 )$ \001
