#FIG 3.2
# Generated by graphviz version 2.36.0 (20140111.2315)
# Title: %3
# Pages: 1
Portrait
Center
Inches
Letter
100.00
Single
-2
1200 2
0 32 #d3d3d3
0 33 #000000
0 34 #fffffe
2 3 0 1 34 7 2 0 20 0.0 0 0 0 0 0 5
 0 2240 0 0 13600 0 13600 2240 0 2240
# start
# a1
2 3 0 1 0 7 1 0 -1 0.0 0 0 0 0 0 5
 910 1730 690 1730 690 1950 910 1950 910 1730
# start->a1
3 4 0 1 0 0 0 0 -1 0.0 0 0 0 7
  312 1840 338 1840 366 1840 395 1840 425 1840 457 1840 488 1840
 0 1 1 1 1 1 0
2 3 0 1 0 0 0 0 20 0.0 0 0 0 0 0 4
 489 1770 689 1840 489 1910 489 1770
# o1
1 1 0 1 0 33 1 0 20 0.000 0 0.0000 2200 1480 110 -110 2200 1480 2310 1370
# a1->o1
3 4 0 1 0 0 0 0 -1 0.0 0 0 0 7
  918 1814 1039 1782 1193 1741 1368 1695 1551 1647 1731 1599 1895 1555
 0 1 1 1 1 1 0
2 3 0 1 0 0 0 0 20 0.0 0 0 0 0 0 4
 1879 1487 2090 1504 1915 1623 1879 1487
4 1 0 0 0 0 9.0 0.0000 6 0.0 0.0 1500 1520 $\\{ u_1 \\}$\001
# a2
2 3 0 1 0 7 1 0 -1 0.0 0 0 0 0 0 5
 3710 1370 3490 1370 3490 1590 3710 1590 3710 1370
# o2
1 1 0 1 0 33 1 0 20 0.000 0 0.0000 5000 1480 110 -110 5000 1480 5110 1370
# a2->o2
3 4 0 1 0 0 0 0 -1 0.0 0 0 0 7
  3718 1480 3836 1480 3987 1480 4157 1480 4337 1480 4514 1480 4677 1480
 0 1 1 1 1 1 0
2 3 0 1 0 0 0 0 20 0.0 0 0 0 0 0 4
 4683 1410 4883 1480 4683 1550 4683 1410
4 1 0 0 0 0 9.0 0.0000 6 0.0 0.0 4300 1460 $\\{ u_1 \\}$\001
# a3
2 3 0 1 0 7 1 0 -1 0.0 0 0 0 0 0 5
 6510 1370 6290 1370 6290 1590 6510 1590 6510 1370
# o3
1 1 0 1 0 33 1 0 20 0.000 0 0.0000 7800 1480 110 -110 7800 1480 7910 1370
# a3->o3
3 4 0 1 0 0 0 0 -1 0.0 0 0 0 7
  6518 1480 6636 1480 6787 1480 6957 1480 7137 1480 7314 1480 7477 1480
 0 1 1 1 1 1 0
2 3 0 1 0 0 0 0 20 0.0 0 0 0 0 0 4
 7483 1410 7683 1480 7483 1550 7483 1410
4 1 0 0 0 0 9.0 0.0000 6 0.0 0.0 7100 1460 $\\{ u_1 \\}$\001
# a4
2 3 0 1 0 7 1 0 -1 0.0 0 0 0 0 0 5
 9310 1330 9090 1330 9090 1550 9310 1550 9310 1330
# o4
1 1 0 1 0 33 1 0 20 0.000 0 0.0000 10600 1320 110 -110 10600 1320 10710 1210
# a4->o4
3 4 0 1 0 0 0 0 -1 0.0 0 0 0 7
  9318 1431 9438 1421 9590 1407 9762 1392 9944 1376 10122 1360 10286 1346
 0 1 1 1 1 1 0
2 3 0 1 0 0 0 0 20 0.0 0 0 0 0 0 4
 10285 1276 10490 1328 10297 1415 10285 1276
4 1 0 0 0 0 9.0 0.0000 6 0.0 0.0 9900 1340 $\\{ u_1 \\}$\001
# a5
2 3 0 1 0 7 1 0 -1 0.0 0 0 0 0 0 5
 12110 730 11890 730 11890 950 12110 950 12110 730
# o5
1 1 0 1 0 33 1 0 20 0.000 0 0.0000 13400 1500 110 -110 13400 1500 13510 1390
# a5->o5
3 4 0 1 0 0 0 0 -1 0.0 0 0 0 13
  12110 865 12228 901 12380 951 12557 1015 12746 1092 12937 1180 13120 1280 13125 1283 13131 1287 13136 1290 13142 1294 13147 1297 13152 1301
 0 1 1 1 1 1 1 1 1 1 1 1 0
2 3 0 1 0 0 0 0 20 0.0 0 0 0 0 0 4
 13197 1247 13308 1428 13108 1355 13197 1247
4 1 0 0 0 0 9.0 0.0000 6 0.0 0.0 12700 920 $\\{ u_1 \\}$\001
# oG
1 1 0 1 0 33 1 0 20 0.000 0 0.0000 13400 180 110 -110 13400 180 13510 70
# a5->oG
3 4 0 1 0 0 0 0 -1 0.0 0 0 0 13
  12113 769 12139 751 12165 732 12193 713 12222 695 12251 677 12280 660 12419 586 12563 515 12708 448 12850 387 12983 331 13104 283
 0 1 1 1 1 1 1 1 1 1 1 1 0
2 3 0 1 0 0 0 0 20 0.0 0 0 0 0 0 4
 13080 217 13292 212 13130 348 13080 217
4 1 0 0 0 0 9.0 0.0000 6 0.0 0.0 12700 280 $\\{ u_2 \\}$\001
# o1->a2
3 4 0 1 0 0 0 0 -1 0.0 0 0 0 7
  2318 1480 2436 1480 2587 1480 2757 1480 2937 1480 3114 1480 3277 1480
 0 1 1 1 1 1 0
2 3 0 1 0 0 0 0 20 0.0 0 0 0 0 0 4
 3283 1410 3483 1480 3283 1550 3283 1410
4 1 0 0 0 0 9.0 0.0000 6 0.0 0.0 2900 1460 $\\{ y_1 \\}$\001
# o2->a3
3 4 0 1 0 0 0 0 -1 0.0 0 0 0 7
  5118 1480 5236 1480 5387 1480 5557 1480 5737 1480 5914 1480 6077 1480
 0 1 1 1 1 1 0
2 3 0 1 0 0 0 0 20 0.0 0 0 0 0 0 4
 6083 1410 6283 1480 6083 1550 6083 1410
4 1 0 0 0 0 9.0 0.0000 6 0.0 0.0 5700 1460 $\\{ y_1 \\}$\001
# o3->a4
3 4 0 1 0 0 0 0 -1 0.0 0 0 0 7
  7918 1477 8036 1474 8187 1469 8357 1464 8537 1459 8714 1454 8877 1449
 0 1 1 1 1 1 0
2 3 0 1 0 0 0 0 20 0.0 0 0 0 0 0 4
 8881 1379 9083 1443 8885 1519 8881 1379
4 1 0 0 0 0 9.0 0.0000 6 0.0 0.0 8500 1420 $\\{ y_1 \\}$\001
# o4->a5
3 4 0 1 0 0 0 0 -1 0.0 0 0 0 7
  10709 1289 10830 1246 10985 1191 11162 1129 11349 1063 11532 998 11700 939
 0 1 1 1 1 1 0
2 3 0 1 0 0 0 0 20 0.0 0 0 0 0 0 4
 11677 873 11889 872 11723 1005 11677 873
4 1 0 0 0 0 9.0 0.0000 6 0.0 0.0 11300 920 $\\{ y_2 \\}$\001
# o5->a1
3 4 0 1 0 0 0 0 -1 0.0 0 0 0 25
  13317 1571 13291 1598 13261 1628 13228 1658 13194 1687 13157 1715 13120 1740 12920 1867 12753 1971 12599 2053 12439 2112 12252 2148 12020 2160 7874 2160 5096 2160 3410 2160 2544 2160 2226 2160 2180 2160 1988 2151 1794 2126 1603 2089 1421 2044 1254 1996 1106 1948
 0 1 1 1 1 1 1 1 1 1 1 1 1 1 1 1 1 1 1 1 1 1 1 1 0
2 3 0 1 0 0 0 0 20 0.0 0 0 0 0 0 4
 1075 2011 911 1877 1122 1879 1075 2011
4 1 0 0 0 0 9.0 0.0000 6 0.0 0.0 7100 2140 $\\{ y_1 \\}$\001
# oG->a5
3 4 0 1 0 0 0 0 -1 0.0 0 0 0 19
  13376 286 13365 464 13345 693 13313 942 13267 1180 13203 1376 13120 1500 12979 1597 12843 1652 12708 1668 12571 1646 12429 1589 12280 1500 12226 1455 12179 1402 12141 1343 12109 1279 12083 1213 12063 1146
 0 1 1 1 1 1 1 1 1 1 1 1 1 1 1 1 1 1 0
2 3 0 1 0 0 0 0 20 0.0 0 0 0 0 0 4
 11994 1156 12027 947 12131 1131 11994 1156
4 1 0 0 0 0 9.0 0.0000 6 0.0 0.0 12700 1480 $\\{ y_1 \\}$\001
# end of FIG file
