#FIG 3.2
# Generated by graphviz version 2.36.0 (20140111.2315)
# Title: %3
# Pages: 1
Portrait
Center
Inches
Letter
100.00
Single
-2
1200 2
0 32 #d3d3d3
0 33 #000000
0 34 #fffffe
2 3 0 1 34 7 2 0 20 0.0 0 0 0 0 0 5
 0 2400 0 0 9380 0 9380 2400 0 2400
2 3 0 1 0 7 2 0 -1 0.0 0 0 0 0 0 5
 7920 1260 7920 240 9300 240 9300 1260 7920 1260
4 1 0 2 0 0 14.0 0.0000 6 0.0 0.0 8610 600 $\\Vterm$\001
# start
# a1
2 3 0 1 0 7 1 0 -1 0.0 0 0 0 0 0 5
 910 1890 690 1890 690 2110 910 2110 910 1890
# start->a1
3 4 0 1 0 0 0 0 -1 0.0 0 0 0 7
  312 2000 338 2000 366 2000 395 2000 425 2000 457 2000 488 2000
 0 1 1 1 1 1 0
2 3 0 1 0 0 0 0 20 0.0 0 0 0 0 0 4
 489 1930 689 2000 489 2070 489 1930
# o1
1 1 0 1 0 33 1 0 20 0.000 0 0.0000 2120 1640 110 -110 2120 1640 2230 1530
# a1->o1
3 4 0 1 0 0 0 0 -1 0.0 0 0 0 7
  912 1974 1024 1943 1165 1903 1325 1858 1494 1810 1661 1763 1815 1720
 0 1 1 1 1 1 0
2 3 0 1 0 0 0 0 20 0.0 0 0 0 0 0 4
 1797 1652 2009 1666 1835 1787 1797 1652
4 1 0 0 0 0 9.0 0.0000 6 0.0 0.0 1460 1680 $\\{u_1\\}$\001
# a2
2 3 0 1 0 7 1 0 -1 0.0 0 0 0 0 0 5
 3830 1530 3610 1530 3610 1750 3830 1750 3830 1530
# o2
1 1 0 1 0 33 1 0 20 0.000 0 0.0000 5400 1640 110 -110 5400 1640 5510 1530
# a2->o2
3 4 0 1 0 0 0 0 -1 0.0 0 0 0 7
  3838 1640 3987 1640 4183 1640 4407 1640 4644 1640 4874 1640 5080 1640
 0 1 1 1 1 1 0
2 3 0 1 0 0 0 0 20 0.0 0 0 0 0 0 4
 5085 1570 5285 1640 5085 1710 5085 1570
4 1 0 0 0 0 9.0 0.0000 6 0.0 0.0 4560 1620 $\\{u_1\\}$\001
# a3
2 3 0 1 0 7 1 0 -1 0.0 0 0 0 0 0 5
 6830 1530 6610 1530 6610 1750 6830 1750 6830 1530
# o3
1 1 0 1 0 33 1 0 20 0.000 0 0.0000 8600 1980 110 -110 8600 1980 8710 1870
# a3->o3
3 4 0 1 0 0 0 0 -1 0.0 0 0 0 7
  6834 1657 7004 1689 7235 1731 7502 1781 7783 1833 8053 1883 8289 1926
 0 1 1 1 1 1 0
2 3 0 1 0 0 0 0 20 0.0 0 0 0 0 0 4
 8305 1858 8489 1963 8279 1996 8305 1858
4 1 0 0 0 0 9.0 0.0000 6 0.0 0.0 7380 1660 $\\{u_1\\}$\001
# aT
2 3 0 1 0 7 1 0 -1 0.0 0 0 0 0 0 5
 6830 870 6610 870 6610 1090 6830 1090 6830 870
# oT
1 1 0 1 0 33 1 0 20 0.000 0 0.0000 8600 980 110 -110 8600 980 8710 870
# aT->oT
3 4 0 1 0 0 0 0 -1 0.0 0 0 0 7
  6834 980 7003 980 7233 980 7498 980 7777 980 8047 980 8283 980
 0 1 1 1 1 1 0
2 3 0 1 0 0 0 0 20 0.0 0 0 0 0 0 4
 8289 910 8489 980 8289 1050 8289 910
4 1 0 0 0 0 9.0 0.0000 6 0.0 0.0 7380 960 $\\{u_2\\}$\001
# o1->a2
3 4 0 1 0 0 0 0 -1 0.0 0 0 0 7
  2233 1640 2374 1640 2559 1640 2772 1640 2995 1640 3213 1640 3409 1640
 0 1 1 1 1 1 0
2 3 0 1 0 0 0 0 20 0.0 0 0 0 0 0 4
 3410 1570 3610 1640 3410 1710 3410 1570
4 1 0 0 0 0 9.0 0.0000 6 0.0 0.0 2920 1620 $\\{y_1,y_2\\}$\001
# o2->a3
3 4 0 1 0 0 0 0 -1 0.0 0 0 0 7
  5512 1640 5622 1640 5762 1640 5921 1640 6088 1640 6253 1640 6407 1640
 0 1 1 1 1 1 0
2 3 0 1 0 0 0 0 20 0.0 0 0 0 0 0 4
 6409 1570 6609 1640 6409 1710 6409 1570
4 1 0 0 0 0 9.0 0.0000 6 0.0 0.0 6060 1620 $\\{y_1\\}$\001
# o2->aT
3 4 0 1 0 0 0 0 -1 0.0 0 0 0 13
  5493 1568 5519 1544 5548 1519 5579 1493 5612 1467 5646 1442 5680 1420 5801 1350 5927 1284 6055 1224 6182 1169 6303 1120 6414 1077
 0 1 1 1 1 1 1 1 1 1 1 1 0
2 3 0 1 0 0 0 0 20 0.0 0 0 0 0 0 4
 6394 1010 6605 1010 6440 1143 6394 1010
4 1 0 0 0 0 9.0 0.0000 6 0.0 0.0 6060 1040 $\\{y_2\\}$\001
# o3->a1
3 4 0 1 0 0 0 0 -1 0.0 0 0 0 19
  8489 2009 8315 2061 8069 2126 7771 2195 7438 2258 7088 2303 6740 2320 4785 2320 3475 2320 2680 2320 2272 2320 2121 2320 2100 2320 1922 2311 1743 2287 1567 2251 1398 2208 1242 2161 1104 2113
 0 1 1 1 1 1 1 1 1 1 1 1 1 1 1 1 1 1 0
2 3 0 1 0 0 0 0 20 0.0 0 0 0 0 0 4
 1073 2176 911 2039 1123 2046 1073 2176
4 1 0 0 0 0 9.0 0.0000 6 0.0 0.0 4560 2300 $\\{y_1, y_2\\}$\001
# end of FIG file
