#FIG 3.2
# Generated by graphviz version 2.36.0 (20140111.2315)
# Title: %3
# Pages: 1
Portrait
Center
Inches
Letter
100.00
Single
-2
1200 2
0 32 #d3d3d3
0 33 #fffffe
2 3 0 1 33 7 2 0 20 0.0 0 0 0 0 0 5
 0 1660 0 0 1520 0 1520 1660 0 1660
# S
1 1 0 3 0 2 1 0 20 0.000 0 0.0000 380 840 290 -290 380 840 670 550
4 1 0 1 0 0 14.0 0.0000 6 0.0 0.0 380 970 {$S$}\001
# TU
1 1 0 3 0 2 1 0 20 0.000 0 0.0000 1140 360 290 -290 1140 360 1430 70
4 1 0 1 0 0 14.0 0.0000 6 0.0 0.0 1140 490 {$T,U$}\001
# S->TU
3 4 0 3 0 0 0 0 -1 0.0 0 0 0 7
  628 688 642 679 657 669 671 659 686 649 701 639 716 630
 0 1 1 1 1 1 0
2 3 0 3 0 0 0 0 20 0.0 0 0 0 0 0 4
 681 569 886 516 759 685 681 569
# VW
1 1 0 3 0 2 1 0 20 0.000 0 0.0000 1140 1300 290 -290 1140 1300 1430 1010
4 1 0 1 0 0 14.0 0.0000 6 0.0 0.0 1140 1430 {$V,W$}\001
# S->VW
3 4 0 3 0 0 0 0 -1 0.0 0 0 0 7
  636 991 649 999 662 1007 675 1016 688 1024 701 1033 715 1041
 0 1 1 1 1 1 0
2 3 0 3 0 0 0 0 20 0.0 0 0 0 0 0 4
 760 987 891 1154 685 1105 760 987
# end of FIG file
