<?xml version="1.0" encoding="UTF-8" standalone="no"?>
<!-- Created with Inkscape (http://www.inkscape.org/) -->

<svg
   xmlns:dc="http://purl.org/dc/elements/1.1/"
   xmlns:cc="http://creativecommons.org/ns#"
   xmlns:rdf="http://www.w3.org/1999/02/22-rdf-syntax-ns#"
   xmlns:svg="http://www.w3.org/2000/svg"
   xmlns="http://www.w3.org/2000/svg"
   xmlns:sodipodi="http://sodipodi.sourceforge.net/DTD/sodipodi-0.dtd"
   xmlns:inkscape="http://www.inkscape.org/namespaces/inkscape"
   width="170"
   height="217.14287"
   id="svg2"
   version="1.1"
   inkscape:version="0.48.4 r9939"
   sodipodi:docname="transformations.svg">
  <defs
     id="defs4">
    <marker
       style="overflow:visible"
       id="Arrow1Sstartq"
       refX="0"
       refY="0"
       orient="auto"
       inkscape:stockid="Arrow1Sstartq">
      <path
         inkscape:connector-curvature="0"
         transform="matrix(0.2,0,0,0.2,1.2,0)"
         style="fill:#aa0000;fill-rule:evenodd;stroke:#aa0000;stroke-width:1pt"
         d="M 0,0 5,-5 -12.5,0 5,5 0,0 z"
         id="path4992" />
    </marker>
  </defs>
  <sodipodi:namedview
     id="base"
     pagecolor="#ffffff"
     bordercolor="#666666"
     borderopacity="1.0"
     inkscape:pageopacity="0.0"
     inkscape:pageshadow="2"
     inkscape:zoom="1.4"
     inkscape:cx="30.493065"
     inkscape:cy="67.467871"
     inkscape:document-units="px"
     inkscape:current-layer="layer1"
     showgrid="false"
     inkscape:window-width="1280"
     inkscape:window-height="778"
     inkscape:window-x="0"
     inkscape:window-y="0"
     inkscape:window-maximized="1"
     fit-margin-top="0"
     fit-margin-left="0"
     fit-margin-right="0"
     fit-margin-bottom="0" />
  <metadata
     id="metadata7">
    <rdf:RDF>
      <cc:Work
         rdf:about="">
        <dc:format>image/svg+xml</dc:format>
        <dc:type
           rdf:resource="http://purl.org/dc/dcmitype/StillImage" />
        <dc:title />
      </cc:Work>
    </rdf:RDF>
  </metadata>
  <g
     inkscape:label="Layer 1"
     inkscape:groupmode="layer"
     id="layer1"
     transform="translate(-101.42857,-89.505035)">
    <rect
       style="color:#000000;fill:#ffffff;fill-opacity:1;stroke:none;stroke-width:0.80000001;marker:none;visibility:visible;display:inline;overflow:visible;enable-background:accumulate"
       id="rect4344"
       width="170"
       height="217.14287"
       x="101.42857"
       y="89.505035" />
    <text
       xml:space="preserve"
       style="font-size:14px;font-style:normal;font-variant:normal;font-weight:normal;font-stretch:normal;text-align:center;line-height:125%;letter-spacing:0px;word-spacing:0px;writing-mode:lr-tb;text-anchor:middle;fill:#000000;fill-opacity:1;stroke:none;font-family:Serif;-inkscape-font-specification:Serif"
       x="187.78528"
       y="107.86955"
       id="text2985"
       sodipodi:linespacing="125%"><tspan
         sodipodi:role="line"
         id="tspan2987"
         x="187.78528"
         y="107.86955">Ideal</tspan></text>
    <text
       sodipodi:linespacing="125%"
       id="text2989"
       y="154.9135"
       x="187.77161"
       style="font-size:14px;font-style:normal;font-variant:normal;font-weight:normal;font-stretch:normal;text-align:center;line-height:125%;letter-spacing:0px;word-spacing:0px;writing-mode:lr-tb;text-anchor:middle;fill:#000000;fill-opacity:1;stroke:none;font-family:Serif;-inkscape-font-specification:Serif"
       xml:space="preserve"><tspan
         y="154.9135"
         x="187.77161"
         id="tspan2991"
         sodipodi:role="line">Create (Signals)</tspan></text>
    <text
       xml:space="preserve"
       style="font-size:14px;font-style:normal;font-variant:normal;font-weight:normal;font-stretch:normal;text-align:center;line-height:125%;letter-spacing:0px;word-spacing:0px;writing-mode:lr-tb;text-anchor:middle;fill:#000000;fill-opacity:1;stroke:none;font-family:Serif;-inkscape-font-specification:Serif"
       x="187.77161"
       y="203.41351"
       id="text2993"
       sodipodi:linespacing="125%"><tspan
         sodipodi:role="line"
         id="tspan2995"
         x="187.77161"
         y="203.41351">Create (Symbols)</tspan></text>
    <text
       sodipodi:linespacing="125%"
       id="text2997"
       y="253.36957"
       x="187.77161"
       style="font-size:14px;font-style:normal;font-variant:normal;font-weight:normal;font-stretch:normal;text-align:center;line-height:125%;letter-spacing:0px;word-spacing:0px;writing-mode:lr-tb;text-anchor:middle;fill:#000000;fill-opacity:1;stroke:none;font-family:Serif;-inkscape-font-specification:Serif"
       xml:space="preserve"><tspan
         y="253.36957"
         x="187.77161"
         id="tspan2999"
         sodipodi:role="line">Combined Sensor</tspan></text>
    <text
       xml:space="preserve"
       style="font-size:14px;font-style:normal;font-variant:normal;font-weight:normal;font-stretch:normal;text-align:center;line-height:125%;letter-spacing:0px;word-spacing:0px;writing-mode:lr-tb;text-anchor:middle;fill:#000000;fill-opacity:1;stroke:none;font-family:Serif;-inkscape-font-specification:Serif"
       x="187.38196"
       y="301.86957"
       id="text3001"
       sodipodi:linespacing="125%"><tspan
         sodipodi:role="line"
         id="tspan3003"
         x="187.38196"
         y="301.86957">Sensorless</tspan></text>
    <g
       id="g4100"
       transform="translate(0,-3.0377502)">
      <path
         style="color:#000000;fill:none;stroke:#aa0000;stroke-width:2.20000005;stroke-linecap:butt;stroke-linejoin:miter;stroke-miterlimit:4;stroke-opacity:1;stroke-dasharray:none;stroke-dashoffset:0;marker:none;marker-start:url(#Arrow1Sstartq);visibility:visible;display:inline;overflow:visible;enable-background:accumulate"
         d="m 185.55767,145.0553 0,-32.26946"
         id="path5518"
         inkscape:connector-curvature="0"
         sodipodi:nodetypes="cc" />
      <text
         xml:space="preserve"
         style="font-size:16px;font-style:normal;font-variant:normal;font-weight:bold;font-stretch:normal;text-align:start;line-height:125%;letter-spacing:0px;word-spacing:0px;writing-mode:lr-tb;text-anchor:start;fill:#aa0000;fill-opacity:1;stroke:none;font-family:Serif;-inkscape-font-specification:Serif Bold Italic"
         x="192.60301"
         y="134.5271"
         id="text5520"
         sodipodi:linespacing="125%"><tspan
           style="font-size:16px;font-style:italic;font-weight:bold;fill:#aa0000;fill-opacity:1;-inkscape-font-specification:Serif Bold Italic"
           sodipodi:role="line"
           id="tspan5522"
           x="192.60301"
           y="134.5271">h</tspan></text>
    </g>
    <g
       id="g4115"
       transform="translate(0,-14.537735)">
      <path
         sodipodi:nodetypes="cc"
         inkscape:connector-curvature="0"
         id="path4094"
         d="m 185.55767,205.0553 0,-32.26946"
         style="color:#000000;fill:none;stroke:#aa0000;stroke-width:2.20000005;stroke-linecap:butt;stroke-linejoin:miter;stroke-miterlimit:4;stroke-opacity:1;stroke-dasharray:none;stroke-dashoffset:0;marker:none;marker-start:url(#Arrow1Sstartq);visibility:visible;display:inline;overflow:visible;enable-background:accumulate" />
      <text
         sodipodi:linespacing="125%"
         id="text4096"
         y="194.5271"
         x="192.60301"
         style="font-size:16px;font-style:normal;font-variant:normal;font-weight:bold;font-stretch:normal;text-align:start;line-height:125%;letter-spacing:0px;word-spacing:0px;writing-mode:lr-tb;text-anchor:start;fill:#aa0000;fill-opacity:1;stroke:none;font-family:Serif;-inkscape-font-specification:Serif Bold Italic"
         xml:space="preserve"><tspan
           y="194.5271"
           x="192.60301"
           id="tspan4098"
           sodipodi:role="line"
           style="font-size:16px;font-style:italic;font-weight:bold;fill:#aa0000;fill-opacity:1;-inkscape-font-specification:Serif Bold Italic">f</tspan></text>
    </g>
    <g
       id="g4126"
       transform="translate(0,-26.037735)">
      <path
         style="color:#000000;fill:none;stroke:#aa0000;stroke-width:2.20000005;stroke-linecap:butt;stroke-linejoin:miter;stroke-miterlimit:4;stroke-opacity:1;stroke-dasharray:none;stroke-dashoffset:0;marker:none;marker-start:url(#Arrow1Sstartq);visibility:visible;display:inline;overflow:visible;enable-background:accumulate"
         d="m 185.55767,265.0553 0,-32.26946"
         id="path4109"
         inkscape:connector-curvature="0"
         sodipodi:nodetypes="cc" />
      <text
         xml:space="preserve"
         style="font-size:16px;font-style:normal;font-variant:normal;font-weight:bold;font-stretch:normal;text-align:start;line-height:125%;letter-spacing:0px;word-spacing:0px;writing-mode:lr-tb;text-anchor:start;fill:#aa0000;fill-opacity:1;stroke:none;font-family:Serif;-inkscape-font-specification:Serif Bold Italic"
         x="192.60301"
         y="254.5271"
         id="text4111"
         sodipodi:linespacing="125%"><tspan
           style="font-size:16px;font-style:italic;font-weight:bold;fill:#aa0000;fill-opacity:1;-inkscape-font-specification:Serif Bold Italic"
           sodipodi:role="line"
           id="tspan4113"
           x="192.60301"
           y="254.5271">g</tspan></text>
    </g>
    <g
       id="g4131"
       transform="translate(0,-37.537743)">
      <path
         sodipodi:nodetypes="cc"
         inkscape:connector-curvature="0"
         id="path4120"
         d="m 185.55767,325.0553 0,-32.26946"
         style="color:#000000;fill:none;stroke:#aa0000;stroke-width:2.20000005;stroke-linecap:butt;stroke-linejoin:miter;stroke-miterlimit:4;stroke-opacity:1;stroke-dasharray:none;stroke-dashoffset:0;marker:none;marker-start:url(#Arrow1Sstartq);visibility:visible;display:inline;overflow:visible;enable-background:accumulate" />
      <text
         sodipodi:linespacing="125%"
         id="text4122"
         y="314.5271"
         x="192.60301"
         style="font-size:16px;font-style:normal;font-variant:normal;font-weight:bold;font-stretch:normal;text-align:start;line-height:125%;letter-spacing:0px;word-spacing:0px;writing-mode:lr-tb;text-anchor:start;fill:#aa0000;fill-opacity:1;stroke:none;font-family:Serif;-inkscape-font-specification:Serif Bold Italic"
         xml:space="preserve"><tspan
           y="314.5271"
           x="192.60301"
           id="tspan4124"
           sodipodi:role="line"
           style="font-size:16px;font-style:italic;font-weight:bold;fill:#aa0000;fill-opacity:1;-inkscape-font-specification:Serif Bold Italic">k</tspan></text>
    </g>
    <path
       style="color:#000000;fill:none;stroke:#361d1d;stroke-width:0.80000001;stroke-linecap:butt;stroke-linejoin:miter;stroke-miterlimit:4;stroke-opacity:1;stroke-dasharray:0.8, 1.6;stroke-dashoffset:0;marker:none;visibility:visible;display:inline;overflow:visible;enable-background:accumulate"
       d="m 175.61153,272.7237 c -23.77527,0 -47.55055,0 -71.32582,0 l 0,-180.448164 163.53553,0 0,180.448164 c -20.44194,0 -40.88389,0 -61.32583,0"
       id="rect4155"
       inkscape:connector-curvature="0"
       sodipodi:nodetypes="cccccc" />
    <text
       xml:space="preserve"
       style="font-size:18px;font-style:normal;font-variant:normal;font-weight:normal;font-stretch:normal;line-height:125%;letter-spacing:0px;word-spacing:0px;fill:#000000;fill-opacity:1;stroke:none;font-family:Serif;-inkscape-font-specification:Serif"
       x="57.578693"
       y="290.70715"
       id="text4340"
       sodipodi:linespacing="125%"><tspan
         sodipodi:role="line"
         id="tspan4342"
         x="57.578693"
         y="290.70715" /></text>
  </g>
</svg>
