digraph Tree {
node [shape=box, style="filled, rounded", color="black", fontname=helvetica] ;
edge [fontname=helvetica] ;
0 [label=< d u  &le; 0.5<br/>gini = 0.4899<br/>samples = 900<br/>value = [514, 386]>, fillcolor="#e5813940"] ;
1 [label=<gini = 0.0<br/>samples = 221<br/>value = [221, 0]>, fillcolor="#e58139ff"] ;
0 -> 1 [labeldistance=2.5, labelangle=45, headlabel="True"] ;
2 [label=< l r  &le; 0.5<br/>gini = 0.4906<br/>samples = 679<br/>value = [293, 386]>, fillcolor="#399de53d"] ;
0 -> 2 [labeldistance=2.5, labelangle=-45, headlabel="False"] ;
3 [label=<gini = 0.0<br/>samples = 147<br/>value = [147, 0]>, fillcolor="#e58139ff"] ;
2 -> 3 ;
4 [label=< l u  &le; 0.5<br/>gini = 0.3982<br/>samples = 532<br/>value = [146, 386]>, fillcolor="#399de59f"] ;
2 -> 4 ;
5 [label=< d r  &le; 0.5<br/>gini = 0.4781<br/>samples = 129<br/>value = [78, 51]>, fillcolor="#e5813958"] ;
4 -> 5 ;
6 [label=<gini = 0.0<br/>samples = 45<br/>value = [45, 0]>, fillcolor="#e58139ff"] ;
5 -> 6 ;
7 [label=< 1,4 3,5  &le; 0.5<br/>gini = 0.477<br/>samples = 84<br/>value = [33, 51]>, fillcolor="#399de55a"] ;
5 -> 7 ;
8 [label=<gini = 0.0<br/>samples = 8<br/>value = [8, 0]>, fillcolor="#e58139ff"] ;
7 -> 8 ;
9 [label=< 1,3 2,5  &le; 0.5<br/>gini = 0.4415<br/>samples = 76<br/>value = [25, 51]>, fillcolor="#399de582"] ;
7 -> 9 ;
10 [label=<gini = 0.0<br/>samples = 6<br/>value = [6, 0]>, fillcolor="#e58139ff"] ;
9 -> 10 ;
11 [label=< 1,3 2,4  &le; 0.5<br/>gini = 0.3955<br/>samples = 70<br/>value = [19, 51]>, fillcolor="#399de5a0"] ;
9 -> 11 ;
12 [label=<gini = 0.0<br/>samples = 6<br/>value = [6, 0]>, fillcolor="#e58139ff"] ;
11 -> 12 ;
13 [label=< 2,3 3,4  &le; 0.5<br/>gini = 0.3237<br/>samples = 64<br/>value = [13, 51]>, fillcolor="#399de5be"] ;
11 -> 13 ;
14 [label=<gini = 0.0<br/>samples = 3<br/>value = [3, 0]>, fillcolor="#e58139ff"] ;
13 -> 14 ;
15 [label=< 2,4 3,5  &le; 0.5<br/>gini = 0.2741<br/>samples = 61<br/>value = [10, 51]>, fillcolor="#399de5cd"] ;
13 -> 15 ;
16 [label=<gini = 0.0<br/>samples = 3<br/>value = [3, 0]>, fillcolor="#e58139ff"] ;
15 -> 16 ;
17 [label=< 1,3 3,4  &le; 0.5<br/>gini = 0.2122<br/>samples = 58<br/>value = [7, 51]>, fillcolor="#399de5dc"] ;
15 -> 17 ;
18 [label=<gini = 0.0<br/>samples = 2<br/>value = [2, 0]>, fillcolor="#e58139ff"] ;
17 -> 18 ;
19 [label=< 1,3 3,5  &le; 0.5<br/>gini = 0.1626<br/>samples = 56<br/>value = [5, 51]>, fillcolor="#399de5e6"] ;
17 -> 19 ;
20 [label=<gini = 0.0<br/>samples = 2<br/>value = [2, 0]>, fillcolor="#e58139ff"] ;
19 -> 20 ;
21 [label=< 2,3 3,5  &le; 0.5<br/>gini = 0.1049<br/>samples = 54<br/>value = [3, 51]>, fillcolor="#399de5f0"] ;
19 -> 21 ;
22 [label=<gini = 0.0<br/>samples = 2<br/>value = [2, 0]>, fillcolor="#e58139ff"] ;
21 -> 22 ;
23 [label=< 1,4 2,5  &le; 0.5<br/>gini = 0.0377<br/>samples = 52<br/>value = [1, 51]>, fillcolor="#399de5fa"] ;
21 -> 23 ;
24 [label=<gini = 0.0<br/>samples = 1<br/>value = [1, 0]>, fillcolor="#e58139ff"] ;
23 -> 24 ;
25 [label=<gini = 0.0<br/>samples = 51<br/>value = [0, 51]>, fillcolor="#399de5ff"] ;
23 -> 25 ;
26 [label=< 5,1 5,4  &le; 0.5<br/>gini = 0.2805<br/>samples = 403<br/>value = [68, 335]>, fillcolor="#399de5cb"] ;
4 -> 26 ;
27 [label=< 3,5 4,1  &le; 0.5<br/>gini = 0.375<br/>samples = 12<br/>value = [9, 3]>, fillcolor="#e58139aa"] ;
26 -> 27 ;
28 [label=<gini = 0.0<br/>samples = 2<br/>value = [0, 2]>, fillcolor="#399de5ff"] ;
27 -> 28 ;
29 [label=< 5,2 5,3  &le; 0.5<br/>gini = 0.18<br/>samples = 10<br/>value = [9, 1]>, fillcolor="#e58139e3"] ;
27 -> 29 ;
30 [label=<gini = 0.0<br/>samples = 1<br/>value = [0, 1]>, fillcolor="#399de5ff"] ;
29 -> 30 ;
31 [label=<gini = 0.0<br/>samples = 9<br/>value = [9, 0]>, fillcolor="#e58139ff"] ;
29 -> 31 ;
32 [label=< l d  &le; 0.5<br/>gini = 0.2563<br/>samples = 391<br/>value = [59, 332]>, fillcolor="#399de5d2"] ;
26 -> 32 ;
33 [label=< u r  &le; 0.5<br/>gini = 0.398<br/>samples = 124<br/>value = [34, 90]>, fillcolor="#399de59f"] ;
32 -> 33 ;
34 [label=<gini = 0.0<br/>samples = 34<br/>value = [34, 0]>, fillcolor="#e58139ff"] ;
33 -> 34 ;
35 [label=<gini = 0.0<br/>samples = 90<br/>value = [0, 90]>, fillcolor="#399de5ff"] ;
33 -> 35 ;
36 [label=< d r  &le; 0.5<br/>gini = 0.1697<br/>samples = 267<br/>value = [25, 242]>, fillcolor="#399de5e5"] ;
32 -> 36 ;
37 [label=< 3,1 4,2  &le; 0.5<br/>gini = 0.404<br/>samples = 89<br/>value = [25, 64]>, fillcolor="#399de59b"] ;
36 -> 37 ;
38 [label=<gini = 0.0<br/>samples = 6<br/>value = [6, 0]>, fillcolor="#e58139ff"] ;
37 -> 38 ;
39 [label=< 3,1 5,2  &le; 0.5<br/>gini = 0.353<br/>samples = 83<br/>value = [19, 64]>, fillcolor="#399de5b3"] ;
37 -> 39 ;
40 [label=<gini = 0.0<br/>samples = 4<br/>value = [4, 0]>, fillcolor="#e58139ff"] ;
39 -> 40 ;
41 [label=< 3,1 5,3  &le; 0.5<br/>gini = 0.3076<br/>samples = 79<br/>value = [15, 64]>, fillcolor="#399de5c3"] ;
39 -> 41 ;
42 [label=<gini = 0.0<br/>samples = 3<br/>value = [3, 0]>, fillcolor="#e58139ff"] ;
41 -> 42 ;
43 [label=< 4,1 5,2  &le; 0.5<br/>gini = 0.2659<br/>samples = 76<br/>value = [12, 64]>, fillcolor="#399de5cf"] ;
41 -> 43 ;
44 [label=<gini = 0.0<br/>samples = 3<br/>value = [3, 0]>, fillcolor="#e58139ff"] ;
43 -> 44 ;
45 [label=< 4,2 5,3  &le; 0.5<br/>gini = 0.2162<br/>samples = 73<br/>value = [9, 64]>, fillcolor="#399de5db"] ;
43 -> 45 ;
46 [label=<gini = 0.0<br/>samples = 3<br/>value = [3, 0]>, fillcolor="#e58139ff"] ;
45 -> 46 ;
47 [label=< 3,2 4,3  &le; 0.5<br/>gini = 0.1567<br/>samples = 70<br/>value = [6, 64]>, fillcolor="#399de5e7"] ;
45 -> 47 ;
48 [label=<gini = 0.0<br/>samples = 2<br/>value = [2, 0]>, fillcolor="#e58139ff"] ;
47 -> 48 ;
49 [label=< 3,2 5,3  &le; 0.5<br/>gini = 0.1107<br/>samples = 68<br/>value = [4, 64]>, fillcolor="#399de5ef"] ;
47 -> 49 ;
50 [label=<gini = 0.0<br/>samples = 2<br/>value = [2, 0]>, fillcolor="#e58139ff"] ;
49 -> 50 ;
51 [label=< 3,1 4,3  &le; 0.5<br/>gini = 0.0588<br/>samples = 66<br/>value = [2, 64]>, fillcolor="#399de5f7"] ;
49 -> 51 ;
52 [label=<gini = 0.0<br/>samples = 2<br/>value = [2, 0]>, fillcolor="#e58139ff"] ;
51 -> 52 ;
53 [label=<gini = 0.0<br/>samples = 64<br/>value = [0, 64]>, fillcolor="#399de5ff"] ;
51 -> 53 ;
54 [label=<gini = 0.0<br/>samples = 178<br/>value = [0, 178]>, fillcolor="#399de5ff"] ;
36 -> 54 ;
}