#FIG 3.2  Produced by xfig version 3.2.5c
Landscape
Center
Metric
A4      
100.00
Single
-2
1200 2
1 3 0 1 0 0 40 -1 20 0.000 1 5.4978 3375 5175 90 90 3375 5175 3439 5239
1 3 0 1 0 0 40 -1 20 0.000 1 5.4978 8543 -385 90 90 8543 -385 8607 -321
1 3 0 1 0 0 40 -1 20 0.000 1 5.4978 2379 6389 90 90 2379 6389 2443 6453
1 3 1 3 0 7 50 -1 -1 4.000 1 0.0000 3389 5168 1575 1575 3389 5168 4964 5168
2 1 1 3 21 7 50 -1 -1 8.000 0 0 -1 0 0 2
	 4805 5850 7495 -478
2 1 1 3 8 7 50 -1 -1 8.000 0 0 -1 0 0 2
	 2430 3915 8415 675
2 1 1 3 0 8 50 -1 -1 8.000 0 0 -1 0 0 2
	 4343 6433 10193 3283
2 1 0 1 0 7 50 -1 -1 0.000 0 0 -1 0 0 2
	 6273 1520 6365 1924
2 1 1 3 0 21 50 -1 -1 8.000 0 0 -1 0 0 2
	 1930 4498 4630 -1802
2 3 0 0 0 18 90 -1 35 0.000 0 0 -1 0 0 17
	 1931 4520 1826 4939 1832 5340 1902 5700 2111 6101 2402 6398
	 2710 6590 3105 6723 3518 6753 4000 6625 4384 6404 4646 6130
	 4791 5875 6558 1683 2814 3677 2239 4078 1931 4520
2 1 0 1 0 7 50 -1 -1 0.000 0 0 -1 1 1 2
	13 1 1.00 150.00 120.00
	13 1 1.00 150.00 120.00
	 4609 6509 3652 7563
2 1 0 3 0 7 50 -1 -1 8.000 0 0 -1 0 0 2
	 220 4296 4630 8616
2 3 0 0 0 12 99 -1 30 0.000 0 0 -1 0 0 9
	 248 4307 4613 8627 3083 8987 2678 8042 2273 7997 1238 6647
	 23 6332 -157 5612 248 4307
4 2 0 10 -1 0 55 0.0000 0 750 5025 6256 1529 $2\\thetamax$\001
4 2 0 10 -1 0 55 0.0000 0 870 1395 2304 6986 $q$\001
4 0 0 10 -1 0 55 0.0000 0 870 1395 8512 214 $p$\001
4 1 0 10 -1 0 55 0.0000 0 795 2325 3550 5555 $x_k$\001
4 0 0 10 -1 0 55 0.0000 0 750 4305 4145 7609 $\\robotrad$\001
4 1 0 10 -1 0 55 1.1868 0 870 15540 3098 1014 $\\operatorname{angle}(p-q) + \\thetamax$\001
4 1 0 10 -1 0 55 0.4887 0 870 15315 8288 4913 $\\operatorname{angle}(p-q) - \\thetamax$\001
