#FIG 3.2  Produced by xfig version 3.2.5c
Portrait
Center
Inches
Letter  
100.00
Single
-2
1200 2
0 32 #d3d3d3
0 33 #000000
0 34 #fffffe
2 1 1 2 0 7 50 -1 -1 6.000 0 0 -1 0 0 2
	 2807 -1157 2242 -880
2 1 1 2 0 7 50 -1 -1 6.000 0 0 -1 0 0 2
	 2796 -592 2242 -482
2 1 0 1 32 32 50 -1 20 0.000 0 0 -1 0 0 14
	 2866 -1196 3413 -1569 3745 -1758 3889 -1797 3989 -1797 4108 -1783
	 4381 -1693 4793 -1495 4793 -908 3949 -799 3422 -720 3045 -645
	 2851 -595 2851 -1196
2 1 1 1 0 7 50 -1 -1 4.000 0 0 -1 0 0 2
	 3975 -1800 3975 75
2 1 1 1 0 7 50 -1 -1 4.000 0 0 -1 0 0 2
	 3975 -1800 2250 -1800
2 1 1 1 0 7 50 -1 -1 4.000 0 0 -1 0 0 2
	 3975 -799 2250 -799
3 2 0 1 0 7 50 -1 -1 0.000 0 1 0 2
	2 1 1.00 60.00 120.00
	 2250 -150 2250 -2100
	 0.000 0.000
3 2 0 1 0 7 50 -1 -1 0.000 0 1 0 2
	2 1 1.00 60.00 120.00
	 2250 -150 5400 -150
	 0.000 0.000
3 2 2 1 0 7 50 -1 -1 3.000 0 0 0 2
	 4800 -150 4800 -1500
	 0.000 0.000
3 2 2 1 0 7 50 -1 -1 3.000 0 0 0 2
	 2850 -150 2850 -1200
	 0.000 0.000
3 2 0 2 0 7 50 -1 -1 4.500 0 0 0 3
	 4800 -900 3600 -750 2850 -600
	 0.000 -1.000 0.000
3 2 0 2 0 7 50 -1 -1 4.500 0 0 0 3
	 2846 -1185 3897 -1799 4805 -1489
	 0.000 -1.000 0.000
3 2 1 2 0 7 50 -1 -1 6.000 0 0 0 2
	 4844 -1466 5104 -1322
	 0.000 0.000
3 2 1 2 0 7 50 -1 -1 6.000 0 0 0 2
	 4833 -907 5098 -940
	 0.000 0.000
3 2 2 1 0 7 50 -1 -1 3.000 0 0 0 2
	 3450 -150 3450 -1800
	 0.000 0.000
3 2 2 1 0 7 50 -1 -1 3.000 0 0 0 2
	 2250 -1500 4800 -1500
	 0.000 0.000
3 2 2 1 0 7 50 -1 -1 3.000 0 0 0 2
	 2250 -900 4800 -900
	 0.000 0.000
3 2 2 1 0 7 50 -1 -1 3.000 0 0 0 2
	 2250 -600 2850 -600
	 0.000 0.000
3 2 2 1 0 7 50 -1 -1 3.000 0 0 0 2
	 2250 -1200 2850 -1200
	 0.000 0.000
4 0 0 50 -1 0 12 0.0000 4 150 450 3375 0 $x_1$\001
4 0 0 50 -1 0 12 0.0000 4 150 450 2775 0 $x_1$\001
