%!PS-Adobe-3.0 EPSF-3.0
%%BoundingBox: 149 1 1014 866
%%HiResBoundingBox: 149.000000 1.000000 1013.666016 865.664062
%%Creator: dvips(k) 5.993 Copyright 2013 Radical Eye Software
%%Title: fig2ps-env04_bcd.dvi
%%CreationDate: Sun Jan  6 02:04:14 2019
%%EndComments
% EPSF created by ps2eps 1.68
%%BeginProlog
0 199 translate
save
countdictstack
mark
newpath
/showpage {} def
/setpagedevice {pop} def
%%EndProlog
%%Page 1 1
%DVIPSWebPage: (www.radicaleye.com)
%DVIPSCommandLine: dvips -Ppdf -G0 -q -E fig2ps-env04_bcd.dvi -o
%+ fig2ps-env04_bcd.ps
%DVIPSParameters: dpi=8000
%DVIPSSource:  TeX output 2019.01.06:0204
%%BeginProcSet: tex.pro 0 0
%!
/TeXDict 300 dict def TeXDict begin/N{def}def/B{bind def}N/S{exch}N/X{S
N}B/A{dup}B/TR{translate}N/isls false N/vsize 11 72 mul N/hsize 8.5 72
mul N/landplus90{false}def/@rigin{isls{[0 landplus90{1 -1}{-1 1}ifelse 0
0 0]concat}if 72 Resolution div 72 VResolution div neg scale isls{
landplus90{VResolution 72 div vsize mul 0 exch}{Resolution -72 div hsize
mul 0}ifelse TR}if Resolution VResolution vsize -72 div 1 add mul TR[
matrix currentmatrix{A A round sub abs 0.00001 lt{round}if}forall round
exch round exch]setmatrix}N/@landscape{/isls true N}B/@manualfeed{
statusdict/manualfeed true put}B/@copies{/#copies X}B/FMat[1 0 0 -1 0 0]
N/FBB[0 0 0 0]N/nn 0 N/IEn 0 N/ctr 0 N/df-tail{/nn 8 dict N nn begin
/FontType 3 N/FontMatrix fntrx N/FontBBox FBB N string/base X array
/BitMaps X/BuildChar{CharBuilder}N/Encoding IEn N end A{/foo setfont}2
array copy cvx N load 0 nn put/ctr 0 N[}B/sf 0 N/df{/sf 1 N/fntrx FMat N
df-tail}B/dfs{div/sf X/fntrx[sf 0 0 sf neg 0 0]N df-tail}B/E{pop nn A
definefont setfont}B/Cw{Cd A length 5 sub get}B/Ch{Cd A length 4 sub get
}B/Cx{128 Cd A length 3 sub get sub}B/Cy{Cd A length 2 sub get 127 sub}
B/Cdx{Cd A length 1 sub get}B/Ci{Cd A type/stringtype ne{ctr get/ctr ctr
1 add N}if}B/CharBuilder{save 3 1 roll S A/base get 2 index get S
/BitMaps get S get/Cd X pop/ctr 0 N Cdx 0 Cx Cy Ch sub Cx Cw add Cy
setcachedevice Cw Ch true[1 0 0 -1 -.1 Cx sub Cy .1 sub]{Ci}imagemask
restore}B/D{/cc X A type/stringtype ne{]}if nn/base get cc ctr put nn
/BitMaps get S ctr S sf 1 ne{A A length 1 sub A 2 index S get sf div put
}if put/ctr ctr 1 add N}B/I{cc 1 add D}B/bop{userdict/bop-hook known{
bop-hook}if/SI save N @rigin 0 0 moveto/V matrix currentmatrix A 1 get A
mul exch 0 get A mul add .99 lt{/QV}{/RV}ifelse load def pop pop}N/eop{
SI restore userdict/eop-hook known{eop-hook}if showpage}N/@start{
userdict/start-hook known{start-hook}if pop/VResolution X/Resolution X
1000 div/DVImag X/IEn 256 array N 2 string 0 1 255{IEn S A 360 add 36 4
index cvrs cvn put}for pop 65781.76 div/vsize X 65781.76 div/hsize X}N
/dir 0 def/dyy{/dir 0 def}B/dyt{/dir 1 def}B/dty{/dir 2 def}B/dtt{/dir 3
def}B/p{dir 2 eq{-90 rotate show 90 rotate}{dir 3 eq{-90 rotate show 90
rotate}{show}ifelse}ifelse}N/RMat[1 0 0 -1 0 0]N/BDot 260 string N/Rx 0
N/Ry 0 N/V{}B/RV/v{/Ry X/Rx X V}B statusdict begin/product where{pop
false[(Display)(NeXT)(LaserWriter 16/600)]{A length product length le{A
length product exch 0 exch getinterval eq{pop true exit}if}{pop}ifelse}
forall}{false}ifelse end{{gsave TR -.1 .1 TR 1 1 scale Rx Ry false RMat{
BDot}imagemask grestore}}{{gsave TR -.1 .1 TR Rx Ry scale 1 1 false RMat
{BDot}imagemask grestore}}ifelse B/QV{gsave newpath transform round exch
round exch itransform moveto Rx 0 rlineto 0 Ry neg rlineto Rx neg 0
rlineto fill grestore}B/a{moveto}B/delta 0 N/tail{A/delta X 0 rmoveto}B
/M{S p delta add tail}B/b{S p tail}B/c{-4 M}B/d{-3 M}B/e{-2 M}B/f{-1 M}
B/g{0 M}B/h{1 M}B/i{2 M}B/j{3 M}B/k{4 M}B/w{0 rmoveto}B/l{p -4 w}B/m{p
-3 w}B/n{p -2 w}B/o{p -1 w}B/q{p 1 w}B/r{p 2 w}B/s{p 3 w}B/t{p 4 w}B/x{
0 S rmoveto}B/y{3 2 roll p a}B/bos{/SS save N}B/eos{SS restore}B end
%%EndProcSet
%%BeginProcSet: alt-rule.pro 0 0
%!
% Patch by TVZ
% Makes dvips files draw rules with stroke rather than fill.
% Makes narrow rules more predictable at low resolutions
% after distilling to PDF.
% May have unknown consequences for very thick rules.
% Tested only with dvips 5.85(k).
TeXDict begin
/QV {
  gsave newpath /ruleY X /ruleX X
  Rx Ry gt
  { ruleX ruleY Ry 2 div sub moveto Rx 0 rlineto Ry }
  { ruleX Rx 2 div add ruleY moveto 0 Ry neg rlineto Rx }
  ifelse
  setlinewidth 0 setlinecap stroke grestore
} bind def
end
%%EndProcSet
%%BeginProcSet: special.pro 0 0
%!
TeXDict begin/SDict 200 dict N SDict begin/@SpecialDefaults{/hs 612 N
/vs 792 N/ho 0 N/vo 0 N/hsc 1 N/vsc 1 N/ang 0 N/CLIP 0 N/rwiSeen false N
/rhiSeen false N/letter{}N/note{}N/a4{}N/legal{}N}B/@scaleunit 100 N
/@hscale{@scaleunit div/hsc X}B/@vscale{@scaleunit div/vsc X}B/@hsize{
/hs X/CLIP 1 N}B/@vsize{/vs X/CLIP 1 N}B/@clip{/CLIP 2 N}B/@hoffset{/ho
X}B/@voffset{/vo X}B/@angle{/ang X}B/@rwi{10 div/rwi X/rwiSeen true N}B
/@rhi{10 div/rhi X/rhiSeen true N}B/@llx{/llx X}B/@lly{/lly X}B/@urx{
/urx X}B/@ury{/ury X}B/magscale true def end/@MacSetUp{userdict/md known
{userdict/md get type/dicttype eq{userdict begin md length 10 add md
maxlength ge{/md md dup length 20 add dict copy def}if end md begin
/letter{}N/note{}N/legal{}N/od{txpose 1 0 mtx defaultmatrix dtransform S
atan/pa X newpath clippath mark{transform{itransform moveto}}{transform{
itransform lineto}}{6 -2 roll transform 6 -2 roll transform 6 -2 roll
transform{itransform 6 2 roll itransform 6 2 roll itransform 6 2 roll
curveto}}{{closepath}}pathforall newpath counttomark array astore/gc xdf
pop ct 39 0 put 10 fz 0 fs 2 F/|______Courier fnt invertflag{PaintBlack}
if}N/txpose{pxs pys scale ppr aload pop por{noflips{pop S neg S TR pop 1
-1 scale}if xflip yflip and{pop S neg S TR 180 rotate 1 -1 scale ppr 3
get ppr 1 get neg sub neg ppr 2 get ppr 0 get neg sub neg TR}if xflip
yflip not and{pop S neg S TR pop 180 rotate ppr 3 get ppr 1 get neg sub
neg 0 TR}if yflip xflip not and{ppr 1 get neg ppr 0 get neg TR}if}{
noflips{TR pop pop 270 rotate 1 -1 scale}if xflip yflip and{TR pop pop
90 rotate 1 -1 scale ppr 3 get ppr 1 get neg sub neg ppr 2 get ppr 0 get
neg sub neg TR}if xflip yflip not and{TR pop pop 90 rotate ppr 3 get ppr
1 get neg sub neg 0 TR}if yflip xflip not and{TR pop pop 270 rotate ppr
2 get ppr 0 get neg sub neg 0 S TR}if}ifelse scaleby96{ppr aload pop 4
-1 roll add 2 div 3 1 roll add 2 div 2 copy TR .96 dup scale neg S neg S
TR}if}N/cp{pop pop showpage pm restore}N end}if}if}N/normalscale{
Resolution 72 div VResolution 72 div neg scale magscale{DVImag dup scale
}if 0 setgray}N/psfts{S 65781.76 div N}N/startTexFig{/psf$SavedState
save N userdict maxlength dict begin/magscale true def normalscale
currentpoint TR/psf$ury psfts/psf$urx psfts/psf$lly psfts/psf$llx psfts
/psf$y psfts/psf$x psfts currentpoint/psf$cy X/psf$cx X/psf$sx psf$x
psf$urx psf$llx sub div N/psf$sy psf$y psf$ury psf$lly sub div N psf$sx
psf$sy scale psf$cx psf$sx div psf$llx sub psf$cy psf$sy div psf$ury sub
TR/showpage{}N/erasepage{}N/setpagedevice{pop}N/copypage{}N/p 3 def
@MacSetUp}N/doclip{psf$llx psf$lly psf$urx psf$ury currentpoint 6 2 roll
newpath 4 copy 4 2 roll moveto 6 -1 roll S lineto S lineto S lineto
closepath clip newpath moveto}N/endTexFig{end psf$SavedState restore}N
/@beginspecial{SDict begin/SpecialSave save N gsave normalscale
currentpoint TR @SpecialDefaults count/ocount X/dcount countdictstack N}
N/@setspecial{CLIP 1 eq{newpath 0 0 moveto hs 0 rlineto 0 vs rlineto hs
neg 0 rlineto closepath clip}if ho vo TR hsc vsc scale ang rotate
rwiSeen{rwi urx llx sub div rhiSeen{rhi ury lly sub div}{dup}ifelse
scale llx neg lly neg TR}{rhiSeen{rhi ury lly sub div dup scale llx neg
lly neg TR}if}ifelse CLIP 2 eq{newpath llx lly moveto urx lly lineto urx
ury lineto llx ury lineto closepath clip}if/showpage{}N/erasepage{}N
/setpagedevice{pop}N/copypage{}N newpath}N/@endspecial{count ocount sub{
pop}repeat countdictstack dcount sub{end}repeat grestore SpecialSave
restore end}N/@defspecial{SDict begin}N/@fedspecial{end}B/li{lineto}B
/rl{rlineto}B/rc{rcurveto}B/np{/SaveX currentpoint/SaveY X N 1
setlinecap newpath}N/st{stroke SaveX SaveY moveto}N/fil{fill SaveX SaveY
moveto}N/ellipse{/endangle X/startangle X/yrad X/xrad X/savematrix
matrix currentmatrix N TR xrad yrad scale 0 0 1 startangle endangle arc
savematrix setmatrix}N end
%%EndProcSet
%%BeginProcSet: color.pro 0 0
%!
TeXDict begin/setcmykcolor where{pop}{/setcmykcolor{dup 10 eq{pop
setrgbcolor}{1 sub 4 1 roll 3{3 index add neg dup 0 lt{pop 0}if 3 1 roll
}repeat setrgbcolor pop}ifelse}B}ifelse/TeXcolorcmyk{setcmykcolor}def
/TeXcolorrgb{setrgbcolor}def/TeXcolorgrey{setgray}def/TeXcolorgray{
setgray}def/TeXcolorhsb{sethsbcolor}def/currentcmykcolor where{pop}{
/currentcmykcolor{currentrgbcolor 10}B}ifelse/DC{exch dup userdict exch
known{pop pop}{X}ifelse}B/GreenYellow{0.15 0 0.69 0 setcmykcolor}DC
/Yellow{0 0 1 0 setcmykcolor}DC/Goldenrod{0 0.10 0.84 0 setcmykcolor}DC
/Dandelion{0 0.29 0.84 0 setcmykcolor}DC/Apricot{0 0.32 0.52 0
setcmykcolor}DC/Peach{0 0.50 0.70 0 setcmykcolor}DC/Melon{0 0.46 0.50 0
setcmykcolor}DC/YellowOrange{0 0.42 1 0 setcmykcolor}DC/Orange{0 0.61
0.87 0 setcmykcolor}DC/BurntOrange{0 0.51 1 0 setcmykcolor}DC
/Bittersweet{0 0.75 1 0.24 setcmykcolor}DC/RedOrange{0 0.77 0.87 0
setcmykcolor}DC/Mahogany{0 0.85 0.87 0.35 setcmykcolor}DC/Maroon{0 0.87
0.68 0.32 setcmykcolor}DC/BrickRed{0 0.89 0.94 0.28 setcmykcolor}DC/Red{
0 1 1 0 setcmykcolor}DC/OrangeRed{0 1 0.50 0 setcmykcolor}DC/RubineRed{
0 1 0.13 0 setcmykcolor}DC/WildStrawberry{0 0.96 0.39 0 setcmykcolor}DC
/Salmon{0 0.53 0.38 0 setcmykcolor}DC/CarnationPink{0 0.63 0 0
setcmykcolor}DC/Magenta{0 1 0 0 setcmykcolor}DC/VioletRed{0 0.81 0 0
setcmykcolor}DC/Rhodamine{0 0.82 0 0 setcmykcolor}DC/Mulberry{0.34 0.90
0 0.02 setcmykcolor}DC/RedViolet{0.07 0.90 0 0.34 setcmykcolor}DC
/Fuchsia{0.47 0.91 0 0.08 setcmykcolor}DC/Lavender{0 0.48 0 0
setcmykcolor}DC/Thistle{0.12 0.59 0 0 setcmykcolor}DC/Orchid{0.32 0.64 0
0 setcmykcolor}DC/DarkOrchid{0.40 0.80 0.20 0 setcmykcolor}DC/Purple{
0.45 0.86 0 0 setcmykcolor}DC/Plum{0.50 1 0 0 setcmykcolor}DC/Violet{
0.79 0.88 0 0 setcmykcolor}DC/RoyalPurple{0.75 0.90 0 0 setcmykcolor}DC
/BlueViolet{0.86 0.91 0 0.04 setcmykcolor}DC/Periwinkle{0.57 0.55 0 0
setcmykcolor}DC/CadetBlue{0.62 0.57 0.23 0 setcmykcolor}DC
/CornflowerBlue{0.65 0.13 0 0 setcmykcolor}DC/MidnightBlue{0.98 0.13 0
0.43 setcmykcolor}DC/NavyBlue{0.94 0.54 0 0 setcmykcolor}DC/RoyalBlue{1
0.50 0 0 setcmykcolor}DC/Blue{1 1 0 0 setcmykcolor}DC/Cerulean{0.94 0.11
0 0 setcmykcolor}DC/Cyan{1 0 0 0 setcmykcolor}DC/ProcessBlue{0.96 0 0 0
setcmykcolor}DC/SkyBlue{0.62 0 0.12 0 setcmykcolor}DC/Turquoise{0.85 0
0.20 0 setcmykcolor}DC/TealBlue{0.86 0 0.34 0.02 setcmykcolor}DC
/Aquamarine{0.82 0 0.30 0 setcmykcolor}DC/BlueGreen{0.85 0 0.33 0
setcmykcolor}DC/Emerald{1 0 0.50 0 setcmykcolor}DC/JungleGreen{0.99 0
0.52 0 setcmykcolor}DC/SeaGreen{0.69 0 0.50 0 setcmykcolor}DC/Green{1 0
1 0 setcmykcolor}DC/ForestGreen{0.91 0 0.88 0.12 setcmykcolor}DC
/PineGreen{0.92 0 0.59 0.25 setcmykcolor}DC/LimeGreen{0.50 0 1 0
setcmykcolor}DC/YellowGreen{0.44 0 0.74 0 setcmykcolor}DC/SpringGreen{
0.26 0 0.76 0 setcmykcolor}DC/OliveGreen{0.64 0 0.95 0.40 setcmykcolor}
DC/RawSienna{0 0.72 1 0.45 setcmykcolor}DC/Sepia{0 0.83 1 0.70
setcmykcolor}DC/Brown{0 0.81 1 0.60 setcmykcolor}DC/Tan{0.14 0.42 0.56 0
setcmykcolor}DC/Gray{0 0 0 0.50 setcmykcolor}DC/Black{0 0 0 1
setcmykcolor}DC/White{0 0 0 0 setcmykcolor}DC end
%%EndProcSet
TeXDict begin 40258437 52099154 1000 8000 8000 (fig2ps-env04_bcd.dvi)
@start end
%%EndProlog
%%BeginSetup
%%Feature: *Resolution 8000dpi
TeXDict begin
 end
%%EndSetup
TeXDict begin 1 0 bop Black Black 8524 102029 a @beginspecial
0 @llx 0 @lly 866 @urx 866 @ury 8660 @rwi @setspecial
%%BeginDocument: fig2ps-env04_bcd.pstex
%!PS-Adobe-3.0 EPSF-3.0
%%Title: fig2ps-env04_bcd.fig2
%%Creator: fig2dev Version 3.2 Patchlevel 5e
%%CreationDate: Sun Jan  6 02:04:14 2019
%%BoundingBox: 0 0 866 866
%Magnification: 1.0000
%%EndComments
%%BeginProlog
/$F2psDict 200 dict def
$F2psDict begin
$F2psDict /mtrx matrix put
/col-1 {0 setgray} bind def
/col0 {0.000 0.000 0.000 srgb} bind def
/col1 {0.000 0.000 1.000 srgb} bind def
/col2 {0.000 1.000 0.000 srgb} bind def
/col3 {0.000 1.000 1.000 srgb} bind def
/col4 {1.000 0.000 0.000 srgb} bind def
/col5 {1.000 0.000 1.000 srgb} bind def
/col6 {1.000 1.000 0.000 srgb} bind def
/col7 {1.000 1.000 1.000 srgb} bind def
/col8 {0.000 0.000 0.560 srgb} bind def
/col9 {0.000 0.000 0.690 srgb} bind def
/col10 {0.000 0.000 0.820 srgb} bind def
/col11 {0.530 0.810 1.000 srgb} bind def
/col12 {0.000 0.560 0.000 srgb} bind def
/col13 {0.000 0.690 0.000 srgb} bind def
/col14 {0.000 0.820 0.000 srgb} bind def
/col15 {0.000 0.560 0.560 srgb} bind def
/col16 {0.000 0.690 0.690 srgb} bind def
/col17 {0.000 0.820 0.820 srgb} bind def
/col18 {0.560 0.000 0.000 srgb} bind def
/col19 {0.690 0.000 0.000 srgb} bind def
/col20 {0.820 0.000 0.000 srgb} bind def
/col21 {0.560 0.000 0.560 srgb} bind def
/col22 {0.690 0.000 0.690 srgb} bind def
/col23 {0.820 0.000 0.820 srgb} bind def
/col24 {0.500 0.190 0.000 srgb} bind def
/col25 {0.630 0.250 0.000 srgb} bind def
/col26 {0.750 0.380 0.000 srgb} bind def
/col27 {1.000 0.500 0.500 srgb} bind def
/col28 {1.000 0.630 0.630 srgb} bind def
/col29 {1.000 0.750 0.750 srgb} bind def
/col30 {1.000 0.880 0.880 srgb} bind def
/col31 {1.000 0.840 0.000 srgb} bind def
/col32 {0.306 0.773 0.925 srgb} bind def
/col33 {0.498 0.000 0.000 srgb} bind def
/col34 {0.624 0.871 0.945 srgb} bind def
/col35 {0.698 0.698 0.698 srgb} bind def
end
/cp {closepath} bind def
/ef {eofill} bind def
/gr {grestore} bind def
/gs {gsave} bind def
/sa {save} bind def
/rs {restore} bind def
/l {lineto} bind def
/m {moveto} bind def
/rm {rmoveto} bind def
/n {newpath} bind def
/s {stroke} bind def
/sh {show} bind def
/slc {setlinecap} bind def
/slj {setlinejoin} bind def
/slw {setlinewidth} bind def
/srgb {setrgbcolor} bind def
/rot {rotate} bind def
/sc {scale} bind def
/sd {setdash} bind def
/ff {findfont} bind def
/sf {setfont} bind def
/scf {scalefont} bind def
/sw {stringwidth} bind def
/tr {translate} bind def
/tnt {dup dup currentrgbcolor
  4 -2 roll dup 1 exch sub 3 -1 roll mul add
  4 -2 roll dup 1 exch sub 3 -1 roll mul add
  4 -2 roll dup 1 exch sub 3 -1 roll mul add srgb}
  bind def
/shd {dup dup currentrgbcolor 4 -2 roll mul 4 -2 roll mul
  4 -2 roll mul srgb} bind def
 /DrawEllipse {
	/endangle exch def
	/startangle exch def
	/yrad exch def
	/xrad exch def
	/y exch def
	/x exch def
	/savematrix mtrx currentmatrix def
	x y tr xrad yrad sc 0 0 1 startangle endangle arc
	closepath
	savematrix setmatrix
	} def
/$F2psBegin {$F2psDict begin /$F2psEnteredState save def} def
/$F2psEnd {$F2psEnteredState restore end} def
/pageheader {
save
newpath 0 866 moveto 0 0 lineto 866 0 lineto 866 866 lineto closepath clip newpath
72.7 72.7 translate
1 -1 scale
$F2psBegin
10 setmiterlimit
0 slj 0 slc
 0.06000 0.06000 sc
} bind def
/pagefooter {
$F2psEnd
restore
} bind def
%%EndProlog
pageheader
%
% Fig objects follow
%
% 
% here starts figure with depth 50
% Polyline
1 slj
0 slc
7.500 slw
n -1200 1200 m -1200 -13200 l 13200 -13200 l 13200 1200 l
 cp gs 0.00 setgray ef gr gs col0 s gr 
% Polyline
n 0 0 m 0 -12000 l 12000 -12000 l 12000 0 l
 cp gs col7 1.00 shd ef gr gs col7 s gr 
% Polyline
n 253 -11746 m 2003 -11746 l 2003 -253 l 253 -253 l
 cp gs col35 1.00 shd ef gr gs col35 s gr 
% Polyline
n 2026 -7301 m 2072 -7209 l 2234 -7047 l 2257 -7047 l 2280 -7024 l 2303 -7024 l
 2349 -6978 l 2372 -6978 l 2395 -6955 l 2441 -6955 l 2464 -6932 l
 2487 -6932 l 2510 -6909 l 2533 -6909 l 2556 -6886 l 2602 -6886 l
 2625 -6863 l 2671 -6863 l 2694 -6840 l 2740 -6840 l 2763 -6817 l
 2833 -6817 l 2856 -6794 l 2902 -6794 l 2925 -6771 l 2994 -6771 l
 3017 -6748 l 3109 -6748 l 3132 -6725 l 3224 -6725 l 3247 -6702 l
 3362 -6702 l 3385 -6679 l 3500 -6679 l 3523 -6656 l 3685 -6656 l
 3708 -6633 l 3915 -6633 l 3938 -6610 l 4307 -6610 l 4330 -6587 l
 4998 -6587 l 5021 -6610 l 5389 -6610 l 5412 -6633 l 5619 -6633 l
 5642 -6656 l 5642 -253 l 2026 -253 l
 cp gs col35 1.00 shd ef gr gs col35 s gr 
% Polyline
n 5666 -6656 m 5804 -6656 l 5827 -6679 l 5942 -6679 l 5965 -6702 l 6080 -6702 l
 6103 -6725 l 6195 -6725 l 6218 -6748 l 6310 -6748 l 6333 -6771 l
 6403 -6771 l 6426 -6794 l 6472 -6794 l 6495 -6817 l 6564 -6817 l
 6587 -6840 l 6633 -6840 l 6656 -6863 l 6702 -6863 l 6725 -6886 l
 6771 -6886 l 6794 -6909 l 6817 -6909 l 6840 -6932 l 6863 -6932 l
 6886 -6955 l 6932 -6955 l 6955 -6978 l 6978 -6978 l 7024 -7024 l
 7047 -7024 l 7071 -7047 l 7094 -7047 l 7255 -7209 l 7301 -7301 l
 7301 -3938 l 7278 -3915 l 7094 -3915 l 7071 -3892 l 6932 -3892 l
 6909 -3869 l 6794 -3869 l 6771 -3846 l 6679 -3846 l 6656 -3823 l
 6587 -3823 l 6564 -3800 l 6495 -3800 l 6472 -3777 l 6403 -3777 l
 6380 -3754 l 6333 -3754 l 6310 -3731 l 6264 -3731 l 6241 -3708 l
 6195 -3708 l 6172 -3685 l 6149 -3685 l 6126 -3662 l 6103 -3662 l
 6080 -3639 l 6057 -3639 l 6034 -3616 l 6011 -3616 l 5988 -3593 l
 5965 -3593 l 5942 -3570 l 5919 -3570 l 5873 -3523 l 5850 -3523 l
 5712 -3385 l 5689 -3339 l 5666 -3270 l
 cp gs col35 1.00 shd ef gr gs col35 s gr 
% Polyline
n 2026 -11746 m 7301 -11746 l 7301 -7416 l 7255 -7508 l 7094 -7669 l 7071 -7669 l
 7047 -7692 l 7024 -7692 l 6978 -7738 l 6955 -7738 l 6932 -7761 l
 6886 -7761 l 6863 -7785 l 6840 -7785 l 6817 -7808 l 6794 -7808 l
 6771 -7831 l 6725 -7831 l 6702 -7854 l 6656 -7854 l 6633 -7877 l
 6587 -7877 l 6564 -7900 l 6495 -7900 l 6472 -7923 l 6426 -7923 l
 6403 -7946 l 6333 -7946 l 6310 -7969 l 6218 -7969 l 6195 -7992 l
 6103 -7992 l 6080 -8015 l 5965 -8015 l 5942 -8038 l 5827 -8038 l
 5804 -8061 l 5642 -8061 l 5619 -8084 l 5412 -8084 l 5389 -8107 l
 5021 -8107 l 4998 -8130 l 4330 -8130 l 4307 -8107 l 3938 -8107 l
 3915 -8084 l 3708 -8084 l 3685 -8061 l 3523 -8061 l 3500 -8038 l
 3385 -8038 l 3362 -8015 l 3247 -8015 l 3224 -7992 l 3132 -7992 l
 3109 -7969 l 3017 -7969 l 2994 -7946 l 2925 -7946 l 2902 -7923 l
 2856 -7923 l 2833 -7900 l 2763 -7900 l 2740 -7877 l 2694 -7877 l
 2671 -7854 l 2625 -7854 l 2602 -7831 l 2556 -7831 l 2533 -7808 l
 2510 -7808 l 2487 -7785 l 2464 -7785 l 2441 -7761 l 2395 -7761 l
 2372 -7738 l 2349 -7738 l 2303 -7692 l 2280 -7692 l 2257 -7669 l
 2234 -7669 l 2072 -7508 l 2026 -7416 l
 cp gs col35 1.00 shd ef gr gs col35 s gr 
% Polyline
n 5666 -3178 m 5689 -3109 l 5712 -3063 l 5850 -2925 l 5873 -2925 l 5919 -2879 l
 5942 -2879 l 5965 -2856 l 5988 -2856 l 6011 -2833 l 6034 -2833 l
 6057 -2809 l 6080 -2809 l 6103 -2786 l 6126 -2786 l 6149 -2763 l
 6172 -2763 l 6195 -2740 l 6241 -2740 l 6264 -2717 l 6310 -2717 l
 6333 -2694 l 6380 -2694 l 6403 -2671 l 6472 -2671 l 6495 -2648 l
 6564 -2648 l 6587 -2625 l 6656 -2625 l 6679 -2602 l 6771 -2602 l
 6794 -2579 l 6909 -2579 l 6932 -2556 l 7071 -2556 l 7094 -2533 l
 7278 -2533 l 7301 -2510 l 7600 -2510 l 7623 -2487 l 8222 -2487 l
 8245 -2510 l 8545 -2510 l 8568 -2533 l 8752 -2533 l 8775 -2556 l
 8913 -2556 l 8936 -2579 l 9051 -2579 l 9074 -2602 l 9166 -2602 l
 9190 -2625 l 9259 -2625 l 9282 -2648 l 9351 -2648 l 9374 -2671 l
 9443 -2671 l 9466 -2694 l 9512 -2694 l 9535 -2717 l 9581 -2717 l
 9604 -2740 l 9650 -2740 l 9673 -2763 l 9696 -2763 l 9719 -2786 l
 9742 -2786 l 9765 -2809 l 9788 -2809 l 9811 -2833 l 9834 -2833 l
 9857 -2856 l 9880 -2856 l 9904 -2879 l 9927 -2879 l 9973 -2925 l
 9996 -2925 l 10134 -3063 l 10157 -3109 l 10180 -3178 l 10180 -253 l
 5666 -253 l
 cp gs col35 1.00 shd ef gr gs col35 s gr 
% Polyline
n 7324 -11746 m 10180 -11746 l 10180 -3270 l 10157 -3339 l 10134 -3385 l 9996 -3523 l
 9973 -3523 l 9927 -3570 l 9904 -3570 l 9880 -3593 l 9857 -3593 l
 9834 -3616 l 9811 -3616 l 9788 -3639 l 9765 -3639 l 9742 -3662 l
 9719 -3662 l 9696 -3685 l 9673 -3685 l 9650 -3708 l 9604 -3708 l
 9581 -3731 l 9535 -3731 l 9512 -3754 l 9466 -3754 l 9443 -3777 l
 9374 -3777 l 9351 -3800 l 9282 -3800 l 9259 -3823 l 9190 -3823 l
 9166 -3846 l 9074 -3846 l 9051 -3869 l 8936 -3869 l 8913 -3892 l
 8775 -3892 l 8752 -3915 l 8568 -3915 l 8545 -3938 l 8245 -3938 l
 8222 -3961 l 7623 -3961 l 7600 -3938 l 7324 -3938 l
 cp gs col35 1.00 shd ef gr gs col35 s gr 
% Polyline
n 10203 -11746 m 11746 -11746 l 11746 -253 l 10203 -253 l
 cp gs col35 1.00 shd ef gr gs col35 s gr 
% Polyline
n 253 -11746 m 690 -11746 l 690 -253 l 253 -253 l
 cp gs col32 1.00 shd ef gr gs col32 s gr 
% Polyline
n 690 -11746 m 1128 -11746 l 1128 -253 l 690 -253 l
 cp gs col34 1.00 shd ef gr gs col34 s gr 
% Polyline
n 1128 -11746 m 1566 -11746 l 1566 -253 l 1128 -253 l
 cp gs col32 1.00 shd ef gr gs col32 s gr 
% Polyline
n 1566 -11746 m 2003 -11746 l 2003 -253 l 1566 -253 l
 cp gs col34 1.00 shd ef gr gs col34 s gr 
% Polyline
n 2026 -7301 m 2543 -6899 l 2543 -253 l 2026 -253 l
 cp gs col32 1.00 shd ef gr gs col32 s gr 
% Polyline
n 2543 -6899 m 3060 -6748 l 3060 -253 l 2543 -253 l
 cp gs col34 1.00 shd ef gr gs col34 s gr 
% Polyline
n 3060 -6748 m 3576 -6656 l 3576 -253 l 3060 -253 l
 cp gs col32 1.00 shd ef gr gs col32 s gr 
% Polyline
n 3576 -6656 m 4093 -6610 l 4093 -253 l 3576 -253 l
 cp gs col34 1.00 shd ef gr gs col34 s gr 
% Polyline
n 4093 -6610 m 4609 -6587 l 4609 -253 l 4093 -253 l
 cp gs col32 1.00 shd ef gr gs col32 s gr 
% Polyline
n 4609 -6587 m 5126 -6610 l 5126 -253 l 4609 -253 l
 cp gs col34 1.00 shd ef gr gs col34 s gr 
% Polyline
n 5126 -6610 m 5642 -6656 l 5642 -253 l 5126 -253 l
 cp gs col32 1.00 shd ef gr gs col32 s gr 
% Polyline
n 5666 -6656 m 6211 -6740 l 6211 -3708 l 5666 -3270 l
 cp gs col34 1.00 shd ef gr gs col34 s gr 
% Polyline
n 6211 -6740 m 6756 -6886 l 6756 -3846 l 6211 -3708 l
 cp gs col32 1.00 shd ef gr gs col32 s gr 
% Polyline
n 6756 -6886 m 7301 -7301 l 7301 -3938 l 6756 -3846 l
 cp gs col34 1.00 shd ef gr gs col34 s gr 
% Polyline
n 2026 -11746 m 2554 -11746 l 2554 -7828 l 2026 -7416 l
 cp gs col32 1.00 shd ef gr gs col32 s gr 
% Polyline
n 2554 -11746 m 3081 -11746 l 3081 -7969 l 2554 -7828 l
 cp gs col34 1.00 shd ef gr gs col34 s gr 
% Polyline
n 3081 -11746 m 3609 -11746 l 3609 -8061 l 3081 -7969 l
 cp gs col32 1.00 shd ef gr gs col32 s gr 
% Polyline
n 3609 -11746 m 4136 -11746 l 4136 -8107 l 3609 -8061 l
 cp gs col34 1.00 shd ef gr gs col34 s gr 
% Polyline
n 4136 -11746 m 4664 -11746 l 4664 -8130 l 4136 -8107 l
 cp gs col32 1.00 shd ef gr gs col32 s gr 
% Polyline
n 4664 -11746 m 5191 -11746 l 5191 -8107 l 4664 -8130 l
 cp gs col34 1.00 shd ef gr gs col34 s gr 
% Polyline
n 5191 -11746 m 5719 -11746 l 5719 -8061 l 5191 -8107 l
 cp gs col32 1.00 shd ef gr gs col32 s gr 
% Polyline
n 5719 -11746 m 6246 -11746 l 6246 -7969 l 5719 -8061 l
 cp gs col34 1.00 shd ef gr gs col34 s gr 
% Polyline
n 6246 -11746 m 6773 -11746 l 6773 -7828 l 6246 -7969 l
 cp gs col32 1.00 shd ef gr gs col32 s gr 
% Polyline
n 6773 -11746 m 7301 -11746 l 7301 -7416 l 6773 -7828 l
 cp gs col34 1.00 shd ef gr gs col34 s gr 
% Polyline
n 5666 -3178 m 6230 -2740 l 6230 -253 l 5666 -253 l
 cp gs col32 1.00 shd ef gr gs col32 s gr 
% Polyline
n 6230 -2740 m 6794 -2579 l 6794 -253 l 6230 -253 l
 cp gs col34 1.00 shd ef gr gs col34 s gr 
% Polyline
n 6794 -2579 m 7358 -2510 l 7358 -253 l 6794 -253 l
 cp gs col32 1.00 shd ef gr gs col32 s gr 
% Polyline
n 7358 -2510 m 7923 -2487 l 7923 -253 l 7358 -253 l
 cp gs col34 1.00 shd ef gr gs col34 s gr 
% Polyline
n 7923 -2487 m 8487 -2510 l 8487 -253 l 7923 -253 l
 cp gs col32 1.00 shd ef gr gs col32 s gr 
% Polyline
n 8487 -2510 m 9051 -2579 l 9051 -253 l 8487 -253 l
 cp gs col34 1.00 shd ef gr gs col34 s gr 
% Polyline
n 9051 -2579 m 9616 -2740 l 9616 -253 l 9051 -253 l
 cp gs col32 1.00 shd ef gr gs col32 s gr 
% Polyline
n 9616 -2740 m 10180 -3178 l 10180 -253 l 9616 -253 l
 cp gs col34 1.00 shd ef gr gs col34 s gr 
% Polyline
n 7324 -11746 m 7895 -11746 l 7895 -3961 l 7324 -3938 l
 cp gs col32 1.00 shd ef gr gs col32 s gr 
% Polyline
n 7895 -11746 m 8466 -11746 l 8466 -3938 l 7895 -3961 l
 cp gs col34 1.00 shd ef gr gs col34 s gr 
% Polyline
n 8466 -11746 m 9038 -11746 l 9038 -3869 l 8466 -3938 l
 cp gs col32 1.00 shd ef gr gs col32 s gr 
% Polyline
n 9038 -11746 m 9609 -11746 l 9609 -3708 l 9038 -3869 l
 cp gs col34 1.00 shd ef gr gs col34 s gr 
% Polyline
n 9609 -11746 m 10180 -11746 l 10180 -3270 l 9609 -3708 l
 cp gs col32 1.00 shd ef gr gs col32 s gr 
% Polyline
n 10203 -11746 m 10717 -11746 l 10717 -253 l 10203 -253 l
 cp gs col34 1.00 shd ef gr gs col34 s gr 
% Polyline
n 10717 -11746 m 11232 -11746 l 11232 -253 l 10717 -253 l
 cp gs col32 1.00 shd ef gr gs col32 s gr 
% Polyline
n 11232 -11746 m 11746 -11746 l 11746 -253 l 11232 -253 l
 cp gs col34 1.00 shd ef gr gs col34 s gr 
% Ellipse
n 6510 -11746 0 0 0 360 DrawEllipse gs col4 1.00 shd ef gr gs col4 s gr
% Polyline
n 253 -11746 m 2003 -11746 l 2003 -253 l 253 -253 l
 cp gs col0 s gr 
% Polyline
n 2026 -7301 m 2072 -7209 l 2234 -7047 l 2257 -7047 l 2280 -7024 l 2303 -7024 l
 2349 -6978 l 2372 -6978 l 2395 -6955 l 2441 -6955 l 2464 -6932 l
 2487 -6932 l 2510 -6909 l 2533 -6909 l 2556 -6886 l 2602 -6886 l
 2625 -6863 l 2671 -6863 l 2694 -6840 l 2740 -6840 l 2763 -6817 l
 2833 -6817 l 2856 -6794 l 2902 -6794 l 2925 -6771 l 2994 -6771 l
 3017 -6748 l 3109 -6748 l 3132 -6725 l 3224 -6725 l 3247 -6702 l
 3362 -6702 l 3385 -6679 l 3500 -6679 l 3523 -6656 l 3685 -6656 l
 3708 -6633 l 3915 -6633 l 3938 -6610 l 4307 -6610 l 4330 -6587 l
 4998 -6587 l 5021 -6610 l 5389 -6610 l 5412 -6633 l 5619 -6633 l
 5642 -6656 l 5642 -253 l 2026 -253 l
 cp gs col0 s gr 
% Polyline
n 5666 -6656 m 5804 -6656 l 5827 -6679 l 5942 -6679 l 5965 -6702 l 6080 -6702 l
 6103 -6725 l 6195 -6725 l 6218 -6748 l 6310 -6748 l 6333 -6771 l
 6403 -6771 l 6426 -6794 l 6472 -6794 l 6495 -6817 l 6564 -6817 l
 6587 -6840 l 6633 -6840 l 6656 -6863 l 6702 -6863 l 6725 -6886 l
 6771 -6886 l 6794 -6909 l 6817 -6909 l 6840 -6932 l 6863 -6932 l
 6886 -6955 l 6932 -6955 l 6955 -6978 l 6978 -6978 l 7024 -7024 l
 7047 -7024 l 7071 -7047 l 7094 -7047 l 7255 -7209 l 7301 -7301 l
 7301 -3938 l 7278 -3915 l 7094 -3915 l 7071 -3892 l 6932 -3892 l
 6909 -3869 l 6794 -3869 l 6771 -3846 l 6679 -3846 l 6656 -3823 l
 6587 -3823 l 6564 -3800 l 6495 -3800 l 6472 -3777 l 6403 -3777 l
 6380 -3754 l 6333 -3754 l 6310 -3731 l 6264 -3731 l 6241 -3708 l
 6195 -3708 l 6172 -3685 l 6149 -3685 l 6126 -3662 l 6103 -3662 l
 6080 -3639 l 6057 -3639 l 6034 -3616 l 6011 -3616 l 5988 -3593 l
 5965 -3593 l 5942 -3570 l 5919 -3570 l 5873 -3523 l 5850 -3523 l
 5712 -3385 l 5689 -3339 l 5666 -3270 l
 cp gs col0 s gr 
% Polyline
n 2026 -11746 m 7301 -11746 l 7301 -7416 l 7255 -7508 l 7094 -7669 l 7071 -7669 l
 7047 -7692 l 7024 -7692 l 6978 -7738 l 6955 -7738 l 6932 -7761 l
 6886 -7761 l 6863 -7785 l 6840 -7785 l 6817 -7808 l 6794 -7808 l
 6771 -7831 l 6725 -7831 l 6702 -7854 l 6656 -7854 l 6633 -7877 l
 6587 -7877 l 6564 -7900 l 6495 -7900 l 6472 -7923 l 6426 -7923 l
 6403 -7946 l 6333 -7946 l 6310 -7969 l 6218 -7969 l 6195 -7992 l
 6103 -7992 l 6080 -8015 l 5965 -8015 l 5942 -8038 l 5827 -8038 l
 5804 -8061 l 5642 -8061 l 5619 -8084 l 5412 -8084 l 5389 -8107 l
 5021 -8107 l 4998 -8130 l 4330 -8130 l 4307 -8107 l 3938 -8107 l
 3915 -8084 l 3708 -8084 l 3685 -8061 l 3523 -8061 l 3500 -8038 l
 3385 -8038 l 3362 -8015 l 3247 -8015 l 3224 -7992 l 3132 -7992 l
 3109 -7969 l 3017 -7969 l 2994 -7946 l 2925 -7946 l 2902 -7923 l
 2856 -7923 l 2833 -7900 l 2763 -7900 l 2740 -7877 l 2694 -7877 l
 2671 -7854 l 2625 -7854 l 2602 -7831 l 2556 -7831 l 2533 -7808 l
 2510 -7808 l 2487 -7785 l 2464 -7785 l 2441 -7761 l 2395 -7761 l
 2372 -7738 l 2349 -7738 l 2303 -7692 l 2280 -7692 l 2257 -7669 l
 2234 -7669 l 2072 -7508 l 2026 -7416 l
 cp gs col0 s gr 
% Polyline
n 5666 -3178 m 5689 -3109 l 5712 -3063 l 5850 -2925 l 5873 -2925 l 5919 -2879 l
 5942 -2879 l 5965 -2856 l 5988 -2856 l 6011 -2833 l 6034 -2833 l
 6057 -2809 l 6080 -2809 l 6103 -2786 l 6126 -2786 l 6149 -2763 l
 6172 -2763 l 6195 -2740 l 6241 -2740 l 6264 -2717 l 6310 -2717 l
 6333 -2694 l 6380 -2694 l 6403 -2671 l 6472 -2671 l 6495 -2648 l
 6564 -2648 l 6587 -2625 l 6656 -2625 l 6679 -2602 l 6771 -2602 l
 6794 -2579 l 6909 -2579 l 6932 -2556 l 7071 -2556 l 7094 -2533 l
 7278 -2533 l 7301 -2510 l 7600 -2510 l 7623 -2487 l 8222 -2487 l
 8245 -2510 l 8545 -2510 l 8568 -2533 l 8752 -2533 l 8775 -2556 l
 8913 -2556 l 8936 -2579 l 9051 -2579 l 9074 -2602 l 9166 -2602 l
 9190 -2625 l 9259 -2625 l 9282 -2648 l 9351 -2648 l 9374 -2671 l
 9443 -2671 l 9466 -2694 l 9512 -2694 l 9535 -2717 l 9581 -2717 l
 9604 -2740 l 9650 -2740 l 9673 -2763 l 9696 -2763 l 9719 -2786 l
 9742 -2786 l 9765 -2809 l 9788 -2809 l 9811 -2833 l 9834 -2833 l
 9857 -2856 l 9880 -2856 l 9904 -2879 l 9927 -2879 l 9973 -2925 l
 9996 -2925 l 10134 -3063 l 10157 -3109 l 10180 -3178 l 10180 -253 l
 5666 -253 l
 cp gs col0 s gr 
% Polyline
n 7324 -11746 m 10180 -11746 l 10180 -3270 l 10157 -3339 l 10134 -3385 l 9996 -3523 l
 9973 -3523 l 9927 -3570 l 9904 -3570 l 9880 -3593 l 9857 -3593 l
 9834 -3616 l 9811 -3616 l 9788 -3639 l 9765 -3639 l 9742 -3662 l
 9719 -3662 l 9696 -3685 l 9673 -3685 l 9650 -3708 l 9604 -3708 l
 9581 -3731 l 9535 -3731 l 9512 -3754 l 9466 -3754 l 9443 -3777 l
 9374 -3777 l 9351 -3800 l 9282 -3800 l 9259 -3823 l 9190 -3823 l
 9166 -3846 l 9074 -3846 l 9051 -3869 l 8936 -3869 l 8913 -3892 l
 8775 -3892 l 8752 -3915 l 8568 -3915 l 8545 -3938 l 8245 -3938 l
 8222 -3961 l 7623 -3961 l 7600 -3938 l 7324 -3938 l
 cp gs col0 s gr 
% Polyline
n 10203 -11746 m 11746 -11746 l 11746 -253 l 10203 -253 l
 cp gs col0 s gr 
% Polyline
n 253 -11746 m 690 -11746 l 690 -253 l 253 -253 l
 cp gs col0 s gr 
% Polyline
n 690 -11746 m 1128 -11746 l 1128 -253 l 690 -253 l
 cp gs col0 s gr 
% Polyline
n 1128 -11746 m 1566 -11746 l 1566 -253 l 1128 -253 l
 cp gs col0 s gr 
% Polyline
n 1566 -11746 m 2003 -11746 l 2003 -253 l 1566 -253 l
 cp gs col0 s gr 
% Polyline
n 2026 -7301 m 2543 -6899 l 2543 -253 l 2026 -253 l
 cp gs col0 s gr 
% Polyline
n 2543 -6899 m 3060 -6748 l 3060 -253 l 2543 -253 l
 cp gs col0 s gr 
% Polyline
n 3060 -6748 m 3576 -6656 l 3576 -253 l 3060 -253 l
 cp gs col0 s gr 
% Polyline
n 3576 -6656 m 4093 -6610 l 4093 -253 l 3576 -253 l
 cp gs col0 s gr 
% Polyline
n 4093 -6610 m 4609 -6587 l 4609 -253 l 4093 -253 l
 cp gs col0 s gr 
% Polyline
n 4609 -6587 m 5126 -6610 l 5126 -253 l 4609 -253 l
 cp gs col0 s gr 
% Polyline
n 5126 -6610 m 5642 -6656 l 5642 -253 l 5126 -253 l
 cp gs col0 s gr 
% Polyline
n 5666 -6656 m 6211 -6740 l 6211 -3708 l 5666 -3270 l
 cp gs col0 s gr 
% Polyline
n 6211 -6740 m 6756 -6886 l 6756 -3846 l 6211 -3708 l
 cp gs col0 s gr 
% Polyline
n 6756 -6886 m 7301 -7301 l 7301 -3938 l 6756 -3846 l
 cp gs col0 s gr 
% Polyline
n 2026 -11746 m 2554 -11746 l 2554 -7828 l 2026 -7416 l
 cp gs col0 s gr 
% Polyline
n 2554 -11746 m 3081 -11746 l 3081 -7969 l 2554 -7828 l
 cp gs col0 s gr 
% Polyline
n 3081 -11746 m 3609 -11746 l 3609 -8061 l 3081 -7969 l
 cp gs col0 s gr 
% Polyline
n 3609 -11746 m 4136 -11746 l 4136 -8107 l 3609 -8061 l
 cp gs col0 s gr 
% Polyline
n 4136 -11746 m 4664 -11746 l 4664 -8130 l 4136 -8107 l
 cp gs col0 s gr 
% Polyline
n 4664 -11746 m 5191 -11746 l 5191 -8107 l 4664 -8130 l
 cp gs col0 s gr 
% Polyline
n 5191 -11746 m 5719 -11746 l 5719 -8061 l 5191 -8107 l
 cp gs col0 s gr 
% Polyline
n 5719 -11746 m 6246 -11746 l 6246 -7969 l 5719 -8061 l
 cp gs col0 s gr 
% Polyline
n 6246 -11746 m 6773 -11746 l 6773 -7828 l 6246 -7969 l
 cp gs col0 s gr 
% Polyline
n 6773 -11746 m 7301 -11746 l 7301 -7416 l 6773 -7828 l
 cp gs col0 s gr 
% Polyline
n 5666 -3178 m 6230 -2740 l 6230 -253 l 5666 -253 l
 cp gs col0 s gr 
% Polyline
n 6230 -2740 m 6794 -2579 l 6794 -253 l 6230 -253 l
 cp gs col0 s gr 
% Polyline
n 6794 -2579 m 7358 -2510 l 7358 -253 l 6794 -253 l
 cp gs col0 s gr 
% Polyline
n 7358 -2510 m 7923 -2487 l 7923 -253 l 7358 -253 l
 cp gs col0 s gr 
% Polyline
n 7923 -2487 m 8487 -2510 l 8487 -253 l 7923 -253 l
 cp gs col0 s gr 
% Polyline
n 8487 -2510 m 9051 -2579 l 9051 -253 l 8487 -253 l
 cp gs col0 s gr 
% Polyline
n 9051 -2579 m 9616 -2740 l 9616 -253 l 9051 -253 l
 cp gs col0 s gr 
% Polyline
n 9616 -2740 m 10180 -3178 l 10180 -253 l 9616 -253 l
 cp gs col0 s gr 
% Polyline
n 7324 -11746 m 7895 -11746 l 7895 -3961 l 7324 -3938 l
 cp gs col0 s gr 
% Polyline
n 7895 -11746 m 8466 -11746 l 8466 -3938 l 7895 -3961 l
 cp gs col0 s gr 
% Polyline
n 8466 -11746 m 9038 -11746 l 9038 -3869 l 8466 -3938 l
 cp gs col0 s gr 
% Polyline
n 9038 -11746 m 9609 -11746 l 9609 -3708 l 9038 -3869 l
 cp gs col0 s gr 
% Polyline
n 9609 -11746 m 10180 -11746 l 10180 -3270 l 9609 -3708 l
 cp gs col0 s gr 
% Polyline
n 10203 -11746 m 10717 -11746 l 10717 -253 l 10203 -253 l
 cp gs col0 s gr 
% Polyline
n 10717 -11746 m 11232 -11746 l 11232 -253 l 10717 -253 l
 cp gs col0 s gr 
% Polyline
n 11232 -11746 m 11746 -11746 l 11746 -253 l 11232 -253 l
 cp gs col0 s gr 
% Ellipse
n 6510 -11746 0 0 0 360 DrawEllipse gs col33 s gr
% Polyline
n 6510 -11746 m
 6510 -11746 l  cp gs col33 s gr 
% here ends figure;
pagefooter
showpage
%%Trailer
%EOF
%%EndDocument
 @endspecial Black Black eop end
%%Trailer
userdict /end-hook known{end-hook}if
%%Trailer
cleartomark
countdictstack
exch sub { end } repeat
restore
%%EOF
