%!PS-Adobe-3.0 EPSF-3.0
%%BoundingBox: 149 1 1014 866
%%HiResBoundingBox: 149.000000 1.000000 1013.666016 865.664062
%%Creator: dvips(k) 5.993 Copyright 2013 Radical Eye Software
%%Title: fig2ps-env02_upDownCutoff.dvi
%%CreationDate: Sun Jan  6 02:04:16 2019
%%EndComments
% EPSF created by ps2eps 1.68
%%BeginProlog
0 199 translate
save
countdictstack
mark
newpath
/showpage {} def
/setpagedevice {pop} def
%%EndProlog
%%Page 1 1
%DVIPSWebPage: (www.radicaleye.com)
%DVIPSCommandLine: dvips -Ppdf -G0 -q -E fig2ps-env02_upDownCutoff.dvi
%+ -o fig2ps-env02_upDownCutoff.ps
%DVIPSParameters: dpi=8000
%DVIPSSource:  TeX output 2019.01.06:0204
%%BeginProcSet: tex.pro 0 0
%!
/TeXDict 300 dict def TeXDict begin/N{def}def/B{bind def}N/S{exch}N/X{S
N}B/A{dup}B/TR{translate}N/isls false N/vsize 11 72 mul N/hsize 8.5 72
mul N/landplus90{false}def/@rigin{isls{[0 landplus90{1 -1}{-1 1}ifelse 0
0 0]concat}if 72 Resolution div 72 VResolution div neg scale isls{
landplus90{VResolution 72 div vsize mul 0 exch}{Resolution -72 div hsize
mul 0}ifelse TR}if Resolution VResolution vsize -72 div 1 add mul TR[
matrix currentmatrix{A A round sub abs 0.00001 lt{round}if}forall round
exch round exch]setmatrix}N/@landscape{/isls true N}B/@manualfeed{
statusdict/manualfeed true put}B/@copies{/#copies X}B/FMat[1 0 0 -1 0 0]
N/FBB[0 0 0 0]N/nn 0 N/IEn 0 N/ctr 0 N/df-tail{/nn 8 dict N nn begin
/FontType 3 N/FontMatrix fntrx N/FontBBox FBB N string/base X array
/BitMaps X/BuildChar{CharBuilder}N/Encoding IEn N end A{/foo setfont}2
array copy cvx N load 0 nn put/ctr 0 N[}B/sf 0 N/df{/sf 1 N/fntrx FMat N
df-tail}B/dfs{div/sf X/fntrx[sf 0 0 sf neg 0 0]N df-tail}B/E{pop nn A
definefont setfont}B/Cw{Cd A length 5 sub get}B/Ch{Cd A length 4 sub get
}B/Cx{128 Cd A length 3 sub get sub}B/Cy{Cd A length 2 sub get 127 sub}
B/Cdx{Cd A length 1 sub get}B/Ci{Cd A type/stringtype ne{ctr get/ctr ctr
1 add N}if}B/CharBuilder{save 3 1 roll S A/base get 2 index get S
/BitMaps get S get/Cd X pop/ctr 0 N Cdx 0 Cx Cy Ch sub Cx Cw add Cy
setcachedevice Cw Ch true[1 0 0 -1 -.1 Cx sub Cy .1 sub]{Ci}imagemask
restore}B/D{/cc X A type/stringtype ne{]}if nn/base get cc ctr put nn
/BitMaps get S ctr S sf 1 ne{A A length 1 sub A 2 index S get sf div put
}if put/ctr ctr 1 add N}B/I{cc 1 add D}B/bop{userdict/bop-hook known{
bop-hook}if/SI save N @rigin 0 0 moveto/V matrix currentmatrix A 1 get A
mul exch 0 get A mul add .99 lt{/QV}{/RV}ifelse load def pop pop}N/eop{
SI restore userdict/eop-hook known{eop-hook}if showpage}N/@start{
userdict/start-hook known{start-hook}if pop/VResolution X/Resolution X
1000 div/DVImag X/IEn 256 array N 2 string 0 1 255{IEn S A 360 add 36 4
index cvrs cvn put}for pop 65781.76 div/vsize X 65781.76 div/hsize X}N
/dir 0 def/dyy{/dir 0 def}B/dyt{/dir 1 def}B/dty{/dir 2 def}B/dtt{/dir 3
def}B/p{dir 2 eq{-90 rotate show 90 rotate}{dir 3 eq{-90 rotate show 90
rotate}{show}ifelse}ifelse}N/RMat[1 0 0 -1 0 0]N/BDot 260 string N/Rx 0
N/Ry 0 N/V{}B/RV/v{/Ry X/Rx X V}B statusdict begin/product where{pop
false[(Display)(NeXT)(LaserWriter 16/600)]{A length product length le{A
length product exch 0 exch getinterval eq{pop true exit}if}{pop}ifelse}
forall}{false}ifelse end{{gsave TR -.1 .1 TR 1 1 scale Rx Ry false RMat{
BDot}imagemask grestore}}{{gsave TR -.1 .1 TR Rx Ry scale 1 1 false RMat
{BDot}imagemask grestore}}ifelse B/QV{gsave newpath transform round exch
round exch itransform moveto Rx 0 rlineto 0 Ry neg rlineto Rx neg 0
rlineto fill grestore}B/a{moveto}B/delta 0 N/tail{A/delta X 0 rmoveto}B
/M{S p delta add tail}B/b{S p tail}B/c{-4 M}B/d{-3 M}B/e{-2 M}B/f{-1 M}
B/g{0 M}B/h{1 M}B/i{2 M}B/j{3 M}B/k{4 M}B/w{0 rmoveto}B/l{p -4 w}B/m{p
-3 w}B/n{p -2 w}B/o{p -1 w}B/q{p 1 w}B/r{p 2 w}B/s{p 3 w}B/t{p 4 w}B/x{
0 S rmoveto}B/y{3 2 roll p a}B/bos{/SS save N}B/eos{SS restore}B end
%%EndProcSet
%%BeginProcSet: alt-rule.pro 0 0
%!
% Patch by TVZ
% Makes dvips files draw rules with stroke rather than fill.
% Makes narrow rules more predictable at low resolutions
% after distilling to PDF.
% May have unknown consequences for very thick rules.
% Tested only with dvips 5.85(k).
TeXDict begin
/QV {
  gsave newpath /ruleY X /ruleX X
  Rx Ry gt
  { ruleX ruleY Ry 2 div sub moveto Rx 0 rlineto Ry }
  { ruleX Rx 2 div add ruleY moveto 0 Ry neg rlineto Rx }
  ifelse
  setlinewidth 0 setlinecap stroke grestore
} bind def
end
%%EndProcSet
%%BeginProcSet: special.pro 0 0
%!
TeXDict begin/SDict 200 dict N SDict begin/@SpecialDefaults{/hs 612 N
/vs 792 N/ho 0 N/vo 0 N/hsc 1 N/vsc 1 N/ang 0 N/CLIP 0 N/rwiSeen false N
/rhiSeen false N/letter{}N/note{}N/a4{}N/legal{}N}B/@scaleunit 100 N
/@hscale{@scaleunit div/hsc X}B/@vscale{@scaleunit div/vsc X}B/@hsize{
/hs X/CLIP 1 N}B/@vsize{/vs X/CLIP 1 N}B/@clip{/CLIP 2 N}B/@hoffset{/ho
X}B/@voffset{/vo X}B/@angle{/ang X}B/@rwi{10 div/rwi X/rwiSeen true N}B
/@rhi{10 div/rhi X/rhiSeen true N}B/@llx{/llx X}B/@lly{/lly X}B/@urx{
/urx X}B/@ury{/ury X}B/magscale true def end/@MacSetUp{userdict/md known
{userdict/md get type/dicttype eq{userdict begin md length 10 add md
maxlength ge{/md md dup length 20 add dict copy def}if end md begin
/letter{}N/note{}N/legal{}N/od{txpose 1 0 mtx defaultmatrix dtransform S
atan/pa X newpath clippath mark{transform{itransform moveto}}{transform{
itransform lineto}}{6 -2 roll transform 6 -2 roll transform 6 -2 roll
transform{itransform 6 2 roll itransform 6 2 roll itransform 6 2 roll
curveto}}{{closepath}}pathforall newpath counttomark array astore/gc xdf
pop ct 39 0 put 10 fz 0 fs 2 F/|______Courier fnt invertflag{PaintBlack}
if}N/txpose{pxs pys scale ppr aload pop por{noflips{pop S neg S TR pop 1
-1 scale}if xflip yflip and{pop S neg S TR 180 rotate 1 -1 scale ppr 3
get ppr 1 get neg sub neg ppr 2 get ppr 0 get neg sub neg TR}if xflip
yflip not and{pop S neg S TR pop 180 rotate ppr 3 get ppr 1 get neg sub
neg 0 TR}if yflip xflip not and{ppr 1 get neg ppr 0 get neg TR}if}{
noflips{TR pop pop 270 rotate 1 -1 scale}if xflip yflip and{TR pop pop
90 rotate 1 -1 scale ppr 3 get ppr 1 get neg sub neg ppr 2 get ppr 0 get
neg sub neg TR}if xflip yflip not and{TR pop pop 90 rotate ppr 3 get ppr
1 get neg sub neg 0 TR}if yflip xflip not and{TR pop pop 270 rotate ppr
2 get ppr 0 get neg sub neg 0 S TR}if}ifelse scaleby96{ppr aload pop 4
-1 roll add 2 div 3 1 roll add 2 div 2 copy TR .96 dup scale neg S neg S
TR}if}N/cp{pop pop showpage pm restore}N end}if}if}N/normalscale{
Resolution 72 div VResolution 72 div neg scale magscale{DVImag dup scale
}if 0 setgray}N/psfts{S 65781.76 div N}N/startTexFig{/psf$SavedState
save N userdict maxlength dict begin/magscale true def normalscale
currentpoint TR/psf$ury psfts/psf$urx psfts/psf$lly psfts/psf$llx psfts
/psf$y psfts/psf$x psfts currentpoint/psf$cy X/psf$cx X/psf$sx psf$x
psf$urx psf$llx sub div N/psf$sy psf$y psf$ury psf$lly sub div N psf$sx
psf$sy scale psf$cx psf$sx div psf$llx sub psf$cy psf$sy div psf$ury sub
TR/showpage{}N/erasepage{}N/setpagedevice{pop}N/copypage{}N/p 3 def
@MacSetUp}N/doclip{psf$llx psf$lly psf$urx psf$ury currentpoint 6 2 roll
newpath 4 copy 4 2 roll moveto 6 -1 roll S lineto S lineto S lineto
closepath clip newpath moveto}N/endTexFig{end psf$SavedState restore}N
/@beginspecial{SDict begin/SpecialSave save N gsave normalscale
currentpoint TR @SpecialDefaults count/ocount X/dcount countdictstack N}
N/@setspecial{CLIP 1 eq{newpath 0 0 moveto hs 0 rlineto 0 vs rlineto hs
neg 0 rlineto closepath clip}if ho vo TR hsc vsc scale ang rotate
rwiSeen{rwi urx llx sub div rhiSeen{rhi ury lly sub div}{dup}ifelse
scale llx neg lly neg TR}{rhiSeen{rhi ury lly sub div dup scale llx neg
lly neg TR}if}ifelse CLIP 2 eq{newpath llx lly moveto urx lly lineto urx
ury lineto llx ury lineto closepath clip}if/showpage{}N/erasepage{}N
/setpagedevice{pop}N/copypage{}N newpath}N/@endspecial{count ocount sub{
pop}repeat countdictstack dcount sub{end}repeat grestore SpecialSave
restore end}N/@defspecial{SDict begin}N/@fedspecial{end}B/li{lineto}B
/rl{rlineto}B/rc{rcurveto}B/np{/SaveX currentpoint/SaveY X N 1
setlinecap newpath}N/st{stroke SaveX SaveY moveto}N/fil{fill SaveX SaveY
moveto}N/ellipse{/endangle X/startangle X/yrad X/xrad X/savematrix
matrix currentmatrix N TR xrad yrad scale 0 0 1 startangle endangle arc
savematrix setmatrix}N end
%%EndProcSet
%%BeginProcSet: color.pro 0 0
%!
TeXDict begin/setcmykcolor where{pop}{/setcmykcolor{dup 10 eq{pop
setrgbcolor}{1 sub 4 1 roll 3{3 index add neg dup 0 lt{pop 0}if 3 1 roll
}repeat setrgbcolor pop}ifelse}B}ifelse/TeXcolorcmyk{setcmykcolor}def
/TeXcolorrgb{setrgbcolor}def/TeXcolorgrey{setgray}def/TeXcolorgray{
setgray}def/TeXcolorhsb{sethsbcolor}def/currentcmykcolor where{pop}{
/currentcmykcolor{currentrgbcolor 10}B}ifelse/DC{exch dup userdict exch
known{pop pop}{X}ifelse}B/GreenYellow{0.15 0 0.69 0 setcmykcolor}DC
/Yellow{0 0 1 0 setcmykcolor}DC/Goldenrod{0 0.10 0.84 0 setcmykcolor}DC
/Dandelion{0 0.29 0.84 0 setcmykcolor}DC/Apricot{0 0.32 0.52 0
setcmykcolor}DC/Peach{0 0.50 0.70 0 setcmykcolor}DC/Melon{0 0.46 0.50 0
setcmykcolor}DC/YellowOrange{0 0.42 1 0 setcmykcolor}DC/Orange{0 0.61
0.87 0 setcmykcolor}DC/BurntOrange{0 0.51 1 0 setcmykcolor}DC
/Bittersweet{0 0.75 1 0.24 setcmykcolor}DC/RedOrange{0 0.77 0.87 0
setcmykcolor}DC/Mahogany{0 0.85 0.87 0.35 setcmykcolor}DC/Maroon{0 0.87
0.68 0.32 setcmykcolor}DC/BrickRed{0 0.89 0.94 0.28 setcmykcolor}DC/Red{
0 1 1 0 setcmykcolor}DC/OrangeRed{0 1 0.50 0 setcmykcolor}DC/RubineRed{
0 1 0.13 0 setcmykcolor}DC/WildStrawberry{0 0.96 0.39 0 setcmykcolor}DC
/Salmon{0 0.53 0.38 0 setcmykcolor}DC/CarnationPink{0 0.63 0 0
setcmykcolor}DC/Magenta{0 1 0 0 setcmykcolor}DC/VioletRed{0 0.81 0 0
setcmykcolor}DC/Rhodamine{0 0.82 0 0 setcmykcolor}DC/Mulberry{0.34 0.90
0 0.02 setcmykcolor}DC/RedViolet{0.07 0.90 0 0.34 setcmykcolor}DC
/Fuchsia{0.47 0.91 0 0.08 setcmykcolor}DC/Lavender{0 0.48 0 0
setcmykcolor}DC/Thistle{0.12 0.59 0 0 setcmykcolor}DC/Orchid{0.32 0.64 0
0 setcmykcolor}DC/DarkOrchid{0.40 0.80 0.20 0 setcmykcolor}DC/Purple{
0.45 0.86 0 0 setcmykcolor}DC/Plum{0.50 1 0 0 setcmykcolor}DC/Violet{
0.79 0.88 0 0 setcmykcolor}DC/RoyalPurple{0.75 0.90 0 0 setcmykcolor}DC
/BlueViolet{0.86 0.91 0 0.04 setcmykcolor}DC/Periwinkle{0.57 0.55 0 0
setcmykcolor}DC/CadetBlue{0.62 0.57 0.23 0 setcmykcolor}DC
/CornflowerBlue{0.65 0.13 0 0 setcmykcolor}DC/MidnightBlue{0.98 0.13 0
0.43 setcmykcolor}DC/NavyBlue{0.94 0.54 0 0 setcmykcolor}DC/RoyalBlue{1
0.50 0 0 setcmykcolor}DC/Blue{1 1 0 0 setcmykcolor}DC/Cerulean{0.94 0.11
0 0 setcmykcolor}DC/Cyan{1 0 0 0 setcmykcolor}DC/ProcessBlue{0.96 0 0 0
setcmykcolor}DC/SkyBlue{0.62 0 0.12 0 setcmykcolor}DC/Turquoise{0.85 0
0.20 0 setcmykcolor}DC/TealBlue{0.86 0 0.34 0.02 setcmykcolor}DC
/Aquamarine{0.82 0 0.30 0 setcmykcolor}DC/BlueGreen{0.85 0 0.33 0
setcmykcolor}DC/Emerald{1 0 0.50 0 setcmykcolor}DC/JungleGreen{0.99 0
0.52 0 setcmykcolor}DC/SeaGreen{0.69 0 0.50 0 setcmykcolor}DC/Green{1 0
1 0 setcmykcolor}DC/ForestGreen{0.91 0 0.88 0.12 setcmykcolor}DC
/PineGreen{0.92 0 0.59 0.25 setcmykcolor}DC/LimeGreen{0.50 0 1 0
setcmykcolor}DC/YellowGreen{0.44 0 0.74 0 setcmykcolor}DC/SpringGreen{
0.26 0 0.76 0 setcmykcolor}DC/OliveGreen{0.64 0 0.95 0.40 setcmykcolor}
DC/RawSienna{0 0.72 1 0.45 setcmykcolor}DC/Sepia{0 0.83 1 0.70
setcmykcolor}DC/Brown{0 0.81 1 0.60 setcmykcolor}DC/Tan{0.14 0.42 0.56 0
setcmykcolor}DC/Gray{0 0 0 0.50 setcmykcolor}DC/Black{0 0 0 1
setcmykcolor}DC/White{0 0 0 0 setcmykcolor}DC end
%%EndProcSet
TeXDict begin 40258437 52099154 1000 8000 8000
(fig2ps-env02_upDownCutoff.dvi)
@start end
%%EndProlog
%%BeginSetup
%%Feature: *Resolution 8000dpi
TeXDict begin
 end
%%EndSetup
TeXDict begin 1 0 bop Black Black 8524 102029 a @beginspecial
0 @llx 0 @lly 866 @urx 866 @ury 8660 @rwi @setspecial
%%BeginDocument: fig2ps-env02_upDownCutoff.pstex
%!PS-Adobe-3.0 EPSF-3.0
%%Title: fig2ps-env02_upDownCutoff.fig2
%%Creator: fig2dev Version 3.2 Patchlevel 5e
%%CreationDate: Sun Jan  6 02:04:16 2019
%%BoundingBox: 0 0 866 866
%Magnification: 1.0000
%%EndComments
%%BeginProlog
/$F2psDict 200 dict def
$F2psDict begin
$F2psDict /mtrx matrix put
/col-1 {0 setgray} bind def
/col0 {0.000 0.000 0.000 srgb} bind def
/col1 {0.000 0.000 1.000 srgb} bind def
/col2 {0.000 1.000 0.000 srgb} bind def
/col3 {0.000 1.000 1.000 srgb} bind def
/col4 {1.000 0.000 0.000 srgb} bind def
/col5 {1.000 0.000 1.000 srgb} bind def
/col6 {1.000 1.000 0.000 srgb} bind def
/col7 {1.000 1.000 1.000 srgb} bind def
/col8 {0.000 0.000 0.560 srgb} bind def
/col9 {0.000 0.000 0.690 srgb} bind def
/col10 {0.000 0.000 0.820 srgb} bind def
/col11 {0.530 0.810 1.000 srgb} bind def
/col12 {0.000 0.560 0.000 srgb} bind def
/col13 {0.000 0.690 0.000 srgb} bind def
/col14 {0.000 0.820 0.000 srgb} bind def
/col15 {0.000 0.560 0.560 srgb} bind def
/col16 {0.000 0.690 0.690 srgb} bind def
/col17 {0.000 0.820 0.820 srgb} bind def
/col18 {0.560 0.000 0.000 srgb} bind def
/col19 {0.690 0.000 0.000 srgb} bind def
/col20 {0.820 0.000 0.000 srgb} bind def
/col21 {0.560 0.000 0.560 srgb} bind def
/col22 {0.690 0.000 0.690 srgb} bind def
/col23 {0.820 0.000 0.820 srgb} bind def
/col24 {0.500 0.190 0.000 srgb} bind def
/col25 {0.630 0.250 0.000 srgb} bind def
/col26 {0.750 0.380 0.000 srgb} bind def
/col27 {1.000 0.500 0.500 srgb} bind def
/col28 {1.000 0.630 0.630 srgb} bind def
/col29 {1.000 0.750 0.750 srgb} bind def
/col30 {1.000 0.880 0.880 srgb} bind def
/col31 {1.000 0.840 0.000 srgb} bind def
/col32 {0.306 0.773 0.925 srgb} bind def
/col33 {0.498 0.000 0.000 srgb} bind def
/col34 {0.498 0.122 0.122 srgb} bind def
/col35 {0.624 0.871 0.945 srgb} bind def
/col36 {0.698 0.698 0.698 srgb} bind def
/col37 {0.749 0.000 0.000 srgb} bind def
end
/cp {closepath} bind def
/ef {eofill} bind def
/gr {grestore} bind def
/gs {gsave} bind def
/sa {save} bind def
/rs {restore} bind def
/l {lineto} bind def
/m {moveto} bind def
/rm {rmoveto} bind def
/n {newpath} bind def
/s {stroke} bind def
/sh {show} bind def
/slc {setlinecap} bind def
/slj {setlinejoin} bind def
/slw {setlinewidth} bind def
/srgb {setrgbcolor} bind def
/rot {rotate} bind def
/sc {scale} bind def
/sd {setdash} bind def
/ff {findfont} bind def
/sf {setfont} bind def
/scf {scalefont} bind def
/sw {stringwidth} bind def
/tr {translate} bind def
/tnt {dup dup currentrgbcolor
  4 -2 roll dup 1 exch sub 3 -1 roll mul add
  4 -2 roll dup 1 exch sub 3 -1 roll mul add
  4 -2 roll dup 1 exch sub 3 -1 roll mul add srgb}
  bind def
/shd {dup dup currentrgbcolor 4 -2 roll mul 4 -2 roll mul
  4 -2 roll mul srgb} bind def
 /DrawEllipse {
	/endangle exch def
	/startangle exch def
	/yrad exch def
	/xrad exch def
	/y exch def
	/x exch def
	/savematrix mtrx currentmatrix def
	x y tr xrad yrad sc 0 0 1 startangle endangle arc
	closepath
	savematrix setmatrix
	} def
/$F2psBegin {$F2psDict begin /$F2psEnteredState save def} def
/$F2psEnd {$F2psEnteredState restore end} def
/pageheader {
save
newpath 0 866 moveto 0 0 lineto 866 0 lineto 866 866 lineto closepath clip newpath
72.7 72.7 translate
1 -1 scale
$F2psBegin
10 setmiterlimit
0 slj 0 slc
 0.06000 0.06000 sc
} bind def
/pagefooter {
$F2psEnd
restore
} bind def
%%EndProlog
pageheader
%
% Fig objects follow
%
% 
% here starts figure with depth 50
% Polyline
1 slj
0 slc
7.500 slw
n -1200 1200 m -1200 -13200 l 13200 -13200 l 13200 1200 l
 cp gs 0.00 setgray ef gr gs col0 s gr 
% Polyline
n 0 0 m 0 -12000 l 12000 -12000 l 12000 0 l
 cp gs col7 1.00 shd ef gr gs col7 s gr 
% Polyline
n 368 -3293 m 7831 -3293 l 7831 -253 l 368 -253 l
 cp gs col36 1.00 shd ef gr gs col36 s gr 
% Polyline
n 368 -11516 m 7831 -11516 l 7831 -8291 l 368 -8291 l
 cp gs col36 1.00 shd ef gr gs col36 s gr 
% Polyline
n 7854 -11516 m 11631 -11516 l 11631 -253 l 7854 -253 l
 cp gs col36 1.00 shd ef gr gs col36 s gr 
% Polyline
n 368 -3293 m 1301 -3293 l 1301 -253 l 368 -253 l
 cp gs col32 1.00 shd ef gr gs col32 s gr 
% Polyline
n 1301 -3293 m 2234 -3293 l 2234 -253 l 1301 -253 l
 cp gs col35 1.00 shd ef gr gs col35 s gr 
% Polyline
n 2234 -3293 m 3166 -3293 l 3166 -253 l 2234 -253 l
 cp gs col32 1.00 shd ef gr gs col32 s gr 
% Polyline
n 3166 -3293 m 4099 -3293 l 4099 -253 l 3166 -253 l
 cp gs col35 1.00 shd ef gr gs col35 s gr 
% Polyline
n 4099 -3293 m 5032 -3293 l 5032 -253 l 4099 -253 l
 cp gs col32 1.00 shd ef gr gs col32 s gr 
% Polyline
n 5032 -3293 m 5965 -3293 l 5965 -253 l 5032 -253 l
 cp gs col35 1.00 shd ef gr gs col35 s gr 
% Polyline
n 5965 -3293 m 6898 -3293 l 6898 -253 l 5965 -253 l
 cp gs col32 1.00 shd ef gr gs col32 s gr 
% Polyline
n 6898 -3293 m 7831 -3293 l 7831 -253 l 6898 -253 l
 cp gs col35 1.00 shd ef gr gs col35 s gr 
% Polyline
n 368 -11516 m 1301 -11516 l 1301 -8291 l 368 -8291 l
 cp gs col32 1.00 shd ef gr gs col32 s gr 
% Polyline
n 1301 -11516 m 2234 -11516 l 2234 -8291 l 1301 -8291 l
 cp gs col35 1.00 shd ef gr gs col35 s gr 
% Polyline
n 2234 -11516 m 3166 -11516 l 3166 -8291 l 2234 -8291 l
 cp gs col32 1.00 shd ef gr gs col32 s gr 
% Polyline
n 3166 -11516 m 4099 -11516 l 4099 -8291 l 3166 -8291 l
 cp gs col35 1.00 shd ef gr gs col35 s gr 
% Polyline
n 4099 -11516 m 5032 -11516 l 5032 -8291 l 4099 -8291 l
 cp gs col32 1.00 shd ef gr gs col32 s gr 
% Polyline
n 5032 -11516 m 5965 -11516 l 5965 -8291 l 5032 -8291 l
 cp gs col35 1.00 shd ef gr gs col35 s gr 
% Polyline
n 5965 -11516 m 6898 -11516 l 6898 -8291 l 5965 -8291 l
 cp gs col32 1.00 shd ef gr gs col32 s gr 
% Polyline
n 6898 -11516 m 7831 -11516 l 7831 -8291 l 6898 -8291 l
 cp gs col35 1.00 shd ef gr gs col35 s gr 
% Polyline
n 7854 -11516 m 8798 -11516 l 8798 -253 l 7854 -253 l
 cp gs col32 1.00 shd ef gr gs col32 s gr 
% Polyline
n 8798 -11516 m 9742 -11516 l 9742 -253 l 8798 -253 l
 cp gs col35 1.00 shd ef gr gs col35 s gr 
% Polyline
n 9742 -11516 m 10687 -11516 l 10687 -253 l 9742 -253 l
 cp gs col32 1.00 shd ef gr gs col32 s gr 
% Polyline
n 10687 -11516 m 11631 -11516 l 11631 -253 l 10687 -253 l
 cp gs col35 1.00 shd ef gr gs col35 s gr 
% Ellipse
n 10214 -253 115 115 0 360 DrawEllipse gs col4 1.00 shd ef gr gs col4 s gr
% Polyline
n 368 -3293 m 7831 -3293 l 7831 -253 l 368 -253 l
 cp gs col0 s gr 
% Polyline
n 368 -11516 m 7831 -11516 l 7831 -8291 l 368 -8291 l
 cp gs col0 s gr 
% Polyline
n 7854 -11516 m 11631 -11516 l 11631 -253 l 7854 -253 l
 cp gs col0 s gr 
% Polyline
n 368 -3293 m 1301 -3293 l 1301 -253 l 368 -253 l
 cp gs col0 s gr 
% Polyline
n 1301 -3293 m 2234 -3293 l 2234 -253 l 1301 -253 l
 cp gs col0 s gr 
% Polyline
n 2234 -3293 m 3166 -3293 l 3166 -253 l 2234 -253 l
 cp gs col0 s gr 
% Polyline
n 3166 -3293 m 4099 -3293 l 4099 -253 l 3166 -253 l
 cp gs col0 s gr 
% Polyline
n 4099 -3293 m 5032 -3293 l 5032 -253 l 4099 -253 l
 cp gs col0 s gr 
% Polyline
n 5032 -3293 m 5965 -3293 l 5965 -253 l 5032 -253 l
 cp gs col0 s gr 
% Polyline
n 5965 -3293 m 6898 -3293 l 6898 -253 l 5965 -253 l
 cp gs col0 s gr 
% Polyline
n 6898 -3293 m 7831 -3293 l 7831 -253 l 6898 -253 l
 cp gs col0 s gr 
% Polyline
n 368 -11516 m 1301 -11516 l 1301 -8291 l 368 -8291 l
 cp gs col0 s gr 
% Polyline
n 1301 -11516 m 2234 -11516 l 2234 -8291 l 1301 -8291 l
 cp gs col0 s gr 
% Polyline
n 2234 -11516 m 3166 -11516 l 3166 -8291 l 2234 -8291 l
 cp gs col0 s gr 
% Polyline
n 3166 -11516 m 4099 -11516 l 4099 -8291 l 3166 -8291 l
 cp gs col0 s gr 
% Polyline
n 4099 -11516 m 5032 -11516 l 5032 -8291 l 4099 -8291 l
 cp gs col0 s gr 
% Polyline
n 5032 -11516 m 5965 -11516 l 5965 -8291 l 5032 -8291 l
 cp gs col0 s gr 
% Polyline
n 5965 -11516 m 6898 -11516 l 6898 -8291 l 5965 -8291 l
 cp gs col0 s gr 
% Polyline
n 6898 -11516 m 7831 -11516 l 7831 -8291 l 6898 -8291 l
 cp gs col0 s gr 
% Polyline
n 7854 -11516 m 8798 -11516 l 8798 -253 l 7854 -253 l
 cp gs col0 s gr 
% Polyline
n 8798 -11516 m 9742 -11516 l 9742 -253 l 8798 -253 l
 cp gs col0 s gr 
% Polyline
n 9742 -11516 m 10687 -11516 l 10687 -253 l 9742 -253 l
 cp gs col0 s gr 
% Polyline
n 10687 -11516 m 11631 -11516 l 11631 -253 l 10687 -253 l
 cp gs col0 s gr 
% Polyline
n 10214 -227 m 10211 -181 l 10204 -135 l 10195 -90 l 10183 -46 l 10168 -2 l
 10149 39 l 10129 80 l 10105 119 l 10079 157 l 10050 193 l
 10019 228 l 9986 260 l 9951 289 l 9914 316 l 9875 341 l
 9834 363 l 9793 383 l 9750 399 l 9706 413 l 9661 423 l
 9615 431 l 9570 436 l 9523 437 l 8055 437 l 8029 437 l
 7983 433 l 7938 427 l 7893 418 l 7848 405 l 7805 390 l
 7762 372 l 7721 351 l 7682 328 l 7644 301 l 7608 273 l
 7574 242 l 7542 209 l 7512 173 l 7485 136 l 7460 97 l
 7438 57 l 7419 15 l 7402 -27 l 7389 -71 l 7378 -116 l
 7370 -161 l 7366 -207 l 7364 -253 l 7364 -3293 l 7364 -3319 l
 7360 -3365 l 7354 -3411 l 7345 -3456 l 7332 -3500 l 7317 -3544 l
 7299 -3586 l 7278 -3627 l 7255 -3667 l 7228 -3704 l 7200 -3740 l
 7169 -3775 l 7136 -3807 l 7100 -3836 l 7063 -3863 l 7025 -3888 l
 6984 -3910 l 6942 -3930 l 6899 -3946 l 6855 -3960 l 6810 -3970 l
 6765 -3978 l 6719 -3983 l 6673 -3984 l 6190 -3984 l 6164 -3984 l
 6118 -3980 l 6072 -3974 l 6027 -3965 l 5983 -3952 l 5939 -3937 l
 5897 -3919 l 5856 -3898 l 5816 -3875 l 5778 -3848 l 5742 -3820 l
 5708 -3789 l 5676 -3756 l 5646 -3720 l 5619 -3683 l 5595 -3644 l
 5572 -3604 l 5553 -3562 l 5537 -3519 l 5523 -3475 l 5512 -3430 l
 5505 -3385 l 5500 -3339 l 5499 -3293 l 5499 -253 l 5498 -227 l
 5495 -181 l 5488 -135 l 5479 -90 l 5467 -46 l 5452 -2 l
 5433 39 l 5413 80 l 5389 119 l 5363 157 l 5334 193 l
 5303 228 l 5270 260 l 5235 289 l 5198 316 l 5159 341 l
 5118 363 l 5077 383 l 5034 399 l 4990 413 l 4945 423 l
 4899 431 l 4854 436 l 4808 437 l 4324 437 l 4298 437 l
 4252 433 l 4206 427 l 4161 418 l 4117 405 l 4073 390 l
 4031 372 l 3990 351 l 3951 328 l 3913 301 l 3877 273 l
 3842 242 l 3811 209 l 3781 173 l 3754 136 l 3729 97 l
 3707 57 l 3687 15 l 3671 -27 l 3657 -71 l 3647 -116 l
 3639 -161 l 3634 -207 l 3633 -253 l 3633 -3293 l 3632 -3319 l
 3629 -3365 l 3623 -3411 l 3614 -3456 l 3601 -3500 l 3586 -3544 l
 3568 -3586 l 3547 -3627 l 3523 -3667 l 3497 -3704 l 3469 -3740 l
 3438 -3775 l 3404 -3807 l 3369 -3836 l 3332 -3863 l 3293 -3888 l
 3253 -3910 l 3211 -3930 l 3168 -3946 l 3124 -3960 l 3079 -3970 l
 3034 -3978 l 2988 -3983 l 2942 -3984 l 2458 -3984 l 2432 -3984 l
 2386 -3980 l 2341 -3974 l 2296 -3965 l 2251 -3952 l 2208 -3937 l
 2166 -3919 l 2124 -3898 l 2085 -3875 l 2047 -3848 l 2011 -3820 l
 1977 -3789 l 1945 -3756 l 1915 -3720 l 1888 -3683 l 1863 -3644 l
 1841 -3604 l 1822 -3562 l 1805 -3519 l 1792 -3475 l 1781 -3430 l
 1773 -3385 l 1769 -3339 l 1767 -3293 l 1767 -253 l 1768 -222 l
 1772 -176 l 1778 -130 l 1788 -85 l 1800 -41 l 1816 1 l
 1834 43 l 1856 84 l 1880 124 l 1891 142 l 1914 182 l
 1934 224 l 1951 266 l 1965 310 l 1976 355 l 1984 400 l
 1990 446 l 1992 492 l 1991 538 l 1987 584 l 1980 629 l
 1970 674 l 1957 718 l 1941 762 l 1922 804 l 1901 844 l
 1876 884 l 1850 921 l 1820 957 l 1789 990 l 1755 1022 l
 1720 1051 l 1682 1078 l 1643 1102 l 1602 1123 l 1560 1142 l
 1517 1158 l 1473 1171 l 1428 1181 l 1382 1187 l 1336 1191 l
 1290 1192 l 1244 1190 l 1198 1185 l 1153 1176 l 1108 1165 l
 1065 1151 l 1022 1133 l 980 1113 l 940 1091 l 902 1065 l
 865 1038 l 830 1007 l 798 975 l 767 940 l 739 904 l
 714 866 l 691 826 l 670 784 l 653 742 l 638 698 l
 627 653 l 618 608 l 613 562 l 610 516 l 611 470 l
 614 424 l 621 379 l 630 334 l 643 290 l 659 246 l
 677 204 l 698 163 l 722 124 l 738 97 l 761 57 l
 780 15 l 796 -27 l 810 -71 l 821 -116 l 828 -161 l
 833 -207 l 834 -253 l 834 -3293 l 835 -3319 l 838 -3365 l
 844 -3411 l 854 -3456 l 866 -3500 l 881 -3544 l 900 -3586 l
 920 -3627 l 944 -3667 l 970 -3704 l 999 -3740 l 1030 -3775 l
 1063 -3807 l 1098 -3836 l 1135 -3863 l 1174 -3888 l 1215 -3910 l
 1256 -3930 l 1299 -3946 l 1343 -3960 l 1388 -3970 l 1434 -3978 l
 1479 -3983 l 1525 -3984 l 2009 -3984 l 2035 -3984 l 2081 -3980 l
 2127 -3974 l 2172 -3965 l 2216 -3952 l 2259 -3937 l 2302 -3919 l
 2343 -3898 l 2382 -3875 l 2420 -3848 l 2456 -3820 l 2491 -3789 l
 2522 -3756 l 2552 -3720 l 2579 -3683 l 2604 -3644 l 2626 -3604 l
 2646 -3562 l 2662 -3519 l 2676 -3475 l 2686 -3430 l 2694 -3385 l
 2699 -3339 l 2700 -3293 l 2700 -253 l 2701 -227 l 2704 -181 l
 2710 -135 l 2719 -90 l 2732 -46 l 2747 -2 l 2765 39 l
 2786 80 l 2810 119 l 2836 157 l 2864 193 l 2895 228 l
 2929 260 l 2964 289 l 3001 316 l 3040 341 l 3080 363 l
 3122 383 l 3165 399 l 3209 413 l 3254 423 l 3299 431 l
 3345 436 l 3391 437 l 3875 437 l 3901 437 l 3947 433 l
 3992 427 l 4037 418 l 4082 405 l 4125 390 l 4167 372 l
 4209 351 l 4248 328 l 4286 301 l 4322 273 l 4356 242 l
 4388 209 l 4418 173 l 4445 136 l 4470 97 l 4492 57 l
 4511 15 l 4528 -27 l 4541 -71 l 4552 -116 l 4560 -161 l
 4564 -207 l 4566 -253 l 4566 -3293 l 4566 -3319 l 4569 -3365 l
 4576 -3411 l 4585 -3456 l 4597 -3500 l 4613 -3544 l 4631 -3586 l
 4652 -3627 l 4675 -3667 l 4701 -3704 l 4730 -3740 l 4761 -3775 l
 4794 -3807 l 4829 -3836 l 4867 -3863 l 4905 -3888 l 4946 -3910 l
 4988 -3930 l 5031 -3946 l 5075 -3960 l 5119 -3970 l 5165 -3978 l
 5211 -3983 l 5257 -3984 l 5740 -3984 l 5766 -3984 l 5812 -3980 l
 5858 -3974 l 5903 -3965 l 5947 -3952 l 5991 -3937 l 6033 -3919 l
 6074 -3898 l 6114 -3875 l 6152 -3848 l 6188 -3820 l 6222 -3789 l
 6254 -3756 l 6283 -3720 l 6311 -3683 l 6335 -3644 l 6357 -3604 l
 6377 -3562 l 6393 -3519 l 6407 -3475 l 6418 -3430 l 6425 -3385 l
 6430 -3339 l 6431 -3293 l 6431 -253 l 6432 -227 l 6435 -181 l
 6441 -135 l 6451 -90 l 6463 -46 l 6478 -2 l 6496 39 l
 6517 80 l 6541 119 l 6567 157 l 6596 193 l 6627 228 l
 6660 260 l 6695 289 l 6732 316 l 6771 341 l 6811 363 l
 6853 383 l 6896 399 l 6940 413 l 6985 423 l 7030 431 l
 7076 436 l 7122 437 l 7635 437 l 7661 437 l 7707 433 l
 7752 427 l 7797 418 l 7842 405 l 7885 390 l 7928 372 l
 7969 351 l 8008 328 l 8046 301 l 8082 273 l 8116 242 l
 8148 209 l 8178 173 l 8205 136 l 8230 97 l 8252 57 l
 8271 15 l 8288 -27 l 8301 -71 l 8312 -116 l 8320 -161 l
 8324 -207 l 8326 -253 l 8326 -11516 l 8325 -11542 l 8322 -11588 l
 8316 -11633 l 8306 -11678 l 8294 -11723 l 8279 -11766 l 8261 -11809 l
 8240 -11850 l 8216 -11889 l 8190 -11927 l 8161 -11963 l 8130 -11997 l
 8097 -12029 l 8062 -12059 l 8025 -12086 l 7986 -12111 l 7946 -12133 l
 7904 -12152 l 7861 -12169 l 7817 -12182 l 7772 -12193 l 7727 -12201 l
 7681 -12205 l 7635 -12207 l 7122 -12207 l 7096 -12206 l 7051 -12203 l
 7005 -12197 l 6960 -12187 l 6915 -12175 l 6872 -12160 l 6830 -12142 l
 6789 -12121 l 6749 -12097 l 6711 -12071 l 6675 -12042 l 6641 -12011 l
 6609 -11978 l 6579 -11943 l 6552 -11906 l 6527 -11867 l 6505 -11827 l
 6486 -11785 l 6469 -11742 l 6456 -11698 l 6445 -11653 l 6437 -11608 l
 6433 -11562 l 6431 -11516 l 6431 -8291 l 6431 -8265 l 6428 -8219 l
 6421 -8174 l 6412 -8129 l 6400 -8084 l 6384 -8041 l 6366 -7999 l
 6345 -7957 l 6322 -7918 l 6296 -7880 l 6267 -7844 l 6236 -7810 l
 6203 -7778 l 6168 -7748 l 6131 -7721 l 6092 -7696 l 6051 -7674 l
 6009 -7655 l 5966 -7638 l 5922 -7625 l 5878 -7614 l 5832 -7606 l
 5786 -7602 l 5740 -7600 l 5257 -7600 l 5231 -7601 l 5185 -7604 l
 5139 -7610 l 5094 -7620 l 5050 -7632 l 5006 -7647 l 4964 -7665 l
 4923 -7686 l 4883 -7710 l 4845 -7736 l 4809 -7765 l 4775 -7796 l
 4743 -7829 l 4714 -7864 l 4686 -7901 l 4662 -7940 l 4640 -7980 l
 4620 -8022 l 4604 -8065 l 4590 -8109 l 4579 -8154 l 4572 -8199 l
 4567 -8245 l 4566 -8291 l 4566 -11516 l 4565 -11542 l 4562 -11588 l
 4556 -11633 l 4546 -11678 l 4534 -11723 l 4519 -11766 l 4501 -11809 l
 4480 -11850 l 4456 -11889 l 4430 -11927 l 4401 -11963 l 4370 -11997 l
 4337 -12029 l 4302 -12059 l 4265 -12086 l 4226 -12111 l 4186 -12133 l
 4144 -12152 l 4101 -12169 l 4057 -12182 l 4012 -12193 l 3967 -12201 l
 3921 -12205 l 3875 -12207 l 3391 -12207 l 3365 -12206 l 3319 -12203 l
 3274 -12197 l 3229 -12187 l 3184 -12175 l 3141 -12160 l 3098 -12142 l
 3057 -12121 l 3018 -12097 l 2980 -12071 l 2944 -12042 l 2910 -12011 l
 2878 -11978 l 2848 -11943 l 2821 -11906 l 2796 -11867 l 2774 -11827 l
 2755 -11785 l 2738 -11742 l 2724 -11698 l 2714 -11653 l 2706 -11608 l
 2702 -11562 l 2700 -11516 l 2700 -8291 l 2700 -8265 l 2696 -8219 l
 2690 -8174 l 2681 -8129 l 2668 -8084 l 2653 -8041 l 2635 -7999 l
 2614 -7957 l 2591 -7918 l 2564 -7880 l 2536 -7844 l 2505 -7810 l
 2472 -7778 l 2436 -7748 l 2399 -7721 l 2360 -7696 l 2320 -7674 l
 2278 -7655 l 2235 -7638 l 2191 -7625 l 2146 -7614 l 2101 -7606 l
 2055 -7602 l 2009 -7600 l 1525 -7600 l 1500 -7601 l 1454 -7604 l
 1408 -7610 l 1363 -7620 l 1318 -7632 l 1275 -7647 l 1233 -7665 l
 1192 -7686 l 1152 -7710 l 1114 -7736 l 1078 -7765 l 1044 -7796 l
 1012 -7829 l 982 -7864 l 955 -7901 l 930 -7940 l 908 -7980 l
 889 -8022 l 872 -8065 l 859 -8109 l 848 -8154 l 841 -8199 l
 836 -8245 l 834 -8291 l 834 -11516 l 834 -11547 l 830 -11593 l
 824 -11638 l 814 -11683 l 801 -11728 l 786 -11771 l 767 -11813 l
 746 -11854 l 722 -11893 l 711 -11912 l 688 -11952 l 668 -11993 l
 651 -12036 l 637 -12080 l 626 -12124 l 617 -12170 l 612 -12216 l
 610 -12262 l 611 -12308 l 615 -12353 l 622 -12399 l 632 -12444 l
 645 -12488 l 661 -12531 l 680 -12573 l 701 -12614 l 725 -12653 l
 752 -12691 l 781 -12726 l 813 -12760 l 846 -12791 l 882 -12821 l
 920 -12847 l 959 -12871 l 1000 -12893 l 1042 -12912 l 1085 -12927 l
 1129 -12940 l 1174 -12950 l 1220 -12957 l 1266 -12961 l 1312 -12962 l
 1358 -12960 l 1403 -12954 l 1449 -12946 l 1493 -12935 l 1537 -12920 l
 1580 -12903 l 1621 -12883 l 1661 -12860 l 1700 -12835 l 1737 -12807 l
 1771 -12777 l 1804 -12745 l 1834 -12710 l 1862 -12674 l 1888 -12635 l
 1911 -12595 l 1931 -12554 l 1949 -12511 l 1963 -12468 l 1975 -12423 l
 1984 -12378 l 1989 -12332 l 1992 -12286 l 1991 -12240 l 1988 -12194 l
 1981 -12149 l 1971 -12104 l 1959 -12059 l 1943 -12016 l 1925 -11974 l
 1903 -11933 l 1880 -11893 l 1863 -11867 l 1841 -11827 l 1822 -11785 l
 1805 -11742 l 1792 -11698 l 1781 -11653 l 1773 -11608 l 1769 -11562 l
 1767 -11516 l 1767 -8291 l 1768 -8265 l 1771 -8219 l 1777 -8174 l
 1787 -8129 l 1799 -8084 l 1814 -8041 l 1832 -7999 l 1853 -7957 l
 1877 -7918 l 1903 -7880 l 1932 -7844 l 1963 -7810 l 1996 -7778 l
 2031 -7748 l 2068 -7721 l 2107 -7696 l 2147 -7674 l 2189 -7655 l
 2232 -7638 l 2276 -7625 l 2321 -7614 l 2366 -7606 l 2412 -7602 l
 2458 -7600 l 2942 -7600 l 2968 -7601 l 3014 -7604 l 3059 -7610 l
 3104 -7620 l 3149 -7632 l 3192 -7647 l 3235 -7665 l 3276 -7686 l
 3315 -7710 l 3353 -7736 l 3389 -7765 l 3423 -7796 l 3455 -7829 l
 3485 -7864 l 3512 -7901 l 3537 -7940 l 3559 -7980 l 3578 -8022 l
 3595 -8065 l 3608 -8109 l 3619 -8154 l 3627 -8199 l 3631 -8245 l
 3633 -8291 l 3633 -11516 l 3633 -11542 l 3637 -11588 l 3643 -11633 l
 3652 -11678 l 3665 -11723 l 3680 -11766 l 3698 -11809 l 3719 -11850 l
 3742 -11889 l 3769 -11927 l 3797 -11963 l 3828 -11997 l 3861 -12029 l
 3897 -12059 l 3934 -12086 l 3973 -12111 l 4013 -12133 l 4055 -12152 l
 4098 -12169 l 4142 -12182 l 4187 -12193 l 4232 -12201 l 4278 -12205 l
 4324 -12207 l 4808 -12207 l 4833 -12206 l 4879 -12203 l 4925 -12197 l
 4970 -12187 l 5014 -12175 l 5058 -12160 l 5100 -12142 l 5141 -12121 l
 5181 -12097 l 5219 -12071 l 5255 -12042 l 5289 -12011 l 5321 -11978 l
 5351 -11943 l 5378 -11906 l 5403 -11867 l 5425 -11827 l 5444 -11785 l
 5461 -11742 l 5474 -11698 l 5485 -11653 l 5492 -11608 l 5497 -11562 l
 5499 -11516 l 5499 -8291 l 5499 -8265 l 5502 -8219 l 5509 -8174 l
 5518 -8129 l 5530 -8084 l 5545 -8041 l 5564 -7999 l 5585 -7957 l
 5608 -7918 l 5634 -7880 l 5663 -7844 l 5694 -7810 l 5727 -7778 l
 5762 -7748 l 5799 -7721 l 5838 -7696 l 5879 -7674 l 5920 -7655 l
 5963 -7638 l 6007 -7625 l 6052 -7614 l 6098 -7606 l 6143 -7602 l
 6190 -7600 l 6673 -7600 l 6699 -7601 l 6745 -7604 l 6791 -7610 l
 6836 -7620 l 6880 -7632 l 6924 -7647 l 6966 -7665 l 7007 -7686 l
 7047 -7710 l 7084 -7736 l 7121 -7765 l 7155 -7796 l 7187 -7829 l
 7216 -7864 l 7243 -7901 l 7268 -7940 l 7290 -7980 l 7310 -8022 l
 7326 -8065 l 7340 -8109 l 7350 -8154 l 7358 -8199 l 7363 -8245 l
 7364 -8291 l 7364 -11516 l 7365 -11542 l 7368 -11588 l 7374 -11633 l
 7384 -11678 l 7396 -11723 l 7411 -11766 l 7429 -11809 l 7450 -11850 l
 7474 -11889 l 7500 -11927 l 7529 -11963 l 7559 -11997 l 7593 -12029 l
 7628 -12059 l 7665 -12086 l 7704 -12111 l 7744 -12133 l 7786 -12152 l
 7829 -12169 l 7873 -12182 l 7918 -12193 l 7963 -12201 l 8009 -12205 l
 8055 -12207 l 8579 -12207 l 8605 -12206 l 8651 -12203 l 8697 -12197 l
 8742 -12187 l 8786 -12175 l 8830 -12160 l 8872 -12142 l 8913 -12121 l
 8952 -12097 l 8990 -12071 l 9026 -12042 l 9061 -12011 l 9093 -11978 l
 9122 -11943 l 9149 -11906 l 9174 -11867 l 9196 -11827 l 9216 -11785 l
 9232 -11742 l 9246 -11698 l 9256 -11653 l 9264 -11608 l 9269 -11562 l
 9270 -11516 l 9270 -253 l 9271 -227 l 9274 -181 l 9280 -135 l
 9290 -90 l 9302 -46 l 9317 -2 l 9335 39 l 9356 80 l
 9380 119 l 9406 157 l 9434 193 l 9465 228 l 9499 260 l
 9534 289 l 9571 316 l 9610 341 l 9650 363 l 9692 383 l
 9735 399 l 9779 413 l 9824 423 l 9869 431 l 9915 436 l
 9961 437 l 10468 437 l 10494 437 l 10540 433 l 10585 427 l
 10630 418 l 10675 405 l 10718 390 l 10761 372 l 10802 351 l
 10841 328 l 10879 301 l 10915 273 l 10949 242 l 10981 209 l
 11011 173 l 11038 136 l 11063 97 l 11085 57 l 11104 15 l
 11121 -27 l 11134 -71 l 11145 -116 l 11153 -161 l 11157 -207 l
 11159 -253 l 11159 -11516 l 11159 -11541 l 11163 -11587 l 11169 -11633 l
 11178 -11678 l 11190 -11722 l 11206 -11766 l 11224 -11808 l 11245 -11849 l
 11268 -11889 l 11274 -11898 l 11297 -11938 l 11317 -11979 l 11335 -12022 l
 11349 -12066 l 11361 -12110 l 11369 -12156 l 11375 -12201 l 11377 -12247 l
 11377 -12293 l 11373 -12339 l 11367 -12385 l 11357 -12430 l 11344 -12474 l
 11329 -12518 l 11310 -12560 l 11289 -12601 l 11265 -12640 l 11239 -12678 l
 11210 -12714 l 11179 -12747 l 11145 -12779 l 11110 -12808 l 11072 -12835 l
 11033 -12860 l 10993 -12882 l 10951 -12901 l 10908 -12917 l 10863 -12930 l
 10819 -12940 l 10773 -12948 l 10727 -12952 l 10681 -12953 l 10635 -12951 l
 10589 -12946 l 10544 -12938 l 10499 -12927 l 10455 -12913 l 10413 -12896 l
 10371 -12877 l 10331 -12854 l 10292 -12829 l 10255 -12802 l 10220 -12772 l
 10187 -12740 l 10156 -12705 l 10128 -12669 l 10102 -12631 l 10079 -12591 l
 10058 -12550 l 10041 -12507 l 10026 -12464 l 10014 -12419 l 10005 -12374 l
 9999 -12328 l 9996 -12282 l 9996 -12236 l 9999 -12190 l 10006 -12145 l
 10015 -12100 l 10027 -12055 l 10043 -12012 l 10061 -11970 l 10082 -11929 l
 10105 -11889 l 10119 -11867 l 10141 -11827 l 10160 -11785 l 10176 -11742 l
 10190 -11698 l 10201 -11653 l 10208 -11608 l 10213 -11562 l 10214 -11516 l
 10214 -253 l
 10214 -253 l gs col37 s gr 
% Ellipse
n 10214 -227 115 115 0 360 DrawEllipse gs col34 s gr
% Ellipse
n 10214 -253 115 115 0 360 DrawEllipse gs col33 s gr
% Polyline
n 10214 -227 m
 10222 -342 l gs col34 s gr 
% Polyline
n 10214 -253 m
 10330 -253 l gs col33 s gr 
% here ends figure;
pagefooter
showpage
%%Trailer
%EOF
%%EndDocument
 @endspecial Black Black eop end
%%Trailer
userdict /end-hook known{end-hook}if
%%Trailer
cleartomark
countdictstack
exch sub { end } repeat
restore
%%EOF
