%!PS-Adobe-3.0 EPSF-3.0
%%BoundingBox: 149 1 1014 866
%%HiResBoundingBox: 149.000000 1.000000 1013.666016 865.664062
%%Creator: dvips(k) 5.993 Copyright 2013 Radical Eye Software
%%Title: fig2ps-env04_onePass.dvi
%%CreationDate: Sun Jan  6 02:04:15 2019
%%EndComments
% EPSF created by ps2eps 1.68
%%BeginProlog
0 199 translate
save
countdictstack
mark
newpath
/showpage {} def
/setpagedevice {pop} def
%%EndProlog
%%Page 1 1
%DVIPSWebPage: (www.radicaleye.com)
%DVIPSCommandLine: dvips -Ppdf -G0 -q -E fig2ps-env04_onePass.dvi -o
%+ fig2ps-env04_onePass.ps
%DVIPSParameters: dpi=8000
%DVIPSSource:  TeX output 2019.01.06:0204
%%BeginProcSet: tex.pro 0 0
%!
/TeXDict 300 dict def TeXDict begin/N{def}def/B{bind def}N/S{exch}N/X{S
N}B/A{dup}B/TR{translate}N/isls false N/vsize 11 72 mul N/hsize 8.5 72
mul N/landplus90{false}def/@rigin{isls{[0 landplus90{1 -1}{-1 1}ifelse 0
0 0]concat}if 72 Resolution div 72 VResolution div neg scale isls{
landplus90{VResolution 72 div vsize mul 0 exch}{Resolution -72 div hsize
mul 0}ifelse TR}if Resolution VResolution vsize -72 div 1 add mul TR[
matrix currentmatrix{A A round sub abs 0.00001 lt{round}if}forall round
exch round exch]setmatrix}N/@landscape{/isls true N}B/@manualfeed{
statusdict/manualfeed true put}B/@copies{/#copies X}B/FMat[1 0 0 -1 0 0]
N/FBB[0 0 0 0]N/nn 0 N/IEn 0 N/ctr 0 N/df-tail{/nn 8 dict N nn begin
/FontType 3 N/FontMatrix fntrx N/FontBBox FBB N string/base X array
/BitMaps X/BuildChar{CharBuilder}N/Encoding IEn N end A{/foo setfont}2
array copy cvx N load 0 nn put/ctr 0 N[}B/sf 0 N/df{/sf 1 N/fntrx FMat N
df-tail}B/dfs{div/sf X/fntrx[sf 0 0 sf neg 0 0]N df-tail}B/E{pop nn A
definefont setfont}B/Cw{Cd A length 5 sub get}B/Ch{Cd A length 4 sub get
}B/Cx{128 Cd A length 3 sub get sub}B/Cy{Cd A length 2 sub get 127 sub}
B/Cdx{Cd A length 1 sub get}B/Ci{Cd A type/stringtype ne{ctr get/ctr ctr
1 add N}if}B/CharBuilder{save 3 1 roll S A/base get 2 index get S
/BitMaps get S get/Cd X pop/ctr 0 N Cdx 0 Cx Cy Ch sub Cx Cw add Cy
setcachedevice Cw Ch true[1 0 0 -1 -.1 Cx sub Cy .1 sub]{Ci}imagemask
restore}B/D{/cc X A type/stringtype ne{]}if nn/base get cc ctr put nn
/BitMaps get S ctr S sf 1 ne{A A length 1 sub A 2 index S get sf div put
}if put/ctr ctr 1 add N}B/I{cc 1 add D}B/bop{userdict/bop-hook known{
bop-hook}if/SI save N @rigin 0 0 moveto/V matrix currentmatrix A 1 get A
mul exch 0 get A mul add .99 lt{/QV}{/RV}ifelse load def pop pop}N/eop{
SI restore userdict/eop-hook known{eop-hook}if showpage}N/@start{
userdict/start-hook known{start-hook}if pop/VResolution X/Resolution X
1000 div/DVImag X/IEn 256 array N 2 string 0 1 255{IEn S A 360 add 36 4
index cvrs cvn put}for pop 65781.76 div/vsize X 65781.76 div/hsize X}N
/dir 0 def/dyy{/dir 0 def}B/dyt{/dir 1 def}B/dty{/dir 2 def}B/dtt{/dir 3
def}B/p{dir 2 eq{-90 rotate show 90 rotate}{dir 3 eq{-90 rotate show 90
rotate}{show}ifelse}ifelse}N/RMat[1 0 0 -1 0 0]N/BDot 260 string N/Rx 0
N/Ry 0 N/V{}B/RV/v{/Ry X/Rx X V}B statusdict begin/product where{pop
false[(Display)(NeXT)(LaserWriter 16/600)]{A length product length le{A
length product exch 0 exch getinterval eq{pop true exit}if}{pop}ifelse}
forall}{false}ifelse end{{gsave TR -.1 .1 TR 1 1 scale Rx Ry false RMat{
BDot}imagemask grestore}}{{gsave TR -.1 .1 TR Rx Ry scale 1 1 false RMat
{BDot}imagemask grestore}}ifelse B/QV{gsave newpath transform round exch
round exch itransform moveto Rx 0 rlineto 0 Ry neg rlineto Rx neg 0
rlineto fill grestore}B/a{moveto}B/delta 0 N/tail{A/delta X 0 rmoveto}B
/M{S p delta add tail}B/b{S p tail}B/c{-4 M}B/d{-3 M}B/e{-2 M}B/f{-1 M}
B/g{0 M}B/h{1 M}B/i{2 M}B/j{3 M}B/k{4 M}B/w{0 rmoveto}B/l{p -4 w}B/m{p
-3 w}B/n{p -2 w}B/o{p -1 w}B/q{p 1 w}B/r{p 2 w}B/s{p 3 w}B/t{p 4 w}B/x{
0 S rmoveto}B/y{3 2 roll p a}B/bos{/SS save N}B/eos{SS restore}B end
%%EndProcSet
%%BeginProcSet: alt-rule.pro 0 0
%!
% Patch by TVZ
% Makes dvips files draw rules with stroke rather than fill.
% Makes narrow rules more predictable at low resolutions
% after distilling to PDF.
% May have unknown consequences for very thick rules.
% Tested only with dvips 5.85(k).
TeXDict begin
/QV {
  gsave newpath /ruleY X /ruleX X
  Rx Ry gt
  { ruleX ruleY Ry 2 div sub moveto Rx 0 rlineto Ry }
  { ruleX Rx 2 div add ruleY moveto 0 Ry neg rlineto Rx }
  ifelse
  setlinewidth 0 setlinecap stroke grestore
} bind def
end
%%EndProcSet
%%BeginProcSet: special.pro 0 0
%!
TeXDict begin/SDict 200 dict N SDict begin/@SpecialDefaults{/hs 612 N
/vs 792 N/ho 0 N/vo 0 N/hsc 1 N/vsc 1 N/ang 0 N/CLIP 0 N/rwiSeen false N
/rhiSeen false N/letter{}N/note{}N/a4{}N/legal{}N}B/@scaleunit 100 N
/@hscale{@scaleunit div/hsc X}B/@vscale{@scaleunit div/vsc X}B/@hsize{
/hs X/CLIP 1 N}B/@vsize{/vs X/CLIP 1 N}B/@clip{/CLIP 2 N}B/@hoffset{/ho
X}B/@voffset{/vo X}B/@angle{/ang X}B/@rwi{10 div/rwi X/rwiSeen true N}B
/@rhi{10 div/rhi X/rhiSeen true N}B/@llx{/llx X}B/@lly{/lly X}B/@urx{
/urx X}B/@ury{/ury X}B/magscale true def end/@MacSetUp{userdict/md known
{userdict/md get type/dicttype eq{userdict begin md length 10 add md
maxlength ge{/md md dup length 20 add dict copy def}if end md begin
/letter{}N/note{}N/legal{}N/od{txpose 1 0 mtx defaultmatrix dtransform S
atan/pa X newpath clippath mark{transform{itransform moveto}}{transform{
itransform lineto}}{6 -2 roll transform 6 -2 roll transform 6 -2 roll
transform{itransform 6 2 roll itransform 6 2 roll itransform 6 2 roll
curveto}}{{closepath}}pathforall newpath counttomark array astore/gc xdf
pop ct 39 0 put 10 fz 0 fs 2 F/|______Courier fnt invertflag{PaintBlack}
if}N/txpose{pxs pys scale ppr aload pop por{noflips{pop S neg S TR pop 1
-1 scale}if xflip yflip and{pop S neg S TR 180 rotate 1 -1 scale ppr 3
get ppr 1 get neg sub neg ppr 2 get ppr 0 get neg sub neg TR}if xflip
yflip not and{pop S neg S TR pop 180 rotate ppr 3 get ppr 1 get neg sub
neg 0 TR}if yflip xflip not and{ppr 1 get neg ppr 0 get neg TR}if}{
noflips{TR pop pop 270 rotate 1 -1 scale}if xflip yflip and{TR pop pop
90 rotate 1 -1 scale ppr 3 get ppr 1 get neg sub neg ppr 2 get ppr 0 get
neg sub neg TR}if xflip yflip not and{TR pop pop 90 rotate ppr 3 get ppr
1 get neg sub neg 0 TR}if yflip xflip not and{TR pop pop 270 rotate ppr
2 get ppr 0 get neg sub neg 0 S TR}if}ifelse scaleby96{ppr aload pop 4
-1 roll add 2 div 3 1 roll add 2 div 2 copy TR .96 dup scale neg S neg S
TR}if}N/cp{pop pop showpage pm restore}N end}if}if}N/normalscale{
Resolution 72 div VResolution 72 div neg scale magscale{DVImag dup scale
}if 0 setgray}N/psfts{S 65781.76 div N}N/startTexFig{/psf$SavedState
save N userdict maxlength dict begin/magscale true def normalscale
currentpoint TR/psf$ury psfts/psf$urx psfts/psf$lly psfts/psf$llx psfts
/psf$y psfts/psf$x psfts currentpoint/psf$cy X/psf$cx X/psf$sx psf$x
psf$urx psf$llx sub div N/psf$sy psf$y psf$ury psf$lly sub div N psf$sx
psf$sy scale psf$cx psf$sx div psf$llx sub psf$cy psf$sy div psf$ury sub
TR/showpage{}N/erasepage{}N/setpagedevice{pop}N/copypage{}N/p 3 def
@MacSetUp}N/doclip{psf$llx psf$lly psf$urx psf$ury currentpoint 6 2 roll
newpath 4 copy 4 2 roll moveto 6 -1 roll S lineto S lineto S lineto
closepath clip newpath moveto}N/endTexFig{end psf$SavedState restore}N
/@beginspecial{SDict begin/SpecialSave save N gsave normalscale
currentpoint TR @SpecialDefaults count/ocount X/dcount countdictstack N}
N/@setspecial{CLIP 1 eq{newpath 0 0 moveto hs 0 rlineto 0 vs rlineto hs
neg 0 rlineto closepath clip}if ho vo TR hsc vsc scale ang rotate
rwiSeen{rwi urx llx sub div rhiSeen{rhi ury lly sub div}{dup}ifelse
scale llx neg lly neg TR}{rhiSeen{rhi ury lly sub div dup scale llx neg
lly neg TR}if}ifelse CLIP 2 eq{newpath llx lly moveto urx lly lineto urx
ury lineto llx ury lineto closepath clip}if/showpage{}N/erasepage{}N
/setpagedevice{pop}N/copypage{}N newpath}N/@endspecial{count ocount sub{
pop}repeat countdictstack dcount sub{end}repeat grestore SpecialSave
restore end}N/@defspecial{SDict begin}N/@fedspecial{end}B/li{lineto}B
/rl{rlineto}B/rc{rcurveto}B/np{/SaveX currentpoint/SaveY X N 1
setlinecap newpath}N/st{stroke SaveX SaveY moveto}N/fil{fill SaveX SaveY
moveto}N/ellipse{/endangle X/startangle X/yrad X/xrad X/savematrix
matrix currentmatrix N TR xrad yrad scale 0 0 1 startangle endangle arc
savematrix setmatrix}N end
%%EndProcSet
%%BeginProcSet: color.pro 0 0
%!
TeXDict begin/setcmykcolor where{pop}{/setcmykcolor{dup 10 eq{pop
setrgbcolor}{1 sub 4 1 roll 3{3 index add neg dup 0 lt{pop 0}if 3 1 roll
}repeat setrgbcolor pop}ifelse}B}ifelse/TeXcolorcmyk{setcmykcolor}def
/TeXcolorrgb{setrgbcolor}def/TeXcolorgrey{setgray}def/TeXcolorgray{
setgray}def/TeXcolorhsb{sethsbcolor}def/currentcmykcolor where{pop}{
/currentcmykcolor{currentrgbcolor 10}B}ifelse/DC{exch dup userdict exch
known{pop pop}{X}ifelse}B/GreenYellow{0.15 0 0.69 0 setcmykcolor}DC
/Yellow{0 0 1 0 setcmykcolor}DC/Goldenrod{0 0.10 0.84 0 setcmykcolor}DC
/Dandelion{0 0.29 0.84 0 setcmykcolor}DC/Apricot{0 0.32 0.52 0
setcmykcolor}DC/Peach{0 0.50 0.70 0 setcmykcolor}DC/Melon{0 0.46 0.50 0
setcmykcolor}DC/YellowOrange{0 0.42 1 0 setcmykcolor}DC/Orange{0 0.61
0.87 0 setcmykcolor}DC/BurntOrange{0 0.51 1 0 setcmykcolor}DC
/Bittersweet{0 0.75 1 0.24 setcmykcolor}DC/RedOrange{0 0.77 0.87 0
setcmykcolor}DC/Mahogany{0 0.85 0.87 0.35 setcmykcolor}DC/Maroon{0 0.87
0.68 0.32 setcmykcolor}DC/BrickRed{0 0.89 0.94 0.28 setcmykcolor}DC/Red{
0 1 1 0 setcmykcolor}DC/OrangeRed{0 1 0.50 0 setcmykcolor}DC/RubineRed{
0 1 0.13 0 setcmykcolor}DC/WildStrawberry{0 0.96 0.39 0 setcmykcolor}DC
/Salmon{0 0.53 0.38 0 setcmykcolor}DC/CarnationPink{0 0.63 0 0
setcmykcolor}DC/Magenta{0 1 0 0 setcmykcolor}DC/VioletRed{0 0.81 0 0
setcmykcolor}DC/Rhodamine{0 0.82 0 0 setcmykcolor}DC/Mulberry{0.34 0.90
0 0.02 setcmykcolor}DC/RedViolet{0.07 0.90 0 0.34 setcmykcolor}DC
/Fuchsia{0.47 0.91 0 0.08 setcmykcolor}DC/Lavender{0 0.48 0 0
setcmykcolor}DC/Thistle{0.12 0.59 0 0 setcmykcolor}DC/Orchid{0.32 0.64 0
0 setcmykcolor}DC/DarkOrchid{0.40 0.80 0.20 0 setcmykcolor}DC/Purple{
0.45 0.86 0 0 setcmykcolor}DC/Plum{0.50 1 0 0 setcmykcolor}DC/Violet{
0.79 0.88 0 0 setcmykcolor}DC/RoyalPurple{0.75 0.90 0 0 setcmykcolor}DC
/BlueViolet{0.86 0.91 0 0.04 setcmykcolor}DC/Periwinkle{0.57 0.55 0 0
setcmykcolor}DC/CadetBlue{0.62 0.57 0.23 0 setcmykcolor}DC
/CornflowerBlue{0.65 0.13 0 0 setcmykcolor}DC/MidnightBlue{0.98 0.13 0
0.43 setcmykcolor}DC/NavyBlue{0.94 0.54 0 0 setcmykcolor}DC/RoyalBlue{1
0.50 0 0 setcmykcolor}DC/Blue{1 1 0 0 setcmykcolor}DC/Cerulean{0.94 0.11
0 0 setcmykcolor}DC/Cyan{1 0 0 0 setcmykcolor}DC/ProcessBlue{0.96 0 0 0
setcmykcolor}DC/SkyBlue{0.62 0 0.12 0 setcmykcolor}DC/Turquoise{0.85 0
0.20 0 setcmykcolor}DC/TealBlue{0.86 0 0.34 0.02 setcmykcolor}DC
/Aquamarine{0.82 0 0.30 0 setcmykcolor}DC/BlueGreen{0.85 0 0.33 0
setcmykcolor}DC/Emerald{1 0 0.50 0 setcmykcolor}DC/JungleGreen{0.99 0
0.52 0 setcmykcolor}DC/SeaGreen{0.69 0 0.50 0 setcmykcolor}DC/Green{1 0
1 0 setcmykcolor}DC/ForestGreen{0.91 0 0.88 0.12 setcmykcolor}DC
/PineGreen{0.92 0 0.59 0.25 setcmykcolor}DC/LimeGreen{0.50 0 1 0
setcmykcolor}DC/YellowGreen{0.44 0 0.74 0 setcmykcolor}DC/SpringGreen{
0.26 0 0.76 0 setcmykcolor}DC/OliveGreen{0.64 0 0.95 0.40 setcmykcolor}
DC/RawSienna{0 0.72 1 0.45 setcmykcolor}DC/Sepia{0 0.83 1 0.70
setcmykcolor}DC/Brown{0 0.81 1 0.60 setcmykcolor}DC/Tan{0.14 0.42 0.56 0
setcmykcolor}DC/Gray{0 0 0 0.50 setcmykcolor}DC/Black{0 0 0 1
setcmykcolor}DC/White{0 0 0 0 setcmykcolor}DC end
%%EndProcSet
TeXDict begin 40258437 52099154 1000 8000 8000
(fig2ps-env04_onePass.dvi)
@start end
%%EndProlog
%%BeginSetup
%%Feature: *Resolution 8000dpi
TeXDict begin
 end
%%EndSetup
TeXDict begin 1 0 bop Black Black 8524 102029 a @beginspecial
0 @llx 0 @lly 866 @urx 866 @ury 8660 @rwi @setspecial
%%BeginDocument: fig2ps-env04_onePass.pstex
%!PS-Adobe-3.0 EPSF-3.0
%%Title: fig2ps-env04_onePass.fig2
%%Creator: fig2dev Version 3.2 Patchlevel 5e
%%CreationDate: Sun Jan  6 02:04:15 2019
%%BoundingBox: 0 0 866 866
%Magnification: 1.0000
%%EndComments
%%BeginProlog
/$F2psDict 200 dict def
$F2psDict begin
$F2psDict /mtrx matrix put
/col-1 {0 setgray} bind def
/col0 {0.000 0.000 0.000 srgb} bind def
/col1 {0.000 0.000 1.000 srgb} bind def
/col2 {0.000 1.000 0.000 srgb} bind def
/col3 {0.000 1.000 1.000 srgb} bind def
/col4 {1.000 0.000 0.000 srgb} bind def
/col5 {1.000 0.000 1.000 srgb} bind def
/col6 {1.000 1.000 0.000 srgb} bind def
/col7 {1.000 1.000 1.000 srgb} bind def
/col8 {0.000 0.000 0.560 srgb} bind def
/col9 {0.000 0.000 0.690 srgb} bind def
/col10 {0.000 0.000 0.820 srgb} bind def
/col11 {0.530 0.810 1.000 srgb} bind def
/col12 {0.000 0.560 0.000 srgb} bind def
/col13 {0.000 0.690 0.000 srgb} bind def
/col14 {0.000 0.820 0.000 srgb} bind def
/col15 {0.000 0.560 0.560 srgb} bind def
/col16 {0.000 0.690 0.690 srgb} bind def
/col17 {0.000 0.820 0.820 srgb} bind def
/col18 {0.560 0.000 0.000 srgb} bind def
/col19 {0.690 0.000 0.000 srgb} bind def
/col20 {0.820 0.000 0.000 srgb} bind def
/col21 {0.560 0.000 0.560 srgb} bind def
/col22 {0.690 0.000 0.690 srgb} bind def
/col23 {0.820 0.000 0.820 srgb} bind def
/col24 {0.500 0.190 0.000 srgb} bind def
/col25 {0.630 0.250 0.000 srgb} bind def
/col26 {0.750 0.380 0.000 srgb} bind def
/col27 {1.000 0.500 0.500 srgb} bind def
/col28 {1.000 0.630 0.630 srgb} bind def
/col29 {1.000 0.750 0.750 srgb} bind def
/col30 {1.000 0.880 0.880 srgb} bind def
/col31 {1.000 0.840 0.000 srgb} bind def
/col32 {0.306 0.773 0.925 srgb} bind def
/col33 {0.498 0.000 0.000 srgb} bind def
/col34 {0.498 0.122 0.122 srgb} bind def
/col35 {0.624 0.871 0.945 srgb} bind def
/col36 {0.698 0.698 0.698 srgb} bind def
/col37 {0.749 0.000 0.000 srgb} bind def
end
/cp {closepath} bind def
/ef {eofill} bind def
/gr {grestore} bind def
/gs {gsave} bind def
/sa {save} bind def
/rs {restore} bind def
/l {lineto} bind def
/m {moveto} bind def
/rm {rmoveto} bind def
/n {newpath} bind def
/s {stroke} bind def
/sh {show} bind def
/slc {setlinecap} bind def
/slj {setlinejoin} bind def
/slw {setlinewidth} bind def
/srgb {setrgbcolor} bind def
/rot {rotate} bind def
/sc {scale} bind def
/sd {setdash} bind def
/ff {findfont} bind def
/sf {setfont} bind def
/scf {scalefont} bind def
/sw {stringwidth} bind def
/tr {translate} bind def
/tnt {dup dup currentrgbcolor
  4 -2 roll dup 1 exch sub 3 -1 roll mul add
  4 -2 roll dup 1 exch sub 3 -1 roll mul add
  4 -2 roll dup 1 exch sub 3 -1 roll mul add srgb}
  bind def
/shd {dup dup currentrgbcolor 4 -2 roll mul 4 -2 roll mul
  4 -2 roll mul srgb} bind def
 /DrawEllipse {
	/endangle exch def
	/startangle exch def
	/yrad exch def
	/xrad exch def
	/y exch def
	/x exch def
	/savematrix mtrx currentmatrix def
	x y tr xrad yrad sc 0 0 1 startangle endangle arc
	closepath
	savematrix setmatrix
	} def
/$F2psBegin {$F2psDict begin /$F2psEnteredState save def} def
/$F2psEnd {$F2psEnteredState restore end} def
/pageheader {
save
newpath 0 866 moveto 0 0 lineto 866 0 lineto 866 866 lineto closepath clip newpath
72.7 72.7 translate
1 -1 scale
$F2psBegin
10 setmiterlimit
0 slj 0 slc
 0.06000 0.06000 sc
} bind def
/pagefooter {
$F2psEnd
restore
} bind def
%%EndProlog
pageheader
%
% Fig objects follow
%
% 
% here starts figure with depth 50
% Polyline
1 slj
0 slc
7.500 slw
n -1200 1200 m -1200 -13200 l 13200 -13200 l 13200 1200 l
 cp gs 0.00 setgray ef gr gs col0 s gr 
% Polyline
n 0 0 m 0 -12000 l 12000 -12000 l 12000 0 l
 cp gs col7 1.00 shd ef gr gs col7 s gr 
% Polyline
n 253 -11746 m 2003 -11746 l 2003 -253 l 253 -253 l
 cp gs col36 1.00 shd ef gr gs col36 s gr 
% Polyline
n 2026 -7301 m 2072 -7209 l 2234 -7047 l 2257 -7047 l 2280 -7024 l 2303 -7024 l
 2349 -6978 l 2372 -6978 l 2395 -6955 l 2441 -6955 l 2464 -6932 l
 2487 -6932 l 2510 -6909 l 2533 -6909 l 2556 -6886 l 2602 -6886 l
 2625 -6863 l 2671 -6863 l 2694 -6840 l 2740 -6840 l 2763 -6817 l
 2833 -6817 l 2856 -6794 l 2902 -6794 l 2925 -6771 l 2994 -6771 l
 3017 -6748 l 3109 -6748 l 3132 -6725 l 3224 -6725 l 3247 -6702 l
 3362 -6702 l 3385 -6679 l 3500 -6679 l 3523 -6656 l 3685 -6656 l
 3708 -6633 l 3915 -6633 l 3938 -6610 l 4307 -6610 l 4330 -6587 l
 4998 -6587 l 5021 -6610 l 5389 -6610 l 5412 -6633 l 5619 -6633 l
 5642 -6656 l 5642 -253 l 2026 -253 l
 cp gs col36 1.00 shd ef gr gs col36 s gr 
% Polyline
n 5666 -6656 m 5804 -6656 l 5827 -6679 l 5942 -6679 l 5965 -6702 l 6080 -6702 l
 6103 -6725 l 6195 -6725 l 6218 -6748 l 6310 -6748 l 6333 -6771 l
 6403 -6771 l 6426 -6794 l 6472 -6794 l 6495 -6817 l 6564 -6817 l
 6587 -6840 l 6633 -6840 l 6656 -6863 l 6702 -6863 l 6725 -6886 l
 6771 -6886 l 6794 -6909 l 6817 -6909 l 6840 -6932 l 6863 -6932 l
 6886 -6955 l 6932 -6955 l 6955 -6978 l 6978 -6978 l 7024 -7024 l
 7047 -7024 l 7071 -7047 l 7094 -7047 l 7255 -7209 l 7301 -7301 l
 7301 -3938 l 7278 -3915 l 7094 -3915 l 7071 -3892 l 6932 -3892 l
 6909 -3869 l 6794 -3869 l 6771 -3846 l 6679 -3846 l 6656 -3823 l
 6587 -3823 l 6564 -3800 l 6495 -3800 l 6472 -3777 l 6403 -3777 l
 6380 -3754 l 6333 -3754 l 6310 -3731 l 6264 -3731 l 6241 -3708 l
 6195 -3708 l 6172 -3685 l 6149 -3685 l 6126 -3662 l 6103 -3662 l
 6080 -3639 l 6057 -3639 l 6034 -3616 l 6011 -3616 l 5988 -3593 l
 5965 -3593 l 5942 -3570 l 5919 -3570 l 5873 -3523 l 5850 -3523 l
 5712 -3385 l 5689 -3339 l 5666 -3270 l
 cp gs col36 1.00 shd ef gr gs col36 s gr 
% Polyline
n 2026 -11746 m 7301 -11746 l 7301 -7416 l 7255 -7508 l 7094 -7669 l 7071 -7669 l
 7047 -7692 l 7024 -7692 l 6978 -7738 l 6955 -7738 l 6932 -7761 l
 6886 -7761 l 6863 -7785 l 6840 -7785 l 6817 -7808 l 6794 -7808 l
 6771 -7831 l 6725 -7831 l 6702 -7854 l 6656 -7854 l 6633 -7877 l
 6587 -7877 l 6564 -7900 l 6495 -7900 l 6472 -7923 l 6426 -7923 l
 6403 -7946 l 6333 -7946 l 6310 -7969 l 6218 -7969 l 6195 -7992 l
 6103 -7992 l 6080 -8015 l 5965 -8015 l 5942 -8038 l 5827 -8038 l
 5804 -8061 l 5642 -8061 l 5619 -8084 l 5412 -8084 l 5389 -8107 l
 5021 -8107 l 4998 -8130 l 4330 -8130 l 4307 -8107 l 3938 -8107 l
 3915 -8084 l 3708 -8084 l 3685 -8061 l 3523 -8061 l 3500 -8038 l
 3385 -8038 l 3362 -8015 l 3247 -8015 l 3224 -7992 l 3132 -7992 l
 3109 -7969 l 3017 -7969 l 2994 -7946 l 2925 -7946 l 2902 -7923 l
 2856 -7923 l 2833 -7900 l 2763 -7900 l 2740 -7877 l 2694 -7877 l
 2671 -7854 l 2625 -7854 l 2602 -7831 l 2556 -7831 l 2533 -7808 l
 2510 -7808 l 2487 -7785 l 2464 -7785 l 2441 -7761 l 2395 -7761 l
 2372 -7738 l 2349 -7738 l 2303 -7692 l 2280 -7692 l 2257 -7669 l
 2234 -7669 l 2072 -7508 l 2026 -7416 l
 cp gs col36 1.00 shd ef gr gs col36 s gr 
% Polyline
n 5666 -3178 m 5689 -3109 l 5712 -3063 l 5850 -2925 l 5873 -2925 l 5919 -2879 l
 5942 -2879 l 5965 -2856 l 5988 -2856 l 6011 -2833 l 6034 -2833 l
 6057 -2809 l 6080 -2809 l 6103 -2786 l 6126 -2786 l 6149 -2763 l
 6172 -2763 l 6195 -2740 l 6241 -2740 l 6264 -2717 l 6310 -2717 l
 6333 -2694 l 6380 -2694 l 6403 -2671 l 6472 -2671 l 6495 -2648 l
 6564 -2648 l 6587 -2625 l 6656 -2625 l 6679 -2602 l 6771 -2602 l
 6794 -2579 l 6909 -2579 l 6932 -2556 l 7071 -2556 l 7094 -2533 l
 7278 -2533 l 7301 -2510 l 7600 -2510 l 7623 -2487 l 8222 -2487 l
 8245 -2510 l 8545 -2510 l 8568 -2533 l 8752 -2533 l 8775 -2556 l
 8913 -2556 l 8936 -2579 l 9051 -2579 l 9074 -2602 l 9166 -2602 l
 9190 -2625 l 9259 -2625 l 9282 -2648 l 9351 -2648 l 9374 -2671 l
 9443 -2671 l 9466 -2694 l 9512 -2694 l 9535 -2717 l 9581 -2717 l
 9604 -2740 l 9650 -2740 l 9673 -2763 l 9696 -2763 l 9719 -2786 l
 9742 -2786 l 9765 -2809 l 9788 -2809 l 9811 -2833 l 9834 -2833 l
 9857 -2856 l 9880 -2856 l 9904 -2879 l 9927 -2879 l 9973 -2925 l
 9996 -2925 l 10134 -3063 l 10157 -3109 l 10180 -3178 l 10180 -253 l
 5666 -253 l
 cp gs col36 1.00 shd ef gr gs col36 s gr 
% Polyline
n 7324 -11746 m 10180 -11746 l 10180 -3270 l 10157 -3339 l 10134 -3385 l 9996 -3523 l
 9973 -3523 l 9927 -3570 l 9904 -3570 l 9880 -3593 l 9857 -3593 l
 9834 -3616 l 9811 -3616 l 9788 -3639 l 9765 -3639 l 9742 -3662 l
 9719 -3662 l 9696 -3685 l 9673 -3685 l 9650 -3708 l 9604 -3708 l
 9581 -3731 l 9535 -3731 l 9512 -3754 l 9466 -3754 l 9443 -3777 l
 9374 -3777 l 9351 -3800 l 9282 -3800 l 9259 -3823 l 9190 -3823 l
 9166 -3846 l 9074 -3846 l 9051 -3869 l 8936 -3869 l 8913 -3892 l
 8775 -3892 l 8752 -3915 l 8568 -3915 l 8545 -3938 l 8245 -3938 l
 8222 -3961 l 7623 -3961 l 7600 -3938 l 7324 -3938 l
 cp gs col36 1.00 shd ef gr gs col36 s gr 
% Polyline
n 10203 -11746 m 11746 -11746 l 11746 -253 l 10203 -253 l
 cp gs col36 1.00 shd ef gr gs col36 s gr 
% Polyline
n 253 -11746 m 472 -11746 l 472 -253 l 253 -253 l
 cp gs col32 1.00 shd ef gr gs col32 s gr 
% Polyline
n 472 -11746 m 690 -11746 l 690 -253 l 472 -253 l
 cp gs col35 1.00 shd ef gr gs col35 s gr 
% Polyline
n 690 -11746 m 909 -11746 l 909 -253 l 690 -253 l
 cp gs col32 1.00 shd ef gr gs col32 s gr 
% Polyline
n 909 -11746 m 1128 -11746 l 1128 -253 l 909 -253 l
 cp gs col35 1.00 shd ef gr gs col35 s gr 
% Polyline
n 1128 -11746 m 1347 -11746 l 1347 -253 l 1128 -253 l
 cp gs col32 1.00 shd ef gr gs col32 s gr 
% Polyline
n 1347 -11746 m 1566 -11746 l 1566 -253 l 1347 -253 l
 cp gs col35 1.00 shd ef gr gs col35 s gr 
% Polyline
n 1566 -11746 m 1785 -11746 l 1785 -253 l 1566 -253 l
 cp gs col32 1.00 shd ef gr gs col32 s gr 
% Polyline
n 1785 -11746 m 2003 -11746 l 2003 -253 l 1785 -253 l
 cp gs col35 1.00 shd ef gr gs col35 s gr 
% Polyline
n 2026 -7301 m 2252 -7047 l 2252 -253 l 2026 -253 l
 cp gs col32 1.00 shd ef gr gs col32 s gr 
% Polyline
n 2252 -7047 m 2478 -6932 l 2478 -253 l 2252 -253 l
 cp gs col35 1.00 shd ef gr gs col35 s gr 
% Polyline
n 2478 -6932 m 2704 -6840 l 2704 -253 l 2478 -253 l
 cp gs col32 1.00 shd ef gr gs col32 s gr 
% Polyline
n 2704 -6840 m 2930 -6771 l 2930 -253 l 2704 -253 l
 cp gs col35 1.00 shd ef gr gs col35 s gr 
% Polyline
n 2930 -6771 m 3156 -6725 l 3156 -253 l 2930 -253 l
 cp gs col32 1.00 shd ef gr gs col32 s gr 
% Polyline
n 3156 -6725 m 3382 -6682 l 3382 -253 l 3156 -253 l
 cp gs col35 1.00 shd ef gr gs col35 s gr 
% Polyline
n 3382 -6682 m 3608 -6656 l 3608 -253 l 3382 -253 l
 cp gs col32 1.00 shd ef gr gs col32 s gr 
% Polyline
n 3608 -6656 m 3834 -6633 l 3834 -253 l 3608 -253 l
 cp gs col35 1.00 shd ef gr gs col35 s gr 
% Polyline
n 3834 -6633 m 4060 -6610 l 4060 -253 l 3834 -253 l
 cp gs col32 1.00 shd ef gr gs col32 s gr 
% Polyline
n 4060 -6610 m 4286 -6610 l 4286 -253 l 4060 -253 l
 cp gs col35 1.00 shd ef gr gs col35 s gr 
% Polyline
n 4286 -6610 m 4512 -6587 l 4512 -253 l 4286 -253 l
 cp gs col32 1.00 shd ef gr gs col32 s gr 
% Polyline
n 4512 -6587 m 4738 -6587 l 4738 -253 l 4512 -253 l
 cp gs col35 1.00 shd ef gr gs col35 s gr 
% Polyline
n 4738 -6587 m 4964 -6587 l 4964 -253 l 4738 -253 l
 cp gs col32 1.00 shd ef gr gs col32 s gr 
% Polyline
n 4964 -6587 m 5190 -6610 l 5190 -253 l 4964 -253 l
 cp gs col35 1.00 shd ef gr gs col35 s gr 
% Polyline
n 5190 -6610 m 5416 -6633 l 5416 -253 l 5190 -253 l
 cp gs col32 1.00 shd ef gr gs col32 s gr 
% Polyline
n 5416 -6633 m 5642 -6656 l 5642 -253 l 5416 -253 l
 cp gs col35 1.00 shd ef gr gs col35 s gr 
% Polyline
n 5666 -6656 m 5870 -6679 l 5870 -3523 l 5666 -3270 l
 cp gs col32 1.00 shd ef gr gs col32 s gr 
% Polyline
n 5870 -6679 m 6074 -6702 l 6074 -3639 l 5870 -3523 l
 cp gs col35 1.00 shd ef gr gs col35 s gr 
% Polyline
n 6074 -6702 m 6279 -6748 l 6279 -3731 l 6074 -3639 l
 cp gs col32 1.00 shd ef gr gs col32 s gr 
% Polyline
n 6279 -6748 m 6483 -6806 l 6483 -3788 l 6279 -3731 l
 cp gs col35 1.00 shd ef gr gs col35 s gr 
% Polyline
n 6483 -6806 m 6688 -6863 l 6688 -3846 l 6483 -3788 l
 cp gs col32 1.00 shd ef gr gs col32 s gr 
% Polyline
n 6688 -6863 m 6892 -6955 l 6892 -3869 l 6688 -3846 l
 cp gs col35 1.00 shd ef gr gs col35 s gr 
% Polyline
n 6892 -6955 m 7096 -7050 l 7096 -3915 l 6892 -3869 l
 cp gs col32 1.00 shd ef gr gs col32 s gr 
% Polyline
n 7096 -7050 m 7301 -7301 l 7301 -3938 l 7096 -3915 l
 cp gs col35 1.00 shd ef gr gs col35 s gr 
% Polyline
n 2026 -11746 m 2256 -11746 l 2256 -7669 l 2026 -7416 l
 cp gs col32 1.00 shd ef gr gs col32 s gr 
% Polyline
n 2256 -11746 m 2485 -11746 l 2485 -7785 l 2256 -7669 l
 cp gs col35 1.00 shd ef gr gs col35 s gr 
% Polyline
n 2485 -11746 m 2714 -11746 l 2714 -7877 l 2485 -7785 l
 cp gs col32 1.00 shd ef gr gs col32 s gr 
% Polyline
n 2714 -11746 m 2944 -11746 l 2944 -7946 l 2714 -7877 l
 cp gs col35 1.00 shd ef gr gs col35 s gr 
% Polyline
n 2944 -11746 m 3173 -11746 l 3173 -7992 l 2944 -7946 l
 cp gs col32 1.00 shd ef gr gs col32 s gr 
% Polyline
n 3173 -11746 m 3402 -11746 l 3402 -8038 l 3173 -7992 l
 cp gs col35 1.00 shd ef gr gs col35 s gr 
% Polyline
n 3402 -11746 m 3632 -11746 l 3632 -8061 l 3402 -8038 l
 cp gs col32 1.00 shd ef gr gs col32 s gr 
% Polyline
n 3632 -11746 m 3861 -11746 l 3861 -8084 l 3632 -8061 l
 cp gs col35 1.00 shd ef gr gs col35 s gr 
% Polyline
n 3861 -11746 m 4090 -11746 l 4090 -8107 l 3861 -8084 l
 cp gs col32 1.00 shd ef gr gs col32 s gr 
% Polyline
n 4090 -11746 m 4320 -11746 l 4320 -8120 l 4090 -8107 l
 cp gs col35 1.00 shd ef gr gs col35 s gr 
% Polyline
n 4320 -11746 m 4549 -11746 l 4549 -8130 l 4320 -8120 l
 cp gs col32 1.00 shd ef gr gs col32 s gr 
% Polyline
n 4549 -11746 m 4778 -11746 l 4778 -8130 l 4549 -8130 l
 cp gs col35 1.00 shd ef gr gs col35 s gr 
% Polyline
n 4778 -11746 m 5008 -11746 l 5008 -8120 l 4778 -8130 l
 cp gs col32 1.00 shd ef gr gs col32 s gr 
% Polyline
n 5008 -11746 m 5237 -11746 l 5237 -8107 l 5008 -8120 l
 cp gs col35 1.00 shd ef gr gs col35 s gr 
% Polyline
n 5237 -11746 m 5466 -11746 l 5466 -8084 l 5237 -8107 l
 cp gs col32 1.00 shd ef gr gs col32 s gr 
% Polyline
n 5466 -11746 m 5696 -11746 l 5696 -8061 l 5466 -8084 l
 cp gs col35 1.00 shd ef gr gs col35 s gr 
% Polyline
n 5696 -11746 m 5925 -11746 l 5925 -8038 l 5696 -8061 l
 cp gs col32 1.00 shd ef gr gs col32 s gr 
% Polyline
n 5925 -11746 m 6154 -11746 l 6154 -7992 l 5925 -8038 l
 cp gs col35 1.00 shd ef gr gs col35 s gr 
% Polyline
n 6154 -11746 m 6384 -11746 l 6384 -7946 l 6154 -7992 l
 cp gs col32 1.00 shd ef gr gs col32 s gr 
% Polyline
n 6384 -11746 m 6613 -11746 l 6613 -7877 l 6384 -7946 l
 cp gs col35 1.00 shd ef gr gs col35 s gr 
% Polyline
n 6613 -11746 m 6842 -11746 l 6842 -7785 l 6613 -7877 l
 cp gs col32 1.00 shd ef gr gs col32 s gr 
% Polyline
n 6842 -11746 m 7072 -11746 l 7072 -7669 l 6842 -7785 l
 cp gs col35 1.00 shd ef gr gs col35 s gr 
% Polyline
n 7072 -11746 m 7301 -11746 l 7301 -7416 l 7072 -7669 l
 cp gs col32 1.00 shd ef gr gs col32 s gr 
% Polyline
n 5666 -3178 m 5891 -2906 l 5891 -253 l 5666 -253 l
 cp gs col35 1.00 shd ef gr gs col35 s gr 
% Polyline
n 5891 -2906 m 6117 -2786 l 6117 -253 l 5891 -253 l
 cp gs col32 1.00 shd ef gr gs col32 s gr 
% Polyline
n 6117 -2786 m 6343 -2694 l 6343 -253 l 6117 -253 l
 cp gs col35 1.00 shd ef gr gs col35 s gr 
% Polyline
n 6343 -2694 m 6568 -2644 l 6568 -253 l 6343 -253 l
 cp gs col32 1.00 shd ef gr gs col32 s gr 
% Polyline
n 6568 -2644 m 6794 -2579 l 6794 -253 l 6568 -253 l
 cp gs col35 1.00 shd ef gr gs col35 s gr 
% Polyline
n 6794 -2579 m 7020 -2556 l 7020 -253 l 6794 -253 l
 cp gs col32 1.00 shd ef gr gs col32 s gr 
% Polyline
n 7020 -2556 m 7246 -2533 l 7246 -253 l 7020 -253 l
 cp gs col35 1.00 shd ef gr gs col35 s gr 
% Polyline
n 7246 -2533 m 7471 -2510 l 7471 -253 l 7246 -253 l
 cp gs col32 1.00 shd ef gr gs col32 s gr 
% Polyline
n 7471 -2510 m 7697 -2487 l 7697 -253 l 7471 -253 l
 cp gs col35 1.00 shd ef gr gs col35 s gr 
% Polyline
n 7697 -2487 m 7923 -2487 l 7923 -253 l 7697 -253 l
 cp gs col32 1.00 shd ef gr gs col32 s gr 
% Polyline
n 7923 -2487 m 8148 -2487 l 8148 -253 l 7923 -253 l
 cp gs col35 1.00 shd ef gr gs col35 s gr 
% Polyline
n 8148 -2487 m 8374 -2510 l 8374 -253 l 8148 -253 l
 cp gs col32 1.00 shd ef gr gs col32 s gr 
% Polyline
n 8374 -2510 m 8600 -2533 l 8600 -253 l 8374 -253 l
 cp gs col35 1.00 shd ef gr gs col35 s gr 
% Polyline
n 8600 -2533 m 8826 -2556 l 8826 -253 l 8600 -253 l
 cp gs col32 1.00 shd ef gr gs col32 s gr 
% Polyline
n 8826 -2556 m 9051 -2579 l 9051 -253 l 8826 -253 l
 cp gs col35 1.00 shd ef gr gs col35 s gr 
% Polyline
n 9051 -2579 m 9277 -2644 l 9277 -253 l 9051 -253 l
 cp gs col32 1.00 shd ef gr gs col32 s gr 
% Polyline
n 9277 -2644 m 9503 -2694 l 9503 -253 l 9277 -253 l
 cp gs col35 1.00 shd ef gr gs col35 s gr 
% Polyline
n 9503 -2694 m 9728 -2786 l 9728 -253 l 9503 -253 l
 cp gs col32 1.00 shd ef gr gs col32 s gr 
% Polyline
n 9728 -2786 m 9954 -2906 l 9954 -253 l 9728 -253 l
 cp gs col35 1.00 shd ef gr gs col35 s gr 
% Polyline
n 9954 -2906 m 10180 -3178 l 10180 -253 l 9954 -253 l
 cp gs col32 1.00 shd ef gr gs col32 s gr 
% Polyline
n 7324 -11746 m 7544 -11746 l 7544 -3938 l 7324 -3938 l
 cp gs col35 1.00 shd ef gr gs col35 s gr 
% Polyline
n 7544 -11746 m 7763 -11746 l 7763 -3961 l 7544 -3938 l
 cp gs col32 1.00 shd ef gr gs col32 s gr 
% Polyline
n 7763 -11746 m 7983 -11746 l 7983 -3961 l 7763 -3961 l
 cp gs col35 1.00 shd ef gr gs col35 s gr 
% Polyline
n 7983 -11746 m 8203 -11746 l 8203 -3961 l 7983 -3961 l
 cp gs col32 1.00 shd ef gr gs col32 s gr 
% Polyline
n 8203 -11746 m 8422 -11746 l 8422 -3938 l 8203 -3961 l
 cp gs col35 1.00 shd ef gr gs col35 s gr 
% Polyline
n 8422 -11746 m 8642 -11746 l 8642 -3915 l 8422 -3938 l
 cp gs col32 1.00 shd ef gr gs col32 s gr 
% Polyline
n 8642 -11746 m 8862 -11746 l 8862 -3892 l 8642 -3915 l
 cp gs col35 1.00 shd ef gr gs col35 s gr 
% Polyline
n 8862 -11746 m 9081 -11746 l 9081 -3846 l 8862 -3892 l
 cp gs col32 1.00 shd ef gr gs col32 s gr 
% Polyline
n 9081 -11746 m 9301 -11746 l 9301 -3800 l 9081 -3846 l
 cp gs col35 1.00 shd ef gr gs col35 s gr 
% Polyline
n 9301 -11746 m 9521 -11746 l 9521 -3745 l 9301 -3800 l
 cp gs col32 1.00 shd ef gr gs col32 s gr 
% Polyline
n 9521 -11746 m 9741 -11746 l 9741 -3662 l 9521 -3745 l
 cp gs col35 1.00 shd ef gr gs col35 s gr 
% Polyline
n 9741 -11746 m 9960 -11746 l 9960 -3536 l 9741 -3662 l
 cp gs col32 1.00 shd ef gr gs col32 s gr 
% Polyline
n 9960 -11746 m 10180 -11746 l 10180 -3270 l 9960 -3536 l
 cp gs col35 1.00 shd ef gr gs col35 s gr 
% Polyline
n 10203 -11746 m 10423 -11746 l 10423 -253 l 10203 -253 l
 cp gs col32 1.00 shd ef gr gs col32 s gr 
% Polyline
n 10423 -11746 m 10644 -11746 l 10644 -253 l 10423 -253 l
 cp gs col35 1.00 shd ef gr gs col35 s gr 
% Polyline
n 10644 -11746 m 10864 -11746 l 10864 -253 l 10644 -253 l
 cp gs col32 1.00 shd ef gr gs col32 s gr 
% Polyline
n 10864 -11746 m 11085 -11746 l 11085 -253 l 10864 -253 l
 cp gs col35 1.00 shd ef gr gs col35 s gr 
% Polyline
n 11085 -11746 m 11305 -11746 l 11305 -253 l 11085 -253 l
 cp gs col32 1.00 shd ef gr gs col32 s gr 
% Polyline
n 11305 -11746 m 11526 -11746 l 11526 -253 l 11305 -253 l
 cp gs col35 1.00 shd ef gr gs col35 s gr 
% Polyline
n 11526 -11746 m 11746 -11746 l 11746 -253 l 11526 -253 l
 cp gs col32 1.00 shd ef gr gs col32 s gr 
% Ellipse
n 5972 -3523 115 115 0 360 DrawEllipse gs col4 1.00 shd ef gr gs col4 s gr
% Polyline
n 253 -11746 m 2003 -11746 l 2003 -253 l 253 -253 l
 cp gs col0 s gr 
% Polyline
n 2026 -7301 m 2072 -7209 l 2234 -7047 l 2257 -7047 l 2280 -7024 l 2303 -7024 l
 2349 -6978 l 2372 -6978 l 2395 -6955 l 2441 -6955 l 2464 -6932 l
 2487 -6932 l 2510 -6909 l 2533 -6909 l 2556 -6886 l 2602 -6886 l
 2625 -6863 l 2671 -6863 l 2694 -6840 l 2740 -6840 l 2763 -6817 l
 2833 -6817 l 2856 -6794 l 2902 -6794 l 2925 -6771 l 2994 -6771 l
 3017 -6748 l 3109 -6748 l 3132 -6725 l 3224 -6725 l 3247 -6702 l
 3362 -6702 l 3385 -6679 l 3500 -6679 l 3523 -6656 l 3685 -6656 l
 3708 -6633 l 3915 -6633 l 3938 -6610 l 4307 -6610 l 4330 -6587 l
 4998 -6587 l 5021 -6610 l 5389 -6610 l 5412 -6633 l 5619 -6633 l
 5642 -6656 l 5642 -253 l 2026 -253 l
 cp gs col0 s gr 
% Polyline
n 5666 -6656 m 5804 -6656 l 5827 -6679 l 5942 -6679 l 5965 -6702 l 6080 -6702 l
 6103 -6725 l 6195 -6725 l 6218 -6748 l 6310 -6748 l 6333 -6771 l
 6403 -6771 l 6426 -6794 l 6472 -6794 l 6495 -6817 l 6564 -6817 l
 6587 -6840 l 6633 -6840 l 6656 -6863 l 6702 -6863 l 6725 -6886 l
 6771 -6886 l 6794 -6909 l 6817 -6909 l 6840 -6932 l 6863 -6932 l
 6886 -6955 l 6932 -6955 l 6955 -6978 l 6978 -6978 l 7024 -7024 l
 7047 -7024 l 7071 -7047 l 7094 -7047 l 7255 -7209 l 7301 -7301 l
 7301 -3938 l 7278 -3915 l 7094 -3915 l 7071 -3892 l 6932 -3892 l
 6909 -3869 l 6794 -3869 l 6771 -3846 l 6679 -3846 l 6656 -3823 l
 6587 -3823 l 6564 -3800 l 6495 -3800 l 6472 -3777 l 6403 -3777 l
 6380 -3754 l 6333 -3754 l 6310 -3731 l 6264 -3731 l 6241 -3708 l
 6195 -3708 l 6172 -3685 l 6149 -3685 l 6126 -3662 l 6103 -3662 l
 6080 -3639 l 6057 -3639 l 6034 -3616 l 6011 -3616 l 5988 -3593 l
 5965 -3593 l 5942 -3570 l 5919 -3570 l 5873 -3523 l 5850 -3523 l
 5712 -3385 l 5689 -3339 l 5666 -3270 l
 cp gs col0 s gr 
% Polyline
n 2026 -11746 m 7301 -11746 l 7301 -7416 l 7255 -7508 l 7094 -7669 l 7071 -7669 l
 7047 -7692 l 7024 -7692 l 6978 -7738 l 6955 -7738 l 6932 -7761 l
 6886 -7761 l 6863 -7785 l 6840 -7785 l 6817 -7808 l 6794 -7808 l
 6771 -7831 l 6725 -7831 l 6702 -7854 l 6656 -7854 l 6633 -7877 l
 6587 -7877 l 6564 -7900 l 6495 -7900 l 6472 -7923 l 6426 -7923 l
 6403 -7946 l 6333 -7946 l 6310 -7969 l 6218 -7969 l 6195 -7992 l
 6103 -7992 l 6080 -8015 l 5965 -8015 l 5942 -8038 l 5827 -8038 l
 5804 -8061 l 5642 -8061 l 5619 -8084 l 5412 -8084 l 5389 -8107 l
 5021 -8107 l 4998 -8130 l 4330 -8130 l 4307 -8107 l 3938 -8107 l
 3915 -8084 l 3708 -8084 l 3685 -8061 l 3523 -8061 l 3500 -8038 l
 3385 -8038 l 3362 -8015 l 3247 -8015 l 3224 -7992 l 3132 -7992 l
 3109 -7969 l 3017 -7969 l 2994 -7946 l 2925 -7946 l 2902 -7923 l
 2856 -7923 l 2833 -7900 l 2763 -7900 l 2740 -7877 l 2694 -7877 l
 2671 -7854 l 2625 -7854 l 2602 -7831 l 2556 -7831 l 2533 -7808 l
 2510 -7808 l 2487 -7785 l 2464 -7785 l 2441 -7761 l 2395 -7761 l
 2372 -7738 l 2349 -7738 l 2303 -7692 l 2280 -7692 l 2257 -7669 l
 2234 -7669 l 2072 -7508 l 2026 -7416 l
 cp gs col0 s gr 
% Polyline
n 5666 -3178 m 5689 -3109 l 5712 -3063 l 5850 -2925 l 5873 -2925 l 5919 -2879 l
 5942 -2879 l 5965 -2856 l 5988 -2856 l 6011 -2833 l 6034 -2833 l
 6057 -2809 l 6080 -2809 l 6103 -2786 l 6126 -2786 l 6149 -2763 l
 6172 -2763 l 6195 -2740 l 6241 -2740 l 6264 -2717 l 6310 -2717 l
 6333 -2694 l 6380 -2694 l 6403 -2671 l 6472 -2671 l 6495 -2648 l
 6564 -2648 l 6587 -2625 l 6656 -2625 l 6679 -2602 l 6771 -2602 l
 6794 -2579 l 6909 -2579 l 6932 -2556 l 7071 -2556 l 7094 -2533 l
 7278 -2533 l 7301 -2510 l 7600 -2510 l 7623 -2487 l 8222 -2487 l
 8245 -2510 l 8545 -2510 l 8568 -2533 l 8752 -2533 l 8775 -2556 l
 8913 -2556 l 8936 -2579 l 9051 -2579 l 9074 -2602 l 9166 -2602 l
 9190 -2625 l 9259 -2625 l 9282 -2648 l 9351 -2648 l 9374 -2671 l
 9443 -2671 l 9466 -2694 l 9512 -2694 l 9535 -2717 l 9581 -2717 l
 9604 -2740 l 9650 -2740 l 9673 -2763 l 9696 -2763 l 9719 -2786 l
 9742 -2786 l 9765 -2809 l 9788 -2809 l 9811 -2833 l 9834 -2833 l
 9857 -2856 l 9880 -2856 l 9904 -2879 l 9927 -2879 l 9973 -2925 l
 9996 -2925 l 10134 -3063 l 10157 -3109 l 10180 -3178 l 10180 -253 l
 5666 -253 l
 cp gs col0 s gr 
% Polyline
n 7324 -11746 m 10180 -11746 l 10180 -3270 l 10157 -3339 l 10134 -3385 l 9996 -3523 l
 9973 -3523 l 9927 -3570 l 9904 -3570 l 9880 -3593 l 9857 -3593 l
 9834 -3616 l 9811 -3616 l 9788 -3639 l 9765 -3639 l 9742 -3662 l
 9719 -3662 l 9696 -3685 l 9673 -3685 l 9650 -3708 l 9604 -3708 l
 9581 -3731 l 9535 -3731 l 9512 -3754 l 9466 -3754 l 9443 -3777 l
 9374 -3777 l 9351 -3800 l 9282 -3800 l 9259 -3823 l 9190 -3823 l
 9166 -3846 l 9074 -3846 l 9051 -3869 l 8936 -3869 l 8913 -3892 l
 8775 -3892 l 8752 -3915 l 8568 -3915 l 8545 -3938 l 8245 -3938 l
 8222 -3961 l 7623 -3961 l 7600 -3938 l 7324 -3938 l
 cp gs col0 s gr 
% Polyline
n 10203 -11746 m 11746 -11746 l 11746 -253 l 10203 -253 l
 cp gs col0 s gr 
% Polyline
n 253 -11746 m 472 -11746 l 472 -253 l 253 -253 l
 cp gs col0 s gr 
% Polyline
n 472 -11746 m 690 -11746 l 690 -253 l 472 -253 l
 cp gs col0 s gr 
% Polyline
n 690 -11746 m 909 -11746 l 909 -253 l 690 -253 l
 cp gs col0 s gr 
% Polyline
n 909 -11746 m 1128 -11746 l 1128 -253 l 909 -253 l
 cp gs col0 s gr 
% Polyline
n 1128 -11746 m 1347 -11746 l 1347 -253 l 1128 -253 l
 cp gs col0 s gr 
% Polyline
n 1347 -11746 m 1566 -11746 l 1566 -253 l 1347 -253 l
 cp gs col0 s gr 
% Polyline
n 1566 -11746 m 1785 -11746 l 1785 -253 l 1566 -253 l
 cp gs col0 s gr 
% Polyline
n 1785 -11746 m 2003 -11746 l 2003 -253 l 1785 -253 l
 cp gs col0 s gr 
% Polyline
n 2026 -7301 m 2252 -7047 l 2252 -253 l 2026 -253 l
 cp gs col0 s gr 
% Polyline
n 2252 -7047 m 2478 -6932 l 2478 -253 l 2252 -253 l
 cp gs col0 s gr 
% Polyline
n 2478 -6932 m 2704 -6840 l 2704 -253 l 2478 -253 l
 cp gs col0 s gr 
% Polyline
n 2704 -6840 m 2930 -6771 l 2930 -253 l 2704 -253 l
 cp gs col0 s gr 
% Polyline
n 2930 -6771 m 3156 -6725 l 3156 -253 l 2930 -253 l
 cp gs col0 s gr 
% Polyline
n 3156 -6725 m 3382 -6682 l 3382 -253 l 3156 -253 l
 cp gs col0 s gr 
% Polyline
n 3382 -6682 m 3608 -6656 l 3608 -253 l 3382 -253 l
 cp gs col0 s gr 
% Polyline
n 3608 -6656 m 3834 -6633 l 3834 -253 l 3608 -253 l
 cp gs col0 s gr 
% Polyline
n 3834 -6633 m 4060 -6610 l 4060 -253 l 3834 -253 l
 cp gs col0 s gr 
% Polyline
n 4060 -6610 m 4286 -6610 l 4286 -253 l 4060 -253 l
 cp gs col0 s gr 
% Polyline
n 4286 -6610 m 4512 -6587 l 4512 -253 l 4286 -253 l
 cp gs col0 s gr 
% Polyline
n 4512 -6587 m 4738 -6587 l 4738 -253 l 4512 -253 l
 cp gs col0 s gr 
% Polyline
n 4738 -6587 m 4964 -6587 l 4964 -253 l 4738 -253 l
 cp gs col0 s gr 
% Polyline
n 4964 -6587 m 5190 -6610 l 5190 -253 l 4964 -253 l
 cp gs col0 s gr 
% Polyline
n 5190 -6610 m 5416 -6633 l 5416 -253 l 5190 -253 l
 cp gs col0 s gr 
% Polyline
n 5416 -6633 m 5642 -6656 l 5642 -253 l 5416 -253 l
 cp gs col0 s gr 
% Polyline
n 5666 -6656 m 5870 -6679 l 5870 -3523 l 5666 -3270 l
 cp gs col0 s gr 
% Polyline
n 5870 -6679 m 6074 -6702 l 6074 -3639 l 5870 -3523 l
 cp gs col0 s gr 
% Polyline
n 6074 -6702 m 6279 -6748 l 6279 -3731 l 6074 -3639 l
 cp gs col0 s gr 
% Polyline
n 6279 -6748 m 6483 -6806 l 6483 -3788 l 6279 -3731 l
 cp gs col0 s gr 
% Polyline
n 6483 -6806 m 6688 -6863 l 6688 -3846 l 6483 -3788 l
 cp gs col0 s gr 
% Polyline
n 6688 -6863 m 6892 -6955 l 6892 -3869 l 6688 -3846 l
 cp gs col0 s gr 
% Polyline
n 6892 -6955 m 7096 -7050 l 7096 -3915 l 6892 -3869 l
 cp gs col0 s gr 
% Polyline
n 7096 -7050 m 7301 -7301 l 7301 -3938 l 7096 -3915 l
 cp gs col0 s gr 
% Polyline
n 2026 -11746 m 2256 -11746 l 2256 -7669 l 2026 -7416 l
 cp gs col0 s gr 
% Polyline
n 2256 -11746 m 2485 -11746 l 2485 -7785 l 2256 -7669 l
 cp gs col0 s gr 
% Polyline
n 2485 -11746 m 2714 -11746 l 2714 -7877 l 2485 -7785 l
 cp gs col0 s gr 
% Polyline
n 2714 -11746 m 2944 -11746 l 2944 -7946 l 2714 -7877 l
 cp gs col0 s gr 
% Polyline
n 2944 -11746 m 3173 -11746 l 3173 -7992 l 2944 -7946 l
 cp gs col0 s gr 
% Polyline
n 3173 -11746 m 3402 -11746 l 3402 -8038 l 3173 -7992 l
 cp gs col0 s gr 
% Polyline
n 3402 -11746 m 3632 -11746 l 3632 -8061 l 3402 -8038 l
 cp gs col0 s gr 
% Polyline
n 3632 -11746 m 3861 -11746 l 3861 -8084 l 3632 -8061 l
 cp gs col0 s gr 
% Polyline
n 3861 -11746 m 4090 -11746 l 4090 -8107 l 3861 -8084 l
 cp gs col0 s gr 
% Polyline
n 4090 -11746 m 4320 -11746 l 4320 -8120 l 4090 -8107 l
 cp gs col0 s gr 
% Polyline
n 4320 -11746 m 4549 -11746 l 4549 -8130 l 4320 -8120 l
 cp gs col0 s gr 
% Polyline
n 4549 -11746 m 4778 -11746 l 4778 -8130 l 4549 -8130 l
 cp gs col0 s gr 
% Polyline
n 4778 -11746 m 5008 -11746 l 5008 -8120 l 4778 -8130 l
 cp gs col0 s gr 
% Polyline
n 5008 -11746 m 5237 -11746 l 5237 -8107 l 5008 -8120 l
 cp gs col0 s gr 
% Polyline
n 5237 -11746 m 5466 -11746 l 5466 -8084 l 5237 -8107 l
 cp gs col0 s gr 
% Polyline
n 5466 -11746 m 5696 -11746 l 5696 -8061 l 5466 -8084 l
 cp gs col0 s gr 
% Polyline
n 5696 -11746 m 5925 -11746 l 5925 -8038 l 5696 -8061 l
 cp gs col0 s gr 
% Polyline
n 5925 -11746 m 6154 -11746 l 6154 -7992 l 5925 -8038 l
 cp gs col0 s gr 
% Polyline
n 6154 -11746 m 6384 -11746 l 6384 -7946 l 6154 -7992 l
 cp gs col0 s gr 
% Polyline
n 6384 -11746 m 6613 -11746 l 6613 -7877 l 6384 -7946 l
 cp gs col0 s gr 
% Polyline
n 6613 -11746 m 6842 -11746 l 6842 -7785 l 6613 -7877 l
 cp gs col0 s gr 
% Polyline
n 6842 -11746 m 7072 -11746 l 7072 -7669 l 6842 -7785 l
 cp gs col0 s gr 
% Polyline
n 7072 -11746 m 7301 -11746 l 7301 -7416 l 7072 -7669 l
 cp gs col0 s gr 
% Polyline
n 5666 -3178 m 5891 -2906 l 5891 -253 l 5666 -253 l
 cp gs col0 s gr 
% Polyline
n 5891 -2906 m 6117 -2786 l 6117 -253 l 5891 -253 l
 cp gs col0 s gr 
% Polyline
n 6117 -2786 m 6343 -2694 l 6343 -253 l 6117 -253 l
 cp gs col0 s gr 
% Polyline
n 6343 -2694 m 6568 -2644 l 6568 -253 l 6343 -253 l
 cp gs col0 s gr 
% Polyline
n 6568 -2644 m 6794 -2579 l 6794 -253 l 6568 -253 l
 cp gs col0 s gr 
% Polyline
n 6794 -2579 m 7020 -2556 l 7020 -253 l 6794 -253 l
 cp gs col0 s gr 
% Polyline
n 7020 -2556 m 7246 -2533 l 7246 -253 l 7020 -253 l
 cp gs col0 s gr 
% Polyline
n 7246 -2533 m 7471 -2510 l 7471 -253 l 7246 -253 l
 cp gs col0 s gr 
% Polyline
n 7471 -2510 m 7697 -2487 l 7697 -253 l 7471 -253 l
 cp gs col0 s gr 
% Polyline
n 7697 -2487 m 7923 -2487 l 7923 -253 l 7697 -253 l
 cp gs col0 s gr 
% Polyline
n 7923 -2487 m 8148 -2487 l 8148 -253 l 7923 -253 l
 cp gs col0 s gr 
% Polyline
n 8148 -2487 m 8374 -2510 l 8374 -253 l 8148 -253 l
 cp gs col0 s gr 
% Polyline
n 8374 -2510 m 8600 -2533 l 8600 -253 l 8374 -253 l
 cp gs col0 s gr 
% Polyline
n 8600 -2533 m 8826 -2556 l 8826 -253 l 8600 -253 l
 cp gs col0 s gr 
% Polyline
n 8826 -2556 m 9051 -2579 l 9051 -253 l 8826 -253 l
 cp gs col0 s gr 
% Polyline
n 9051 -2579 m 9277 -2644 l 9277 -253 l 9051 -253 l
 cp gs col0 s gr 
% Polyline
n 9277 -2644 m 9503 -2694 l 9503 -253 l 9277 -253 l
 cp gs col0 s gr 
% Polyline
n 9503 -2694 m 9728 -2786 l 9728 -253 l 9503 -253 l
 cp gs col0 s gr 
% Polyline
n 9728 -2786 m 9954 -2906 l 9954 -253 l 9728 -253 l
 cp gs col0 s gr 
% Polyline
n 9954 -2906 m 10180 -3178 l 10180 -253 l 9954 -253 l
 cp gs col0 s gr 
% Polyline
n 7324 -11746 m 7544 -11746 l 7544 -3938 l 7324 -3938 l
 cp gs col0 s gr 
% Polyline
n 7544 -11746 m 7763 -11746 l 7763 -3961 l 7544 -3938 l
 cp gs col0 s gr 
% Polyline
n 7763 -11746 m 7983 -11746 l 7983 -3961 l 7763 -3961 l
 cp gs col0 s gr 
% Polyline
n 7983 -11746 m 8203 -11746 l 8203 -3961 l 7983 -3961 l
 cp gs col0 s gr 
% Polyline
n 8203 -11746 m 8422 -11746 l 8422 -3938 l 8203 -3961 l
 cp gs col0 s gr 
% Polyline
n 8422 -11746 m 8642 -11746 l 8642 -3915 l 8422 -3938 l
 cp gs col0 s gr 
% Polyline
n 8642 -11746 m 8862 -11746 l 8862 -3892 l 8642 -3915 l
 cp gs col0 s gr 
% Polyline
n 8862 -11746 m 9081 -11746 l 9081 -3846 l 8862 -3892 l
 cp gs col0 s gr 
% Polyline
n 9081 -11746 m 9301 -11746 l 9301 -3800 l 9081 -3846 l
 cp gs col0 s gr 
% Polyline
n 9301 -11746 m 9521 -11746 l 9521 -3745 l 9301 -3800 l
 cp gs col0 s gr 
% Polyline
n 9521 -11746 m 9741 -11746 l 9741 -3662 l 9521 -3745 l
 cp gs col0 s gr 
% Polyline
n 9741 -11746 m 9960 -11746 l 9960 -3536 l 9741 -3662 l
 cp gs col0 s gr 
% Polyline
n 9960 -11746 m 10180 -11746 l 10180 -3270 l 9960 -3536 l
 cp gs col0 s gr 
% Polyline
n 10203 -11746 m 10423 -11746 l 10423 -253 l 10203 -253 l
 cp gs col0 s gr 
% Polyline
n 10423 -11746 m 10644 -11746 l 10644 -253 l 10423 -253 l
 cp gs col0 s gr 
% Polyline
n 10644 -11746 m 10864 -11746 l 10864 -253 l 10644 -253 l
 cp gs col0 s gr 
% Polyline
n 10864 -11746 m 11085 -11746 l 11085 -253 l 10864 -253 l
 cp gs col0 s gr 
% Polyline
n 11085 -11746 m 11305 -11746 l 11305 -253 l 11085 -253 l
 cp gs col0 s gr 
% Polyline
n 11305 -11746 m 11526 -11746 l 11526 -253 l 11305 -253 l
 cp gs col0 s gr 
% Polyline
n 11526 -11746 m 11746 -11746 l 11746 -253 l 11526 -253 l
 cp gs col0 s gr 
% Polyline
n 5973 -3489 m 5977 -3443 l 5984 -3398 l 5994 -3353 l 6006 -3309 l 6022 -3265 l
 6041 -3223 l 6062 -3182 l 6086 -3143 l 6113 -3106 l 6142 -3070 l
 6173 -3036 l 6207 -3005 l 6242 -2975 l 6280 -2949 l 6319 -2924 l
 6360 -2903 l 6402 -2884 l 6445 -2868 l 6489 -2855 l 6534 -2845 l
 6580 -2838 l 6625 -2834 l 6672 -2833 l 6718 -2835 l 6763 -2840 l
 6809 -2848 l 6853 -2859 l 6897 -2873 l 6940 -2890 l 6981 -2910 l
 7022 -2933 l 7060 -2958 l 7097 -2986 l 7132 -3016 l 7165 -3048 l
 7195 -3083 l 7223 -3119 l 7523 -3534 l 7533 -3548 l 7557 -3587 l
 7580 -3627 l 7599 -3669 l 7615 -3712 l 7629 -3756 l 7640 -3801 l
 7647 -3846 l 7652 -3892 l 7653 -3938 l 7653 -11746 l 7653 -11772 l
 7650 -11818 l 7643 -11864 l 7634 -11909 l 7622 -11953 l 7606 -11997 l
 7588 -12039 l 7567 -12080 l 7544 -12119 l 7518 -12157 l 7489 -12193 l
 7458 -12228 l 7425 -12260 l 7390 -12289 l 7353 -12316 l 7314 -12341 l
 7273 -12363 l 7232 -12383 l 7189 -12399 l 7145 -12413 l 7100 -12423 l
 7054 -12431 l 7008 -12436 l 6962 -12437 l 6272 -12437 l 6246 -12437 l
 6200 -12433 l 6154 -12427 l 6109 -12418 l 6065 -12405 l 6022 -12390 l
 5979 -12372 l 5938 -12351 l 5899 -12328 l 5861 -12301 l 5825 -12273 l
 5790 -12242 l 5759 -12209 l 5729 -12173 l 5702 -12136 l 5677 -12097 l
 5655 -12057 l 5635 -12015 l 5619 -11972 l 5605 -11928 l 5595 -11883 l
 5587 -11838 l 5582 -11792 l 5581 -11746 l 5581 -8061 l 5582 -8015 l
 5587 -7969 l 5595 -7924 l 5605 -7879 l 5619 -7835 l 5842 -7190 l
 5844 -7185 l 5861 -7142 l 5881 -7100 l 5903 -7060 l 5928 -7021 l
 5956 -6984 l 5986 -6949 l 6018 -6916 l 6052 -6886 l 6089 -6857 l
 6127 -6832 l 6166 -6808 l 6208 -6788 l 6250 -6770 l 6294 -6755 l
 6338 -6743 l 6383 -6734 l 6429 -6728 l 6475 -6725 l 6521 -6726 l
 6567 -6729 l 6613 -6735 l 6658 -6744 l 6702 -6757 l 6746 -6772 l
 6788 -6790 l 6829 -6811 l 6869 -6835 l 6906 -6861 l 6943 -6889 l
 6977 -6920 l 7009 -6954 l 7038 -6989 l 7065 -7026 l 7090 -7065 l
 7112 -7105 l 7132 -7147 l 7148 -7190 l 7162 -7234 l 7172 -7279 l
 7180 -7324 l 7185 -7370 l 7186 -7416 l 7186 -11746 l 7187 -11772 l
 7190 -11818 l 7196 -11864 l 7206 -11909 l 7218 -11953 l 7233 -11997 l
 7251 -12039 l 7272 -12080 l 7296 -12119 l 7322 -12157 l 7351 -12193 l
 7381 -12228 l 7415 -12260 l 7450 -12289 l 7487 -12316 l 7526 -12341 l
 7566 -12363 l 7608 -12383 l 7651 -12399 l 7695 -12413 l 7740 -12423 l
 7785 -12431 l 7831 -12436 l 7877 -12437 l 8061 -12437 l 8087 -12437 l
 8133 -12433 l 8178 -12427 l 8223 -12418 l 8268 -12405 l 8311 -12390 l
 8354 -12372 l 8395 -12351 l 8434 -12328 l 8472 -12301 l 8508 -12273 l
 8542 -12242 l 8574 -12209 l 8604 -12173 l 8631 -12136 l 8656 -12097 l
 8678 -12057 l 8697 -12015 l 8714 -11972 l 8727 -11928 l 8738 -11883 l
 8746 -11838 l 8750 -11792 l 8752 -11746 l 8752 -3892 l 8752 -3881 l
 8754 -3835 l 8760 -3790 l 8768 -3744 l 8779 -3700 l 8793 -3656 l
 8811 -3613 l 8831 -3572 l 8853 -3532 l 8879 -3493 l 8906 -3456 l
 8937 -3422 l 8969 -3389 l 9173 -3197 l 9180 -3190 l 9212 -3157 l
 9242 -3122 l 9269 -3084 l 9294 -3046 l 9316 -3005 l 9335 -2963 l
 9352 -2920 l 9365 -2876 l 9376 -2832 l 9384 -2786 l 9388 -2740 l
 9390 -2694 l 9390 -253 l 9389 -227 l 9386 -181 l 9380 -135 l
 9371 -90 l 9358 -46 l 9343 -2 l 9325 39 l 9304 80 l
 9280 119 l 9254 157 l 9226 193 l 9195 228 l 9161 260 l
 9126 289 l 9089 316 l 9050 341 l 9010 363 l 8968 383 l
 8925 399 l 8881 413 l 8836 423 l 8791 431 l 8745 436 l
 8699 437 l 8501 437 l 8475 437 l 8429 433 l 8383 427 l
 8338 418 l 8294 405 l 8250 390 l 8208 372 l 8167 351 l
 8128 328 l 8090 301 l 8054 273 l 8019 242 l 7987 209 l
 7958 173 l 7931 136 l 7906 97 l 7884 57 l 7864 15 l
 7848 -27 l 7834 -71 l 7824 -116 l 7816 -161 l 7811 -207 l
 7810 -253 l 7810 -2487 l 7810 -2494 l 7812 -2540 l 7817 -2586 l
 7825 -2631 l 8078 -3817 l 8079 -3824 l 8087 -3869 l 8091 -3915 l
 8093 -3961 l 8093 -11746 l 8093 -11772 l 8097 -11818 l 8103 -11864 l
 8112 -11909 l 8125 -11953 l 8140 -11997 l 8158 -12039 l 8179 -12080 l
 8202 -12119 l 8229 -12157 l 8257 -12193 l 8288 -12228 l 8321 -12260 l
 8357 -12289 l 8394 -12316 l 8432 -12341 l 8473 -12363 l 8515 -12383 l
 8558 -12399 l 8602 -12413 l 8647 -12423 l 8692 -12431 l 8738 -12436 l
 8784 -12437 l 8940 -12437 l 8966 -12437 l 9012 -12433 l 9057 -12427 l
 9102 -12418 l 9147 -12405 l 9190 -12390 l 9232 -12372 l 9273 -12351 l
 9313 -12328 l 9351 -12301 l 9387 -12273 l 9421 -12242 l 9453 -12209 l
 9483 -12173 l 9510 -12136 l 9535 -12097 l 9557 -12057 l 9576 -12015 l
 9593 -11972 l 9606 -11928 l 9617 -11883 l 9625 -11838 l 9629 -11792 l
 9631 -11746 l 9631 -3662 l 9631 -3632 l 9635 -3586 l 9641 -3541 l
 9651 -3496 l 9663 -3452 l 9679 -3408 l 9697 -3366 l 9775 -3202 l
 9787 -3175 l 9803 -3132 l 9817 -3088 l 9828 -3043 l 9835 -2998 l
 9840 -2952 l 9841 -2906 l 9841 -253 l 9842 -227 l 9845 -181 l
 9851 -135 l 9861 -90 l 9873 -46 l 9888 -2 l 9906 39 l
 9927 80 l 9951 119 l 9977 157 l 10006 193 l 10037 228 l
 10070 260 l 10105 289 l 10142 316 l 10181 341 l 10221 363 l
 10263 383 l 10306 399 l 10350 413 l 10395 423 l 10440 431 l
 10486 436 l 10532 437 l 10945 437 l 10971 437 l 11017 433 l
 11062 427 l 11107 418 l 11152 405 l 11195 390 l 11238 372 l
 11279 351 l 11318 328 l 11356 301 l 11392 273 l 11426 242 l
 11458 209 l 11488 173 l 11515 136 l 11540 97 l 11562 57 l
 11581 15 l 11598 -27 l 11611 -71 l 11622 -116 l 11630 -161 l
 11634 -207 l 11636 -253 l 11636 -11746 l 11635 -11772 l 11632 -11818 l
 11626 -11864 l 11617 -11909 l 11604 -11953 l 11589 -11997 l 11571 -12039 l
 11550 -12080 l 11526 -12119 l 11500 -12157 l 11472 -12193 l 11441 -12228 l
 11407 -12260 l 11372 -12289 l 11335 -12316 l 11296 -12341 l 11256 -12363 l
 11214 -12383 l 11171 -12399 l 11127 -12413 l 11082 -12423 l 11037 -12431 l
 10991 -12436 l 10945 -12437 l 10761 -12437 l 10735 -12437 l 10689 -12433 l
 10644 -12427 l 10599 -12418 l 10554 -12405 l 10511 -12390 l 10468 -12372 l
 10427 -12351 l 10388 -12328 l 10350 -12301 l 10314 -12273 l 10280 -12242 l
 10248 -12209 l 10218 -12173 l 10191 -12136 l 10166 -12097 l 10144 -12057 l
 10125 -12015 l 10108 -11972 l 10094 -11928 l 10084 -11883 l 10076 -11838 l
 10072 -11792 l 10070 -11746 l 10070 -3270 l 10070 -3256 l 10067 -3210 l
 9816 -313 l 9814 -293 l 9813 -247 l 9815 -201 l 9820 -155 l
 9828 -110 l 9839 -65 l 9853 -21 l 9870 20 l 9890 62 l
 9912 102 l 9937 141 l 9965 178 l 9995 213 l 10027 246 l
 10061 276 l 10097 305 l 10136 331 l 10175 354 l 10216 374 l
 10259 392 l 10303 407 l 10347 419 l 10392 428 l 10438 434 l
 10484 437 l 10530 437 l 10576 433 l 10621 427 l 10667 418 l
 10711 405 l 10754 390 l 10797 372 l 10838 351 l 10877 328 l
 10915 301 l 10951 273 l 10985 242 l 11017 209 l 11047 173 l
 11074 136 l 11099 97 l 11121 57 l 11140 15 l 11157 -27 l
 11171 -71 l 11181 -116 l 11189 -161 l 11193 -207 l 11195 -253 l
 11195 -11746 l 11195 -11772 l 11191 -11818 l 11185 -11864 l 11176 -11909 l
 11163 -11953 l 11148 -11997 l 11130 -12039 l 11109 -12080 l 11085 -12119 l
 11059 -12157 l 11031 -12193 l 11000 -12228 l 10967 -12260 l 10931 -12289 l
 10894 -12316 l 10855 -12341 l 10815 -12363 l 10773 -12383 l 10730 -12399 l
 10686 -12413 l 10641 -12423 l 10596 -12431 l 10550 -12436 l 10504 -12437 l
 9882 -12437 l 9856 -12437 l 9810 -12433 l 9765 -12427 l 9720 -12418 l
 9675 -12405 l 9632 -12390 l 9590 -12372 l 9548 -12351 l 9509 -12328 l
 9471 -12301 l 9435 -12273 l 9401 -12242 l 9369 -12209 l 9339 -12173 l
 9312 -12136 l 9287 -12097 l 9265 -12057 l 9246 -12015 l 9229 -11972 l
 9216 -11928 l 9205 -11883 l 9197 -11838 l 9193 -11792 l 9191 -11746 l
 9191 -3800 l 9191 -3776 l 9188 -3730 l 9182 -3684 l 9172 -3639 l
 8957 -2740 l 8952 -2716 l 8945 -2671 l 8940 -2625 l 8938 -2579 l
 8938 -253 l 8939 -227 l 8942 -181 l 8949 -135 l 8958 -90 l
 8970 -46 l 8985 -2 l 9004 39 l 9024 80 l 9048 119 l
 9074 157 l 9103 193 l 9134 228 l 9167 260 l 9202 289 l
 9239 316 l 9278 341 l 9319 363 l 9360 383 l 9403 399 l
 9447 413 l 9492 423 l 9538 431 l 9583 436 l 9629 437 l
 10063 437 l 10089 437 l 10135 433 l 10181 427 l 10226 418 l
 10270 405 l 10313 390 l 10356 372 l 10397 351 l 10436 328 l
 10474 301 l 10510 273 l 10545 242 l 10576 209 l 10606 173 l
 10633 136 l 10658 97 l 10680 57 l 10700 15 l 10716 -27 l
 10730 -71 l 10740 -116 l 10748 -161 l 10753 -207 l 10754 -253 l
 10754 -11746 l 10754 -11772 l 10750 -11818 l 10744 -11864 l 10735 -11909 l
 10722 -11953 l 10707 -11997 l 10689 -12039 l 10668 -12080 l 10645 -12119 l
 10618 -12157 l 10590 -12193 l 10559 -12228 l 10526 -12260 l 10490 -12289 l
 10453 -12316 l 10414 -12341 l 10374 -12363 l 10332 -12383 l 10289 -12399 l
 10245 -12413 l 10200 -12423 l 10155 -12431 l 10109 -12436 l 10063 -12437 l
 8564 -12437 l 8538 -12437 l 8492 -12433 l 8447 -12427 l 8402 -12418 l
 8357 -12405 l 8314 -12390 l 8271 -12372 l 8230 -12351 l 8191 -12328 l
 8153 -12301 l 8117 -12273 l 8083 -12242 l 8051 -12209 l 8021 -12173 l
 7994 -12136 l 7969 -12097 l 7947 -12057 l 7928 -12015 l 7911 -11972 l
 7898 -11928 l 7887 -11883 l 7879 -11838 l 7875 -11792 l 7873 -11746 l
 7873 -3961 l 7873 -3948 l 7871 -3902 l 7865 -3856 l 7857 -3811 l
 7601 -2660 l 7598 -2647 l 7590 -2602 l 7586 -2556 l 7584 -2510 l
 7584 -253 l 7584 -227 l 7580 -181 l 7574 -135 l 7565 -90 l
 7552 -46 l 7537 -2 l 7519 39 l 7498 80 l 7475 119 l
 7448 157 l 7420 193 l 7389 228 l 7356 260 l 7320 289 l
 7283 316 l 7244 341 l 7204 363 l 7162 383 l 7119 399 l
 7075 413 l 7030 423 l 6985 431 l 6939 436 l 6893 437 l
 6695 437 l 6669 437 l 6623 433 l 6578 427 l 6533 418 l
 6488 405 l 6445 390 l 6402 372 l 6361 351 l 6322 328 l
 6284 301 l 6248 273 l 6214 242 l 6182 209 l 6152 173 l
 6125 136 l 6100 97 l 6078 57 l 6059 15 l 6042 -27 l
 6029 -71 l 6018 -116 l 6010 -161 l 6006 -207 l 6004 -253 l
 6004 -2906 l 6006 -2951 l 6010 -2997 l 6018 -3042 l 6028 -3087 l
 6042 -3131 l 6139 -3414 l 6152 -3457 l 6163 -3501 l 6170 -3547 l
 6175 -3593 l 6177 -3639 l 6177 -6748 l 6177 -6758 l 6179 -6804 l
 6267 -7890 l 6267 -7900 l 6269 -7946 l 6269 -11746 l 6268 -11772 l
 6265 -11818 l 6259 -11864 l 6249 -11909 l 6237 -11953 l 6222 -11997 l
 6204 -12039 l 6183 -12080 l 6159 -12119 l 6133 -12157 l 6105 -12193 l
 6074 -12228 l 6040 -12260 l 6005 -12289 l 5968 -12316 l 5929 -12341 l
 5889 -12363 l 5847 -12383 l 5804 -12399 l 5760 -12413 l 5715 -12423 l
 5670 -12431 l 5624 -12436 l 5578 -12437 l 5355 -12437 l 5329 -12437 l
 5283 -12433 l 5237 -12427 l 5192 -12418 l 5148 -12405 l 5104 -12390 l
 5062 -12372 l 5021 -12351 l 4981 -12328 l 4943 -12301 l 4907 -12273 l
 4873 -12242 l 4841 -12209 l 4812 -12173 l 4784 -12136 l 4760 -12097 l
 4737 -12057 l 4718 -12015 l 4702 -11972 l 4688 -11928 l 4677 -11883 l
 4670 -11838 l 4665 -11792 l 4664 -11746 l 4664 -8130 l 4664 -8119 l
 4666 -8073 l 4671 -8027 l 4680 -7982 l 4691 -7937 l 4705 -7893 l
 4723 -7851 l 4743 -7809 l 4765 -7769 l 4791 -7731 l 4818 -7694 l
 4849 -7659 l 5344 -7127 l 5352 -7118 l 5382 -7083 l 5409 -7046 l
 5434 -7007 l 5456 -6967 l 5475 -6925 l 5491 -6882 l 5505 -6838 l
 5516 -6793 l 5523 -6748 l 5528 -6702 l 5529 -6656 l 5529 -253 l
 5529 -227 l 5526 -181 l 5519 -135 l 5510 -90 l 5498 -46 l
 5483 -2 l 5464 39 l 5444 80 l 5420 119 l 5394 157 l
 5365 193 l 5334 228 l 5301 260 l 5266 289 l 5229 316 l
 5190 341 l 5149 363 l 5108 383 l 5065 399 l 5021 413 l
 4976 423 l 4930 431 l 4885 436 l 4839 437 l 4638 437 l
 4613 437 l 4567 433 l 4521 427 l 4476 418 l 4431 405 l
 4388 390 l 4346 372 l 4305 351 l 4265 328 l 4227 301 l
 4191 273 l 4157 242 l 4125 209 l 4095 173 l 4068 136 l
 4043 97 l 4021 57 l 4002 15 l 3985 -27 l 3972 -71 l
 3961 -116 l 3954 -161 l 3949 -207 l 3947 -253 l 3947 -6633 l
 3948 -6665 l 3952 -6710 l 3958 -6756 l 3968 -6801 l 3981 -6845 l
 3997 -6889 l 4385 -7864 l 4396 -7894 l 4410 -7938 l 4421 -7983 l
 4428 -8028 l 4433 -8074 l 4434 -8120 l 4434 -11746 l 4435 -11772 l
 4438 -11818 l 4444 -11864 l 4454 -11909 l 4466 -11953 l 4481 -11997 l
 4499 -12039 l 4520 -12080 l 4544 -12119 l 4570 -12157 l 4599 -12193 l
 4630 -12228 l 4663 -12260 l 4698 -12289 l 4735 -12316 l 4774 -12341 l
 4814 -12363 l 4856 -12383 l 4899 -12399 l 4943 -12413 l 4988 -12423 l
 5033 -12431 l 5079 -12436 l 5125 -12437 l 5349 -12437 l 5374 -12437 l
 5420 -12433 l 5466 -12427 l 5511 -12418 l 5556 -12405 l 5599 -12390 l
 5641 -12372 l 5682 -12351 l 5722 -12328 l 5760 -12301 l 5796 -12273 l
 5830 -12242 l 5862 -12209 l 5892 -12173 l 5919 -12136 l 5944 -12097 l
 5966 -12057 l 5985 -12015 l 6002 -11972 l 6015 -11928 l 6026 -11883 l
 6033 -11838 l 6038 -11792 l 6040 -11746 l 6040 -7992 l 6039 -7965 l
 6036 -7919 l 6029 -7874 l 6020 -7829 l 6008 -7784 l 5992 -7741 l
 5974 -7699 l 5953 -7657 l 5930 -7618 l 5903 -7580 l 5875 -7544 l
 5844 -7510 l 5811 -7478 l 5775 -7448 l 5738 -7421 l 5699 -7396 l
 5659 -7374 l 5617 -7355 l 5574 -7339 l 5530 -7325 l 5485 -7314 l
 5440 -7307 l 5394 -7302 l 5348 -7301 l 5302 -7302 l 5256 -7307 l
 4574 -7399 l 4549 -7403 l 4504 -7412 l 4460 -7425 l 4416 -7440 l
 4374 -7458 l 4333 -7479 l 4293 -7503 l 4255 -7529 l 4219 -7557 l
 4185 -7588 l 4153 -7621 l 4124 -7657 l 4096 -7694 l 4072 -7733 l
 4050 -7773 l 4030 -7815 l 4014 -7858 l 4000 -7902 l 3989 -7947 l
 3982 -7992 l 3977 -8038 l 3976 -8084 l 3976 -11746 l 3975 -11772 l
 3972 -11818 l 3966 -11864 l 3956 -11909 l 3944 -11953 l 3929 -11997 l
 3911 -12039 l 3890 -12080 l 3866 -12119 l 3840 -12157 l 3811 -12193 l
 3780 -12228 l 3747 -12260 l 3712 -12289 l 3675 -12316 l 3636 -12341 l
 3596 -12363 l 3554 -12383 l 3511 -12399 l 3467 -12413 l 3422 -12423 l
 3377 -12431 l 3331 -12436 l 3285 -12437 l 3061 -12437 l 3035 -12437 l
 2990 -12433 l 2944 -12427 l 2899 -12418 l 2854 -12405 l 2811 -12390 l
 2769 -12372 l 2728 -12351 l 2688 -12328 l 2650 -12301 l 2614 -12273 l
 2580 -12242 l 2548 -12209 l 2518 -12173 l 2491 -12136 l 2466 -12097 l
 2444 -12057 l 2425 -12015 l 2408 -11972 l 2395 -11928 l 2384 -11883 l
 2376 -11838 l 2372 -11792 l 2370 -11746 l 2370 -7669 l 2370 -7664 l
 2365 -7053 l 2365 -7047 l 2365 -253 l 2366 -227 l 2369 -181 l
 2375 -135 l 2385 -90 l 2397 -46 l 2412 -2 l 2430 39 l
 2451 80 l 2475 119 l 2501 157 l 2530 193 l 2561 228 l
 2594 260 l 2629 289 l 2666 316 l 2705 341 l 2745 363 l
 2787 383 l 2830 399 l 2874 413 l 2919 423 l 2965 431 l
 3010 436 l 3056 437 l 3708 437 l 3734 437 l 3780 433 l
 3826 427 l 3871 418 l 3915 405 l 3959 390 l 4001 372 l
 4042 351 l 4082 328 l 4120 301 l 4156 273 l 4190 242 l
 4222 209 l 4252 173 l 4279 136 l 4303 97 l 4326 57 l
 4345 15 l 4361 -27 l 4375 -71 l 4386 -116 l 4393 -161 l
 4398 -207 l 4399 -253 l 4399 -6610 l 4400 -6640 l 4404 -6686 l
 4410 -6731 l 4420 -6777 l 4432 -6821 l 4448 -6864 l 4844 -7866 l
 4855 -7894 l 4869 -7938 l 4879 -7983 l 4887 -8028 l 4891 -8074 l
 4893 -8120 l 4893 -11746 l 4893 -11772 l 4897 -11818 l 4903 -11864 l
 4912 -11909 l 4925 -11953 l 4940 -11997 l 4958 -12039 l 4979 -12080 l
 5002 -12119 l 5029 -12157 l 5057 -12193 l 5088 -12228 l 5121 -12260 l
 5157 -12289 l 5194 -12316 l 5233 -12341 l 5273 -12363 l 5315 -12383 l
 5358 -12399 l 5402 -12413 l 5447 -12423 l 5492 -12431 l 5538 -12436 l
 5584 -12437 l 5807 -12437 l 5833 -12437 l 5879 -12433 l 5925 -12427 l
 5970 -12418 l 6014 -12405 l 6058 -12390 l 6100 -12372 l 6141 -12351 l
 6181 -12328 l 6218 -12301 l 6255 -12273 l 6289 -12242 l 6321 -12209 l
 6350 -12173 l 6378 -12136 l 6402 -12097 l 6424 -12057 l 6444 -12015 l
 6460 -11972 l 6474 -11928 l 6484 -11883 l 6492 -11838 l 6497 -11792 l
 6498 -11746 l 6498 -7877 l 6497 -7841 l 6493 -7795 l 6386 -6887 l
 6383 -6852 l 6381 -6806 l 6381 -3731 l 6380 -3697 l 6376 -3651 l
 6369 -3605 l 6241 -2912 l 6236 -2878 l 6231 -2832 l 6230 -2786 l
 6230 -253 l 6231 -218 l 6232 -187 l 6230 -141 l 6226 -96 l
 6219 -50 l 6209 -5 l 6195 38 l 6179 81 l 6160 123 l
 6138 164 l 6114 203 l 6087 240 l 6057 275 l 6026 309 l
 5992 340 l 5956 369 l 5918 395 l 5879 419 l 5838 440 l
 5796 459 l 5752 474 l 5708 487 l 5663 497 l 5618 503 l
 5572 507 l 5526 507 l 5480 505 l 5434 499 l 5389 491 l
 5344 479 l 5300 464 l 5258 447 l 5216 427 l 5176 404 l
 5138 378 l 5102 350 l 5067 320 l 5035 287 l 5004 252 l
 4977 216 l 4951 177 l 4928 137 l 4908 96 l 4891 53 l
 4877 9 l 4866 -35 l 4857 -80 l 4852 -126 l 4850 -172 l
 4851 -218 l 4851 -253 l 4851 -6587 l 4851 -6589 l 4853 -6635 l
 4858 -6681 l 4866 -6726 l 4876 -6771 l 4890 -6815 l 4907 -6858 l
 4926 -6900 l 4949 -6940 l 4973 -6979 l 5001 -7016 l 5031 -7051 l
 5063 -7084 l 5097 -7115 l 5565 -7510 l 5567 -7511 l 5601 -7542 l
 5633 -7575 l 5662 -7611 l 5690 -7648 l 5714 -7687 l 5736 -7727 l
 5756 -7769 l 5772 -7812 l 5786 -7856 l 5796 -7901 l 5804 -7946 l
 5809 -7992 l 5810 -8038 l 5810 -11746 l 5810 -11772 l 5806 -11818 l
 5800 -11864 l 5791 -11909 l 5779 -11953 l 5763 -11997 l 5745 -12039 l
 5724 -12080 l 5701 -12119 l 5675 -12157 l 5646 -12193 l 5615 -12228 l
 5582 -12260 l 5547 -12289 l 5509 -12316 l 5471 -12341 l 5430 -12363 l
 5388 -12383 l 5345 -12399 l 5301 -12413 l 5257 -12423 l 5211 -12431 l
 5165 -12436 l 5119 -12437 l 4896 -12437 l 4870 -12437 l 4824 -12433 l
 4778 -12427 l 4733 -12418 l 4689 -12405 l 4646 -12390 l 4603 -12372 l
 4562 -12351 l 4523 -12328 l 4485 -12301 l 4449 -12273 l 4415 -12242 l
 4383 -12209 l 4353 -12173 l 4326 -12136 l 4301 -12097 l 4279 -12057 l
 4260 -12015 l 4243 -11972 l 4229 -11928 l 4219 -11883 l 4211 -11838 l
 4206 -11792 l 4205 -11746 l 4205 -8107 l 4204 -8068 l 4200 -8022 l
 4193 -7977 l 4182 -7932 l 4169 -7888 l 4153 -7845 l 3773 -6918 l
 3759 -6882 l 3746 -6838 l 3735 -6793 l 3728 -6748 l 3723 -6702 l
 3721 -6656 l 3721 -253 l 3722 -227 l 3725 -181 l 3731 -135 l
 3741 -90 l 3753 -46 l 3768 -2 l 3786 39 l 3807 80 l
 3831 119 l 3857 157 l 3886 193 l 3917 228 l 3950 260 l
 3985 289 l 4022 316 l 4061 341 l 4102 363 l 4143 383 l
 4186 399 l 4230 413 l 4275 423 l 4321 431 l 4366 436 l
 4412 437 l 4613 437 l 4638 437 l 4684 433 l 4730 427 l
 4775 418 l 4819 405 l 4863 390 l 4905 372 l 4946 351 l
 4986 328 l 5024 301 l 5060 273 l 5094 242 l 5126 209 l
 5156 173 l 5183 136 l 5208 97 l 5230 57 l 5249 15 l
 5265 -27 l 5279 -71 l 5290 -116 l 5297 -161 l 5302 -207 l
 5303 -253 l 5303 -6633 l 5305 -6671 l 5309 -6717 l 5316 -6762 l
 5326 -6807 l 5339 -6851 l 5355 -6895 l 5374 -6937 l 5395 -6977 l
 5420 -7016 l 5447 -7054 l 5960 -7722 l 5968 -7733 l 5998 -7768 l
 6030 -7800 l 6065 -7831 l 6101 -7859 l 6139 -7885 l 6179 -7909 l
 6220 -7929 l 6263 -7947 l 6306 -7962 l 6351 -7974 l 6396 -7983 l
 6442 -7989 l 6487 -7992 l 6534 -7991 l 6579 -7988 l 6625 -7982 l
 6670 -7972 l 6715 -7960 l 6758 -7945 l 6800 -7927 l 6841 -7906 l
 6881 -7882 l 6919 -7856 l 6955 -7827 l 6989 -7797 l 7021 -7763 l
 7051 -7728 l 7078 -7691 l 7103 -7652 l 7125 -7612 l 7144 -7570 l
 7161 -7527 l 7174 -7483 l 7185 -7438 l 7193 -7393 l 7197 -7347 l
 7199 -7301 l 7199 -3915 l 7199 -3893 l 7202 -3847 l 7208 -3802 l
 7217 -3757 l 7229 -3712 l 7244 -3669 l 7262 -3626 l 7283 -3585 l
 7306 -3545 l 7332 -3507 l 7360 -3471 l 7391 -3437 l 7843 -2965 l
 7858 -2950 l 7888 -2914 l 7915 -2877 l 7940 -2838 l 7962 -2798 l
 7981 -2756 l 7998 -2713 l 8011 -2669 l 8022 -2624 l 8029 -2579 l
 8034 -2533 l 8036 -2487 l 8036 -253 l 8036 -227 l 8039 -181 l
 8046 -135 l 8055 -90 l 8067 -46 l 8083 -2 l 8101 39 l
 8122 80 l 8145 119 l 8171 157 l 8200 193 l 8231 228 l
 8264 260 l 8299 289 l 8336 316 l 8375 341 l 8416 363 l
 8457 383 l 8500 399 l 8544 413 l 8589 423 l 8635 431 l
 8681 436 l 8727 437 l 8925 437 l 8951 437 l 8996 433 l
 9042 427 l 9087 418 l 9132 405 l 9175 390 l 9217 372 l
 9258 351 l 9298 328 l 9336 301 l 9372 273 l 9406 242 l
 9438 209 l 9468 173 l 9495 136 l 9520 97 l 9542 57 l
 9561 15 l 9578 -27 l 9591 -71 l 9602 -116 l 9609 -161 l
 9614 -207 l 9616 -253 l 9616 -2786 l 9615 -2825 l 9610 -2871 l
 9603 -2917 l 9593 -2962 l 9434 -3570 l 9425 -3608 l 9417 -3653 l
 9413 -3699 l 9411 -3745 l 9411 -11746 l 9411 -11772 l 9415 -11818 l
 9421 -11864 l 9430 -11909 l 9443 -11953 l 9458 -11997 l 9476 -12039 l
 9497 -12080 l 9521 -12119 l 9547 -12157 l 9575 -12193 l 9606 -12228 l
 9639 -12260 l 9675 -12289 l 9712 -12316 l 9751 -12341 l 9791 -12363 l
 9833 -12383 l 9876 -12399 l 9920 -12413 l 9965 -12423 l 10010 -12431 l
 10056 -12436 l 10102 -12437 l 10284 -12437 l 10309 -12437 l 10355 -12433 l
 10401 -12427 l 10446 -12418 l 10490 -12405 l 10534 -12390 l 10576 -12372 l
 10617 -12351 l 10657 -12328 l 10695 -12301 l 10731 -12273 l 10765 -12242 l
 10797 -12209 l 10827 -12173 l 10854 -12136 l 10879 -12097 l 10901 -12057 l
 10920 -12015 l 10937 -11972 l 10950 -11928 l 10961 -11883 l 10968 -11838 l
 10973 -11792 l 10975 -11746 l 10975 -253 l 10974 -227 l 10971 -181 l
 10964 -135 l 10955 -90 l 10943 -46 l 10928 -2 l 10909 39 l
 10889 80 l 10865 119 l 10839 157 l 10810 193 l 10779 228 l
 10746 260 l 10711 289 l 10674 316 l 10635 341 l 10594 363 l
 10553 383 l 10510 399 l 10466 413 l 10421 423 l 10375 431 l
 10330 436 l 10284 437 l 8952 437 l 8926 437 l 8880 433 l
 8835 427 l 8790 418 l 8745 405 l 8702 390 l 8660 372 l
 8619 351 l 8579 328 l 8541 301 l 8505 273 l 8471 242 l
 8439 209 l 8409 173 l 8382 136 l 8357 97 l 8335 57 l
 8316 15 l 8299 -27 l 8286 -71 l 8275 -116 l 8267 -161 l
 8263 -207 l 8261 -253 l 8261 -2510 l 8261 -2518 l 8263 -2564 l
 8269 -2610 l 8277 -2656 l 8517 -3770 l 8518 -3778 l 8526 -3823 l
 8531 -3869 l 8532 -3915 l 8532 -11746 l 8533 -11772 l 8536 -11818 l
 8542 -11864 l 8552 -11909 l 8564 -11953 l 8579 -11997 l 8597 -12039 l
 8618 -12080 l 8642 -12119 l 8668 -12157 l 8697 -12193 l 8728 -12228 l
 8761 -12260 l 8796 -12289 l 8833 -12316 l 8872 -12341 l 8912 -12363 l
 8954 -12383 l 8997 -12399 l 9041 -12413 l 9086 -12423 l 9131 -12431 l
 9177 -12436 l 9223 -12437 l 9843 -12437 l 9869 -12437 l 9914 -12433 l
 9960 -12427 l 10005 -12418 l 10050 -12405 l 10093 -12390 l 10135 -12372 l
 10176 -12351 l 10216 -12328 l 10254 -12301 l 10290 -12273 l 10324 -12242 l
 10356 -12209 l 10386 -12173 l 10413 -12136 l 10438 -12097 l 10460 -12057 l
 10479 -12015 l 10496 -11972 l 10509 -11928 l 10520 -11883 l 10528 -11838 l
 10532 -11792 l 10534 -11746 l 10534 -253 l 10534 -233 l 10537 -187 l
 10540 -142 l 10539 -96 l 10536 -50 l 10530 -5 l 10521 40 l
 10508 84 l 10493 127 l 10475 170 l 10454 211 l 10431 250 l
 10404 288 l 10376 324 l 10345 358 l 10312 390 l 10277 420 l
 10239 447 l 10201 472 l 10160 494 l 10118 514 l 10075 530 l
 10031 544 l 9987 555 l 9941 562 l 9895 567 l 9849 568 l
 9803 567 l 9758 562 l 9712 555 l 9667 544 l 9623 531 l
 9580 514 l 9538 495 l 9498 473 l 9459 448 l 9422 421 l
 9387 391 l 9354 359 l 9323 325 l 9294 289 l 9268 251 l
 9244 212 l 9223 171 l 9205 128 l 9190 85 l 9177 40 l
 9168 -4 l 9162 -49 l 9158 -95 l 9158 -141 l 9161 -187 l
 9163 -207 l 9164 -253 l 9164 -2644 l 9164 -2673 l 9160 -2719 l
 9153 -2765 l 8982 -3725 l 8978 -3754 l 8973 -3800 l 8972 -3846 l
 8972 -11746 l 8971 -11772 l 8968 -11818 l 8962 -11864 l 8952 -11909 l
 8940 -11953 l 8925 -11997 l 8907 -12039 l 8886 -12080 l 8862 -12119 l
 8836 -12157 l 8807 -12193 l 8776 -12228 l 8743 -12260 l 8708 -12289 l
 8671 -12316 l 8632 -12341 l 8591 -12363 l 8550 -12383 l 8507 -12399 l
 8463 -12413 l 8418 -12423 l 8372 -12431 l 8327 -12436 l 8281 -12437 l
 8125 -12437 l 8099 -12437 l 8053 -12433 l 8007 -12427 l 7962 -12418 l
 7918 -12405 l 7874 -12390 l 7832 -12372 l 7791 -12351 l 7751 -12328 l
 7713 -12301 l 7677 -12273 l 7643 -12242 l 7611 -12209 l 7582 -12173 l
 7554 -12136 l 7530 -12097 l 7508 -12057 l 7488 -12015 l 7472 -11972 l
 7458 -11928 l 7447 -11883 l 7440 -11838 l 7435 -11792 l 7434 -11746 l
 7434 -3938 l 7433 -3908 l 7430 -3862 l 7423 -3817 l 7413 -3772 l
 7153 -2723 l 7146 -2693 l 7139 -2648 l 7134 -2602 l 7133 -2556 l
 7133 -253 l 7133 -227 l 7136 -181 l 7143 -135 l 7152 -90 l
 7164 -46 l 7180 -2 l 7198 39 l 7219 80 l 7242 119 l
 7268 157 l 7297 193 l 7328 228 l 7361 260 l 7396 289 l
 7434 316 l 7472 341 l 7513 363 l 7555 383 l 7598 399 l
 7642 413 l 7686 423 l 7732 431 l 7778 436 l 7824 437 l
 8022 437 l 8048 437 l 8094 433 l 8139 427 l 8184 418 l
 8229 405 l 8272 390 l 8314 372 l 8356 351 l 8395 328 l
 8433 301 l 8469 273 l 8503 242 l 8535 209 l 8565 173 l
 8592 136 l 8617 97 l 8639 57 l 8658 15 l 8675 -27 l
 8688 -71 l 8699 -116 l 8707 -161 l 8711 -207 l 8713 -253 l
 8713 -2556 l 8713 -2563 l 8711 -2609 l 8706 -2655 l 8698 -2700 l
 8686 -2745 l 8672 -2789 l 8655 -2832 l 8636 -2873 l 8613 -2913 l
 8588 -2952 l 8561 -2989 l 8530 -3024 l 8498 -3057 l 8464 -3087 l
 8427 -3115 l 8389 -3141 l 8349 -3164 l 8308 -3185 l 8266 -3203 l
 8222 -3217 l 8178 -3229 l 8132 -3238 l 8087 -3244 l 8041 -3247 l
 7995 -3247 l 7949 -3243 l 7903 -3237 l 7858 -3227 l 7814 -3215 l
 7770 -3200 l 7728 -3182 l 7687 -3161 l 6794 -2666 l 6787 -2662 l
 6746 -2642 l 6704 -2624 l 6660 -2609 l 6616 -2597 l 6571 -2588 l
 6525 -2582 l 6479 -2579 l 6433 -2580 l 6387 -2583 l 6341 -2589 l
 6296 -2599 l 6252 -2611 l 6208 -2626 l 6166 -2644 l 6125 -2665 l
 6085 -2689 l 6047 -2715 l 6011 -2743 l 5977 -2774 l 5945 -2808 l
 5916 -2843 l 5888 -2880 l 5864 -2919 l 5842 -2959 l 5822 -3001 l
 5806 -3044 l 5792 -3088 l 5782 -3133 l 5774 -3178 l 5769 -3224 l
 5768 -3270 l 5768 -6679 l 5768 -6686 l 5766 -6732 l 5761 -6777 l
 5753 -6823 l 5742 -6867 l 5728 -6911 l 5392 -7852 l 5390 -7858 l
 5376 -7902 l 5365 -7947 l 5358 -7992 l 5353 -8038 l 5352 -8084 l
 5352 -11746 l 5352 -11772 l 5355 -11818 l 5362 -11864 l 5371 -11909 l
 5383 -11953 l 5399 -11997 l 5417 -12039 l 5438 -12080 l 5461 -12119 l
 5487 -12157 l 5516 -12193 l 5547 -12228 l 5580 -12260 l 5615 -12289 l
 5652 -12316 l 5691 -12341 l 5732 -12363 l 5773 -12383 l 5816 -12399 l
 5860 -12413 l 5905 -12423 l 5951 -12431 l 5997 -12436 l 6043 -12437 l
 6266 -12437 l 6292 -12437 l 6338 -12433 l 6383 -12427 l 6428 -12418 l
 6473 -12405 l 6516 -12390 l 6559 -12372 l 6600 -12351 l 6639 -12328 l
 6677 -12301 l 6713 -12273 l 6747 -12242 l 6779 -12209 l 6809 -12173 l
 6836 -12136 l 6861 -12097 l 6883 -12057 l 6902 -12015 l 6919 -11972 l
 6932 -11928 l 6943 -11883 l 6951 -11838 l 6955 -11792 l 6957 -11746 l
 6957 -7669 l 6957 -7669 l 6955 -7623 l 6951 -7577 l 6943 -7531 l
 6932 -7487 l 6919 -7443 l 6828 -7182 l 6828 -7181 l 6814 -7137 l
 6804 -7093 l 6796 -7047 l 6791 -7001 l 6790 -6955 l 6790 -3846 l
 6790 -3826 l 6787 -3780 l 6684 -2709 l 6683 -2690 l 6681 -2644 l
 6681 -253 l 6681 -227 l 6678 -181 l 6671 -135 l 6662 -90 l
 6650 -46 l 6634 -2 l 6616 39 l 6595 80 l 6572 119 l
 6546 157 l 6517 193 l 6486 228 l 6453 260 l 6418 289 l
 6380 316 l 6342 341 l 6301 363 l 6259 383 l 6216 399 l
 6172 413 l 6128 423 l 6082 431 l 6036 436 l 5990 437 l
 4186 437 l 4161 437 l 4115 433 l 4069 427 l 4024 418 l
 3979 405 l 3936 390 l 3894 372 l 3853 351 l 3813 328 l
 3775 301 l 3739 273 l 3705 242 l 3673 209 l 3643 173 l
 3616 136 l 3591 97 l 3569 57 l 3550 15 l 3533 -27 l
 3520 -71 l 3509 -116 l 3502 -161 l 3497 -207 l 3495 -253 l
 3495 -6682 l 3495 -6699 l 3493 -6745 l 3487 -6791 l 3478 -6836 l
 3466 -6881 l 3452 -6924 l 3434 -6967 l 3120 -7661 l 3113 -7677 l
 3096 -7720 l 3083 -7764 l 3072 -7808 l 3064 -7854 l 3060 -7900 l
 3058 -7946 l 3058 -11746 l 3058 -11772 l 3055 -11818 l 3048 -11864 l
 3039 -11909 l 3027 -11953 l 3011 -11997 l 2993 -12039 l 2972 -12080 l
 2949 -12119 l 2923 -12157 l 2894 -12193 l 2863 -12228 l 2830 -12260 l
 2795 -12289 l 2758 -12316 l 2719 -12341 l 2678 -12363 l 2636 -12383 l
 2593 -12399 l 2549 -12413 l 2505 -12423 l 2459 -12431 l 2413 -12436 l
 2367 -12437 l 2147 -12437 l 2121 -12437 l 2075 -12433 l 2030 -12427 l
 1985 -12418 l 1940 -12405 l 1897 -12390 l 1855 -12372 l 1814 -12351 l
 1774 -12328 l 1736 -12301 l 1700 -12273 l 1666 -12242 l 1634 -12209 l
 1604 -12173 l 1577 -12136 l 1552 -12097 l 1530 -12057 l 1511 -12015 l
 1494 -11972 l 1481 -11928 l 1470 -11883 l 1462 -11838 l 1458 -11792 l
 1456 -11746 l 1456 -253 l 1458 -211 l 1462 -165 l 1469 -120 l
 1480 -75 l 1493 -31 l 1509 11 l 1528 53 l 1546 93 l
 1563 136 l 1576 180 l 1587 224 l 1594 270 l 1599 316 l
 1600 362 l 1599 408 l 1594 454 l 1586 499 l 1575 544 l
 1562 588 l 1545 631 l 1526 672 l 1504 713 l 1479 752 l
 1451 789 l 1422 824 l 1390 857 l 1356 888 l 1319 916 l
 1281 942 l 1242 966 l 1201 987 l 1158 1005 l 1115 1020 l
 1070 1032 l 1025 1041 l 980 1048 l 934 1051 l 888 1051 l
 842 1048 l 796 1042 l 751 1033 l 706 1021 l 663 1006 l
 620 988 l 579 967 l 540 944 l 501 918 l 465 890 l
 431 859 l 399 826 l 369 791 l 341 754 l 316 715 l
 294 675 l 275 633 l 258 590 l 244 546 l 233 502 l
 225 456 l 220 411 l 218 365 l 220 318 l 224 273 l
 231 227 l 242 182 l 255 138 l 271 95 l 290 53 l
 308 15 l 324 -27 l 338 -71 l 348 -116 l 356 -161 l
 361 -207 l 362 -253 l 362 -11746 l 363 -11772 l 366 -11818 l
 372 -11864 l 382 -11909 l 394 -11953 l 409 -11997 l 427 -12039 l
 448 -12080 l 472 -12119 l 498 -12157 l 527 -12193 l 558 -12228 l
 591 -12260 l 626 -12289 l 663 -12316 l 702 -12341 l 742 -12363 l
 784 -12383 l 827 -12399 l 871 -12413 l 916 -12423 l 961 -12431 l
 1007 -12436 l 1053 -12437 l 1203 -12437 l 1229 -12437 l 1275 -12433 l
 1320 -12427 l 1365 -12418 l 1410 -12405 l 1453 -12390 l 1496 -12372 l
 1537 -12351 l 1576 -12328 l 1614 -12301 l 1650 -12273 l 1684 -12242 l
 1716 -12209 l 1746 -12173 l 1773 -12136 l 1798 -12097 l 1820 -12057 l
 1839 -12015 l 1856 -11972 l 1870 -11928 l 1880 -11883 l 1888 -11838 l
 1892 -11792 l 1894 -11746 l 1894 -253 l 1895 -211 l 1900 -165 l
 1907 -120 l 1917 -75 l 1931 -31 l 1947 11 l 1966 53 l
 1984 93 l 2000 136 l 2014 180 l 2024 224 l 2032 270 l
 2036 316 l 2038 362 l 2036 408 l 2032 454 l 2024 499 l
 2013 544 l 1999 588 l 1983 631 l 1963 672 l 1941 713 l
 1916 752 l 1889 789 l 1859 824 l 1827 857 l 1793 888 l
 1757 916 l 1719 942 l 1679 966 l 1638 987 l 1596 1005 l
 1552 1020 l 1508 1032 l 1463 1041 l 1417 1048 l 1371 1051 l
 1325 1051 l 1279 1048 l 1234 1042 l 1189 1033 l 1144 1021 l
 1101 1006 l 1058 988 l 1017 967 l 977 944 l 939 918 l
 903 890 l 869 859 l 836 826 l 807 791 l 779 754 l
 754 715 l 732 675 l 712 633 l 695 590 l 681 546 l
 671 502 l 663 456 l 658 411 l 656 365 l 657 318 l
 662 273 l 669 227 l 679 182 l 693 138 l 709 95 l
 728 53 l 745 15 l 762 -27 l 775 -71 l 786 -116 l
 794 -161 l 798 -207 l 800 -253 l 800 -11746 l 800 -11755 l
 802 -11801 l 807 -11847 l 815 -11892 l 827 -11937 l 841 -11981 l
 858 -12023 l 878 -12065 l 900 -12105 l 926 -12144 l 953 -12180 l
 983 -12215 l 1016 -12248 l 1050 -12278 l 1087 -12307 l 1125 -12332 l
 1165 -12355 l 1206 -12376 l 1249 -12393 l 1292 -12408 l 1337 -12420 l
 1382 -12429 l 1428 -12434 l 1474 -12437 l 1520 -12437 l 1566 -12433 l
 1611 -12427 l 1656 -12417 l 1701 -12404 l 1744 -12389 l 1786 -12371 l
 1827 -12350 l 1867 -12326 l 1905 -12300 l 1941 -12271 l 1974 -12240 l
 2006 -12206 l 2036 -12171 l 2063 -12134 l 2087 -12095 l 2109 -12054 l
 2129 -12012 l 2145 -11969 l 2158 -11925 l 2169 -11880 l 2176 -11835 l
 2812 -6929 l 2816 -6886 l 2817 -6840 l 2817 -253 l 2817 -227 l
 2814 -181 l 2807 -135 l 2798 -90 l 2786 -46 l 2770 -2 l
 2752 39 l 2731 80 l 2708 119 l 2682 157 l 2653 193 l
 2622 228 l 2589 260 l 2554 289 l 2517 316 l 2478 341 l
 2437 363 l 2395 383 l 2353 399 l 2309 413 l 2264 423 l
 2218 431 l 2172 436 l 2126 437 l 1928 437 l 1903 437 l
 1857 433 l 1811 427 l 1766 418 l 1722 405 l 1678 390 l
 1636 372 l 1595 351 l 1555 328 l 1517 301 l 1481 273 l
 1447 242 l 1415 209 l 1385 173 l 1358 136 l 1333 97 l
 1311 57 l 1292 15 l 1276 -27 l 1262 -71 l 1251 -116 l
 1244 -161 l 1239 -207 l 1238 -253 l 1238 -11746 l 1238 -11772 l
 1241 -11818 l 1248 -11864 l 1257 -11909 l 1269 -11953 l 1284 -11997 l
 1303 -12039 l 1323 -12080 l 1347 -12119 l 1373 -12157 l 1402 -12193 l
 1433 -12228 l 1466 -12260 l 1501 -12289 l 1538 -12316 l 1577 -12341 l
 1618 -12363 l 1659 -12383 l 1702 -12399 l 1746 -12413 l 1791 -12423 l
 1837 -12431 l 1882 -12436 l 1928 -12437 l 2138 -12437 l 2164 -12437 l
 2210 -12433 l 2255 -12427 l 2301 -12418 l 2345 -12405 l 2388 -12390 l
 2431 -12372 l 2472 -12351 l 2511 -12328 l 2549 -12301 l 2585 -12273 l
 2619 -12242 l 2651 -12209 l 2681 -12173 l 2708 -12136 l 2733 -12097 l
 2755 -12057 l 2774 -12015 l 2791 -11972 l 2805 -11928 l 2815 -11883 l
 2823 -11838 l 2827 -11792 l 2829 -11746 l 2829 -7877 l 2830 -7849 l
 2833 -7803 l 2839 -7758 l 2849 -7713 l 2861 -7668 l 2877 -7625 l
 2895 -7583 l 2916 -7542 l 3183 -7060 l 3196 -7036 l 3215 -6994 l
 3231 -6951 l 3245 -6907 l 3256 -6862 l 3263 -6817 l 3268 -6771 l
 3269 -6725 l 3269 -253 l 3269 -227 l 3266 -181 l 3259 -135 l
 3250 -90 l 3238 -46 l 3222 -2 l 3204 39 l 3183 80 l
 3160 119 l 3134 157 l 3105 193 l 3074 228 l 3041 260 l
 3006 289 l 2969 316 l 2930 341 l 2889 363 l 2848 383 l
 2805 399 l 2761 413 l 2716 423 l 2670 431 l 2624 436 l
 2578 437 l 2366 437 l 2340 437 l 2294 433 l 2249 427 l
 2204 418 l 2159 405 l 2116 390 l 2073 372 l 2032 351 l
 1993 328 l 1955 301 l 1919 273 l 1885 242 l 1853 209 l
 1823 173 l 1796 136 l 1771 97 l 1749 57 l 1730 15 l
 1713 -27 l 1700 -71 l 1689 -116 l 1681 -161 l 1677 -207 l
 1675 -253 l 1675 -11746 l 1676 -11772 l 1679 -11818 l 1685 -11864 l
 1695 -11909 l 1707 -11953 l 1722 -11997 l 1740 -12039 l 1761 -12080 l
 1785 -12119 l 1811 -12157 l 1839 -12193 l 1870 -12228 l 1904 -12260 l
 1939 -12289 l 1976 -12316 l 2015 -12341 l 2055 -12363 l 2097 -12383 l
 2140 -12399 l 2184 -12413 l 2229 -12423 l 2274 -12431 l 2320 -12436 l
 2366 -12437 l 2597 -12437 l 2623 -12437 l 2669 -12433 l 2714 -12427 l
 2759 -12418 l 2804 -12405 l 2847 -12390 l 2889 -12372 l 2930 -12351 l
 2970 -12328 l 3008 -12301 l 3044 -12273 l 3078 -12242 l 3110 -12209 l
 3140 -12173 l 3167 -12136 l 3192 -12097 l 3214 -12057 l 3233 -12015 l
 3250 -11972 l 3263 -11928 l 3274 -11883 l 3282 -11838 l 3286 -11792 l
 3288 -11746 l 3288 -7992 l 3288 -7982 l 3290 -7936 l 3295 -7890 l
 3304 -7845 l 3315 -7800 l 3329 -7756 l 3346 -7713 l 3366 -7672 l
 3389 -7632 l 3414 -7593 l 3442 -7557 l 3472 -7522 l 3505 -7489 l
 3539 -7459 l 3922 -7143 l 3930 -7137 l 3964 -7106 l 3996 -7072 l
 4025 -7037 l 4053 -7000 l 4077 -6961 l 4100 -6921 l 4119 -6879 l
 4135 -6836 l 4149 -6792 l 4160 -6747 l 4167 -6702 l 4172 -6656 l
 4173 -6610 l 4173 -253 l 4173 -227 l 4170 -181 l 4163 -135 l
 4154 -90 l 4142 -46 l 4126 -2 l 4108 39 l 4087 80 l
 4064 119 l 4038 157 l 4009 193 l 3978 228 l 3945 260 l
 3910 289 l 3873 316 l 3834 341 l 3793 363 l 3752 383 l
 3709 399 l 3665 413 l 3620 423 l 3574 431 l 3528 436 l
 3482 437 l 3282 437 l 3256 437 l 3211 433 l 3165 427 l
 3120 418 l 3075 405 l 3032 390 l 2990 372 l 2949 351 l
 2909 328 l 2871 301 l 2835 273 l 2801 242 l 2769 209 l
 2739 173 l 2712 136 l 2687 97 l 2665 57 l 2646 15 l
 2629 -27 l 2616 -71 l 2605 -116 l 2598 -161 l 2593 -207 l
 2591 -253 l 2591 -6932 l 2591 -6939 l 2600 -7778 l 2600 -7785 l
 2600 -11746 l 2599 -11772 l 2596 -11818 l 2590 -11864 l 2580 -11909 l
 2568 -11953 l 2553 -11997 l 2535 -12039 l 2514 -12080 l 2490 -12119 l
 2464 -12157 l 2435 -12193 l 2404 -12228 l 2371 -12260 l 2336 -12289 l
 2299 -12316 l 2260 -12341 l 2220 -12363 l 2178 -12383 l 2135 -12399 l
 2091 -12413 l 2046 -12423 l 2001 -12431 l 1955 -12436 l 1909 -12437 l
 1272 -12437 l 1246 -12437 l 1200 -12433 l 1155 -12427 l 1110 -12418 l
 1065 -12405 l 1022 -12390 l 979 -12372 l 938 -12351 l 899 -12328 l
 861 -12301 l 825 -12273 l 791 -12242 l 759 -12209 l 729 -12173 l
 702 -12136 l 677 -12097 l 655 -12057 l 636 -12015 l 619 -11972 l
 605 -11928 l 595 -11883 l 587 -11838 l 583 -11792 l 581 -11746 l
 581 -253 l 582 -227 l 585 -181 l 591 -135 l 600 -90 l
 613 -46 l 628 -2 l 646 39 l 667 80 l 691 119 l
 717 157 l 745 193 l 776 228 l 810 260 l 845 289 l
 882 316 l 921 341 l 961 363 l 1003 383 l 1046 399 l
 1090 413 l 1135 423 l 1180 431 l 1226 436 l 1272 437 l
 1448 437 l 1474 437 l 1520 433 l 1566 427 l 1611 418 l
 1655 405 l 1699 390 l 1741 372 l 1782 351 l 1822 328 l
 1860 301 l 1896 273 l 1930 242 l 1962 209 l 1991 173 l
 2019 136 l 2043 97 l 2065 57 l 2085 15 l 2101 -27 l
 2115 -71 l 2126 -116 l 2133 -161 l 2138 -207 l 2139 -253 l
 2139 -7301 l 2139 -7312 l 2141 -7405 l 2141 -7416 l 2141 -11746 l
 2142 -11772 l 2145 -11818 l 2151 -11864 l 2160 -11909 l 2173 -11953 l
 2188 -11997 l 2206 -12039 l 2227 -12080 l 2251 -12119 l 2277 -12157 l
 2305 -12193 l 2336 -12228 l 2370 -12260 l 2405 -12289 l 2442 -12316 l
 2481 -12341 l 2521 -12363 l 2563 -12383 l 2606 -12399 l 2650 -12413 l
 2695 -12423 l 2740 -12431 l 2786 -12436 l 2832 -12437 l 3055 -12437 l
 3081 -12437 l 3127 -12433 l 3173 -12427 l 3218 -12418 l 3262 -12405 l
 3306 -12390 l 3348 -12372 l 3389 -12351 l 3429 -12328 l 3467 -12301 l
 3503 -12273 l 3537 -12242 l 3569 -12209 l 3598 -12173 l 3626 -12136 l
 3650 -12097 l 3672 -12057 l 3692 -12015 l 3708 -11972 l 3722 -11928 l
 3733 -11883 l 3740 -11838 l 3745 -11792 l 3746 -11746 l 3746 -8061 l
 3747 -8044 l 3749 -7998 l 3755 -7953 l 3764 -7907 l 3775 -7863 l
 3790 -7819 l 3808 -7777 l 3828 -7735 l 3851 -7695 l 3877 -7657 l
 3905 -7621 l 3935 -7586 l 3968 -7554 l 4003 -7524 l 4040 -7496 l
 4078 -7471 l 4118 -7448 l 4160 -7428 l 4202 -7411 l 4621 -7260 l
 4637 -7254 l 4679 -7236 l 4720 -7215 l 4760 -7191 l 4798 -7165 l
 4834 -7137 l 4868 -7106 l 4900 -7072 l 4930 -7037 l 4957 -7000 l
 4982 -6961 l 5004 -6921 l 5023 -6879 l 5039 -6836 l 5053 -6792 l
 5064 -6747 l 5071 -6702 l 5076 -6656 l 5077 -6610 l 5077 -253 l
 5078 -227 l 5081 -181 l 5088 -135 l 5097 -90 l 5109 -46 l
 5124 -2 l 5143 39 l 5163 80 l 5187 119 l 5213 157 l
 5242 193 l 5273 228 l 5306 260 l 5341 289 l 5378 316 l
 5417 341 l 5458 363 l 5499 383 l 5542 399 l 5586 413 l
 5631 423 l 5677 431 l 5722 436 l 5768 437 l 6216 437 l
 6242 437 l 6288 433 l 6333 427 l 6379 418 l 6423 405 l
 6466 390 l 6509 372 l 6550 351 l 6589 328 l 6627 301 l
 6663 273 l 6697 242 l 6729 209 l 6759 173 l 6786 136 l
 6811 97 l 6833 57 l 6852 15 l 6869 -27 l 6883 -71 l
 6893 -116 l 6901 -161 l 6905 -207 l 6907 -253 l 6907 -2579 l
 6908 -2625 l 6913 -2671 l 6921 -2716 l 6931 -2761 l 6945 -2805 l
 6961 -2848 l 6981 -2890 l 7003 -2930 l 7027 -2969 l 7055 -3006 l
 7084 -3041 l 7116 -3074 l 7150 -3105 l 7186 -3134 l 7224 -3160 l
 7264 -3184 l 7305 -3205 l 7347 -3223 l 7391 -3238 l 7435 -3251 l
 7480 -3260 l 7526 -3266 l 7572 -3270 l 7618 -3270 l 7664 -3267 l
 7709 -3261 l 7754 -3252 l 7953 -3206 l 7959 -3205 l 8003 -3192 l
 8046 -3177 l 8089 -3159 l 8130 -3138 l 8169 -3115 l 8207 -3088 l
 8243 -3060 l 8277 -3029 l 8309 -2996 l 8339 -2960 l 8366 -2923 l
 8391 -2884 l 8413 -2844 l 8432 -2802 l 8449 -2759 l 8463 -2715 l
 8473 -2670 l 8481 -2625 l 8485 -2579 l 8487 -2533 l 8487 -253 l
 8488 -227 l 8491 -181 l 8497 -135 l 8506 -90 l 8519 -46 l
 8534 -2 l 8552 39 l 8573 80 l 8597 119 l 8623 157 l
 8651 193 l 8682 228 l 8715 260 l 8751 289 l 8788 316 l
 8827 341 l 8867 363 l 8909 383 l 8952 399 l 8996 413 l
 9041 423 l 9086 431 l 9132 436 l 9178 437 l 9622 437 l
 9648 437 l 9694 433 l 9740 427 l 9785 418 l 9829 405 l
 9873 390 l 9915 372 l 9956 351 l 9996 328 l 10033 301 l
 10070 273 l 10104 242 l 10136 209 l 10165 173 l 10192 136 l
 10217 97 l 10239 57 l 10259 15 l 10275 -27 l 10289 -71 l
 10299 -116 l 10307 -161 l 10312 -207 l 10313 -253 l 10313 -11746 l
 10313 -11772 l 10309 -11818 l 10303 -11864 l 10294 -11909 l 10281 -11953 l
 10266 -11997 l 10248 -12039 l 10227 -12080 l 10204 -12119 l 10177 -12157 l
 10149 -12193 l 10118 -12228 l 10085 -12260 l 10049 -12289 l 10012 -12316 l
 9974 -12341 l 9933 -12363 l 9891 -12383 l 9848 -12399 l 9804 -12413 l
 9759 -12423 l 9714 -12431 l 9668 -12436 l 9622 -12437 l 9003 -12437 l
 8978 -12437 l 8932 -12433 l 8886 -12427 l 8841 -12418 l 8797 -12405 l
 8753 -12390 l 8711 -12372 l 8670 -12351 l 8630 -12328 l 8592 -12301 l
 8556 -12273 l 8522 -12242 l 8490 -12209 l 8460 -12173 l 8433 -12136 l
 8408 -12097 l 8386 -12057 l 8367 -12015 l 8351 -11972 l 8337 -11928 l
 8326 -11883 l 8319 -11838 l 8314 -11792 l 8313 -11746 l 8313 -3938 l
 8313 -3913 l 8316 -3867 l 8322 -3821 l 8332 -3776 l 8344 -3732 l
 8359 -3688 l 8515 -3286 l 8525 -3262 l 8545 -3220 l 8567 -3180 l
 8592 -3141 l 8620 -3104 l 8650 -3069 l 8682 -3036 l 8716 -3006 l
 8753 -2977 l 8791 -2951 l 8831 -2928 l 8872 -2908 l 8914 -2890 l
 8958 -2875 l 9002 -2863 l 9048 -2854 l 9093 -2848 l 9139 -2845 l
 9185 -2845 l 9231 -2849 l 9277 -2855 l 9322 -2864 l 9366 -2877 l
 9410 -2892 l 9452 -2910 l 9493 -2931 l 9533 -2954 l 9571 -2981 l
 9607 -3009 l 9641 -3040 l 9673 -3073 l 9702 -3109 l 9730 -3146 l
 9754 -3185 l 9776 -3225 l 9796 -3267 l 9812 -3310 l 9826 -3354 l
 9837 -3399 l 9844 -3444 l 9849 -3490 l 9850 -3536 l 9850 -11746 l
 9851 -11772 l 9854 -11818 l 9860 -11864 l 9870 -11909 l 9882 -11953 l
 9897 -11997 l 9915 -12039 l 9936 -12080 l 9960 -12119 l 9986 -12157 l
 10015 -12193 l 10046 -12228 l 10079 -12260 l 10114 -12289 l 10151 -12316 l
 10190 -12341 l 10230 -12363 l 10272 -12383 l 10315 -12399 l 10359 -12413 l
 10404 -12423 l 10449 -12431 l 10495 -12436 l 10541 -12437 l 10724 -12437 l
 10750 -12437 l 10796 -12433 l 10842 -12427 l 10887 -12418 l 10931 -12405 l
 10975 -12390 l 11017 -12372 l 11058 -12351 l 11098 -12328 l 11136 -12301 l
 11172 -12273 l 11206 -12242 l 11238 -12209 l 11268 -12173 l 11295 -12136 l
 11319 -12097 l 11342 -12057 l 11361 -12015 l 11377 -11972 l 11391 -11928 l
 11402 -11883 l 11409 -11838 l 11414 -11792 l 11415 -11746 l 11415 -253 l
 11416 -237 l 11418 -191 l 11424 -146 l 11429 -109 l 11432 -63 l
 11432 -17 l 11429 28 l 11423 74 l 11414 119 l 11402 163 l
 11387 207 l 11369 249 l 11348 291 l 11325 330 l 11299 368 l
 11271 405 l 11240 439 l 11207 471 l 11172 501 l 11135 529 l
 11096 554 l 11056 576 l 11014 596 l 10972 612 l 10928 626 l
 10883 637 l 10838 645 l 10792 650 l 10746 652 l 10700 651 l
 10654 646 l 10608 639 l 10564 629 l 10519 615 l 10476 599 l
 10434 580 l 10394 558 l 10355 534 l 10318 507 l 10282 477 l
 10249 445 l 10218 412 l 10189 376 l 10162 338 l 10138 299 l
 10117 258 l 10099 215 l 10083 172 l 10071 128 l 10061 83 l
 10055 37 l 10051 -8 l 10050 -54 l 10053 -100 l 10059 -146 l
 10061 -161 l 10066 -207 l 10067 -253 l 10067 -3178 l 10067 -3204 l
 10063 -3250 l 10057 -3295 l 10048 -3341 l 10035 -3385 l 10020 -3428 l
 10002 -3471 l 9981 -3512 l 9958 -3551 l 9931 -3589 l 9903 -3625 l
 9872 -3659 l 9839 -3691 l 9803 -3721 l 9766 -3748 l 9727 -3773 l
 9687 -3795 l 9645 -3814 l 9602 -3831 l 9558 -3845 l 9513 -3855 l
 9468 -3863 l 9422 -3867 l 9376 -3869 l 6469 -3869 l 6443 -3868 l
 6398 -3865 l 6352 -3859 l 6307 -3850 l 6262 -3837 l 6219 -3822 l
 6177 -3804 l 6136 -3783 l 6096 -3759 l 6058 -3733 l 6022 -3705 l
 5988 -3674 l 5956 -3641 l 5926 -3605 l 5899 -3568 l 5874 -3529 l
 5852 -3489 l 5833 -3447 l 5816 -3404 l 5803 -3360 l 5792 -3315 l
 5785 -3270 l 5780 -3224 l 5778 -3178 l 5778 -253 l 5779 -227 l
 5782 -181 l 5788 -135 l 5798 -90 l 5810 -46 l 5825 -2 l
 5843 39 l 5864 80 l 5888 119 l 5914 157 l 5943 193 l
 5974 228 l 6007 260 l 6042 289 l 6079 316 l 6118 341 l
 6158 363 l 6200 383 l 6243 399 l 6287 413 l 6332 423 l
 6378 431 l 6423 436 l 6469 437 l 6667 437 l 6693 437 l
 6739 433 l 6785 427 l 6830 418 l 6874 405 l 6918 390 l
 6960 372 l 7001 351 l 7041 328 l 7079 301 l 7115 273 l
 7149 242 l 7181 209 l 7210 173 l 7238 136 l 7262 97 l
 7285 57 l 7304 15 l 7320 -27 l 7334 -71 l 7345 -116 l
 7352 -161 l 7357 -207 l 7358 -253 l 7358 -2533 l 7358 -2566 l
 7354 -2612 l 7347 -2658 l 7337 -2703 l 7324 -2747 l 7309 -2790 l
 7290 -2832 l 7269 -2873 l 7245 -2913 l 7218 -2950 l 7189 -2986 l
 7158 -3020 l 7124 -3051 l 7089 -3081 l 7052 -3107 l 6892 -3214 l
 6865 -3233 l 6829 -3262 l 6795 -3293 l 6763 -3326 l 6733 -3361 l
 6706 -3398 l 6681 -3437 l 6659 -3477 l 6640 -3519 l 6623 -3562 l
 6610 -3606 l 6599 -3651 l 6592 -3697 l 6587 -3742 l 6585 -3788 l
 6585 -6863 l 6586 -6893 l 6590 -6939 l 6596 -6984 l 6717 -7664 l
 6721 -7693 l 6726 -7738 l 6728 -7785 l 6728 -11746 l 6727 -11772 l
 6724 -11818 l 6717 -11864 l 6708 -11909 l 6696 -11953 l 6681 -11997 l
 6662 -12039 l 6642 -12080 l 6618 -12119 l 6592 -12157 l 6563 -12193 l
 6532 -12228 l 6499 -12260 l 6464 -12289 l 6427 -12316 l 6388 -12341 l
 6347 -12363 l 6306 -12383 l 6263 -12399 l 6219 -12413 l 6174 -12423 l
 6128 -12431 l 6083 -12436 l 6037 -12437 l 5813 -12437 l 5787 -12437 l
 5741 -12433 l 5696 -12427 l 5651 -12418 l 5606 -12405 l 5563 -12390 l
 5521 -12372 l 5479 -12351 l 5440 -12328 l 5402 -12301 l 5366 -12273 l
 5332 -12242 l 5300 -12209 l 5270 -12173 l 5243 -12136 l 5218 -12097 l
 5196 -12057 l 5177 -12015 l 5160 -11972 l 5147 -11928 l 5136 -11883 l
 5128 -11838 l 5124 -11792 l 5122 -11746 l 5122 -8107 l 5122 -8104 l
 5121 -8058 l 5116 -8012 l 5108 -7967 l 5097 -7922 l 5083 -7878 l
 5067 -7835 l 5047 -7794 l 5025 -7753 l 5000 -7715 l 4973 -7678 l
 4943 -7642 l 4911 -7609 l 4876 -7579 l 4840 -7550 l 4802 -7524 l
 4763 -7501 l 4721 -7480 l 4679 -7462 l 4636 -7447 l 4412 -7378 l
 4409 -7377 l 4365 -7365 l 4320 -7356 l 4274 -7350 l 4228 -7347 l
 4182 -7347 l 4136 -7351 l 4091 -7357 l 4045 -7366 l 4001 -7379 l
 3958 -7394 l 3915 -7412 l 3874 -7433 l 3835 -7456 l 3797 -7483 l
 3761 -7511 l 3727 -7542 l 3695 -7575 l 3665 -7611 l 3638 -7648 l
 3613 -7687 l 3591 -7727 l 3572 -7769 l 3555 -7812 l 3541 -7856 l
 3531 -7901 l 3523 -7946 l 3519 -7992 l 3517 -8038 l 3517 -11746 l
 3516 -11772 l 3513 -11818 l 3507 -11864 l 3498 -11909 l 3485 -11953 l
 3470 -11997 l 3452 -12039 l 3431 -12080 l 3407 -12119 l 3381 -12157 l
 3353 -12193 l 3322 -12228 l 3289 -12260 l 3253 -12289 l 3216 -12316 l
 3177 -12341 l 3137 -12363 l 3095 -12383 l 3052 -12399 l 3008 -12413 l
 2963 -12423 l 2918 -12431 l 2872 -12436 l 2826 -12437 l 1710 -12437 l
 1684 -12437 l 1638 -12433 l 1592 -12427 l 1547 -12418 l 1503 -12405 l
 1459 -12390 l 1417 -12372 l 1376 -12351 l 1336 -12328 l 1298 -12301 l
 1262 -12273 l 1228 -12242 l 1196 -12209 l 1167 -12173 l 1139 -12136 l
 1115 -12097 l 1093 -12057 l 1073 -12015 l 1057 -11972 l 1043 -11928 l
 1032 -11883 l 1025 -11838 l 1020 -11792 l 1019 -11746 l 1019 -253 l
 1019 -227 l 1022 -181 l 1029 -135 l 1038 -90 l 1050 -46 l
 1066 -2 l 1084 39 l 1105 80 l 1128 119 l 1154 157 l
 1183 193 l 1214 228 l 1247 260 l 1282 289 l 1320 316 l
 1358 341 l 1399 363 l 1441 383 l 1484 399 l 1528 413 l
 1572 423 l 1618 431 l 1664 436 l 1710 437 l 2352 437 l
 2378 437 l 2424 433 l 2470 427 l 2515 418 l 2559 405 l
 2603 390 l 2645 372 l 2686 351 l 2726 328 l 2764 301 l
 2800 273 l 2834 242 l 2866 209 l 2895 173 l 2923 136 l
 2947 97 l 2970 57 l 2989 15 l 3005 -27 l 3019 -71 l
 3030 -116 l 3037 -161 l 3042 -207 l 3043 -253 l 3043 -6771 l
 3044 -6804 l 3048 -6850 l 3055 -6896 l 3065 -6941 l 3077 -6985 l
 3093 -7028 l 3112 -7071 l 3133 -7111 l 3157 -7151 l 3184 -7188 l
 3213 -7224 l 3244 -7258 l 3277 -7289 l 3313 -7319 l 3350 -7346 l
 3390 -7370 l 3430 -7392 l 3472 -7410 l 3515 -7426 l 3560 -7440 l
 3604 -7450 l 3650 -7457 l 3696 -7461 l 3742 -7462 l 3788 -7460 l
 3834 -7455 l 3879 -7447 l 3924 -7436 l 3968 -7422 l 4010 -7405 l
 4052 -7385 l 4092 -7362 l 4131 -7337 l 4168 -7309 l 4202 -7279 l
 4403 -7095 l 4416 -7083 l 4448 -7049 l 4478 -7014 l 4505 -6977 l
 4529 -6938 l 4552 -6898 l 4571 -6856 l 4587 -6813 l 4601 -6769 l
 4612 -6724 l 4619 -6679 l 4624 -6633 l 4625 -6587 l 4625 -253 l
 4626 -227 l 4629 -181 l 4636 -135 l 4645 -90 l 4657 -46 l
 4672 -2 l 4691 39 l 4711 80 l 4735 119 l 4761 157 l
 4790 193 l 4821 228 l 4854 260 l 4889 289 l 4926 316 l
 4965 341 l 5006 363 l 5047 383 l 5090 399 l 5134 413 l
 5179 423 l 5225 431 l 5270 436 l 5316 437 l 5765 437 l
 5790 437 l 5836 433 l 5882 427 l 5927 418 l 5971 405 l
 6015 390 l 6057 372 l 6098 351 l 6138 328 l 6176 301 l
 6212 273 l 6246 242 l 6278 209 l 6308 173 l 6335 136 l
 6360 97 l 6382 57 l 6401 15 l 6418 -27 l 6431 -71 l
 6442 -116 l 6449 -161 l 6454 -207 l 6456 -253 l 6456 -2694 l
 6456 -2728 l 6460 -2774 l 6467 -2820 l 6477 -2865 l 6490 -2909 l
 6506 -2952 l 6524 -2994 l 6546 -3035 l 6570 -3075 l 6596 -3112 l
 6854 -3451 l 6874 -3479 l 6898 -3518 l 6920 -3558 l 6940 -3600 l
 6956 -3643 l 6970 -3687 l 6980 -3732 l 6988 -3777 l 6993 -3823 l
 6994 -3869 l 6994 -7050 l 6994 -7064 l 6997 -7110 l 7002 -7156 l
 7011 -7201 l 7022 -7246 l 7037 -7289 l 7038 -7291 l 7052 -7335 l
 7063 -7380 l 7072 -7425 l 7077 -7471 l 7080 -7517 l 7079 -7563 l
 7075 -7609 l 7068 -7654 l 7058 -7699 l 7045 -7743 l 7030 -7787 l
 7011 -7829 l 6990 -7870 l 6966 -7909 l 6939 -7947 l 6910 -7982 l
 6879 -8016 l 6845 -8048 l 6809 -8077 l 6772 -8104 l 6733 -8128 l
 6692 -8149 l 6650 -8168 l 6607 -8184 l 6563 -8197 l 6518 -8207 l
 6472 -8215 l 6426 -8219 l 6380 -8220 l 6334 -8217 l 6289 -8212 l
 6243 -8204 l 6199 -8193 l 6155 -8179 l 6112 -8162 l 6070 -8142 l
 6030 -8119 l 5992 -8094 l 5955 -8066 l 5920 -8036 l 5887 -8004 l
 5857 -7970 l 5828 -7933 l 5803 -7895 l 5780 -7855 l 5759 -7814 l
 5742 -7771 l 5727 -7728 l 5715 -7683 l 5706 -7638 l 5701 -7592 l
 5698 -7546 l 5698 -7500 l 5702 -7454 l 5708 -7409 l 5718 -7364 l
 5730 -7319 l 5746 -7276 l 5764 -7234 l 5785 -7193 l 5809 -7153 l
 5835 -7115 l 5851 -7092 l 5876 -7053 l 5898 -7013 l 5918 -6971 l
 5934 -6928 l 5948 -6884 l 5958 -6839 l 5966 -6794 l 5971 -6748 l
 5972 -6702 l 5972 -3523 l
 5972 -3523 l gs col37 s gr 
% Ellipse
n 5973 -3489 115 115 0 360 DrawEllipse gs col34 s gr
% Ellipse
n 5972 -3523 115 115 0 360 DrawEllipse gs col33 s gr
% Polyline
n 5973 -3489 m
 5963 -3604 l gs col34 s gr 
% Polyline
n 5972 -3523 m
 6087 -3523 l gs col33 s gr 
% here ends figure;
pagefooter
showpage
%%Trailer
%EOF
%%EndDocument
 @endspecial Black Black eop end
%%Trailer
userdict /end-hook known{end-hook}if
%%Trailer
cleartomark
countdictstack
exch sub { end } repeat
restore
%%EOF
