%!PS-Adobe-3.0 EPSF-3.0
%%BoundingBox: 149 1 1014 866
%%HiResBoundingBox: 149.000000 1.000000 1013.666016 865.664062
%%Creator: dvips(k) 5.993 Copyright 2013 Radical Eye Software
%%Title: fig2ps-env04_cutoff.dvi
%%CreationDate: Sun Jan  6 02:04:15 2019
%%EndComments
% EPSF created by ps2eps 1.68
%%BeginProlog
0 199 translate
save
countdictstack
mark
newpath
/showpage {} def
/setpagedevice {pop} def
%%EndProlog
%%Page 1 1
%DVIPSWebPage: (www.radicaleye.com)
%DVIPSCommandLine: dvips -Ppdf -G0 -q -E fig2ps-env04_cutoff.dvi -o
%+ fig2ps-env04_cutoff.ps
%DVIPSParameters: dpi=8000
%DVIPSSource:  TeX output 2019.01.06:0204
%%BeginProcSet: tex.pro 0 0
%!
/TeXDict 300 dict def TeXDict begin/N{def}def/B{bind def}N/S{exch}N/X{S
N}B/A{dup}B/TR{translate}N/isls false N/vsize 11 72 mul N/hsize 8.5 72
mul N/landplus90{false}def/@rigin{isls{[0 landplus90{1 -1}{-1 1}ifelse 0
0 0]concat}if 72 Resolution div 72 VResolution div neg scale isls{
landplus90{VResolution 72 div vsize mul 0 exch}{Resolution -72 div hsize
mul 0}ifelse TR}if Resolution VResolution vsize -72 div 1 add mul TR[
matrix currentmatrix{A A round sub abs 0.00001 lt{round}if}forall round
exch round exch]setmatrix}N/@landscape{/isls true N}B/@manualfeed{
statusdict/manualfeed true put}B/@copies{/#copies X}B/FMat[1 0 0 -1 0 0]
N/FBB[0 0 0 0]N/nn 0 N/IEn 0 N/ctr 0 N/df-tail{/nn 8 dict N nn begin
/FontType 3 N/FontMatrix fntrx N/FontBBox FBB N string/base X array
/BitMaps X/BuildChar{CharBuilder}N/Encoding IEn N end A{/foo setfont}2
array copy cvx N load 0 nn put/ctr 0 N[}B/sf 0 N/df{/sf 1 N/fntrx FMat N
df-tail}B/dfs{div/sf X/fntrx[sf 0 0 sf neg 0 0]N df-tail}B/E{pop nn A
definefont setfont}B/Cw{Cd A length 5 sub get}B/Ch{Cd A length 4 sub get
}B/Cx{128 Cd A length 3 sub get sub}B/Cy{Cd A length 2 sub get 127 sub}
B/Cdx{Cd A length 1 sub get}B/Ci{Cd A type/stringtype ne{ctr get/ctr ctr
1 add N}if}B/CharBuilder{save 3 1 roll S A/base get 2 index get S
/BitMaps get S get/Cd X pop/ctr 0 N Cdx 0 Cx Cy Ch sub Cx Cw add Cy
setcachedevice Cw Ch true[1 0 0 -1 -.1 Cx sub Cy .1 sub]{Ci}imagemask
restore}B/D{/cc X A type/stringtype ne{]}if nn/base get cc ctr put nn
/BitMaps get S ctr S sf 1 ne{A A length 1 sub A 2 index S get sf div put
}if put/ctr ctr 1 add N}B/I{cc 1 add D}B/bop{userdict/bop-hook known{
bop-hook}if/SI save N @rigin 0 0 moveto/V matrix currentmatrix A 1 get A
mul exch 0 get A mul add .99 lt{/QV}{/RV}ifelse load def pop pop}N/eop{
SI restore userdict/eop-hook known{eop-hook}if showpage}N/@start{
userdict/start-hook known{start-hook}if pop/VResolution X/Resolution X
1000 div/DVImag X/IEn 256 array N 2 string 0 1 255{IEn S A 360 add 36 4
index cvrs cvn put}for pop 65781.76 div/vsize X 65781.76 div/hsize X}N
/dir 0 def/dyy{/dir 0 def}B/dyt{/dir 1 def}B/dty{/dir 2 def}B/dtt{/dir 3
def}B/p{dir 2 eq{-90 rotate show 90 rotate}{dir 3 eq{-90 rotate show 90
rotate}{show}ifelse}ifelse}N/RMat[1 0 0 -1 0 0]N/BDot 260 string N/Rx 0
N/Ry 0 N/V{}B/RV/v{/Ry X/Rx X V}B statusdict begin/product where{pop
false[(Display)(NeXT)(LaserWriter 16/600)]{A length product length le{A
length product exch 0 exch getinterval eq{pop true exit}if}{pop}ifelse}
forall}{false}ifelse end{{gsave TR -.1 .1 TR 1 1 scale Rx Ry false RMat{
BDot}imagemask grestore}}{{gsave TR -.1 .1 TR Rx Ry scale 1 1 false RMat
{BDot}imagemask grestore}}ifelse B/QV{gsave newpath transform round exch
round exch itransform moveto Rx 0 rlineto 0 Ry neg rlineto Rx neg 0
rlineto fill grestore}B/a{moveto}B/delta 0 N/tail{A/delta X 0 rmoveto}B
/M{S p delta add tail}B/b{S p tail}B/c{-4 M}B/d{-3 M}B/e{-2 M}B/f{-1 M}
B/g{0 M}B/h{1 M}B/i{2 M}B/j{3 M}B/k{4 M}B/w{0 rmoveto}B/l{p -4 w}B/m{p
-3 w}B/n{p -2 w}B/o{p -1 w}B/q{p 1 w}B/r{p 2 w}B/s{p 3 w}B/t{p 4 w}B/x{
0 S rmoveto}B/y{3 2 roll p a}B/bos{/SS save N}B/eos{SS restore}B end
%%EndProcSet
%%BeginProcSet: alt-rule.pro 0 0
%!
% Patch by TVZ
% Makes dvips files draw rules with stroke rather than fill.
% Makes narrow rules more predictable at low resolutions
% after distilling to PDF.
% May have unknown consequences for very thick rules.
% Tested only with dvips 5.85(k).
TeXDict begin
/QV {
  gsave newpath /ruleY X /ruleX X
  Rx Ry gt
  { ruleX ruleY Ry 2 div sub moveto Rx 0 rlineto Ry }
  { ruleX Rx 2 div add ruleY moveto 0 Ry neg rlineto Rx }
  ifelse
  setlinewidth 0 setlinecap stroke grestore
} bind def
end
%%EndProcSet
%%BeginProcSet: special.pro 0 0
%!
TeXDict begin/SDict 200 dict N SDict begin/@SpecialDefaults{/hs 612 N
/vs 792 N/ho 0 N/vo 0 N/hsc 1 N/vsc 1 N/ang 0 N/CLIP 0 N/rwiSeen false N
/rhiSeen false N/letter{}N/note{}N/a4{}N/legal{}N}B/@scaleunit 100 N
/@hscale{@scaleunit div/hsc X}B/@vscale{@scaleunit div/vsc X}B/@hsize{
/hs X/CLIP 1 N}B/@vsize{/vs X/CLIP 1 N}B/@clip{/CLIP 2 N}B/@hoffset{/ho
X}B/@voffset{/vo X}B/@angle{/ang X}B/@rwi{10 div/rwi X/rwiSeen true N}B
/@rhi{10 div/rhi X/rhiSeen true N}B/@llx{/llx X}B/@lly{/lly X}B/@urx{
/urx X}B/@ury{/ury X}B/magscale true def end/@MacSetUp{userdict/md known
{userdict/md get type/dicttype eq{userdict begin md length 10 add md
maxlength ge{/md md dup length 20 add dict copy def}if end md begin
/letter{}N/note{}N/legal{}N/od{txpose 1 0 mtx defaultmatrix dtransform S
atan/pa X newpath clippath mark{transform{itransform moveto}}{transform{
itransform lineto}}{6 -2 roll transform 6 -2 roll transform 6 -2 roll
transform{itransform 6 2 roll itransform 6 2 roll itransform 6 2 roll
curveto}}{{closepath}}pathforall newpath counttomark array astore/gc xdf
pop ct 39 0 put 10 fz 0 fs 2 F/|______Courier fnt invertflag{PaintBlack}
if}N/txpose{pxs pys scale ppr aload pop por{noflips{pop S neg S TR pop 1
-1 scale}if xflip yflip and{pop S neg S TR 180 rotate 1 -1 scale ppr 3
get ppr 1 get neg sub neg ppr 2 get ppr 0 get neg sub neg TR}if xflip
yflip not and{pop S neg S TR pop 180 rotate ppr 3 get ppr 1 get neg sub
neg 0 TR}if yflip xflip not and{ppr 1 get neg ppr 0 get neg TR}if}{
noflips{TR pop pop 270 rotate 1 -1 scale}if xflip yflip and{TR pop pop
90 rotate 1 -1 scale ppr 3 get ppr 1 get neg sub neg ppr 2 get ppr 0 get
neg sub neg TR}if xflip yflip not and{TR pop pop 90 rotate ppr 3 get ppr
1 get neg sub neg 0 TR}if yflip xflip not and{TR pop pop 270 rotate ppr
2 get ppr 0 get neg sub neg 0 S TR}if}ifelse scaleby96{ppr aload pop 4
-1 roll add 2 div 3 1 roll add 2 div 2 copy TR .96 dup scale neg S neg S
TR}if}N/cp{pop pop showpage pm restore}N end}if}if}N/normalscale{
Resolution 72 div VResolution 72 div neg scale magscale{DVImag dup scale
}if 0 setgray}N/psfts{S 65781.76 div N}N/startTexFig{/psf$SavedState
save N userdict maxlength dict begin/magscale true def normalscale
currentpoint TR/psf$ury psfts/psf$urx psfts/psf$lly psfts/psf$llx psfts
/psf$y psfts/psf$x psfts currentpoint/psf$cy X/psf$cx X/psf$sx psf$x
psf$urx psf$llx sub div N/psf$sy psf$y psf$ury psf$lly sub div N psf$sx
psf$sy scale psf$cx psf$sx div psf$llx sub psf$cy psf$sy div psf$ury sub
TR/showpage{}N/erasepage{}N/setpagedevice{pop}N/copypage{}N/p 3 def
@MacSetUp}N/doclip{psf$llx psf$lly psf$urx psf$ury currentpoint 6 2 roll
newpath 4 copy 4 2 roll moveto 6 -1 roll S lineto S lineto S lineto
closepath clip newpath moveto}N/endTexFig{end psf$SavedState restore}N
/@beginspecial{SDict begin/SpecialSave save N gsave normalscale
currentpoint TR @SpecialDefaults count/ocount X/dcount countdictstack N}
N/@setspecial{CLIP 1 eq{newpath 0 0 moveto hs 0 rlineto 0 vs rlineto hs
neg 0 rlineto closepath clip}if ho vo TR hsc vsc scale ang rotate
rwiSeen{rwi urx llx sub div rhiSeen{rhi ury lly sub div}{dup}ifelse
scale llx neg lly neg TR}{rhiSeen{rhi ury lly sub div dup scale llx neg
lly neg TR}if}ifelse CLIP 2 eq{newpath llx lly moveto urx lly lineto urx
ury lineto llx ury lineto closepath clip}if/showpage{}N/erasepage{}N
/setpagedevice{pop}N/copypage{}N newpath}N/@endspecial{count ocount sub{
pop}repeat countdictstack dcount sub{end}repeat grestore SpecialSave
restore end}N/@defspecial{SDict begin}N/@fedspecial{end}B/li{lineto}B
/rl{rlineto}B/rc{rcurveto}B/np{/SaveX currentpoint/SaveY X N 1
setlinecap newpath}N/st{stroke SaveX SaveY moveto}N/fil{fill SaveX SaveY
moveto}N/ellipse{/endangle X/startangle X/yrad X/xrad X/savematrix
matrix currentmatrix N TR xrad yrad scale 0 0 1 startangle endangle arc
savematrix setmatrix}N end
%%EndProcSet
%%BeginProcSet: color.pro 0 0
%!
TeXDict begin/setcmykcolor where{pop}{/setcmykcolor{dup 10 eq{pop
setrgbcolor}{1 sub 4 1 roll 3{3 index add neg dup 0 lt{pop 0}if 3 1 roll
}repeat setrgbcolor pop}ifelse}B}ifelse/TeXcolorcmyk{setcmykcolor}def
/TeXcolorrgb{setrgbcolor}def/TeXcolorgrey{setgray}def/TeXcolorgray{
setgray}def/TeXcolorhsb{sethsbcolor}def/currentcmykcolor where{pop}{
/currentcmykcolor{currentrgbcolor 10}B}ifelse/DC{exch dup userdict exch
known{pop pop}{X}ifelse}B/GreenYellow{0.15 0 0.69 0 setcmykcolor}DC
/Yellow{0 0 1 0 setcmykcolor}DC/Goldenrod{0 0.10 0.84 0 setcmykcolor}DC
/Dandelion{0 0.29 0.84 0 setcmykcolor}DC/Apricot{0 0.32 0.52 0
setcmykcolor}DC/Peach{0 0.50 0.70 0 setcmykcolor}DC/Melon{0 0.46 0.50 0
setcmykcolor}DC/YellowOrange{0 0.42 1 0 setcmykcolor}DC/Orange{0 0.61
0.87 0 setcmykcolor}DC/BurntOrange{0 0.51 1 0 setcmykcolor}DC
/Bittersweet{0 0.75 1 0.24 setcmykcolor}DC/RedOrange{0 0.77 0.87 0
setcmykcolor}DC/Mahogany{0 0.85 0.87 0.35 setcmykcolor}DC/Maroon{0 0.87
0.68 0.32 setcmykcolor}DC/BrickRed{0 0.89 0.94 0.28 setcmykcolor}DC/Red{
0 1 1 0 setcmykcolor}DC/OrangeRed{0 1 0.50 0 setcmykcolor}DC/RubineRed{
0 1 0.13 0 setcmykcolor}DC/WildStrawberry{0 0.96 0.39 0 setcmykcolor}DC
/Salmon{0 0.53 0.38 0 setcmykcolor}DC/CarnationPink{0 0.63 0 0
setcmykcolor}DC/Magenta{0 1 0 0 setcmykcolor}DC/VioletRed{0 0.81 0 0
setcmykcolor}DC/Rhodamine{0 0.82 0 0 setcmykcolor}DC/Mulberry{0.34 0.90
0 0.02 setcmykcolor}DC/RedViolet{0.07 0.90 0 0.34 setcmykcolor}DC
/Fuchsia{0.47 0.91 0 0.08 setcmykcolor}DC/Lavender{0 0.48 0 0
setcmykcolor}DC/Thistle{0.12 0.59 0 0 setcmykcolor}DC/Orchid{0.32 0.64 0
0 setcmykcolor}DC/DarkOrchid{0.40 0.80 0.20 0 setcmykcolor}DC/Purple{
0.45 0.86 0 0 setcmykcolor}DC/Plum{0.50 1 0 0 setcmykcolor}DC/Violet{
0.79 0.88 0 0 setcmykcolor}DC/RoyalPurple{0.75 0.90 0 0 setcmykcolor}DC
/BlueViolet{0.86 0.91 0 0.04 setcmykcolor}DC/Periwinkle{0.57 0.55 0 0
setcmykcolor}DC/CadetBlue{0.62 0.57 0.23 0 setcmykcolor}DC
/CornflowerBlue{0.65 0.13 0 0 setcmykcolor}DC/MidnightBlue{0.98 0.13 0
0.43 setcmykcolor}DC/NavyBlue{0.94 0.54 0 0 setcmykcolor}DC/RoyalBlue{1
0.50 0 0 setcmykcolor}DC/Blue{1 1 0 0 setcmykcolor}DC/Cerulean{0.94 0.11
0 0 setcmykcolor}DC/Cyan{1 0 0 0 setcmykcolor}DC/ProcessBlue{0.96 0 0 0
setcmykcolor}DC/SkyBlue{0.62 0 0.12 0 setcmykcolor}DC/Turquoise{0.85 0
0.20 0 setcmykcolor}DC/TealBlue{0.86 0 0.34 0.02 setcmykcolor}DC
/Aquamarine{0.82 0 0.30 0 setcmykcolor}DC/BlueGreen{0.85 0 0.33 0
setcmykcolor}DC/Emerald{1 0 0.50 0 setcmykcolor}DC/JungleGreen{0.99 0
0.52 0 setcmykcolor}DC/SeaGreen{0.69 0 0.50 0 setcmykcolor}DC/Green{1 0
1 0 setcmykcolor}DC/ForestGreen{0.91 0 0.88 0.12 setcmykcolor}DC
/PineGreen{0.92 0 0.59 0.25 setcmykcolor}DC/LimeGreen{0.50 0 1 0
setcmykcolor}DC/YellowGreen{0.44 0 0.74 0 setcmykcolor}DC/SpringGreen{
0.26 0 0.76 0 setcmykcolor}DC/OliveGreen{0.64 0 0.95 0.40 setcmykcolor}
DC/RawSienna{0 0.72 1 0.45 setcmykcolor}DC/Sepia{0 0.83 1 0.70
setcmykcolor}DC/Brown{0 0.81 1 0.60 setcmykcolor}DC/Tan{0.14 0.42 0.56 0
setcmykcolor}DC/Gray{0 0 0 0.50 setcmykcolor}DC/Black{0 0 0 1
setcmykcolor}DC/White{0 0 0 0 setcmykcolor}DC end
%%EndProcSet
TeXDict begin 40258437 52099154 1000 8000 8000 (fig2ps-env04_cutoff.dvi)
@start end
%%EndProlog
%%BeginSetup
%%Feature: *Resolution 8000dpi
TeXDict begin
 end
%%EndSetup
TeXDict begin 1 0 bop Black Black 8524 102029 a @beginspecial
0 @llx 0 @lly 866 @urx 866 @ury 8660 @rwi @setspecial
%%BeginDocument: fig2ps-env04_cutoff.pstex
%!PS-Adobe-3.0 EPSF-3.0
%%Title: fig2ps-env04_cutoff.fig2
%%Creator: fig2dev Version 3.2 Patchlevel 5e
%%CreationDate: Sun Jan  6 02:04:14 2019
%%BoundingBox: 0 0 866 866
%Magnification: 1.0000
%%EndComments
%%BeginProlog
/$F2psDict 200 dict def
$F2psDict begin
$F2psDict /mtrx matrix put
/col-1 {0 setgray} bind def
/col0 {0.000 0.000 0.000 srgb} bind def
/col1 {0.000 0.000 1.000 srgb} bind def
/col2 {0.000 1.000 0.000 srgb} bind def
/col3 {0.000 1.000 1.000 srgb} bind def
/col4 {1.000 0.000 0.000 srgb} bind def
/col5 {1.000 0.000 1.000 srgb} bind def
/col6 {1.000 1.000 0.000 srgb} bind def
/col7 {1.000 1.000 1.000 srgb} bind def
/col8 {0.000 0.000 0.560 srgb} bind def
/col9 {0.000 0.000 0.690 srgb} bind def
/col10 {0.000 0.000 0.820 srgb} bind def
/col11 {0.530 0.810 1.000 srgb} bind def
/col12 {0.000 0.560 0.000 srgb} bind def
/col13 {0.000 0.690 0.000 srgb} bind def
/col14 {0.000 0.820 0.000 srgb} bind def
/col15 {0.000 0.560 0.560 srgb} bind def
/col16 {0.000 0.690 0.690 srgb} bind def
/col17 {0.000 0.820 0.820 srgb} bind def
/col18 {0.560 0.000 0.000 srgb} bind def
/col19 {0.690 0.000 0.000 srgb} bind def
/col20 {0.820 0.000 0.000 srgb} bind def
/col21 {0.560 0.000 0.560 srgb} bind def
/col22 {0.690 0.000 0.690 srgb} bind def
/col23 {0.820 0.000 0.820 srgb} bind def
/col24 {0.500 0.190 0.000 srgb} bind def
/col25 {0.630 0.250 0.000 srgb} bind def
/col26 {0.750 0.380 0.000 srgb} bind def
/col27 {1.000 0.500 0.500 srgb} bind def
/col28 {1.000 0.630 0.630 srgb} bind def
/col29 {1.000 0.750 0.750 srgb} bind def
/col30 {1.000 0.880 0.880 srgb} bind def
/col31 {1.000 0.840 0.000 srgb} bind def
/col32 {0.306 0.773 0.925 srgb} bind def
/col33 {0.498 0.000 0.000 srgb} bind def
/col34 {0.498 0.122 0.122 srgb} bind def
/col35 {0.624 0.871 0.945 srgb} bind def
/col36 {0.698 0.698 0.698 srgb} bind def
/col37 {0.749 0.000 0.000 srgb} bind def
end
/cp {closepath} bind def
/ef {eofill} bind def
/gr {grestore} bind def
/gs {gsave} bind def
/sa {save} bind def
/rs {restore} bind def
/l {lineto} bind def
/m {moveto} bind def
/rm {rmoveto} bind def
/n {newpath} bind def
/s {stroke} bind def
/sh {show} bind def
/slc {setlinecap} bind def
/slj {setlinejoin} bind def
/slw {setlinewidth} bind def
/srgb {setrgbcolor} bind def
/rot {rotate} bind def
/sc {scale} bind def
/sd {setdash} bind def
/ff {findfont} bind def
/sf {setfont} bind def
/scf {scalefont} bind def
/sw {stringwidth} bind def
/tr {translate} bind def
/tnt {dup dup currentrgbcolor
  4 -2 roll dup 1 exch sub 3 -1 roll mul add
  4 -2 roll dup 1 exch sub 3 -1 roll mul add
  4 -2 roll dup 1 exch sub 3 -1 roll mul add srgb}
  bind def
/shd {dup dup currentrgbcolor 4 -2 roll mul 4 -2 roll mul
  4 -2 roll mul srgb} bind def
 /DrawEllipse {
	/endangle exch def
	/startangle exch def
	/yrad exch def
	/xrad exch def
	/y exch def
	/x exch def
	/savematrix mtrx currentmatrix def
	x y tr xrad yrad sc 0 0 1 startangle endangle arc
	closepath
	savematrix setmatrix
	} def
/$F2psBegin {$F2psDict begin /$F2psEnteredState save def} def
/$F2psEnd {$F2psEnteredState restore end} def
/pageheader {
save
newpath 0 866 moveto 0 0 lineto 866 0 lineto 866 866 lineto closepath clip newpath
72.7 72.7 translate
1 -1 scale
$F2psBegin
10 setmiterlimit
0 slj 0 slc
 0.06000 0.06000 sc
} bind def
/pagefooter {
$F2psEnd
restore
} bind def
%%EndProlog
pageheader
%
% Fig objects follow
%
% 
% here starts figure with depth 50
% Polyline
1 slj
0 slc
7.500 slw
n -1200 1200 m -1200 -13200 l 13200 -13200 l 13200 1200 l
 cp gs 0.00 setgray ef gr gs col0 s gr 
% Polyline
n 0 0 m 0 -12000 l 12000 -12000 l 12000 0 l
 cp gs col7 1.00 shd ef gr gs col7 s gr 
% Polyline
n 253 -11746 m 2003 -11746 l 2003 -253 l 253 -253 l
 cp gs col36 1.00 shd ef gr gs col36 s gr 
% Polyline
n 2026 -7301 m 2072 -7209 l 2234 -7047 l 2257 -7047 l 2280 -7024 l 2303 -7024 l
 2349 -6978 l 2372 -6978 l 2395 -6955 l 2441 -6955 l 2464 -6932 l
 2487 -6932 l 2510 -6909 l 2533 -6909 l 2556 -6886 l 2602 -6886 l
 2625 -6863 l 2671 -6863 l 2694 -6840 l 2740 -6840 l 2763 -6817 l
 2833 -6817 l 2856 -6794 l 2902 -6794 l 2925 -6771 l 2994 -6771 l
 3017 -6748 l 3109 -6748 l 3132 -6725 l 3224 -6725 l 3247 -6702 l
 3362 -6702 l 3385 -6679 l 3500 -6679 l 3523 -6656 l 3685 -6656 l
 3708 -6633 l 3915 -6633 l 3938 -6610 l 4307 -6610 l 4330 -6587 l
 4998 -6587 l 5021 -6610 l 5389 -6610 l 5412 -6633 l 5619 -6633 l
 5642 -6656 l 5642 -253 l 2026 -253 l
 cp gs col36 1.00 shd ef gr gs col36 s gr 
% Polyline
n 5666 -6656 m 5804 -6656 l 5827 -6679 l 5942 -6679 l 5965 -6702 l 6080 -6702 l
 6103 -6725 l 6195 -6725 l 6218 -6748 l 6310 -6748 l 6333 -6771 l
 6403 -6771 l 6426 -6794 l 6472 -6794 l 6495 -6817 l 6564 -6817 l
 6587 -6840 l 6633 -6840 l 6656 -6863 l 6702 -6863 l 6725 -6886 l
 6771 -6886 l 6794 -6909 l 6817 -6909 l 6840 -6932 l 6863 -6932 l
 6886 -6955 l 6932 -6955 l 6955 -6978 l 6978 -6978 l 7024 -7024 l
 7047 -7024 l 7071 -7047 l 7094 -7047 l 7255 -7209 l 7301 -7301 l
 7301 -3938 l 7278 -3915 l 7094 -3915 l 7071 -3892 l 6932 -3892 l
 6909 -3869 l 6794 -3869 l 6771 -3846 l 6679 -3846 l 6656 -3823 l
 6587 -3823 l 6564 -3800 l 6495 -3800 l 6472 -3777 l 6403 -3777 l
 6380 -3754 l 6333 -3754 l 6310 -3731 l 6264 -3731 l 6241 -3708 l
 6195 -3708 l 6172 -3685 l 6149 -3685 l 6126 -3662 l 6103 -3662 l
 6080 -3639 l 6057 -3639 l 6034 -3616 l 6011 -3616 l 5988 -3593 l
 5965 -3593 l 5942 -3570 l 5919 -3570 l 5873 -3523 l 5850 -3523 l
 5712 -3385 l 5689 -3339 l 5666 -3270 l
 cp gs col36 1.00 shd ef gr gs col36 s gr 
% Polyline
n 2026 -11746 m 7301 -11746 l 7301 -7416 l 7255 -7508 l 7094 -7669 l 7071 -7669 l
 7047 -7692 l 7024 -7692 l 6978 -7738 l 6955 -7738 l 6932 -7761 l
 6886 -7761 l 6863 -7785 l 6840 -7785 l 6817 -7808 l 6794 -7808 l
 6771 -7831 l 6725 -7831 l 6702 -7854 l 6656 -7854 l 6633 -7877 l
 6587 -7877 l 6564 -7900 l 6495 -7900 l 6472 -7923 l 6426 -7923 l
 6403 -7946 l 6333 -7946 l 6310 -7969 l 6218 -7969 l 6195 -7992 l
 6103 -7992 l 6080 -8015 l 5965 -8015 l 5942 -8038 l 5827 -8038 l
 5804 -8061 l 5642 -8061 l 5619 -8084 l 5412 -8084 l 5389 -8107 l
 5021 -8107 l 4998 -8130 l 4330 -8130 l 4307 -8107 l 3938 -8107 l
 3915 -8084 l 3708 -8084 l 3685 -8061 l 3523 -8061 l 3500 -8038 l
 3385 -8038 l 3362 -8015 l 3247 -8015 l 3224 -7992 l 3132 -7992 l
 3109 -7969 l 3017 -7969 l 2994 -7946 l 2925 -7946 l 2902 -7923 l
 2856 -7923 l 2833 -7900 l 2763 -7900 l 2740 -7877 l 2694 -7877 l
 2671 -7854 l 2625 -7854 l 2602 -7831 l 2556 -7831 l 2533 -7808 l
 2510 -7808 l 2487 -7785 l 2464 -7785 l 2441 -7761 l 2395 -7761 l
 2372 -7738 l 2349 -7738 l 2303 -7692 l 2280 -7692 l 2257 -7669 l
 2234 -7669 l 2072 -7508 l 2026 -7416 l
 cp gs col36 1.00 shd ef gr gs col36 s gr 
% Polyline
n 5666 -3178 m 5689 -3109 l 5712 -3063 l 5850 -2925 l 5873 -2925 l 5919 -2879 l
 5942 -2879 l 5965 -2856 l 5988 -2856 l 6011 -2833 l 6034 -2833 l
 6057 -2809 l 6080 -2809 l 6103 -2786 l 6126 -2786 l 6149 -2763 l
 6172 -2763 l 6195 -2740 l 6241 -2740 l 6264 -2717 l 6310 -2717 l
 6333 -2694 l 6380 -2694 l 6403 -2671 l 6472 -2671 l 6495 -2648 l
 6564 -2648 l 6587 -2625 l 6656 -2625 l 6679 -2602 l 6771 -2602 l
 6794 -2579 l 6909 -2579 l 6932 -2556 l 7071 -2556 l 7094 -2533 l
 7278 -2533 l 7301 -2510 l 7600 -2510 l 7623 -2487 l 8222 -2487 l
 8245 -2510 l 8545 -2510 l 8568 -2533 l 8752 -2533 l 8775 -2556 l
 8913 -2556 l 8936 -2579 l 9051 -2579 l 9074 -2602 l 9166 -2602 l
 9190 -2625 l 9259 -2625 l 9282 -2648 l 9351 -2648 l 9374 -2671 l
 9443 -2671 l 9466 -2694 l 9512 -2694 l 9535 -2717 l 9581 -2717 l
 9604 -2740 l 9650 -2740 l 9673 -2763 l 9696 -2763 l 9719 -2786 l
 9742 -2786 l 9765 -2809 l 9788 -2809 l 9811 -2833 l 9834 -2833 l
 9857 -2856 l 9880 -2856 l 9904 -2879 l 9927 -2879 l 9973 -2925 l
 9996 -2925 l 10134 -3063 l 10157 -3109 l 10180 -3178 l 10180 -253 l
 5666 -253 l
 cp gs col36 1.00 shd ef gr gs col36 s gr 
% Polyline
n 7324 -11746 m 10180 -11746 l 10180 -3270 l 10157 -3339 l 10134 -3385 l 9996 -3523 l
 9973 -3523 l 9927 -3570 l 9904 -3570 l 9880 -3593 l 9857 -3593 l
 9834 -3616 l 9811 -3616 l 9788 -3639 l 9765 -3639 l 9742 -3662 l
 9719 -3662 l 9696 -3685 l 9673 -3685 l 9650 -3708 l 9604 -3708 l
 9581 -3731 l 9535 -3731 l 9512 -3754 l 9466 -3754 l 9443 -3777 l
 9374 -3777 l 9351 -3800 l 9282 -3800 l 9259 -3823 l 9190 -3823 l
 9166 -3846 l 9074 -3846 l 9051 -3869 l 8936 -3869 l 8913 -3892 l
 8775 -3892 l 8752 -3915 l 8568 -3915 l 8545 -3938 l 8245 -3938 l
 8222 -3961 l 7623 -3961 l 7600 -3938 l 7324 -3938 l
 cp gs col36 1.00 shd ef gr gs col36 s gr 
% Polyline
n 10203 -11746 m 11746 -11746 l 11746 -253 l 10203 -253 l
 cp gs col36 1.00 shd ef gr gs col36 s gr 
% Polyline
n 253 -11746 m 472 -11746 l 472 -253 l 253 -253 l
 cp gs col32 1.00 shd ef gr gs col32 s gr 
% Polyline
n 472 -11746 m 690 -11746 l 690 -253 l 472 -253 l
 cp gs col35 1.00 shd ef gr gs col35 s gr 
% Polyline
n 690 -11746 m 909 -11746 l 909 -253 l 690 -253 l
 cp gs col32 1.00 shd ef gr gs col32 s gr 
% Polyline
n 909 -11746 m 1128 -11746 l 1128 -253 l 909 -253 l
 cp gs col35 1.00 shd ef gr gs col35 s gr 
% Polyline
n 1128 -11746 m 1347 -11746 l 1347 -253 l 1128 -253 l
 cp gs col32 1.00 shd ef gr gs col32 s gr 
% Polyline
n 1347 -11746 m 1566 -11746 l 1566 -253 l 1347 -253 l
 cp gs col35 1.00 shd ef gr gs col35 s gr 
% Polyline
n 1566 -11746 m 1785 -11746 l 1785 -253 l 1566 -253 l
 cp gs col32 1.00 shd ef gr gs col32 s gr 
% Polyline
n 1785 -11746 m 2003 -11746 l 2003 -253 l 1785 -253 l
 cp gs col35 1.00 shd ef gr gs col35 s gr 
% Polyline
n 2026 -7301 m 2252 -7047 l 2252 -253 l 2026 -253 l
 cp gs col32 1.00 shd ef gr gs col32 s gr 
% Polyline
n 2252 -7047 m 2478 -6932 l 2478 -253 l 2252 -253 l
 cp gs col35 1.00 shd ef gr gs col35 s gr 
% Polyline
n 2478 -6932 m 2704 -6840 l 2704 -253 l 2478 -253 l
 cp gs col32 1.00 shd ef gr gs col32 s gr 
% Polyline
n 2704 -6840 m 2930 -6771 l 2930 -253 l 2704 -253 l
 cp gs col35 1.00 shd ef gr gs col35 s gr 
% Polyline
n 2930 -6771 m 3156 -6725 l 3156 -253 l 2930 -253 l
 cp gs col32 1.00 shd ef gr gs col32 s gr 
% Polyline
n 3156 -6725 m 3382 -6682 l 3382 -253 l 3156 -253 l
 cp gs col35 1.00 shd ef gr gs col35 s gr 
% Polyline
n 3382 -6682 m 3608 -6656 l 3608 -253 l 3382 -253 l
 cp gs col32 1.00 shd ef gr gs col32 s gr 
% Polyline
n 3608 -6656 m 3834 -6633 l 3834 -253 l 3608 -253 l
 cp gs col35 1.00 shd ef gr gs col35 s gr 
% Polyline
n 3834 -6633 m 4060 -6610 l 4060 -253 l 3834 -253 l
 cp gs col32 1.00 shd ef gr gs col32 s gr 
% Polyline
n 4060 -6610 m 4286 -6610 l 4286 -253 l 4060 -253 l
 cp gs col35 1.00 shd ef gr gs col35 s gr 
% Polyline
n 4286 -6610 m 4512 -6587 l 4512 -253 l 4286 -253 l
 cp gs col32 1.00 shd ef gr gs col32 s gr 
% Polyline
n 4512 -6587 m 4738 -6587 l 4738 -253 l 4512 -253 l
 cp gs col35 1.00 shd ef gr gs col35 s gr 
% Polyline
n 4738 -6587 m 4964 -6587 l 4964 -253 l 4738 -253 l
 cp gs col32 1.00 shd ef gr gs col32 s gr 
% Polyline
n 4964 -6587 m 5190 -6610 l 5190 -253 l 4964 -253 l
 cp gs col35 1.00 shd ef gr gs col35 s gr 
% Polyline
n 5190 -6610 m 5416 -6633 l 5416 -253 l 5190 -253 l
 cp gs col32 1.00 shd ef gr gs col32 s gr 
% Polyline
n 5416 -6633 m 5642 -6656 l 5642 -253 l 5416 -253 l
 cp gs col35 1.00 shd ef gr gs col35 s gr 
% Polyline
n 5666 -6656 m 5870 -6679 l 5870 -3523 l 5666 -3270 l
 cp gs col32 1.00 shd ef gr gs col32 s gr 
% Polyline
n 5870 -6679 m 6074 -6702 l 6074 -3639 l 5870 -3523 l
 cp gs col35 1.00 shd ef gr gs col35 s gr 
% Polyline
n 6074 -6702 m 6279 -6748 l 6279 -3731 l 6074 -3639 l
 cp gs col32 1.00 shd ef gr gs col32 s gr 
% Polyline
n 6279 -6748 m 6483 -6806 l 6483 -3788 l 6279 -3731 l
 cp gs col35 1.00 shd ef gr gs col35 s gr 
% Polyline
n 6483 -6806 m 6688 -6863 l 6688 -3846 l 6483 -3788 l
 cp gs col32 1.00 shd ef gr gs col32 s gr 
% Polyline
n 6688 -6863 m 6892 -6955 l 6892 -3869 l 6688 -3846 l
 cp gs col35 1.00 shd ef gr gs col35 s gr 
% Polyline
n 6892 -6955 m 7096 -7050 l 7096 -3915 l 6892 -3869 l
 cp gs col32 1.00 shd ef gr gs col32 s gr 
% Polyline
n 7096 -7050 m 7301 -7301 l 7301 -3938 l 7096 -3915 l
 cp gs col35 1.00 shd ef gr gs col35 s gr 
% Polyline
n 2026 -11746 m 2256 -11746 l 2256 -7669 l 2026 -7416 l
 cp gs col32 1.00 shd ef gr gs col32 s gr 
% Polyline
n 2256 -11746 m 2485 -11746 l 2485 -7785 l 2256 -7669 l
 cp gs col35 1.00 shd ef gr gs col35 s gr 
% Polyline
n 2485 -11746 m 2714 -11746 l 2714 -7877 l 2485 -7785 l
 cp gs col32 1.00 shd ef gr gs col32 s gr 
% Polyline
n 2714 -11746 m 2944 -11746 l 2944 -7946 l 2714 -7877 l
 cp gs col35 1.00 shd ef gr gs col35 s gr 
% Polyline
n 2944 -11746 m 3173 -11746 l 3173 -7992 l 2944 -7946 l
 cp gs col32 1.00 shd ef gr gs col32 s gr 
% Polyline
n 3173 -11746 m 3402 -11746 l 3402 -8038 l 3173 -7992 l
 cp gs col35 1.00 shd ef gr gs col35 s gr 
% Polyline
n 3402 -11746 m 3632 -11746 l 3632 -8061 l 3402 -8038 l
 cp gs col32 1.00 shd ef gr gs col32 s gr 
% Polyline
n 3632 -11746 m 3861 -11746 l 3861 -8084 l 3632 -8061 l
 cp gs col35 1.00 shd ef gr gs col35 s gr 
% Polyline
n 3861 -11746 m 4090 -11746 l 4090 -8107 l 3861 -8084 l
 cp gs col32 1.00 shd ef gr gs col32 s gr 
% Polyline
n 4090 -11746 m 4320 -11746 l 4320 -8120 l 4090 -8107 l
 cp gs col35 1.00 shd ef gr gs col35 s gr 
% Polyline
n 4320 -11746 m 4549 -11746 l 4549 -8130 l 4320 -8120 l
 cp gs col32 1.00 shd ef gr gs col32 s gr 
% Polyline
n 4549 -11746 m 4778 -11746 l 4778 -8130 l 4549 -8130 l
 cp gs col35 1.00 shd ef gr gs col35 s gr 
% Polyline
n 4778 -11746 m 5008 -11746 l 5008 -8120 l 4778 -8130 l
 cp gs col32 1.00 shd ef gr gs col32 s gr 
% Polyline
n 5008 -11746 m 5237 -11746 l 5237 -8107 l 5008 -8120 l
 cp gs col35 1.00 shd ef gr gs col35 s gr 
% Polyline
n 5237 -11746 m 5466 -11746 l 5466 -8084 l 5237 -8107 l
 cp gs col32 1.00 shd ef gr gs col32 s gr 
% Polyline
n 5466 -11746 m 5696 -11746 l 5696 -8061 l 5466 -8084 l
 cp gs col35 1.00 shd ef gr gs col35 s gr 
% Polyline
n 5696 -11746 m 5925 -11746 l 5925 -8038 l 5696 -8061 l
 cp gs col32 1.00 shd ef gr gs col32 s gr 
% Polyline
n 5925 -11746 m 6154 -11746 l 6154 -7992 l 5925 -8038 l
 cp gs col35 1.00 shd ef gr gs col35 s gr 
% Polyline
n 6154 -11746 m 6384 -11746 l 6384 -7946 l 6154 -7992 l
 cp gs col32 1.00 shd ef gr gs col32 s gr 
% Polyline
n 6384 -11746 m 6613 -11746 l 6613 -7877 l 6384 -7946 l
 cp gs col35 1.00 shd ef gr gs col35 s gr 
% Polyline
n 6613 -11746 m 6842 -11746 l 6842 -7785 l 6613 -7877 l
 cp gs col32 1.00 shd ef gr gs col32 s gr 
% Polyline
n 6842 -11746 m 7072 -11746 l 7072 -7669 l 6842 -7785 l
 cp gs col35 1.00 shd ef gr gs col35 s gr 
% Polyline
n 7072 -11746 m 7301 -11746 l 7301 -7416 l 7072 -7669 l
 cp gs col32 1.00 shd ef gr gs col32 s gr 
% Polyline
n 5666 -3178 m 5891 -2906 l 5891 -253 l 5666 -253 l
 cp gs col35 1.00 shd ef gr gs col35 s gr 
% Polyline
n 5891 -2906 m 6117 -2786 l 6117 -253 l 5891 -253 l
 cp gs col32 1.00 shd ef gr gs col32 s gr 
% Polyline
n 6117 -2786 m 6343 -2694 l 6343 -253 l 6117 -253 l
 cp gs col35 1.00 shd ef gr gs col35 s gr 
% Polyline
n 6343 -2694 m 6568 -2644 l 6568 -253 l 6343 -253 l
 cp gs col32 1.00 shd ef gr gs col32 s gr 
% Polyline
n 6568 -2644 m 6794 -2579 l 6794 -253 l 6568 -253 l
 cp gs col35 1.00 shd ef gr gs col35 s gr 
% Polyline
n 6794 -2579 m 7020 -2556 l 7020 -253 l 6794 -253 l
 cp gs col32 1.00 shd ef gr gs col32 s gr 
% Polyline
n 7020 -2556 m 7246 -2533 l 7246 -253 l 7020 -253 l
 cp gs col35 1.00 shd ef gr gs col35 s gr 
% Polyline
n 7246 -2533 m 7471 -2510 l 7471 -253 l 7246 -253 l
 cp gs col32 1.00 shd ef gr gs col32 s gr 
% Polyline
n 7471 -2510 m 7697 -2487 l 7697 -253 l 7471 -253 l
 cp gs col35 1.00 shd ef gr gs col35 s gr 
% Polyline
n 7697 -2487 m 7923 -2487 l 7923 -253 l 7697 -253 l
 cp gs col32 1.00 shd ef gr gs col32 s gr 
% Polyline
n 7923 -2487 m 8148 -2487 l 8148 -253 l 7923 -253 l
 cp gs col35 1.00 shd ef gr gs col35 s gr 
% Polyline
n 8148 -2487 m 8374 -2510 l 8374 -253 l 8148 -253 l
 cp gs col32 1.00 shd ef gr gs col32 s gr 
% Polyline
n 8374 -2510 m 8600 -2533 l 8600 -253 l 8374 -253 l
 cp gs col35 1.00 shd ef gr gs col35 s gr 
% Polyline
n 8600 -2533 m 8826 -2556 l 8826 -253 l 8600 -253 l
 cp gs col32 1.00 shd ef gr gs col32 s gr 
% Polyline
n 8826 -2556 m 9051 -2579 l 9051 -253 l 8826 -253 l
 cp gs col35 1.00 shd ef gr gs col35 s gr 
% Polyline
n 9051 -2579 m 9277 -2644 l 9277 -253 l 9051 -253 l
 cp gs col32 1.00 shd ef gr gs col32 s gr 
% Polyline
n 9277 -2644 m 9503 -2694 l 9503 -253 l 9277 -253 l
 cp gs col35 1.00 shd ef gr gs col35 s gr 
% Polyline
n 9503 -2694 m 9728 -2786 l 9728 -253 l 9503 -253 l
 cp gs col32 1.00 shd ef gr gs col32 s gr 
% Polyline
n 9728 -2786 m 9954 -2906 l 9954 -253 l 9728 -253 l
 cp gs col35 1.00 shd ef gr gs col35 s gr 
% Polyline
n 9954 -2906 m 10180 -3178 l 10180 -253 l 9954 -253 l
 cp gs col32 1.00 shd ef gr gs col32 s gr 
% Polyline
n 7324 -11746 m 7544 -11746 l 7544 -3938 l 7324 -3938 l
 cp gs col35 1.00 shd ef gr gs col35 s gr 
% Polyline
n 7544 -11746 m 7763 -11746 l 7763 -3961 l 7544 -3938 l
 cp gs col32 1.00 shd ef gr gs col32 s gr 
% Polyline
n 7763 -11746 m 7983 -11746 l 7983 -3961 l 7763 -3961 l
 cp gs col35 1.00 shd ef gr gs col35 s gr 
% Polyline
n 7983 -11746 m 8203 -11746 l 8203 -3961 l 7983 -3961 l
 cp gs col32 1.00 shd ef gr gs col32 s gr 
% Polyline
n 8203 -11746 m 8422 -11746 l 8422 -3938 l 8203 -3961 l
 cp gs col35 1.00 shd ef gr gs col35 s gr 
% Polyline
n 8422 -11746 m 8642 -11746 l 8642 -3915 l 8422 -3938 l
 cp gs col32 1.00 shd ef gr gs col32 s gr 
% Polyline
n 8642 -11746 m 8862 -11746 l 8862 -3892 l 8642 -3915 l
 cp gs col35 1.00 shd ef gr gs col35 s gr 
% Polyline
n 8862 -11746 m 9081 -11746 l 9081 -3846 l 8862 -3892 l
 cp gs col32 1.00 shd ef gr gs col32 s gr 
% Polyline
n 9081 -11746 m 9301 -11746 l 9301 -3800 l 9081 -3846 l
 cp gs col35 1.00 shd ef gr gs col35 s gr 
% Polyline
n 9301 -11746 m 9521 -11746 l 9521 -3745 l 9301 -3800 l
 cp gs col32 1.00 shd ef gr gs col32 s gr 
% Polyline
n 9521 -11746 m 9741 -11746 l 9741 -3662 l 9521 -3745 l
 cp gs col35 1.00 shd ef gr gs col35 s gr 
% Polyline
n 9741 -11746 m 9960 -11746 l 9960 -3536 l 9741 -3662 l
 cp gs col32 1.00 shd ef gr gs col32 s gr 
% Polyline
n 9960 -11746 m 10180 -11746 l 10180 -3270 l 9960 -3536 l
 cp gs col35 1.00 shd ef gr gs col35 s gr 
% Polyline
n 10203 -11746 m 10423 -11746 l 10423 -253 l 10203 -253 l
 cp gs col32 1.00 shd ef gr gs col32 s gr 
% Polyline
n 10423 -11746 m 10644 -11746 l 10644 -253 l 10423 -253 l
 cp gs col35 1.00 shd ef gr gs col35 s gr 
% Polyline
n 10644 -11746 m 10864 -11746 l 10864 -253 l 10644 -253 l
 cp gs col32 1.00 shd ef gr gs col32 s gr 
% Polyline
n 10864 -11746 m 11085 -11746 l 11085 -253 l 10864 -253 l
 cp gs col35 1.00 shd ef gr gs col35 s gr 
% Polyline
n 11085 -11746 m 11305 -11746 l 11305 -253 l 11085 -253 l
 cp gs col32 1.00 shd ef gr gs col32 s gr 
% Polyline
n 11305 -11746 m 11526 -11746 l 11526 -253 l 11305 -253 l
 cp gs col35 1.00 shd ef gr gs col35 s gr 
% Polyline
n 11526 -11746 m 11746 -11746 l 11746 -253 l 11526 -253 l
 cp gs col32 1.00 shd ef gr gs col32 s gr 
% Ellipse
n 5303 -6633 115 115 0 360 DrawEllipse gs col4 1.00 shd ef gr gs col4 s gr
% Polyline
n 253 -11746 m 2003 -11746 l 2003 -253 l 253 -253 l
 cp gs col0 s gr 
% Polyline
n 2026 -7301 m 2072 -7209 l 2234 -7047 l 2257 -7047 l 2280 -7024 l 2303 -7024 l
 2349 -6978 l 2372 -6978 l 2395 -6955 l 2441 -6955 l 2464 -6932 l
 2487 -6932 l 2510 -6909 l 2533 -6909 l 2556 -6886 l 2602 -6886 l
 2625 -6863 l 2671 -6863 l 2694 -6840 l 2740 -6840 l 2763 -6817 l
 2833 -6817 l 2856 -6794 l 2902 -6794 l 2925 -6771 l 2994 -6771 l
 3017 -6748 l 3109 -6748 l 3132 -6725 l 3224 -6725 l 3247 -6702 l
 3362 -6702 l 3385 -6679 l 3500 -6679 l 3523 -6656 l 3685 -6656 l
 3708 -6633 l 3915 -6633 l 3938 -6610 l 4307 -6610 l 4330 -6587 l
 4998 -6587 l 5021 -6610 l 5389 -6610 l 5412 -6633 l 5619 -6633 l
 5642 -6656 l 5642 -253 l 2026 -253 l
 cp gs col0 s gr 
% Polyline
n 5666 -6656 m 5804 -6656 l 5827 -6679 l 5942 -6679 l 5965 -6702 l 6080 -6702 l
 6103 -6725 l 6195 -6725 l 6218 -6748 l 6310 -6748 l 6333 -6771 l
 6403 -6771 l 6426 -6794 l 6472 -6794 l 6495 -6817 l 6564 -6817 l
 6587 -6840 l 6633 -6840 l 6656 -6863 l 6702 -6863 l 6725 -6886 l
 6771 -6886 l 6794 -6909 l 6817 -6909 l 6840 -6932 l 6863 -6932 l
 6886 -6955 l 6932 -6955 l 6955 -6978 l 6978 -6978 l 7024 -7024 l
 7047 -7024 l 7071 -7047 l 7094 -7047 l 7255 -7209 l 7301 -7301 l
 7301 -3938 l 7278 -3915 l 7094 -3915 l 7071 -3892 l 6932 -3892 l
 6909 -3869 l 6794 -3869 l 6771 -3846 l 6679 -3846 l 6656 -3823 l
 6587 -3823 l 6564 -3800 l 6495 -3800 l 6472 -3777 l 6403 -3777 l
 6380 -3754 l 6333 -3754 l 6310 -3731 l 6264 -3731 l 6241 -3708 l
 6195 -3708 l 6172 -3685 l 6149 -3685 l 6126 -3662 l 6103 -3662 l
 6080 -3639 l 6057 -3639 l 6034 -3616 l 6011 -3616 l 5988 -3593 l
 5965 -3593 l 5942 -3570 l 5919 -3570 l 5873 -3523 l 5850 -3523 l
 5712 -3385 l 5689 -3339 l 5666 -3270 l
 cp gs col0 s gr 
% Polyline
n 2026 -11746 m 7301 -11746 l 7301 -7416 l 7255 -7508 l 7094 -7669 l 7071 -7669 l
 7047 -7692 l 7024 -7692 l 6978 -7738 l 6955 -7738 l 6932 -7761 l
 6886 -7761 l 6863 -7785 l 6840 -7785 l 6817 -7808 l 6794 -7808 l
 6771 -7831 l 6725 -7831 l 6702 -7854 l 6656 -7854 l 6633 -7877 l
 6587 -7877 l 6564 -7900 l 6495 -7900 l 6472 -7923 l 6426 -7923 l
 6403 -7946 l 6333 -7946 l 6310 -7969 l 6218 -7969 l 6195 -7992 l
 6103 -7992 l 6080 -8015 l 5965 -8015 l 5942 -8038 l 5827 -8038 l
 5804 -8061 l 5642 -8061 l 5619 -8084 l 5412 -8084 l 5389 -8107 l
 5021 -8107 l 4998 -8130 l 4330 -8130 l 4307 -8107 l 3938 -8107 l
 3915 -8084 l 3708 -8084 l 3685 -8061 l 3523 -8061 l 3500 -8038 l
 3385 -8038 l 3362 -8015 l 3247 -8015 l 3224 -7992 l 3132 -7992 l
 3109 -7969 l 3017 -7969 l 2994 -7946 l 2925 -7946 l 2902 -7923 l
 2856 -7923 l 2833 -7900 l 2763 -7900 l 2740 -7877 l 2694 -7877 l
 2671 -7854 l 2625 -7854 l 2602 -7831 l 2556 -7831 l 2533 -7808 l
 2510 -7808 l 2487 -7785 l 2464 -7785 l 2441 -7761 l 2395 -7761 l
 2372 -7738 l 2349 -7738 l 2303 -7692 l 2280 -7692 l 2257 -7669 l
 2234 -7669 l 2072 -7508 l 2026 -7416 l
 cp gs col0 s gr 
% Polyline
n 5666 -3178 m 5689 -3109 l 5712 -3063 l 5850 -2925 l 5873 -2925 l 5919 -2879 l
 5942 -2879 l 5965 -2856 l 5988 -2856 l 6011 -2833 l 6034 -2833 l
 6057 -2809 l 6080 -2809 l 6103 -2786 l 6126 -2786 l 6149 -2763 l
 6172 -2763 l 6195 -2740 l 6241 -2740 l 6264 -2717 l 6310 -2717 l
 6333 -2694 l 6380 -2694 l 6403 -2671 l 6472 -2671 l 6495 -2648 l
 6564 -2648 l 6587 -2625 l 6656 -2625 l 6679 -2602 l 6771 -2602 l
 6794 -2579 l 6909 -2579 l 6932 -2556 l 7071 -2556 l 7094 -2533 l
 7278 -2533 l 7301 -2510 l 7600 -2510 l 7623 -2487 l 8222 -2487 l
 8245 -2510 l 8545 -2510 l 8568 -2533 l 8752 -2533 l 8775 -2556 l
 8913 -2556 l 8936 -2579 l 9051 -2579 l 9074 -2602 l 9166 -2602 l
 9190 -2625 l 9259 -2625 l 9282 -2648 l 9351 -2648 l 9374 -2671 l
 9443 -2671 l 9466 -2694 l 9512 -2694 l 9535 -2717 l 9581 -2717 l
 9604 -2740 l 9650 -2740 l 9673 -2763 l 9696 -2763 l 9719 -2786 l
 9742 -2786 l 9765 -2809 l 9788 -2809 l 9811 -2833 l 9834 -2833 l
 9857 -2856 l 9880 -2856 l 9904 -2879 l 9927 -2879 l 9973 -2925 l
 9996 -2925 l 10134 -3063 l 10157 -3109 l 10180 -3178 l 10180 -253 l
 5666 -253 l
 cp gs col0 s gr 
% Polyline
n 7324 -11746 m 10180 -11746 l 10180 -3270 l 10157 -3339 l 10134 -3385 l 9996 -3523 l
 9973 -3523 l 9927 -3570 l 9904 -3570 l 9880 -3593 l 9857 -3593 l
 9834 -3616 l 9811 -3616 l 9788 -3639 l 9765 -3639 l 9742 -3662 l
 9719 -3662 l 9696 -3685 l 9673 -3685 l 9650 -3708 l 9604 -3708 l
 9581 -3731 l 9535 -3731 l 9512 -3754 l 9466 -3754 l 9443 -3777 l
 9374 -3777 l 9351 -3800 l 9282 -3800 l 9259 -3823 l 9190 -3823 l
 9166 -3846 l 9074 -3846 l 9051 -3869 l 8936 -3869 l 8913 -3892 l
 8775 -3892 l 8752 -3915 l 8568 -3915 l 8545 -3938 l 8245 -3938 l
 8222 -3961 l 7623 -3961 l 7600 -3938 l 7324 -3938 l
 cp gs col0 s gr 
% Polyline
n 10203 -11746 m 11746 -11746 l 11746 -253 l 10203 -253 l
 cp gs col0 s gr 
% Polyline
n 253 -11746 m 472 -11746 l 472 -253 l 253 -253 l
 cp gs col0 s gr 
% Polyline
n 472 -11746 m 690 -11746 l 690 -253 l 472 -253 l
 cp gs col0 s gr 
% Polyline
n 690 -11746 m 909 -11746 l 909 -253 l 690 -253 l
 cp gs col0 s gr 
% Polyline
n 909 -11746 m 1128 -11746 l 1128 -253 l 909 -253 l
 cp gs col0 s gr 
% Polyline
n 1128 -11746 m 1347 -11746 l 1347 -253 l 1128 -253 l
 cp gs col0 s gr 
% Polyline
n 1347 -11746 m 1566 -11746 l 1566 -253 l 1347 -253 l
 cp gs col0 s gr 
% Polyline
n 1566 -11746 m 1785 -11746 l 1785 -253 l 1566 -253 l
 cp gs col0 s gr 
% Polyline
n 1785 -11746 m 2003 -11746 l 2003 -253 l 1785 -253 l
 cp gs col0 s gr 
% Polyline
n 2026 -7301 m 2252 -7047 l 2252 -253 l 2026 -253 l
 cp gs col0 s gr 
% Polyline
n 2252 -7047 m 2478 -6932 l 2478 -253 l 2252 -253 l
 cp gs col0 s gr 
% Polyline
n 2478 -6932 m 2704 -6840 l 2704 -253 l 2478 -253 l
 cp gs col0 s gr 
% Polyline
n 2704 -6840 m 2930 -6771 l 2930 -253 l 2704 -253 l
 cp gs col0 s gr 
% Polyline
n 2930 -6771 m 3156 -6725 l 3156 -253 l 2930 -253 l
 cp gs col0 s gr 
% Polyline
n 3156 -6725 m 3382 -6682 l 3382 -253 l 3156 -253 l
 cp gs col0 s gr 
% Polyline
n 3382 -6682 m 3608 -6656 l 3608 -253 l 3382 -253 l
 cp gs col0 s gr 
% Polyline
n 3608 -6656 m 3834 -6633 l 3834 -253 l 3608 -253 l
 cp gs col0 s gr 
% Polyline
n 3834 -6633 m 4060 -6610 l 4060 -253 l 3834 -253 l
 cp gs col0 s gr 
% Polyline
n 4060 -6610 m 4286 -6610 l 4286 -253 l 4060 -253 l
 cp gs col0 s gr 
% Polyline
n 4286 -6610 m 4512 -6587 l 4512 -253 l 4286 -253 l
 cp gs col0 s gr 
% Polyline
n 4512 -6587 m 4738 -6587 l 4738 -253 l 4512 -253 l
 cp gs col0 s gr 
% Polyline
n 4738 -6587 m 4964 -6587 l 4964 -253 l 4738 -253 l
 cp gs col0 s gr 
% Polyline
n 4964 -6587 m 5190 -6610 l 5190 -253 l 4964 -253 l
 cp gs col0 s gr 
% Polyline
n 5190 -6610 m 5416 -6633 l 5416 -253 l 5190 -253 l
 cp gs col0 s gr 
% Polyline
n 5416 -6633 m 5642 -6656 l 5642 -253 l 5416 -253 l
 cp gs col0 s gr 
% Polyline
n 5666 -6656 m 5870 -6679 l 5870 -3523 l 5666 -3270 l
 cp gs col0 s gr 
% Polyline
n 5870 -6679 m 6074 -6702 l 6074 -3639 l 5870 -3523 l
 cp gs col0 s gr 
% Polyline
n 6074 -6702 m 6279 -6748 l 6279 -3731 l 6074 -3639 l
 cp gs col0 s gr 
% Polyline
n 6279 -6748 m 6483 -6806 l 6483 -3788 l 6279 -3731 l
 cp gs col0 s gr 
% Polyline
n 6483 -6806 m 6688 -6863 l 6688 -3846 l 6483 -3788 l
 cp gs col0 s gr 
% Polyline
n 6688 -6863 m 6892 -6955 l 6892 -3869 l 6688 -3846 l
 cp gs col0 s gr 
% Polyline
n 6892 -6955 m 7096 -7050 l 7096 -3915 l 6892 -3869 l
 cp gs col0 s gr 
% Polyline
n 7096 -7050 m 7301 -7301 l 7301 -3938 l 7096 -3915 l
 cp gs col0 s gr 
% Polyline
n 2026 -11746 m 2256 -11746 l 2256 -7669 l 2026 -7416 l
 cp gs col0 s gr 
% Polyline
n 2256 -11746 m 2485 -11746 l 2485 -7785 l 2256 -7669 l
 cp gs col0 s gr 
% Polyline
n 2485 -11746 m 2714 -11746 l 2714 -7877 l 2485 -7785 l
 cp gs col0 s gr 
% Polyline
n 2714 -11746 m 2944 -11746 l 2944 -7946 l 2714 -7877 l
 cp gs col0 s gr 
% Polyline
n 2944 -11746 m 3173 -11746 l 3173 -7992 l 2944 -7946 l
 cp gs col0 s gr 
% Polyline
n 3173 -11746 m 3402 -11746 l 3402 -8038 l 3173 -7992 l
 cp gs col0 s gr 
% Polyline
n 3402 -11746 m 3632 -11746 l 3632 -8061 l 3402 -8038 l
 cp gs col0 s gr 
% Polyline
n 3632 -11746 m 3861 -11746 l 3861 -8084 l 3632 -8061 l
 cp gs col0 s gr 
% Polyline
n 3861 -11746 m 4090 -11746 l 4090 -8107 l 3861 -8084 l
 cp gs col0 s gr 
% Polyline
n 4090 -11746 m 4320 -11746 l 4320 -8120 l 4090 -8107 l
 cp gs col0 s gr 
% Polyline
n 4320 -11746 m 4549 -11746 l 4549 -8130 l 4320 -8120 l
 cp gs col0 s gr 
% Polyline
n 4549 -11746 m 4778 -11746 l 4778 -8130 l 4549 -8130 l
 cp gs col0 s gr 
% Polyline
n 4778 -11746 m 5008 -11746 l 5008 -8120 l 4778 -8130 l
 cp gs col0 s gr 
% Polyline
n 5008 -11746 m 5237 -11746 l 5237 -8107 l 5008 -8120 l
 cp gs col0 s gr 
% Polyline
n 5237 -11746 m 5466 -11746 l 5466 -8084 l 5237 -8107 l
 cp gs col0 s gr 
% Polyline
n 5466 -11746 m 5696 -11746 l 5696 -8061 l 5466 -8084 l
 cp gs col0 s gr 
% Polyline
n 5696 -11746 m 5925 -11746 l 5925 -8038 l 5696 -8061 l
 cp gs col0 s gr 
% Polyline
n 5925 -11746 m 6154 -11746 l 6154 -7992 l 5925 -8038 l
 cp gs col0 s gr 
% Polyline
n 6154 -11746 m 6384 -11746 l 6384 -7946 l 6154 -7992 l
 cp gs col0 s gr 
% Polyline
n 6384 -11746 m 6613 -11746 l 6613 -7877 l 6384 -7946 l
 cp gs col0 s gr 
% Polyline
n 6613 -11746 m 6842 -11746 l 6842 -7785 l 6613 -7877 l
 cp gs col0 s gr 
% Polyline
n 6842 -11746 m 7072 -11746 l 7072 -7669 l 6842 -7785 l
 cp gs col0 s gr 
% Polyline
n 7072 -11746 m 7301 -11746 l 7301 -7416 l 7072 -7669 l
 cp gs col0 s gr 
% Polyline
n 5666 -3178 m 5891 -2906 l 5891 -253 l 5666 -253 l
 cp gs col0 s gr 
% Polyline
n 5891 -2906 m 6117 -2786 l 6117 -253 l 5891 -253 l
 cp gs col0 s gr 
% Polyline
n 6117 -2786 m 6343 -2694 l 6343 -253 l 6117 -253 l
 cp gs col0 s gr 
% Polyline
n 6343 -2694 m 6568 -2644 l 6568 -253 l 6343 -253 l
 cp gs col0 s gr 
% Polyline
n 6568 -2644 m 6794 -2579 l 6794 -253 l 6568 -253 l
 cp gs col0 s gr 
% Polyline
n 6794 -2579 m 7020 -2556 l 7020 -253 l 6794 -253 l
 cp gs col0 s gr 
% Polyline
n 7020 -2556 m 7246 -2533 l 7246 -253 l 7020 -253 l
 cp gs col0 s gr 
% Polyline
n 7246 -2533 m 7471 -2510 l 7471 -253 l 7246 -253 l
 cp gs col0 s gr 
% Polyline
n 7471 -2510 m 7697 -2487 l 7697 -253 l 7471 -253 l
 cp gs col0 s gr 
% Polyline
n 7697 -2487 m 7923 -2487 l 7923 -253 l 7697 -253 l
 cp gs col0 s gr 
% Polyline
n 7923 -2487 m 8148 -2487 l 8148 -253 l 7923 -253 l
 cp gs col0 s gr 
% Polyline
n 8148 -2487 m 8374 -2510 l 8374 -253 l 8148 -253 l
 cp gs col0 s gr 
% Polyline
n 8374 -2510 m 8600 -2533 l 8600 -253 l 8374 -253 l
 cp gs col0 s gr 
% Polyline
n 8600 -2533 m 8826 -2556 l 8826 -253 l 8600 -253 l
 cp gs col0 s gr 
% Polyline
n 8826 -2556 m 9051 -2579 l 9051 -253 l 8826 -253 l
 cp gs col0 s gr 
% Polyline
n 9051 -2579 m 9277 -2644 l 9277 -253 l 9051 -253 l
 cp gs col0 s gr 
% Polyline
n 9277 -2644 m 9503 -2694 l 9503 -253 l 9277 -253 l
 cp gs col0 s gr 
% Polyline
n 9503 -2694 m 9728 -2786 l 9728 -253 l 9503 -253 l
 cp gs col0 s gr 
% Polyline
n 9728 -2786 m 9954 -2906 l 9954 -253 l 9728 -253 l
 cp gs col0 s gr 
% Polyline
n 9954 -2906 m 10180 -3178 l 10180 -253 l 9954 -253 l
 cp gs col0 s gr 
% Polyline
n 7324 -11746 m 7544 -11746 l 7544 -3938 l 7324 -3938 l
 cp gs col0 s gr 
% Polyline
n 7544 -11746 m 7763 -11746 l 7763 -3961 l 7544 -3938 l
 cp gs col0 s gr 
% Polyline
n 7763 -11746 m 7983 -11746 l 7983 -3961 l 7763 -3961 l
 cp gs col0 s gr 
% Polyline
n 7983 -11746 m 8203 -11746 l 8203 -3961 l 7983 -3961 l
 cp gs col0 s gr 
% Polyline
n 8203 -11746 m 8422 -11746 l 8422 -3938 l 8203 -3961 l
 cp gs col0 s gr 
% Polyline
n 8422 -11746 m 8642 -11746 l 8642 -3915 l 8422 -3938 l
 cp gs col0 s gr 
% Polyline
n 8642 -11746 m 8862 -11746 l 8862 -3892 l 8642 -3915 l
 cp gs col0 s gr 
% Polyline
n 8862 -11746 m 9081 -11746 l 9081 -3846 l 8862 -3892 l
 cp gs col0 s gr 
% Polyline
n 9081 -11746 m 9301 -11746 l 9301 -3800 l 9081 -3846 l
 cp gs col0 s gr 
% Polyline
n 9301 -11746 m 9521 -11746 l 9521 -3745 l 9301 -3800 l
 cp gs col0 s gr 
% Polyline
n 9521 -11746 m 9741 -11746 l 9741 -3662 l 9521 -3745 l
 cp gs col0 s gr 
% Polyline
n 9741 -11746 m 9960 -11746 l 9960 -3536 l 9741 -3662 l
 cp gs col0 s gr 
% Polyline
n 9960 -11746 m 10180 -11746 l 10180 -3270 l 9960 -3536 l
 cp gs col0 s gr 
% Polyline
n 10203 -11746 m 10423 -11746 l 10423 -253 l 10203 -253 l
 cp gs col0 s gr 
% Polyline
n 10423 -11746 m 10644 -11746 l 10644 -253 l 10423 -253 l
 cp gs col0 s gr 
% Polyline
n 10644 -11746 m 10864 -11746 l 10864 -253 l 10644 -253 l
 cp gs col0 s gr 
% Polyline
n 10864 -11746 m 11085 -11746 l 11085 -253 l 10864 -253 l
 cp gs col0 s gr 
% Polyline
n 11085 -11746 m 11305 -11746 l 11305 -253 l 11085 -253 l
 cp gs col0 s gr 
% Polyline
n 11305 -11746 m 11526 -11746 l 11526 -253 l 11305 -253 l
 cp gs col0 s gr 
% Polyline
n 11526 -11746 m 11746 -11746 l 11746 -253 l 11526 -253 l
 cp gs col0 s gr 
% Polyline
n 5304 -6656 m 5351 -8061 l 5352 -8084 l 5352 -11746 l 5353 -11792 l 5353 -11796 l
 5355 -11842 l 5353 -11888 l 5348 -11934 l 5340 -11980 l 5329 -12024 l
 5315 -12068 l 5298 -12111 l 5278 -12153 l 5256 -12193 l 5231 -12232 l
 5203 -12269 l 5173 -12304 l 5141 -12337 l 5107 -12367 l 5071 -12396 l
 5033 -12421 l 4993 -12445 l 4952 -12465 l 4909 -12483 l 4866 -12498 l
 4821 -12510 l 4776 -12519 l 4730 -12525 l 4684 -12528 l 4638 -12528 l
 4592 -12525 l 4547 -12518 l 4502 -12509 l 4457 -12497 l 4414 -12481 l
 4371 -12463 l 4330 -12442 l 4291 -12419 l 4253 -12393 l 4217 -12364 l
 4183 -12333 l 4151 -12300 l 4121 -12265 l 4094 -12228 l 4069 -12189 l
 4047 -12149 l 4027 -12107 l 4011 -12064 l 3997 -12020 l 3987 -11975 l
 3979 -11930 l 3974 -11884 l 3973 -11838 l 3974 -11792 l 3976 -11746 l
 3976 -8084 l 3977 -8042 l 3981 -7996 l 3989 -7950 l 3999 -7905 l
 4012 -7861 l 4363 -6832 l 4375 -6792 l 4386 -6747 l 4393 -6702 l
 4398 -6656 l 4399 -6610 l 4399 -253 l 4400 -227 l 4403 -181 l
 4410 -135 l 4419 -90 l 4431 -46 l 4446 -2 l 4465 39 l
 4485 80 l 4509 119 l 4535 157 l 4564 193 l 4595 228 l
 4628 260 l 4663 289 l 4700 316 l 4739 341 l 4780 363 l
 4821 383 l 4864 399 l 4908 413 l 4953 423 l 4999 431 l
 5044 436 l 5090 437 l 5313 437 l 5339 437 l 5385 433 l
 5431 427 l 5476 418 l 5520 405 l 5564 390 l 5606 372 l
 5647 351 l 5686 328 l 5724 301 l 5760 273 l 5795 242 l
 5826 209 l 5856 173 l 5883 136 l 5908 97 l 5930 57 l
 5950 15 l 5966 -27 l 5980 -71 l 5990 -116 l 5998 -161 l
 6003 -207 l 6004 -253 l 6004 -2906 l 6003 -2944 l 5973 -3485 l
 5972 -3523 l 5972 -6702 l 5971 -6745 l 5966 -6791 l 5816 -7949 l
 5812 -7992 l 5810 -8038 l 5810 -11746 l 5810 -11772 l 5806 -11818 l
 5800 -11864 l 5791 -11909 l 5779 -11953 l 5763 -11997 l 5745 -12039 l
 5724 -12080 l 5701 -12119 l 5675 -12157 l 5646 -12193 l 5615 -12228 l
 5582 -12260 l 5547 -12289 l 5509 -12316 l 5471 -12341 l 5430 -12363 l
 5388 -12383 l 5345 -12399 l 5301 -12413 l 5257 -12423 l 5211 -12431 l
 5165 -12436 l 5119 -12437 l 4896 -12437 l 4870 -12437 l 4824 -12433 l
 4778 -12427 l 4733 -12418 l 4689 -12405 l 4646 -12390 l 4603 -12372 l
 4562 -12351 l 4523 -12328 l 4485 -12301 l 4449 -12273 l 4415 -12242 l
 4383 -12209 l 4353 -12173 l 4326 -12136 l 4301 -12097 l 4279 -12057 l
 4260 -12015 l 4243 -11972 l 4229 -11928 l 4219 -11883 l 4211 -11838 l
 4206 -11792 l 4205 -11746 l 4205 -8107 l 4204 -8068 l 4200 -8022 l
 4193 -7977 l 3960 -6763 l 3954 -6725 l 3949 -6679 l 3947 -6633 l
 3947 -253 l 3948 -227 l 3951 -181 l 3957 -135 l 3967 -90 l
 3979 -46 l 3994 -2 l 4013 39 l 4033 80 l 4057 119 l
 4083 157 l 4112 193 l 4143 228 l 4176 260 l 4211 289 l
 4248 316 l 4287 341 l 4328 363 l 4369 383 l 4412 399 l
 4456 413 l 4501 423 l 4547 431 l 4592 436 l 4638 437 l
 4839 437 l 4864 437 l 4910 433 l 4956 427 l 5001 418 l
 5045 405 l 5089 390 l 5131 372 l 5172 351 l 5212 328 l
 5250 301 l 5286 273 l 5320 242 l 5352 209 l 5382 173 l
 5409 136 l 5434 97 l 5456 57 l 5475 15 l 5491 -27 l
 5505 -71 l 5516 -116 l 5523 -161 l 5528 -207 l 5529 -253 l
 5529 -6656 l 5530 -6661 l 5531 -6707 l 5536 -6752 l 5544 -6798 l
 5627 -7192 l 5627 -7193 l 5638 -7238 l 5652 -7282 l 5669 -7325 l
 5689 -7366 l 5711 -7407 l 5736 -7445 l 5764 -7482 l 5794 -7517 l
 5826 -7550 l 5860 -7581 l 5897 -7609 l 5935 -7635 l 5974 -7658 l
 6016 -7679 l 6058 -7696 l 6102 -7711 l 6146 -7723 l 6191 -7732 l
 6237 -7738 l 6283 -7741 l 6329 -7741 l 6375 -7738 l 6421 -7731 l
 6466 -7722 l 6510 -7710 l 6554 -7694 l 6596 -7676 l 6637 -7655 l
 6677 -7632 l 6714 -7606 l 6751 -7577 l 6785 -7546 l 6817 -7513 l
 6846 -7478 l 6874 -7441 l 6898 -7402 l 6920 -7361 l 6940 -7319 l
 6956 -7276 l 6970 -7232 l 6980 -7188 l 6988 -7142 l 6993 -7096 l
 6994 -7050 l 6994 -3869 l 6995 -3838 l 6999 -3792 l 7128 -2633 l
 7131 -2602 l 7133 -2556 l 7133 -253 l 7133 -227 l 7136 -181 l
 7143 -135 l 7152 -90 l 7164 -46 l 7180 -2 l 7198 39 l
 7219 80 l 7242 119 l 7268 157 l 7297 193 l 7328 228 l
 7361 260 l 7396 289 l 7434 316 l 7472 341 l 7513 363 l
 7555 383 l 7598 399 l 7642 413 l 7686 423 l 7732 431 l
 7778 436 l 7824 437 l 8022 437 l 8048 437 l 8094 433 l
 8139 427 l 8184 418 l 8229 405 l 8272 390 l 8314 372 l
 8356 351 l 8395 328 l 8433 301 l 8469 273 l 8503 242 l
 8535 209 l 8565 173 l 8592 136 l 8617 97 l 8639 57 l
 8658 15 l 8675 -27 l 8688 -71 l 8699 -116 l 8707 -161 l
 8711 -207 l 8713 -253 l 8713 -2556 l 8713 -2562 l 8711 -2608 l
 8706 -2654 l 8539 -3817 l 8538 -3823 l 8534 -3869 l 8532 -3915 l
 8532 -11746 l 8533 -11772 l 8536 -11818 l 8542 -11864 l 8552 -11909 l
 8564 -11953 l 8579 -11997 l 8597 -12039 l 8618 -12080 l 8642 -12119 l
 8668 -12157 l 8697 -12193 l 8728 -12228 l 8761 -12260 l 8796 -12289 l
 8833 -12316 l 8872 -12341 l 8912 -12363 l 8954 -12383 l 8997 -12399 l
 9041 -12413 l 9086 -12423 l 9131 -12431 l 9177 -12436 l 9223 -12437 l
 9622 -12437 l 9648 -12437 l 9694 -12433 l 9740 -12427 l 9785 -12418 l
 9829 -12405 l 9873 -12390 l 9915 -12372 l 9956 -12351 l 9996 -12328 l
 10033 -12301 l 10070 -12273 l 10104 -12242 l 10136 -12209 l 10165 -12173 l
 10192 -12136 l 10217 -12097 l 10239 -12057 l 10259 -12015 l 10275 -11972 l
 10289 -11928 l 10299 -11883 l 10307 -11838 l 10312 -11792 l 10313 -11746 l
 10313 -253 l 10313 -248 l 10311 -202 l 10306 -156 l 10298 -111 l
 10295 -95 l 10288 -49 l 10284 -4 l 10284 42 l 10286 88 l
 10291 133 l 10300 179 l 10311 223 l 10325 267 l 10342 310 l
 10362 351 l 10385 391 l 10410 430 l 10438 466 l 10468 501 l
 10501 534 l 10536 564 l 10572 592 l 10610 618 l 10650 641 l
 10692 661 l 10734 679 l 10778 693 l 10823 705 l 10868 713 l
 10913 719 l 10959 722 l 11006 721 l 11051 717 l 11097 711 l
 11142 701 l 11186 688 l 11230 673 l 11272 654 l 11313 633 l
 11352 609 l 11390 583 l 11426 554 l 11460 523 l 11491 489 l
 11521 454 l 11548 417 l 11572 378 l 11594 337 l 11613 295 l
 11629 252 l 11642 208 l 11653 163 l 11660 117 l 11664 72 l
 11666 26 l 11664 -19 l 11659 -65 l 11651 -111 l 11650 -116 l
 11642 -161 l 11637 -207 l 11636 -253 l 11636 -11746 l 11635 -11772 l
 11632 -11818 l 11626 -11864 l 11617 -11909 l 11604 -11953 l 11589 -11997 l
 11571 -12039 l 11550 -12080 l 11526 -12119 l 11500 -12157 l 11472 -12193 l
 11441 -12228 l 11407 -12260 l 11372 -12289 l 11335 -12316 l 11296 -12341 l
 11256 -12363 l 11214 -12383 l 11171 -12399 l 11127 -12413 l 11082 -12423 l
 11037 -12431 l 10991 -12436 l 10945 -12437 l 10761 -12437 l 10735 -12437 l
 10689 -12433 l 10644 -12427 l 10599 -12418 l 10554 -12405 l 10511 -12390 l
 10468 -12372 l 10427 -12351 l 10388 -12328 l 10350 -12301 l 10314 -12273 l
 10280 -12242 l 10248 -12209 l 10218 -12173 l 10191 -12136 l 10166 -12097 l
 10144 -12057 l 10125 -12015 l 10108 -11972 l 10094 -11928 l 10084 -11883 l
 10076 -11838 l 10072 -11792 l 10070 -11746 l 10070 -3270 l 10069 -3231 l
 10068 -3218 l 10067 -3178 l 10067 -253 l 10067 -237 l 10064 -191 l
 10059 -146 l 10054 -109 l 10051 -63 l 10051 -17 l 10054 28 l
 10060 74 l 10069 119 l 10081 163 l 10096 207 l 10113 249 l
 10134 291 l 10157 330 l 10183 368 l 10212 405 l 10242 439 l
 10275 471 l 10310 501 l 10347 529 l 10386 554 l 10426 576 l
 10468 596 l 10511 612 l 10555 626 l 10600 637 l 10645 645 l
 10691 650 l 10737 652 l 10783 651 l 10829 646 l 10874 639 l
 10919 629 l 10963 615 l 11006 599 l 11048 580 l 11089 558 l
 11128 534 l 11165 507 l 11200 477 l 11234 445 l 11265 412 l
 11294 376 l 11320 338 l 11344 299 l 11365 258 l 11384 215 l
 11399 172 l 11412 128 l 11421 83 l 11428 37 l 11432 -8 l
 11432 -54 l 11429 -100 l 11424 -146 l 11422 -161 l 11417 -207 l
 11415 -253 l 11415 -11746 l 11415 -11772 l 11412 -11818 l 11405 -11864 l
 11396 -11909 l 11384 -11953 l 11368 -11997 l 11350 -12039 l 11329 -12080 l
 11306 -12119 l 11280 -12157 l 11251 -12193 l 11220 -12228 l 11187 -12260 l
 11152 -12289 l 11115 -12316 l 11076 -12341 l 11035 -12363 l 10994 -12383 l
 10951 -12399 l 10907 -12413 l 10862 -12423 l 10816 -12431 l 10771 -12436 l
 10724 -12437 l 10102 -12437 l 10076 -12437 l 10030 -12433 l 9985 -12427 l
 9939 -12418 l 9895 -12405 l 9852 -12390 l 9809 -12372 l 9768 -12351 l
 9729 -12328 l 9691 -12301 l 9655 -12273 l 9621 -12242 l 9589 -12209 l
 9559 -12173 l 9532 -12136 l 9507 -12097 l 9485 -12057 l 9466 -12015 l
 9449 -11972 l 9435 -11928 l 9425 -11883 l 9417 -11838 l 9413 -11792 l
 9411 -11746 l 9411 -3745 l 9411 -3731 l 9390 -2708 l 9390 -2694 l
 9390 -253 l 9390 -227 l 9394 -181 l 9400 -135 l 9409 -90 l
 9422 -46 l 9437 -2 l 9455 39 l 9476 80 l 9499 119 l
 9526 157 l 9554 193 l 9585 228 l 9618 260 l 9654 289 l
 9691 316 l 9730 341 l 9770 363 l 9812 383 l 9855 399 l
 9899 413 l 9944 423 l 9989 431 l 10035 436 l 10081 437 l
 10284 437 l 10309 437 l 10355 433 l 10401 427 l 10446 418 l
 10490 405 l 10534 390 l 10576 372 l 10617 351 l 10657 328 l
 10695 301 l 10731 273 l 10765 242 l 10797 209 l 10827 173 l
 10854 136 l 10879 97 l 10901 57 l 10920 15 l 10937 -27 l
 10950 -71 l 10961 -116 l 10968 -161 l 10973 -207 l 10975 -253 l
 10975 -11746 l 10974 -11772 l 10971 -11818 l 10964 -11864 l 10955 -11909 l
 10943 -11953 l 10928 -11997 l 10909 -12039 l 10889 -12080 l 10865 -12119 l
 10839 -12157 l 10810 -12193 l 10779 -12228 l 10746 -12260 l 10711 -12289 l
 10674 -12316 l 10635 -12341 l 10594 -12363 l 10553 -12383 l 10510 -12399 l
 10466 -12413 l 10421 -12423 l 10375 -12431 l 10330 -12436 l 10284 -12437 l
 9882 -12437 l 9856 -12437 l 9810 -12433 l 9765 -12427 l 9720 -12418 l
 9675 -12405 l 9632 -12390 l 9590 -12372 l 9548 -12351 l 9509 -12328 l
 9471 -12301 l 9435 -12273 l 9401 -12242 l 9369 -12209 l 9339 -12173 l
 9312 -12136 l 9287 -12097 l 9265 -12057 l 9246 -12015 l 9229 -11972 l
 9216 -11928 l 9205 -11883 l 9197 -11838 l 9193 -11792 l 9191 -11746 l
 9191 -3800 l 9191 -3783 l 9164 -2660 l 9164 -2644 l 9164 -253 l
 9165 -227 l 9168 -181 l 9174 -135 l 9184 -90 l 9196 -46 l
 9211 -2 l 9229 39 l 9250 80 l 9274 119 l 9300 157 l
 9329 193 l 9359 228 l 9393 260 l 9428 289 l 9465 316 l
 9504 341 l 9544 363 l 9586 383 l 9629 399 l 9673 413 l
 9718 423 l 9763 431 l 9809 436 l 9855 437 l 10063 437 l
 10089 437 l 10135 433 l 10181 427 l 10226 418 l 10270 405 l
 10313 390 l 10356 372 l 10397 351 l 10436 328 l 10474 301 l
 10510 273 l 10545 242 l 10576 209 l 10606 173 l 10633 136 l
 10658 97 l 10680 57 l 10700 15 l 10716 -27 l 10730 -71 l
 10740 -116 l 10748 -161 l 10753 -207 l 10754 -253 l 10754 -11746 l
 10754 -11772 l 10750 -11818 l 10744 -11864 l 10735 -11909 l 10722 -11953 l
 10707 -11997 l 10689 -12039 l 10668 -12080 l 10645 -12119 l 10618 -12157 l
 10590 -12193 l 10559 -12228 l 10526 -12260 l 10490 -12289 l 10453 -12316 l
 10414 -12341 l 10374 -12363 l 10332 -12383 l 10289 -12399 l 10245 -12413 l
 10200 -12423 l 10155 -12431 l 10109 -12436 l 10063 -12437 l 9003 -12437 l
 8978 -12437 l 8932 -12433 l 8886 -12427 l 8841 -12418 l 8797 -12405 l
 8753 -12390 l 8711 -12372 l 8670 -12351 l 8630 -12328 l 8592 -12301 l
 8556 -12273 l 8522 -12242 l 8490 -12209 l 8460 -12173 l 8433 -12136 l
 8408 -12097 l 8386 -12057 l 8367 -12015 l 8351 -11972 l 8337 -11928 l
 8326 -11883 l 8319 -11838 l 8314 -11792 l 8313 -11746 l 8313 -3938 l
 8314 -3893 l 8319 -3847 l 8481 -2624 l 8485 -2579 l 8487 -2533 l
 8487 -253 l 8487 -227 l 8483 -181 l 8477 -135 l 8468 -90 l
 8455 -46 l 8440 -2 l 8422 39 l 8401 80 l 8377 119 l
 8351 157 l 8323 193 l 8292 228 l 8259 260 l 8223 289 l
 8186 316 l 8147 341 l 8107 363 l 8065 383 l 8022 399 l
 7978 413 l 7933 423 l 7888 431 l 7842 436 l 7796 437 l
 7598 437 l 7572 437 l 7526 433 l 7481 427 l 7435 418 l
 7391 405 l 7348 390 l 7305 372 l 7264 351 l 7225 328 l
 7187 301 l 7151 273 l 7117 242 l 7085 209 l 7055 173 l
 7028 136 l 7003 97 l 6981 57 l 6962 15 l 6945 -27 l
 6931 -71 l 6921 -116 l 6913 -161 l 6909 -207 l 6907 -253 l
 6907 -2579 l 6907 -2600 l 6904 -2646 l 6793 -3779 l 6791 -3800 l
 6790 -3846 l 6790 -6955 l 6790 -6956 l 6791 -7002 l 6796 -7048 l
 6804 -7093 l 6814 -7138 l 6828 -7182 l 6919 -7443 l 6932 -7487 l
 6943 -7532 l 6951 -7578 l 6955 -7623 l 6957 -7669 l 6957 -11746 l
 6958 -11792 l 6959 -11796 l 6960 -11842 l 6958 -11888 l 6953 -11934 l
 6945 -11980 l 6934 -12024 l 6920 -12068 l 6903 -12111 l 6884 -12153 l
 6861 -12193 l 6836 -12232 l 6809 -12269 l 6779 -12304 l 6747 -12337 l
 6712 -12367 l 6676 -12396 l 6638 -12421 l 6598 -12445 l 6557 -12465 l
 6514 -12483 l 6471 -12498 l 6426 -12510 l 6381 -12519 l 6336 -12525 l
 6290 -12528 l 6243 -12528 l 6198 -12525 l 6152 -12518 l 6107 -12509 l
 6062 -12497 l 6019 -12481 l 5977 -12463 l 5936 -12442 l 5896 -12419 l
 5858 -12393 l 5822 -12364 l 5788 -12333 l 5756 -12300 l 5726 -12265 l
 5699 -12228 l 5674 -12189 l 5652 -12149 l 5633 -12107 l 5616 -12064 l
 5602 -12020 l 5592 -11975 l 5584 -11930 l 5579 -11884 l 5578 -11838 l
 5579 -11792 l 5581 -11746 l 5581 -8061 l 5582 -8015 l 5587 -7969 l
 5595 -7924 l 5605 -7879 l 5619 -7835 l 5842 -7190 l 5844 -7185 l
 5861 -7142 l 5881 -7100 l 5903 -7060 l 5928 -7021 l 5956 -6984 l
 5986 -6949 l 6018 -6916 l 6052 -6886 l 6089 -6857 l 6127 -6832 l
 6166 -6808 l 6208 -6788 l 6250 -6770 l 6294 -6755 l 6338 -6743 l
 6383 -6734 l 6429 -6728 l 6475 -6725 l 6521 -6726 l 6567 -6729 l
 6613 -6735 l 6658 -6744 l 6702 -6757 l 6746 -6772 l 6788 -6790 l
 6829 -6811 l 6869 -6835 l 6906 -6861 l 6943 -6889 l 6977 -6920 l
 7009 -6954 l 7038 -6989 l 7065 -7026 l 7090 -7065 l 7112 -7105 l
 7132 -7147 l 7148 -7190 l 7162 -7234 l 7172 -7279 l 7180 -7324 l
 7185 -7370 l 7186 -7416 l 7186 -11746 l 7187 -11772 l 7190 -11818 l
 7196 -11864 l 7206 -11909 l 7218 -11953 l 7233 -11997 l 7251 -12039 l
 7272 -12080 l 7296 -12119 l 7322 -12157 l 7351 -12193 l 7381 -12228 l
 7415 -12260 l 7450 -12289 l 7487 -12316 l 7526 -12341 l 7566 -12363 l
 7608 -12383 l 7651 -12399 l 7695 -12413 l 7740 -12423 l 7785 -12431 l
 7831 -12436 l 7877 -12437 l 8061 -12437 l 8087 -12437 l 8133 -12433 l
 8178 -12427 l 8223 -12418 l 8268 -12405 l 8311 -12390 l 8354 -12372 l
 8395 -12351 l 8434 -12328 l 8472 -12301 l 8508 -12273 l 8542 -12242 l
 8574 -12209 l 8604 -12173 l 8631 -12136 l 8656 -12097 l 8678 -12057 l
 8697 -12015 l 8714 -11972 l 8727 -11928 l 8738 -11883 l 8746 -11838 l
 8750 -11792 l 8752 -11746 l 8752 -3892 l 8752 -3878 l 8754 -3832 l
 8760 -3786 l 8930 -2685 l 8932 -2671 l 8937 -2625 l 8938 -2579 l
 8938 -253 l 8939 -227 l 8942 -181 l 8949 -135 l 8958 -90 l
 8970 -46 l 8985 -2 l 9004 39 l 9024 80 l 9048 119 l
 9074 157 l 9103 193 l 9134 228 l 9167 260 l 9202 289 l
 9239 316 l 9278 341 l 9319 363 l 9360 383 l 9403 399 l
 9447 413 l 9492 423 l 9538 431 l 9583 436 l 9629 437 l
 9843 437 l 9869 437 l 9914 433 l 9960 427 l 10005 418 l
 10050 405 l 10093 390 l 10135 372 l 10176 351 l 10216 328 l
 10254 301 l 10290 273 l 10324 242 l 10356 209 l 10386 173 l
 10413 136 l 10438 97 l 10460 57 l 10479 15 l 10496 -27 l
 10509 -71 l 10520 -116 l 10528 -161 l 10532 -207 l 10534 -253 l
 10534 -11746 l 10533 -11772 l 10530 -11818 l 10524 -11864 l 10514 -11909 l
 10502 -11953 l 10487 -11997 l 10469 -12039 l 10448 -12080 l 10424 -12119 l
 10398 -12157 l 10369 -12193 l 10338 -12228 l 10305 -12260 l 10270 -12289 l
 10233 -12316 l 10194 -12341 l 10154 -12363 l 10112 -12383 l 10069 -12399 l
 10025 -12413 l 9980 -12423 l 9935 -12431 l 9889 -12436 l 9843 -12437 l
 9663 -12437 l 9637 -12437 l 9591 -12433 l 9545 -12427 l 9500 -12418 l
 9456 -12405 l 9412 -12390 l 9370 -12372 l 9329 -12351 l 9289 -12328 l
 9251 -12301 l 9215 -12273 l 9181 -12242 l 9149 -12209 l 9120 -12173 l
 9092 -12136 l 9068 -12097 l 9045 -12057 l 9026 -12015 l 9010 -11972 l
 8996 -11928 l 8985 -11883 l 8978 -11838 l 8973 -11792 l 8972 -11746 l
 8972 -3846 l 8971 -3820 l 8968 -3774 l 8961 -3728 l 8952 -3683 l
 8940 -3639 l 8925 -3595 l 8906 -3553 l 8886 -3512 l 8862 -3472 l
 8836 -3434 l 8807 -3398 l 8776 -3364 l 8743 -3332 l 8708 -3303 l
 8671 -3276 l 8632 -3251 l 8591 -3229 l 8549 -3209 l 8506 -3193 l
 8462 -3179 l 8418 -3169 l 8372 -3161 l 8326 -3156 l 8280 -3155 l
 8234 -3157 l 8189 -3161 l 8143 -3169 l 8098 -3179 l 8054 -3193 l
 8011 -3210 l 7970 -3229 l 7929 -3251 l 7773 -3343 l 7751 -3357 l
 7713 -3383 l 7677 -3411 l 7643 -3442 l 7611 -3476 l 7582 -3511 l
 7554 -3548 l 7530 -3587 l 7508 -3627 l 7488 -3669 l 7472 -3712 l
 7458 -3756 l 7447 -3801 l 7440 -3846 l 7435 -3892 l 7434 -3938 l
 7434 -11746 l 7433 -11772 l 7430 -11818 l 7424 -11864 l 7414 -11909 l
 7402 -11953 l 7387 -11997 l 7369 -12039 l 7348 -12080 l 7324 -12119 l
 7298 -12157 l 7269 -12193 l 7238 -12228 l 7205 -12260 l 7170 -12289 l
 7133 -12316 l 7094 -12341 l 7054 -12363 l 7012 -12383 l 6969 -12399 l
 6925 -12413 l 6880 -12423 l 6835 -12431 l 6789 -12436 l 6743 -12437 l
 6731 -12437 l 6705 -12437 l 6659 -12433 l 6613 -12427 l 6568 -12418 l
 6524 -12405 l 6480 -12390 l 6438 -12372 l 6397 -12351 l 6357 -12328 l
 6319 -12301 l 6283 -12273 l 6249 -12242 l 6217 -12209 l 6188 -12173 l
 6160 -12136 l 6136 -12097 l 6113 -12057 l 6094 -12015 l 6078 -11972 l
 6064 -11928 l 6053 -11883 l 6046 -11838 l 6041 -11792 l 6040 -11746 l
 6040 -7992 l 6039 -7970 l 6036 -7924 l 6030 -7878 l 6021 -7833 l
 5786 -6838 l 5782 -6816 l 5774 -6771 l 5769 -6725 l 5768 -6679 l
 5768 -3270 l 5768 -3263 l 5770 -3217 l 5775 -3172 l 6209 -154 l
 6217 -110 l 6228 -65 l 6242 -21 l 6259 20 l 6279 62 l
 6301 102 l 6326 141 l 6354 178 l 6384 213 l 6416 246 l
 6450 276 l 6487 305 l 6525 331 l 6564 354 l 6606 374 l
 6648 392 l 6692 407 l 6736 419 l 6781 428 l 6827 434 l
 6873 437 l 6919 437 l 6965 433 l 7011 427 l 7056 418 l
 7100 405 l 7144 390 l 7186 372 l 7227 351 l 7267 328 l
 7304 301 l 7340 273 l 7375 242 l 7407 209 l 7436 173 l
 7463 136 l 7488 97 l 7510 57 l 7530 15 l 7546 -27 l
 7560 -71 l 7570 -116 l 7578 -161 l 7583 -207 l 7584 -253 l
 7584 -2510 l 7584 -2532 l 7581 -2578 l 7575 -2624 l 7566 -2669 l
 7554 -2713 l 7539 -2757 l 7521 -2799 l 7500 -2841 l 7477 -2880 l
 7053 -3548 l 7036 -3573 l 7009 -3610 l 6979 -3645 l 6947 -3678 l
 6912 -3708 l 6876 -3737 l 6838 -3763 l 6798 -3786 l 6757 -3806 l
 6714 -3824 l 6671 -3839 l 6626 -3851 l 6581 -3860 l 6536 -3866 l
 6490 -3869 l 6443 -3868 l 6398 -3865 l 6352 -3859 l 6307 -3850 l
 6262 -3837 l 6219 -3822 l 6177 -3804 l 6136 -3783 l 6096 -3759 l
 6058 -3733 l 6022 -3705 l 5988 -3674 l 5956 -3641 l 5926 -3605 l
 5899 -3568 l 5874 -3529 l 5852 -3489 l 5833 -3447 l 5816 -3404 l
 5803 -3360 l 5792 -3315 l 5785 -3270 l 5780 -3224 l 5778 -3178 l
 5778 -253 l 5779 -227 l 5782 -181 l 5788 -135 l 5798 -90 l
 5810 -46 l 5825 -2 l 5843 39 l 5864 80 l 5888 119 l
 5914 157 l 5943 193 l 5974 228 l 6007 260 l 6042 289 l
 6079 316 l 6118 341 l 6158 363 l 6200 383 l 6243 399 l
 6287 413 l 6332 423 l 6378 431 l 6423 436 l 6469 437 l
 6667 437 l 6693 437 l 6739 433 l 6785 427 l 6830 418 l
 6874 405 l 6918 390 l 6960 372 l 7001 351 l 7041 328 l
 7079 301 l 7115 273 l 7149 242 l 7181 209 l 7210 173 l
 7238 136 l 7262 97 l 7285 57 l 7304 15 l 7320 -27 l
 7334 -71 l 7345 -116 l 7352 -161 l 7357 -207 l 7358 -253 l
 7358 -2533 l 7357 -2572 l 7353 -2618 l 7204 -3831 l 7200 -3869 l
 7199 -3915 l 7199 -7301 l 7198 -7321 l 7196 -7367 l 7190 -7412 l
 6500 -11635 l 6497 -11660 l 6492 -11706 l 6491 -11752 l 6493 -11798 l
 6498 -11844 l 6506 -11889 l 6517 -11934 l 6531 -11978 l 6548 -12020 l
 6568 -12062 l 6590 -12102 l 6615 -12141 l 6643 -12178 l 6673 -12213 l
 6705 -12246 l 6739 -12276 l 6775 -12305 l 6814 -12331 l 6853 -12354 l
 6895 -12374 l 6937 -12392 l 6981 -12407 l 7025 -12419 l 7070 -12428 l
 7116 -12434 l 7162 -12437 l 7208 -12437 l 7254 -12433 l 7300 -12427 l
 7345 -12418 l 7389 -12405 l 7433 -12390 l 7475 -12372 l 7516 -12351 l
 7555 -12328 l 7593 -12301 l 7629 -12273 l 7664 -12242 l 7695 -12209 l
 7725 -12173 l 7752 -12136 l 7777 -12097 l 7799 -12057 l 7819 -12015 l
 7835 -11972 l 7849 -11928 l 7859 -11883 l 7867 -11838 l 7872 -11792 l
 7873 -11746 l 7873 -3961 l 7874 -3927 l 7878 -3881 l 8031 -2567 l
 8034 -2533 l 8036 -2487 l 8036 -253 l 8035 -227 l 8032 -181 l
 8026 -135 l 8016 -90 l 8004 -46 l 7989 -2 l 7971 39 l
 7950 80 l 7926 119 l 7900 157 l 7871 193 l 7840 228 l
 7807 260 l 7772 289 l 7735 316 l 7696 341 l 7655 363 l
 7614 383 l 7571 399 l 7527 413 l 7482 423 l 7436 431 l
 7391 436 l 7345 437 l 7147 437 l 7121 437 l 7075 433 l
 7029 427 l 6984 418 l 6940 405 l 6896 390 l 6854 372 l
 6813 351 l 6773 328 l 6735 301 l 6699 273 l 6665 242 l
 6633 209 l 6603 173 l 6576 136 l 6552 97 l 6529 57 l
 6510 15 l 6494 -27 l 6480 -71 l 6469 -116 l 6462 -161 l
 6457 -207 l 6456 -253 l 6456 -2694 l 6457 -2737 l 6461 -2783 l
 6580 -3700 l 6584 -3742 l 6585 -3788 l 6585 -6863 l 6585 -6880 l
 6583 -6926 l 6501 -7814 l 6500 -7831 l 6498 -7877 l 6498 -11746 l
 6498 -11772 l 6494 -11818 l 6488 -11864 l 6479 -11909 l 6466 -11953 l
 6451 -11997 l 6433 -12039 l 6412 -12080 l 6389 -12119 l 6363 -12157 l
 6334 -12193 l 6303 -12228 l 6270 -12260 l 6235 -12289 l 6197 -12316 l
 6159 -12341 l 6118 -12363 l 6076 -12383 l 6033 -12399 l 5989 -12413 l
 5945 -12423 l 5899 -12431 l 5853 -12436 l 5807 -12437 l 5584 -12437 l
 5558 -12437 l 5512 -12433 l 5466 -12427 l 5421 -12418 l 5377 -12405 l
 5334 -12390 l 5291 -12372 l 5250 -12351 l 5211 -12328 l 5173 -12301 l
 5137 -12273 l 5103 -12242 l 5071 -12209 l 5041 -12173 l 5014 -12136 l
 4989 -12097 l 4967 -12057 l 4947 -12015 l 4931 -11972 l 4917 -11928 l
 4907 -11883 l 4899 -11838 l 4894 -11792 l 4893 -11746 l 4893 -8120 l
 4892 -8082 l 4888 -8036 l 4881 -7991 l 4638 -6716 l 4632 -6679 l
 4627 -6633 l 4625 -6587 l 4625 -253 l 4625 -250 l 4627 -204 l
 4632 -158 l 4633 -148 l 4637 -102 l 4638 -56 l 4636 -10 l
 4631 35 l 4623 80 l 4612 125 l 4598 169 l 4581 212 l
 4561 253 l 4538 293 l 4513 332 l 4485 369 l 4455 404 l
 4423 436 l 4388 467 l 4352 495 l 4314 521 l 4274 544 l
 4233 564 l 4190 582 l 4146 597 l 4102 608 l 4057 617 l
 4011 623 l 3965 626 l 3919 625 l 3873 622 l 3827 615 l
 3782 606 l 3738 593 l 3695 578 l 3652 560 l 3611 539 l
 3572 515 l 3534 489 l 3498 460 l 3464 429 l 3432 396 l
 3403 360 l 3376 323 l 3351 284 l 3329 244 l 3310 202 l
 3294 159 l 3280 115 l 3270 70 l 3262 24 l 3258 -21 l
 3256 -67 l 3258 -113 l 3263 -158 l 3263 -161 l 3268 -207 l
 3269 -253 l 3269 -6725 l 3269 -6735 l 3288 -7982 l 3288 -7992 l
 3288 -11746 l 3286 -11792 l 3286 -11796 l 3285 -11842 l 3287 -11888 l
 3291 -11934 l 3299 -11980 l 3310 -12024 l 3324 -12068 l 3341 -12111 l
 3361 -12153 l 3383 -12193 l 3408 -12232 l 3436 -12269 l 3466 -12304 l
 3498 -12337 l 3532 -12367 l 3569 -12396 l 3607 -12421 l 3646 -12445 l
 3688 -12465 l 3730 -12483 l 3774 -12498 l 3818 -12510 l 3863 -12519 l
 3909 -12525 l 3955 -12528 l 4001 -12528 l 4047 -12525 l 4093 -12518 l
 4138 -12509 l 4182 -12497 l 4226 -12481 l 4268 -12463 l 4309 -12442 l
 4349 -12419 l 4386 -12393 l 4423 -12364 l 4457 -12333 l 4489 -12300 l
 4518 -12265 l 4546 -12228 l 4570 -12189 l 4593 -12149 l 4612 -12107 l
 4628 -12064 l 4642 -12020 l 4653 -11975 l 4660 -11930 l 4665 -11884 l
 4667 -11838 l 4665 -11792 l 4664 -11746 l 4664 -8130 l 4665 -8087 l
 4669 -8041 l 4846 -6675 l 4850 -6633 l 4851 -6587 l 4851 -253 l
 4851 -218 l 4850 -187 l 4851 -141 l 4855 -96 l 4862 -50 l
 4873 -5 l 4886 38 l 4902 81 l 4921 123 l 4943 164 l
 4967 203 l 4994 240 l 5024 275 l 5056 309 l 5089 340 l
 5125 369 l 5163 395 l 5202 419 l 5243 440 l 5286 459 l
 5329 474 l 5373 487 l 5418 497 l 5464 503 l 5510 507 l
 5556 507 l 5602 505 l 5647 499 l 5693 491 l 5737 479 l
 5781 464 l 5824 447 l 5865 427 l 5905 404 l 5943 378 l
 5980 350 l 6014 320 l 6047 287 l 6077 252 l 6105 216 l
 6130 177 l 6153 137 l 6173 96 l 6190 53 l 6204 9 l
 6216 -35 l 6224 -80 l 6229 -126 l 6232 -172 l 6231 -218 l
 6230 -253 l 6230 -2786 l 6228 -2832 l 6178 -3593 l 6177 -3639 l
 6177 -6748 l 6177 -6758 l 6179 -6804 l 6267 -7890 l 6267 -7900 l
 6269 -7946 l 6269 -11746 l 6269 -11772 l 6273 -11818 l 6279 -11864 l
 6288 -11909 l 6301 -11953 l 6316 -11997 l 6334 -12039 l 6355 -12080 l
 6378 -12119 l 6405 -12157 l 6433 -12193 l 6464 -12228 l 6497 -12260 l
 6533 -12289 l 6570 -12316 l 6609 -12341 l 6649 -12363 l 6691 -12383 l
 6734 -12399 l 6778 -12413 l 6823 -12423 l 6868 -12431 l 6914 -12436 l
 6960 -12437 l 6962 -12437 l 6988 -12437 l 7034 -12433 l 7080 -12427 l
 7125 -12418 l 7169 -12405 l 7213 -12390 l 7255 -12372 l 7296 -12351 l
 7336 -12328 l 7374 -12301 l 7410 -12273 l 7444 -12242 l 7476 -12209 l
 7505 -12173 l 7533 -12136 l 7557 -12097 l 7580 -12057 l 7599 -12015 l
 7615 -11972 l 7629 -11928 l 7640 -11883 l 7647 -11838 l 7652 -11792 l
 7653 -11746 l 7653 -3938 l 7654 -3906 l 7658 -3860 l 7805 -2565 l
 7808 -2533 l 7810 -2487 l 7810 -253 l 7810 -227 l 7814 -181 l
 7820 -135 l 7829 -90 l 7842 -46 l 7857 -2 l 7875 39 l
 7896 80 l 7919 119 l 7946 157 l 7974 193 l 8005 228 l
 8038 260 l 8074 289 l 8111 316 l 8150 341 l 8190 363 l
 8232 383 l 8275 399 l 8319 413 l 8364 423 l 8409 431 l
 8455 436 l 8501 437 l 8925 437 l 8951 437 l 8996 433 l
 9042 427 l 9087 418 l 9132 405 l 9175 390 l 9217 372 l
 9258 351 l 9298 328 l 9336 301 l 9372 273 l 9406 242 l
 9438 209 l 9468 173 l 9495 136 l 9520 97 l 9542 57 l
 9561 15 l 9578 -27 l 9591 -71 l 9602 -116 l 9609 -161 l
 9614 -207 l 9616 -253 l 9616 -2786 l 9616 -2799 l 9631 -3650 l
 9631 -3662 l 9631 -11746 l 9631 -11772 l 9634 -11818 l 9641 -11864 l
 9650 -11909 l 9662 -11953 l 9678 -11997 l 9696 -12039 l 9717 -12080 l
 9740 -12119 l 9766 -12157 l 9795 -12193 l 9826 -12228 l 9859 -12260 l
 9894 -12289 l 9932 -12316 l 9970 -12341 l 10011 -12363 l 10053 -12383 l
 10096 -12399 l 10140 -12413 l 10184 -12423 l 10230 -12431 l 10276 -12436 l
 10322 -12437 l 10504 -12437 l 10530 -12437 l 10576 -12433 l 10621 -12427 l
 10667 -12418 l 10711 -12405 l 10754 -12390 l 10797 -12372 l 10838 -12351 l
 10877 -12328 l 10915 -12301 l 10951 -12273 l 10985 -12242 l 11017 -12209 l
 11047 -12173 l 11074 -12136 l 11099 -12097 l 11121 -12057 l 11140 -12015 l
 11157 -11972 l 11171 -11928 l 11181 -11883 l 11189 -11838 l 11193 -11792 l
 11195 -11746 l 11195 -253 l 11195 -246 l 11197 -200 l 11202 -154 l
 11205 -135 l 11208 -89 l 11209 -43 l 11207 2 l 11201 48 l
 11193 93 l 11181 138 l 11167 181 l 11150 224 l 11130 265 l
 11107 305 l 11081 344 l 11053 380 l 11023 415 l 10991 448 l
 10956 478 l 10919 506 l 10881 532 l 10841 554 l 10799 575 l
 10757 592 l 10713 606 l 10669 618 l 10623 626 l 10578 632 l
 10532 634 l 10485 634 l 10440 630 l 10394 623 l 10349 613 l
 10305 601 l 10261 585 l 10219 566 l 10178 545 l 10139 521 l
 10101 495 l 10066 466 l 10032 434 l 10000 401 l 9971 365 l
 9944 328 l 9920 289 l 9898 248 l 9879 206 l 9863 163 l
 9850 119 l 9840 74 l 9832 28 l 9828 -16 l 9827 -62 l
 9829 -108 l 9834 -154 l 9835 -161 l 9840 -207 l 9841 -253 l
 9841 -2906 l 9841 -2916 l 9850 -3526 l 9850 -3536 l 9850 -11746 l
 9850 -11772 l 9847 -11818 l 9840 -11864 l 9831 -11909 l 9819 -11953 l
 9803 -11997 l 9785 -12039 l 9764 -12080 l 9741 -12119 l 9715 -12157 l
 9686 -12193 l 9655 -12228 l 9622 -12260 l 9587 -12289 l 9550 -12316 l
 9511 -12341 l 9470 -12363 l 9428 -12383 l 9385 -12399 l 9341 -12413 l
 9297 -12423 l 9251 -12431 l 9205 -12436 l 9159 -12437 l 8784 -12437 l
 8758 -12437 l 8712 -12433 l 8666 -12427 l 8621 -12418 l 8577 -12405 l
 8533 -12390 l 8491 -12372 l 8450 -12351 l 8410 -12328 l 8373 -12301 l
 8336 -12273 l 8302 -12242 l 8270 -12209 l 8241 -12173 l 8214 -12136 l
 8189 -12097 l 8167 -12057 l 8147 -12015 l 8131 -11972 l 8117 -11928 l
 8107 -11883 l 8099 -11838 l 8094 -11792 l 8093 -11746 l 8093 -3961 l
 8094 -3922 l 8098 -3877 l 8256 -2595 l 8260 -2556 l 8261 -2510 l
 8261 -253 l 8261 -227 l 8258 -181 l 8251 -135 l 8242 -90 l
 8230 -46 l 8214 -2 l 8196 39 l 8175 80 l 8152 119 l
 8126 157 l 8097 193 l 8066 228 l 8033 260 l 7998 289 l
 7960 316 l 7922 341 l 7881 363 l 7839 383 l 7796 399 l
 7752 413 l 7708 423 l 7662 431 l 7616 436 l 7570 437 l
 7372 437 l 7346 437 l 7300 433 l 7255 427 l 7210 418 l
 7165 405 l 7122 390 l 7080 372 l 7038 351 l 6999 328 l
 6961 301 l 6925 273 l 6891 242 l 6859 209 l 6829 173 l
 6802 136 l 6777 97 l 6755 57 l 6736 15 l 6719 -27 l
 6706 -71 l 6695 -116 l 6687 -161 l 6683 -207 l 6681 -253 l
 6681 -2644 l 6681 -2648 l 6679 -2694 l 6675 -2740 l 6667 -2785 l
 6656 -2830 l 6642 -2874 l 6420 -3501 l 6419 -3505 l 6405 -3549 l
 6395 -3594 l 6387 -3639 l 6383 -3685 l 6381 -3731 l 6381 -6806 l
 6382 -6836 l 6385 -6882 l 6392 -6928 l 6402 -6973 l 6414 -7017 l
 6430 -7061 l 6448 -7103 l 6469 -7144 l 6639 -7446 l 6654 -7474 l
 6673 -7515 l 6689 -7558 l 6703 -7602 l 6714 -7647 l 6721 -7693 l
 6726 -7738 l 6728 -7785 l 6728 -11746 l 6727 -11772 l 6724 -11818 l
 6717 -11864 l 6708 -11909 l 6696 -11953 l 6681 -11997 l 6662 -12039 l
 6642 -12080 l 6618 -12119 l 6592 -12157 l 6563 -12193 l 6532 -12228 l
 6499 -12260 l 6464 -12289 l 6427 -12316 l 6388 -12341 l 6347 -12363 l
 6306 -12383 l 6263 -12399 l 6219 -12413 l 6174 -12423 l 6128 -12431 l
 6083 -12436 l 6037 -12437 l 5813 -12437 l 5787 -12437 l 5741 -12433 l
 5696 -12427 l 5651 -12418 l 5606 -12405 l 5563 -12390 l 5521 -12372 l
 5479 -12351 l 5440 -12328 l 5402 -12301 l 5366 -12273 l 5332 -12242 l
 5300 -12209 l 5270 -12173 l 5243 -12136 l 5218 -12097 l 5196 -12057 l
 5177 -12015 l 5160 -11972 l 5147 -11928 l 5136 -11883 l 5128 -11838 l
 5124 -11792 l 5122 -11746 l 5122 -8107 l 5122 -8086 l 5078 -6631 l
 5077 -6610 l 5077 -253 l 5077 -227 l 5074 -181 l 5067 -135 l
 5058 -90 l 5046 -46 l 5031 -2 l 5012 39 l 4992 80 l
 4968 119 l 4942 157 l 4913 193 l 4882 228 l 4849 260 l
 4814 289 l 4777 316 l 4738 341 l 4697 363 l 4656 383 l
 4613 399 l 4569 413 l 4524 423 l 4478 431 l 4433 436 l
 4386 437 l 4186 437 l 4161 437 l 4115 433 l 4069 427 l
 4024 418 l 3979 405 l 3936 390 l 3894 372 l 3853 351 l
 3813 328 l 3775 301 l 3739 273 l 3705 242 l 3673 209 l
 3643 173 l 3616 136 l 3591 97 l 3569 57 l 3550 15 l
 3533 -27 l 3520 -71 l 3509 -116 l 3502 -161 l 3497 -207 l
 3495 -253 l 3495 -6682 l 3496 -6693 l 3517 -8027 l 3517 -8038 l
 3517 -11746 l 3516 -11772 l 3513 -11818 l 3507 -11864 l 3498 -11909 l
 3485 -11953 l 3470 -11997 l 3452 -12039 l 3431 -12080 l 3407 -12119 l
 3381 -12157 l 3353 -12193 l 3322 -12228 l 3289 -12260 l 3253 -12289 l
 3216 -12316 l 3177 -12341 l 3137 -12363 l 3095 -12383 l 3052 -12399 l
 3008 -12413 l 2963 -12423 l 2918 -12431 l 2872 -12436 l 2826 -12437 l
 2366 -12437 l 2340 -12437 l 2294 -12433 l 2249 -12427 l 2204 -12418 l
 2159 -12405 l 2116 -12390 l 2073 -12372 l 2032 -12351 l 1993 -12328 l
 1955 -12301 l 1919 -12273 l 1885 -12242 l 1853 -12209 l 1823 -12173 l
 1796 -12136 l 1771 -12097 l 1749 -12057 l 1730 -12015 l 1713 -11972 l
 1700 -11928 l 1689 -11883 l 1681 -11838 l 1677 -11792 l 1675 -11746 l
 1675 -253 l 1675 -236 l 1678 -190 l 1684 -145 l 1692 -99 l
 1700 -61 l 1706 -15 l 1709 30 l 1709 76 l 1706 122 l
 1700 167 l 1691 212 l 1679 257 l 1664 300 l 1646 343 l
 1625 384 l 1602 424 l 1576 462 l 1548 498 l 1517 532 l
 1484 564 l 1449 594 l 1412 621 l 1373 646 l 1333 669 l
 1291 688 l 1248 705 l 1204 719 l 1159 730 l 1114 738 l
 1068 742 l 1022 744 l 976 743 l 930 739 l 885 731 l
 840 721 l 796 707 l 753 691 l 711 672 l 670 650 l
 631 626 l 594 598 l 559 569 l 525 537 l 494 503 l
 466 467 l 439 430 l 415 390 l 394 349 l 376 307 l
 360 264 l 348 219 l 338 174 l 332 129 l 328 83 l
 328 37 l 331 -8 l 336 -54 l 345 -99 l 348 -116 l
 356 -161 l 361 -207 l 362 -253 l 362 -11746 l 363 -11772 l
 366 -11818 l 372 -11864 l 382 -11909 l 394 -11953 l 409 -11997 l
 427 -12039 l 448 -12080 l 472 -12119 l 498 -12157 l 527 -12193 l
 558 -12228 l 591 -12260 l 626 -12289 l 663 -12316 l 702 -12341 l
 742 -12363 l 784 -12383 l 827 -12399 l 871 -12413 l 916 -12423 l
 961 -12431 l 1007 -12436 l 1053 -12437 l 1203 -12437 l 1229 -12437 l
 1275 -12433 l 1320 -12427 l 1365 -12418 l 1410 -12405 l 1453 -12390 l
 1496 -12372 l 1537 -12351 l 1576 -12328 l 1614 -12301 l 1650 -12273 l
 1684 -12242 l 1716 -12209 l 1746 -12173 l 1773 -12136 l 1798 -12097 l
 1820 -12057 l 1839 -12015 l 1856 -11972 l 1870 -11928 l 1880 -11883 l
 1888 -11838 l 1892 -11792 l 1894 -11746 l 1894 -253 l 1894 -236 l
 1897 -190 l 1902 -145 l 1911 -99 l 1919 -61 l 1925 -15 l
 1928 30 l 1928 76 l 1925 122 l 1919 167 l 1910 212 l
 1898 257 l 1883 300 l 1865 343 l 1844 384 l 1821 424 l
 1795 462 l 1766 498 l 1736 532 l 1703 564 l 1668 594 l
 1631 621 l 1592 646 l 1552 669 l 1510 688 l 1467 705 l
 1423 719 l 1378 730 l 1333 738 l 1287 742 l 1241 744 l
 1195 743 l 1149 739 l 1104 731 l 1059 721 l 1015 707 l
 972 691 l 930 672 l 889 650 l 850 626 l 813 598 l
 778 569 l 744 537 l 713 503 l 684 467 l 658 430 l
 634 390 l 613 349 l 595 307 l 579 264 l 567 219 l
 557 174 l 551 129 l 547 83 l 547 37 l 549 -8 l
 555 -54 l 564 -99 l 567 -116 l 575 -161 l 580 -207 l
 581 -253 l 581 -11746 l 582 -11772 l 585 -11818 l 591 -11864 l
 600 -11909 l 613 -11953 l 628 -11997 l 646 -12039 l 667 -12080 l
 691 -12119 l 717 -12157 l 745 -12193 l 776 -12228 l 810 -12260 l
 845 -12289 l 882 -12316 l 921 -12341 l 961 -12363 l 1003 -12383 l
 1046 -12399 l 1090 -12413 l 1135 -12423 l 1180 -12431 l 1226 -12436 l
 1272 -12437 l 1450 -12437 l 1476 -12437 l 1522 -12433 l 1567 -12427 l
 1613 -12418 l 1657 -12405 l 1700 -12390 l 1743 -12372 l 1784 -12351 l
 1823 -12328 l 1861 -12301 l 1897 -12273 l 1931 -12242 l 1963 -12209 l
 1993 -12173 l 2020 -12136 l 2045 -12097 l 2067 -12057 l 2086 -12015 l
 2103 -11972 l 2117 -11928 l 2127 -11883 l 2135 -11838 l 2139 -11792 l
 2141 -11746 l 2141 -7416 l 2141 -7405 l 2139 -7312 l 2139 -7301 l
 2139 -253 l 2140 -224 l 2143 -178 l 2150 -132 l 2153 -114 l
 2158 -69 l 2161 -23 l 2160 22 l 2156 68 l 2149 114 l
 2139 159 l 2126 203 l 2110 246 l 2092 288 l 2070 329 l
 2046 368 l 2020 406 l 1990 442 l 1959 475 l 1925 507 l
 1890 536 l 1852 563 l 1813 587 l 1772 609 l 1730 627 l
 1687 643 l 1643 656 l 1598 666 l 1553 673 l 1507 677 l
 1461 678 l 1415 676 l 1369 671 l 1324 663 l 1279 652 l
 1235 637 l 1192 620 l 1151 600 l 1111 578 l 1072 553 l
 1035 525 l 1000 495 l 968 462 l 937 428 l 909 391 l
 883 353 l 860 313 l 840 272 l 822 229 l 808 186 l
 796 141 l 787 96 l 782 50 l 779 4 l 779 -41 l
 783 -87 l 789 -132 l 794 -161 l 798 -207 l 800 -253 l
 800 -11746 l 800 -11772 l 804 -11818 l 810 -11864 l 819 -11909 l
 832 -11953 l 847 -11997 l 865 -12039 l 886 -12080 l 909 -12119 l
 936 -12157 l 964 -12193 l 995 -12228 l 1028 -12260 l 1064 -12289 l
 1101 -12316 l 1140 -12341 l 1180 -12363 l 1222 -12383 l 1265 -12399 l
 1309 -12413 l 1354 -12423 l 1399 -12431 l 1445 -12436 l 1491 -12437 l
 1679 -12437 l 1705 -12437 l 1751 -12433 l 1797 -12427 l 1842 -12418 l
 1886 -12405 l 1930 -12390 l 1972 -12372 l 2013 -12351 l 2053 -12328 l
 2091 -12301 l 2127 -12273 l 2161 -12242 l 2193 -12209 l 2222 -12173 l
 2250 -12136 l 2274 -12097 l 2296 -12057 l 2316 -12015 l 2332 -11972 l
 2346 -11928 l 2357 -11883 l 2364 -11838 l 2369 -11792 l 2370 -11746 l
 2370 -7669 l 2370 -7664 l 2365 -7053 l 2365 -7047 l 2365 -253 l
 2366 -234 l 2368 -189 l 2374 -143 l 2380 -101 l 2383 -55 l
 2383 -9 l 2379 36 l 2373 82 l 2364 127 l 2352 171 l
 2337 215 l 2319 257 l 2298 298 l 2274 338 l 2248 376 l
 2220 412 l 2189 446 l 2156 478 l 2121 508 l 2084 535 l
 2045 560 l 2005 582 l 1963 602 l 1920 619 l 1876 632 l
 1831 643 l 1786 651 l 1740 656 l 1694 657 l 1648 656 l
 1602 651 l 1557 644 l 1512 633 l 1468 620 l 1425 603 l
 1383 584 l 1342 562 l 1303 538 l 1266 510 l 1231 481 l
 1198 449 l 1167 415 l 1138 379 l 1112 341 l 1088 302 l
 1067 261 l 1049 218 l 1033 175 l 1021 131 l 1011 85 l
 1005 40 l 1002 -5 l 1001 -51 l 1004 -97 l 1010 -143 l
 1013 -161 l 1017 -207 l 1019 -253 l 1019 -11746 l 1019 -11772 l
 1022 -11818 l 1029 -11864 l 1038 -11909 l 1050 -11953 l 1066 -11997 l
 1084 -12039 l 1105 -12080 l 1128 -12119 l 1154 -12157 l 1183 -12193 l
 1214 -12228 l 1247 -12260 l 1282 -12289 l 1320 -12316 l 1358 -12341 l
 1399 -12363 l 1441 -12383 l 1484 -12399 l 1528 -12413 l 1572 -12423 l
 1618 -12431 l 1664 -12436 l 1710 -12437 l 1909 -12437 l 1935 -12437 l
 1981 -12433 l 2026 -12427 l 2071 -12418 l 2116 -12405 l 2159 -12390 l
 2201 -12372 l 2242 -12351 l 2282 -12328 l 2320 -12301 l 2356 -12273 l
 2390 -12242 l 2422 -12209 l 2452 -12173 l 2479 -12136 l 2504 -12097 l
 2526 -12057 l 2545 -12015 l 2562 -11972 l 2575 -11928 l 2586 -11883 l
 2594 -11838 l 2598 -11792 l 2600 -11746 l 2600 -7785 l 2600 -7778 l
 2591 -6939 l 2591 -6932 l 2591 -253 l 2592 -227 l 2595 -181 l
 2601 -135 l 2611 -90 l 2623 -46 l 2638 -2 l 2656 39 l
 2677 80 l 2701 119 l 2727 157 l 2756 193 l 2787 228 l
 2820 260 l 2855 289 l 2892 316 l 2931 341 l 2971 363 l
 3013 383 l 3056 399 l 3100 413 l 3145 423 l 3191 431 l
 3236 436 l 3282 437 l 3482 437 l 3508 437 l 3554 433 l
 3600 427 l 3645 418 l 3689 405 l 3733 390 l 3775 372 l
 3816 351 l 3856 328 l 3894 301 l 3930 273 l 3964 242 l
 3996 209 l 4025 173 l 4053 136 l 4077 97 l 4100 57 l
 4119 15 l 4135 -27 l 4149 -71 l 4160 -116 l 4167 -161 l
 4172 -207 l 4173 -253 l 4173 -6610 l 4174 -6647 l 4178 -6693 l
 4185 -6738 l 4422 -7992 l 4428 -8028 l 4433 -8074 l 4434 -8120 l
 4434 -11746 l 4436 -11792 l 4436 -11796 l 4437 -11842 l 4435 -11888 l
 4430 -11934 l 4422 -11980 l 4411 -12024 l 4398 -12068 l 4381 -12111 l
 4361 -12153 l 4339 -12193 l 4314 -12232 l 4286 -12269 l 4256 -12304 l
 4224 -12337 l 4190 -12367 l 4153 -12396 l 4115 -12421 l 4076 -12445 l
 4034 -12465 l 3992 -12483 l 3948 -12498 l 3904 -12510 l 3859 -12519 l
 3813 -12525 l 3767 -12528 l 3721 -12528 l 3675 -12525 l 3629 -12518 l
 3584 -12509 l 3540 -12497 l 3496 -12481 l 3454 -12463 l 3413 -12442 l
 3373 -12419 l 3335 -12393 l 3299 -12364 l 3265 -12333 l 3233 -12300 l
 3204 -12265 l 3176 -12228 l 3152 -12189 l 3129 -12149 l 3110 -12107 l
 3094 -12064 l 3080 -12020 l 3069 -11975 l 3062 -11930 l 3057 -11884 l
 3055 -11838 l 3057 -11792 l 3058 -11746 l 3058 -7946 l 3057 -7909 l
 3053 -7863 l 3046 -7817 l 3036 -7772 l 2840 -7014 l 2831 -6977 l
 2824 -6932 l 2819 -6886 l 2817 -6840 l 2817 -253 l 2817 -227 l
 2814 -181 l 2807 -135 l 2798 -90 l 2786 -46 l 2770 -2 l
 2752 39 l 2731 80 l 2708 119 l 2682 157 l 2653 193 l
 2622 228 l 2589 260 l 2554 289 l 2517 316 l 2478 341 l
 2437 363 l 2395 383 l 2353 399 l 2309 413 l 2264 423 l
 2218 431 l 2172 436 l 2126 437 l 1928 437 l 1903 437 l
 1857 433 l 1811 427 l 1766 418 l 1722 405 l 1678 390 l
 1636 372 l 1595 351 l 1555 328 l 1517 301 l 1481 273 l
 1447 242 l 1415 209 l 1385 173 l 1358 136 l 1333 97 l
 1311 57 l 1292 15 l 1276 -27 l 1262 -71 l 1251 -116 l
 1244 -161 l 1239 -207 l 1238 -253 l 1238 -11746 l 1238 -11772 l
 1241 -11818 l 1248 -11864 l 1257 -11909 l 1269 -11953 l 1284 -11997 l
 1303 -12039 l 1323 -12080 l 1347 -12119 l 1373 -12157 l 1402 -12193 l
 1433 -12228 l 1466 -12260 l 1501 -12289 l 1538 -12316 l 1577 -12341 l
 1618 -12363 l 1659 -12383 l 1702 -12399 l 1746 -12413 l 1791 -12423 l
 1837 -12431 l 1882 -12436 l 1928 -12437 l 2138 -12437 l 2164 -12437 l
 2210 -12433 l 2255 -12427 l 2301 -12418 l 2345 -12405 l 2388 -12390 l
 2431 -12372 l 2472 -12351 l 2511 -12328 l 2549 -12301 l 2585 -12273 l
 2619 -12242 l 2651 -12209 l 2681 -12173 l 2708 -12136 l 2733 -12097 l
 2755 -12057 l 2774 -12015 l 2791 -11972 l 2805 -11928 l 2815 -11883 l
 2823 -11838 l 2827 -11792 l 2829 -11746 l 2829 -7877 l 2829 -7862 l
 2832 -7816 l 2837 -7770 l 2846 -7725 l 3027 -6923 l 3030 -6908 l
 3037 -6863 l 3042 -6817 l 3043 -6771 l 3043 -253 l 3043 -227 l
 3040 -181 l 3033 -135 l 3024 -90 l 3012 -46 l 2996 -2 l
 2978 39 l 2957 80 l 2934 119 l 2908 157 l 2879 193 l
 2848 228 l 2815 260 l 2780 289 l 2743 316 l 2704 341 l
 2663 363 l 2622 383 l 2579 399 l 2535 413 l 2490 423 l
 2444 431 l 2398 436 l 2352 437 l 2147 437 l 2121 437 l
 2075 433 l 2030 427 l 1985 418 l 1940 405 l 1897 390 l
 1855 372 l 1814 351 l 1774 328 l 1736 301 l 1700 273 l
 1666 242 l 1634 209 l 1604 173 l 1577 136 l 1552 97 l
 1530 57 l 1511 15 l 1494 -27 l 1481 -71 l 1470 -116 l
 1462 -161 l 1458 -207 l 1456 -253 l 1456 -11746 l 1457 -11772 l
 1460 -11818 l 1466 -11864 l 1476 -11909 l 1488 -11953 l 1503 -11997 l
 1521 -12039 l 1542 -12080 l 1566 -12119 l 1592 -12157 l 1621 -12193 l
 1652 -12228 l 1685 -12260 l 1720 -12289 l 1757 -12316 l 1796 -12341 l
 1836 -12363 l 1878 -12383 l 1921 -12399 l 1965 -12413 l 2010 -12423 l
 2055 -12431 l 2101 -12436 l 2147 -12437 l 3055 -12437 l 3081 -12437 l
 3127 -12433 l 3173 -12427 l 3218 -12418 l 3262 -12405 l 3306 -12390 l
 3348 -12372 l 3389 -12351 l 3429 -12328 l 3467 -12301 l 3503 -12273 l
 3537 -12242 l 3569 -12209 l 3598 -12173 l 3626 -12136 l 3650 -12097 l
 3672 -12057 l 3692 -12015 l 3708 -11972 l 3722 -11928 l 3733 -11883 l
 3740 -11838 l 3745 -11792 l 3746 -11746 l 3746 -8061 l 3746 -8049 l
 3722 -6668 l 3721 -6656 l 3721 -253 l 3722 -227 l 3725 -181 l
 3731 -135 l 3741 -90 l 3753 -46 l 3768 -2 l 3786 39 l
 3807 80 l 3831 119 l 3857 157 l 3886 193 l 3917 228 l
 3950 260 l 3985 289 l 4022 316 l 4061 341 l 4102 363 l
 4143 383 l 4186 399 l 4230 413 l 4275 423 l 4321 431 l
 4366 436 l 4412 437 l 4613 437 l 4638 437 l 4684 433 l
 4730 427 l 4775 418 l 4819 405 l 4863 390 l 4905 372 l
 4946 351 l 4986 328 l 5024 301 l 5060 273 l 5094 242 l
 5126 209 l 5156 173 l 5183 136 l 5208 97 l 5230 57 l
 5249 15 l 5265 -27 l 5279 -71 l 5290 -116 l 5297 -161 l
 5302 -207 l 5303 -253 l 5303 -6633 l
 5303 -6633 l gs col37 s gr 
% Ellipse
n 5304 -6656 115 115 0 360 DrawEllipse gs col34 s gr
% Ellipse
n 5303 -6633 115 115 0 360 DrawEllipse gs col33 s gr
% Polyline
n 5304 -6656 m
 5300 -6541 l gs col34 s gr 
% Polyline
n 5303 -6633 m
 5419 -6633 l gs col33 s gr 
% here ends figure;
pagefooter
showpage
%%Trailer
%EOF
%%EndDocument
 @endspecial Black Black eop end
%%Trailer
userdict /end-hook known{end-hook}if
%%Trailer
cleartomark
countdictstack
exch sub { end } repeat
restore
%%EOF
