%!PS-Adobe-2.0 EPSF-2.0
%%Creator: dvips(k) 5.993 Copyright 2013 Radical Eye Software
%%Title: env03_bcd.fig2ps.tmp.dvi
%%CreationDate: Fri Sep  9 19:46:52 2016
%%BoundingBox: 14 -74 882 794
%%EndComments
%DVIPSWebPage: (www.radicaleye.com)
%DVIPSCommandLine: dvips -q -E env03_bcd.fig2ps.tmp.dvi -o env03_bcd.eps
%DVIPSParameters: dpi=600
%DVIPSSource:  TeX output 2016.09.09:1946
%%BeginProcSet: tex.pro 0 0
%!
/TeXDict 300 dict def TeXDict begin/N{def}def/B{bind def}N/S{exch}N/X{S
N}B/A{dup}B/TR{translate}N/isls false N/vsize 11 72 mul N/hsize 8.5 72
mul N/landplus90{false}def/@rigin{isls{[0 landplus90{1 -1}{-1 1}ifelse 0
0 0]concat}if 72 Resolution div 72 VResolution div neg scale isls{
landplus90{VResolution 72 div vsize mul 0 exch}{Resolution -72 div hsize
mul 0}ifelse TR}if Resolution VResolution vsize -72 div 1 add mul TR[
matrix currentmatrix{A A round sub abs 0.00001 lt{round}if}forall round
exch round exch]setmatrix}N/@landscape{/isls true N}B/@manualfeed{
statusdict/manualfeed true put}B/@copies{/#copies X}B/FMat[1 0 0 -1 0 0]
N/FBB[0 0 0 0]N/nn 0 N/IEn 0 N/ctr 0 N/df-tail{/nn 8 dict N nn begin
/FontType 3 N/FontMatrix fntrx N/FontBBox FBB N string/base X array
/BitMaps X/BuildChar{CharBuilder}N/Encoding IEn N end A{/foo setfont}2
array copy cvx N load 0 nn put/ctr 0 N[}B/sf 0 N/df{/sf 1 N/fntrx FMat N
df-tail}B/dfs{div/sf X/fntrx[sf 0 0 sf neg 0 0]N df-tail}B/E{pop nn A
definefont setfont}B/Cw{Cd A length 5 sub get}B/Ch{Cd A length 4 sub get
}B/Cx{128 Cd A length 3 sub get sub}B/Cy{Cd A length 2 sub get 127 sub}
B/Cdx{Cd A length 1 sub get}B/Ci{Cd A type/stringtype ne{ctr get/ctr ctr
1 add N}if}B/CharBuilder{save 3 1 roll S A/base get 2 index get S
/BitMaps get S get/Cd X pop/ctr 0 N Cdx 0 Cx Cy Ch sub Cx Cw add Cy
setcachedevice Cw Ch true[1 0 0 -1 -.1 Cx sub Cy .1 sub]{Ci}imagemask
restore}B/D{/cc X A type/stringtype ne{]}if nn/base get cc ctr put nn
/BitMaps get S ctr S sf 1 ne{A A length 1 sub A 2 index S get sf div put
}if put/ctr ctr 1 add N}B/I{cc 1 add D}B/bop{userdict/bop-hook known{
bop-hook}if/SI save N @rigin 0 0 moveto/V matrix currentmatrix A 1 get A
mul exch 0 get A mul add .99 lt{/QV}{/RV}ifelse load def pop pop}N/eop{
SI restore userdict/eop-hook known{eop-hook}if showpage}N/@start{
userdict/start-hook known{start-hook}if pop/VResolution X/Resolution X
1000 div/DVImag X/IEn 256 array N 2 string 0 1 255{IEn S A 360 add 36 4
index cvrs cvn put}for pop 65781.76 div/vsize X 65781.76 div/hsize X}N
/dir 0 def/dyy{/dir 0 def}B/dyt{/dir 1 def}B/dty{/dir 2 def}B/dtt{/dir 3
def}B/p{dir 2 eq{-90 rotate show 90 rotate}{dir 3 eq{-90 rotate show 90
rotate}{show}ifelse}ifelse}N/RMat[1 0 0 -1 0 0]N/BDot 260 string N/Rx 0
N/Ry 0 N/V{}B/RV/v{/Ry X/Rx X V}B statusdict begin/product where{pop
false[(Display)(NeXT)(LaserWriter 16/600)]{A length product length le{A
length product exch 0 exch getinterval eq{pop true exit}if}{pop}ifelse}
forall}{false}ifelse end{{gsave TR -.1 .1 TR 1 1 scale Rx Ry false RMat{
BDot}imagemask grestore}}{{gsave TR -.1 .1 TR Rx Ry scale 1 1 false RMat
{BDot}imagemask grestore}}ifelse B/QV{gsave newpath transform round exch
round exch itransform moveto Rx 0 rlineto 0 Ry neg rlineto Rx neg 0
rlineto fill grestore}B/a{moveto}B/delta 0 N/tail{A/delta X 0 rmoveto}B
/M{S p delta add tail}B/b{S p tail}B/c{-4 M}B/d{-3 M}B/e{-2 M}B/f{-1 M}
B/g{0 M}B/h{1 M}B/i{2 M}B/j{3 M}B/k{4 M}B/w{0 rmoveto}B/l{p -4 w}B/m{p
-3 w}B/n{p -2 w}B/o{p -1 w}B/q{p 1 w}B/r{p 2 w}B/s{p 3 w}B/t{p 4 w}B/x{
0 S rmoveto}B/y{3 2 roll p a}B/bos{/SS save N}B/eos{SS restore}B end

%%EndProcSet
%%BeginProcSet: special.pro 0 0
%!
TeXDict begin/SDict 200 dict N SDict begin/@SpecialDefaults{/hs 612 N
/vs 792 N/ho 0 N/vo 0 N/hsc 1 N/vsc 1 N/ang 0 N/CLIP 0 N/rwiSeen false N
/rhiSeen false N/letter{}N/note{}N/a4{}N/legal{}N}B/@scaleunit 100 N
/@hscale{@scaleunit div/hsc X}B/@vscale{@scaleunit div/vsc X}B/@hsize{
/hs X/CLIP 1 N}B/@vsize{/vs X/CLIP 1 N}B/@clip{/CLIP 2 N}B/@hoffset{/ho
X}B/@voffset{/vo X}B/@angle{/ang X}B/@rwi{10 div/rwi X/rwiSeen true N}B
/@rhi{10 div/rhi X/rhiSeen true N}B/@llx{/llx X}B/@lly{/lly X}B/@urx{
/urx X}B/@ury{/ury X}B/magscale true def end/@MacSetUp{userdict/md known
{userdict/md get type/dicttype eq{userdict begin md length 10 add md
maxlength ge{/md md dup length 20 add dict copy def}if end md begin
/letter{}N/note{}N/legal{}N/od{txpose 1 0 mtx defaultmatrix dtransform S
atan/pa X newpath clippath mark{transform{itransform moveto}}{transform{
itransform lineto}}{6 -2 roll transform 6 -2 roll transform 6 -2 roll
transform{itransform 6 2 roll itransform 6 2 roll itransform 6 2 roll
curveto}}{{closepath}}pathforall newpath counttomark array astore/gc xdf
pop ct 39 0 put 10 fz 0 fs 2 F/|______Courier fnt invertflag{PaintBlack}
if}N/txpose{pxs pys scale ppr aload pop por{noflips{pop S neg S TR pop 1
-1 scale}if xflip yflip and{pop S neg S TR 180 rotate 1 -1 scale ppr 3
get ppr 1 get neg sub neg ppr 2 get ppr 0 get neg sub neg TR}if xflip
yflip not and{pop S neg S TR pop 180 rotate ppr 3 get ppr 1 get neg sub
neg 0 TR}if yflip xflip not and{ppr 1 get neg ppr 0 get neg TR}if}{
noflips{TR pop pop 270 rotate 1 -1 scale}if xflip yflip and{TR pop pop
90 rotate 1 -1 scale ppr 3 get ppr 1 get neg sub neg ppr 2 get ppr 0 get
neg sub neg TR}if xflip yflip not and{TR pop pop 90 rotate ppr 3 get ppr
1 get neg sub neg 0 TR}if yflip xflip not and{TR pop pop 270 rotate ppr
2 get ppr 0 get neg sub neg 0 S TR}if}ifelse scaleby96{ppr aload pop 4
-1 roll add 2 div 3 1 roll add 2 div 2 copy TR .96 dup scale neg S neg S
TR}if}N/cp{pop pop showpage pm restore}N end}if}if}N/normalscale{
Resolution 72 div VResolution 72 div neg scale magscale{DVImag dup scale
}if 0 setgray}N/psfts{S 65781.76 div N}N/startTexFig{/psf$SavedState
save N userdict maxlength dict begin/magscale true def normalscale
currentpoint TR/psf$ury psfts/psf$urx psfts/psf$lly psfts/psf$llx psfts
/psf$y psfts/psf$x psfts currentpoint/psf$cy X/psf$cx X/psf$sx psf$x
psf$urx psf$llx sub div N/psf$sy psf$y psf$ury psf$lly sub div N psf$sx
psf$sy scale psf$cx psf$sx div psf$llx sub psf$cy psf$sy div psf$ury sub
TR/showpage{}N/erasepage{}N/setpagedevice{pop}N/copypage{}N/p 3 def
@MacSetUp}N/doclip{psf$llx psf$lly psf$urx psf$ury currentpoint 6 2 roll
newpath 4 copy 4 2 roll moveto 6 -1 roll S lineto S lineto S lineto
closepath clip newpath moveto}N/endTexFig{end psf$SavedState restore}N
/@beginspecial{SDict begin/SpecialSave save N gsave normalscale
currentpoint TR @SpecialDefaults count/ocount X/dcount countdictstack N}
N/@setspecial{CLIP 1 eq{newpath 0 0 moveto hs 0 rlineto 0 vs rlineto hs
neg 0 rlineto closepath clip}if ho vo TR hsc vsc scale ang rotate
rwiSeen{rwi urx llx sub div rhiSeen{rhi ury lly sub div}{dup}ifelse
scale llx neg lly neg TR}{rhiSeen{rhi ury lly sub div dup scale llx neg
lly neg TR}if}ifelse CLIP 2 eq{newpath llx lly moveto urx lly lineto urx
ury lineto llx ury lineto closepath clip}if/showpage{}N/erasepage{}N
/setpagedevice{pop}N/copypage{}N newpath}N/@endspecial{count ocount sub{
pop}repeat countdictstack dcount sub{end}repeat grestore SpecialSave
restore end}N/@defspecial{SDict begin}N/@fedspecial{end}B/li{lineto}B
/rl{rlineto}B/rc{rcurveto}B/np{/SaveX currentpoint/SaveY X N 1
setlinecap newpath}N/st{stroke SaveX SaveY moveto}N/fil{fill SaveX SaveY
moveto}N/ellipse{/endangle X/startangle X/yrad X/xrad X/savematrix
matrix currentmatrix N TR xrad yrad scale 0 0 1 startangle endangle arc
savematrix setmatrix}N end

%%EndProcSet
%%BeginProcSet: color.pro 0 0
%!
TeXDict begin/setcmykcolor where{pop}{/setcmykcolor{dup 10 eq{pop
setrgbcolor}{1 sub 4 1 roll 3{3 index add neg dup 0 lt{pop 0}if 3 1 roll
}repeat setrgbcolor pop}ifelse}B}ifelse/TeXcolorcmyk{setcmykcolor}def
/TeXcolorrgb{setrgbcolor}def/TeXcolorgrey{setgray}def/TeXcolorgray{
setgray}def/TeXcolorhsb{sethsbcolor}def/currentcmykcolor where{pop}{
/currentcmykcolor{currentrgbcolor 10}B}ifelse/DC{exch dup userdict exch
known{pop pop}{X}ifelse}B/GreenYellow{0.15 0 0.69 0 setcmykcolor}DC
/Yellow{0 0 1 0 setcmykcolor}DC/Goldenrod{0 0.10 0.84 0 setcmykcolor}DC
/Dandelion{0 0.29 0.84 0 setcmykcolor}DC/Apricot{0 0.32 0.52 0
setcmykcolor}DC/Peach{0 0.50 0.70 0 setcmykcolor}DC/Melon{0 0.46 0.50 0
setcmykcolor}DC/YellowOrange{0 0.42 1 0 setcmykcolor}DC/Orange{0 0.61
0.87 0 setcmykcolor}DC/BurntOrange{0 0.51 1 0 setcmykcolor}DC
/Bittersweet{0 0.75 1 0.24 setcmykcolor}DC/RedOrange{0 0.77 0.87 0
setcmykcolor}DC/Mahogany{0 0.85 0.87 0.35 setcmykcolor}DC/Maroon{0 0.87
0.68 0.32 setcmykcolor}DC/BrickRed{0 0.89 0.94 0.28 setcmykcolor}DC/Red{
0 1 1 0 setcmykcolor}DC/OrangeRed{0 1 0.50 0 setcmykcolor}DC/RubineRed{
0 1 0.13 0 setcmykcolor}DC/WildStrawberry{0 0.96 0.39 0 setcmykcolor}DC
/Salmon{0 0.53 0.38 0 setcmykcolor}DC/CarnationPink{0 0.63 0 0
setcmykcolor}DC/Magenta{0 1 0 0 setcmykcolor}DC/VioletRed{0 0.81 0 0
setcmykcolor}DC/Rhodamine{0 0.82 0 0 setcmykcolor}DC/Mulberry{0.34 0.90
0 0.02 setcmykcolor}DC/RedViolet{0.07 0.90 0 0.34 setcmykcolor}DC
/Fuchsia{0.47 0.91 0 0.08 setcmykcolor}DC/Lavender{0 0.48 0 0
setcmykcolor}DC/Thistle{0.12 0.59 0 0 setcmykcolor}DC/Orchid{0.32 0.64 0
0 setcmykcolor}DC/DarkOrchid{0.40 0.80 0.20 0 setcmykcolor}DC/Purple{
0.45 0.86 0 0 setcmykcolor}DC/Plum{0.50 1 0 0 setcmykcolor}DC/Violet{
0.79 0.88 0 0 setcmykcolor}DC/RoyalPurple{0.75 0.90 0 0 setcmykcolor}DC
/BlueViolet{0.86 0.91 0 0.04 setcmykcolor}DC/Periwinkle{0.57 0.55 0 0
setcmykcolor}DC/CadetBlue{0.62 0.57 0.23 0 setcmykcolor}DC
/CornflowerBlue{0.65 0.13 0 0 setcmykcolor}DC/MidnightBlue{0.98 0.13 0
0.43 setcmykcolor}DC/NavyBlue{0.94 0.54 0 0 setcmykcolor}DC/RoyalBlue{1
0.50 0 0 setcmykcolor}DC/Blue{1 1 0 0 setcmykcolor}DC/Cerulean{0.94 0.11
0 0 setcmykcolor}DC/Cyan{1 0 0 0 setcmykcolor}DC/ProcessBlue{0.96 0 0 0
setcmykcolor}DC/SkyBlue{0.62 0 0.12 0 setcmykcolor}DC/Turquoise{0.85 0
0.20 0 setcmykcolor}DC/TealBlue{0.86 0 0.34 0.02 setcmykcolor}DC
/Aquamarine{0.82 0 0.30 0 setcmykcolor}DC/BlueGreen{0.85 0 0.33 0
setcmykcolor}DC/Emerald{1 0 0.50 0 setcmykcolor}DC/JungleGreen{0.99 0
0.52 0 setcmykcolor}DC/SeaGreen{0.69 0 0.50 0 setcmykcolor}DC/Green{1 0
1 0 setcmykcolor}DC/ForestGreen{0.91 0 0.88 0.12 setcmykcolor}DC
/PineGreen{0.92 0 0.59 0.25 setcmykcolor}DC/LimeGreen{0.50 0 1 0
setcmykcolor}DC/YellowGreen{0.44 0 0.74 0 setcmykcolor}DC/SpringGreen{
0.26 0 0.76 0 setcmykcolor}DC/OliveGreen{0.64 0 0.95 0.40 setcmykcolor}
DC/RawSienna{0 0.72 1 0.45 setcmykcolor}DC/Sepia{0 0.83 1 0.70
setcmykcolor}DC/Brown{0 0.81 1 0.60 setcmykcolor}DC/Tan{0.14 0.42 0.56 0
setcmykcolor}DC/Gray{0 0 0 0.50 setcmykcolor}DC/Black{0 0 0 1
setcmykcolor}DC/White{0 0 0 0 setcmykcolor}DC end

%%EndProcSet
TeXDict begin 40258437 52099154 1000 600 600 (env03_bcd.fig2ps.tmp.dvi)
@start end
%%EndProlog
%%BeginSetup
%%Feature: *Resolution 600dpi
TeXDict begin
 end
%%EndSetup
TeXDict begin 1 0 bop Black Black -475 6612 a @beginspecial
0 @llx 0 @lly 866 @urx 866 @ury 8660 @rwi @setspecial
%%BeginDocument: env03_bcd.fig2ps.tmp.ps
%!PS-Adobe-3.0 EPSF-3.0
%%Title: env03_bcd.fig2ps.tmp.fig
%%Creator: fig2dev Version 3.2 Patchlevel 5e
%%CreationDate: Fri Sep  9 19:46:52 2016
%%BoundingBox: 0 0 866 866
%Magnification: 1.0000
%%EndComments
%%BeginProlog
/$F2psDict 200 dict def
$F2psDict begin
$F2psDict /mtrx matrix put
/col-1 {0 setgray} bind def
/col0 {0.000 0.000 0.000 srgb} bind def
/col1 {0.000 0.000 1.000 srgb} bind def
/col2 {0.000 1.000 0.000 srgb} bind def
/col3 {0.000 1.000 1.000 srgb} bind def
/col4 {1.000 0.000 0.000 srgb} bind def
/col5 {1.000 0.000 1.000 srgb} bind def
/col6 {1.000 1.000 0.000 srgb} bind def
/col7 {1.000 1.000 1.000 srgb} bind def
/col8 {0.000 0.000 0.560 srgb} bind def
/col9 {0.000 0.000 0.690 srgb} bind def
/col10 {0.000 0.000 0.820 srgb} bind def
/col11 {0.530 0.810 1.000 srgb} bind def
/col12 {0.000 0.560 0.000 srgb} bind def
/col13 {0.000 0.690 0.000 srgb} bind def
/col14 {0.000 0.820 0.000 srgb} bind def
/col15 {0.000 0.560 0.560 srgb} bind def
/col16 {0.000 0.690 0.690 srgb} bind def
/col17 {0.000 0.820 0.820 srgb} bind def
/col18 {0.560 0.000 0.000 srgb} bind def
/col19 {0.690 0.000 0.000 srgb} bind def
/col20 {0.820 0.000 0.000 srgb} bind def
/col21 {0.560 0.000 0.560 srgb} bind def
/col22 {0.690 0.000 0.690 srgb} bind def
/col23 {0.820 0.000 0.820 srgb} bind def
/col24 {0.500 0.190 0.000 srgb} bind def
/col25 {0.630 0.250 0.000 srgb} bind def
/col26 {0.750 0.380 0.000 srgb} bind def
/col27 {1.000 0.500 0.500 srgb} bind def
/col28 {1.000 0.630 0.630 srgb} bind def
/col29 {1.000 0.750 0.750 srgb} bind def
/col30 {1.000 0.880 0.880 srgb} bind def
/col31 {1.000 0.840 0.000 srgb} bind def
/col32 {0.306 0.773 0.925 srgb} bind def
/col33 {0.498 0.000 0.000 srgb} bind def
/col34 {0.624 0.871 0.945 srgb} bind def
/col35 {0.698 0.698 0.698 srgb} bind def

end

/cp {closepath} bind def
/ef {eofill} bind def
/gr {grestore} bind def
/gs {gsave} bind def
/sa {save} bind def
/rs {restore} bind def
/l {lineto} bind def
/m {moveto} bind def
/rm {rmoveto} bind def
/n {newpath} bind def
/s {stroke} bind def
/sh {show} bind def
/slc {setlinecap} bind def
/slj {setlinejoin} bind def
/slw {setlinewidth} bind def
/srgb {setrgbcolor} bind def
/rot {rotate} bind def
/sc {scale} bind def
/sd {setdash} bind def
/ff {findfont} bind def
/sf {setfont} bind def
/scf {scalefont} bind def
/sw {stringwidth} bind def
/tr {translate} bind def
/tnt {dup dup currentrgbcolor
  4 -2 roll dup 1 exch sub 3 -1 roll mul add
  4 -2 roll dup 1 exch sub 3 -1 roll mul add
  4 -2 roll dup 1 exch sub 3 -1 roll mul add srgb}
  bind def
/shd {dup dup currentrgbcolor 4 -2 roll mul 4 -2 roll mul
  4 -2 roll mul srgb} bind def
 /DrawEllipse {
	/endangle exch def
	/startangle exch def
	/yrad exch def
	/xrad exch def
	/y exch def
	/x exch def
	/savematrix mtrx currentmatrix def
	x y tr xrad yrad sc 0 0 1 startangle endangle arc
	closepath
	savematrix setmatrix
	} def

/$F2psBegin {$F2psDict begin /$F2psEnteredState save def} def
/$F2psEnd {$F2psEnteredState restore end} def

/pageheader {
save
newpath 0 866 moveto 0 0 lineto 866 0 lineto 866 866 lineto closepath clip newpath
72.7 72.7 translate
1 -1 scale
$F2psBegin
10 setmiterlimit
0 slj 0 slc
 0.06000 0.06000 sc
} bind def
/pagefooter {
$F2psEnd
restore
} bind def
%%EndProlog
pageheader
%
% Fig objects follow
%
% 
% here starts figure with depth 50
%  beginPolygon(); 
%    addPoint(-63.100000,-63.100000); 
%    addPoint(-63.100000,562.100000); 
%    addPoint(562.100000,562.100000); 
%    addPoint(562.100000,-63.100000); 
%  endObject(); 
% Polyline
1 slj
0 slc
7.500 slw
n -1200 1200 m -1200 -13200 l 13200 -13200 l 13200 1200 l
 cp gs 0.00 setgray ef gr gs col0 s gr 
%  beginPolygon(); 
%    addPoint(-11.000000,-11.000000); 
%    addPoint(-11.000000,510.000000); 
%    addPoint(510.000000,510.000000); 
%    addPoint(510.000000,-11.000000); 
%  endObject(); 
% Polyline
n 0 0 m 0 -12000 l 12000 -12000 l 12000 0 l
 cp gs col7 1.00 shd ef gr gs col7 s gr 
%  beginPolygon(); 
%    addPoint(5.000000,489.000000); 
%    addPoint(76.000000,489.000000); 
%    addPoint(76.000000,0.000000); 
%    addPoint(5.000000,0.000000); 
%  endObject(); 
% Polyline
n 368 -11516 m 2003 -11516 l 2003 -253 l 368 -253 l
 cp gs col35 1.00 shd ef gr gs col35 s gr 
%  beginPolygon(); 
%    addPoint(77.000000,301.000000); 
%    addPoint(79.000000,297.000000); 
%    addPoint(86.000000,290.000000); 
%    addPoint(87.000000,290.000000); 
%    addPoint(88.000000,289.000000); 
%    addPoint(89.000000,289.000000); 
%    addPoint(91.000000,287.000000); 
%    addPoint(92.000000,287.000000); 
%    addPoint(93.000000,286.000000); 
%    addPoint(95.000000,286.000000); 
%    addPoint(96.000000,285.000000); 
%    addPoint(97.000000,285.000000); 
%    addPoint(98.000000,284.000000); 
%    addPoint(99.000000,284.000000); 
%    addPoint(100.000000,283.000000); 
%    addPoint(102.000000,283.000000); 
%    addPoint(103.000000,282.000000); 
%    addPoint(105.000000,282.000000); 
%    addPoint(106.000000,281.000000); 
%    addPoint(108.000000,281.000000); 
%    addPoint(109.000000,280.000000); 
%    addPoint(112.000000,280.000000); 
%    addPoint(113.000000,279.000000); 
%    addPoint(115.000000,279.000000); 
%    addPoint(116.000000,278.000000); 
%    addPoint(119.000000,278.000000); 
%    addPoint(120.000000,277.000000); 
%    addPoint(124.000000,277.000000); 
%    addPoint(125.000000,276.000000); 
%    addPoint(129.000000,276.000000); 
%    addPoint(130.000000,275.000000); 
%    addPoint(135.000000,275.000000); 
%    addPoint(136.000000,274.000000); 
%    addPoint(141.000000,274.000000); 
%    addPoint(142.000000,273.000000); 
%    addPoint(149.000000,273.000000); 
%    addPoint(150.000000,272.000000); 
%    addPoint(159.000000,272.000000); 
%    addPoint(160.000000,271.000000); 
%    addPoint(176.000000,271.000000); 
%    addPoint(177.000000,270.000000); 
%    addPoint(206.000000,270.000000); 
%    addPoint(207.000000,271.000000); 
%    addPoint(223.000000,271.000000); 
%    addPoint(224.000000,272.000000); 
%    addPoint(233.000000,272.000000); 
%    addPoint(234.000000,273.000000); 
%    addPoint(241.000000,273.000000); 
%    addPoint(242.000000,274.000000); 
%    addPoint(247.000000,274.000000); 
%    addPoint(248.000000,275.000000); 
%    addPoint(253.000000,275.000000); 
%    addPoint(254.000000,276.000000); 
%    addPoint(258.000000,276.000000); 
%    addPoint(259.000000,277.000000); 
%    addPoint(263.000000,277.000000); 
%    addPoint(264.000000,278.000000); 
%    addPoint(267.000000,278.000000); 
%    addPoint(268.000000,279.000000); 
%    addPoint(270.000000,279.000000); 
%    addPoint(271.000000,280.000000); 
%    addPoint(274.000000,280.000000); 
%    addPoint(275.000000,281.000000); 
%    addPoint(277.000000,281.000000); 
%    addPoint(278.000000,282.000000); 
%    addPoint(280.000000,282.000000); 
%    addPoint(281.000000,283.000000); 
%    addPoint(283.000000,283.000000); 
%    addPoint(284.000000,284.000000); 
%    addPoint(285.000000,284.000000); 
%    addPoint(286.000000,285.000000); 
%    addPoint(287.000000,285.000000); 
%    addPoint(288.000000,286.000000); 
%    addPoint(290.000000,286.000000); 
%    addPoint(291.000000,287.000000); 
%    addPoint(292.000000,287.000000); 
%    addPoint(294.000000,289.000000); 
%    addPoint(295.000000,289.000000); 
%    addPoint(296.000000,290.000000); 
%    addPoint(297.000000,290.000000); 
%    addPoint(304.000000,297.000000); 
%    addPoint(306.000000,301.000000); 
%    addPoint(306.000000,0.000000); 
%    addPoint(77.000000,0.000000); 
%  endObject(); 
% Polyline
n 2026 -7186 m 2072 -7094 l 2234 -6932 l 2257 -6932 l 2280 -6909 l 2303 -6909 l
 2349 -6863 l 2372 -6863 l 2395 -6840 l 2441 -6840 l 2464 -6817 l
 2487 -6817 l 2510 -6794 l 2533 -6794 l 2556 -6771 l 2602 -6771 l
 2625 -6748 l 2671 -6748 l 2694 -6725 l 2740 -6725 l 2763 -6702 l
 2833 -6702 l 2856 -6679 l 2902 -6679 l 2925 -6656 l 2994 -6656 l
 3017 -6633 l 3109 -6633 l 3132 -6610 l 3224 -6610 l 3247 -6587 l
 3362 -6587 l 3385 -6564 l 3500 -6564 l 3523 -6541 l 3685 -6541 l
 3708 -6518 l 3915 -6518 l 3938 -6495 l 4307 -6495 l 4330 -6472 l
 4998 -6472 l 5021 -6495 l 5389 -6495 l 5412 -6518 l 5619 -6518 l
 5642 -6541 l 5804 -6541 l 5827 -6564 l 5942 -6564 l 5965 -6587 l
 6080 -6587 l 6103 -6610 l 6195 -6610 l 6218 -6633 l 6310 -6633 l
 6333 -6656 l 6403 -6656 l 6426 -6679 l 6472 -6679 l 6495 -6702 l
 6564 -6702 l 6587 -6725 l 6633 -6725 l 6656 -6748 l 6702 -6748 l
 6725 -6771 l 6771 -6771 l 6794 -6794 l 6817 -6794 l 6840 -6817 l
 6863 -6817 l 6886 -6840 l 6932 -6840 l 6955 -6863 l 6978 -6863 l
 7024 -6909 l 7047 -6909 l 7071 -6932 l 7094 -6932 l 7255 -7094 l
 7301 -7186 l 7301 -253 l 2026 -253 l
 cp gs col35 1.00 shd ef gr gs col35 s gr 
%  beginPolygon(); 
%    addPoint(77.000000,489.000000); 
%    addPoint(306.000000,489.000000); 
%    addPoint(306.000000,306.000000); 
%    addPoint(304.000000,310.000000); 
%    addPoint(297.000000,317.000000); 
%    addPoint(296.000000,317.000000); 
%    addPoint(295.000000,318.000000); 
%    addPoint(294.000000,318.000000); 
%    addPoint(292.000000,320.000000); 
%    addPoint(291.000000,320.000000); 
%    addPoint(290.000000,321.000000); 
%    addPoint(288.000000,321.000000); 
%    addPoint(287.000000,322.000000); 
%    addPoint(286.000000,322.000000); 
%    addPoint(285.000000,323.000000); 
%    addPoint(284.000000,323.000000); 
%    addPoint(283.000000,324.000000); 
%    addPoint(281.000000,324.000000); 
%    addPoint(280.000000,325.000000); 
%    addPoint(278.000000,325.000000); 
%    addPoint(277.000000,326.000000); 
%    addPoint(275.000000,326.000000); 
%    addPoint(274.000000,327.000000); 
%    addPoint(271.000000,327.000000); 
%    addPoint(270.000000,328.000000); 
%    addPoint(268.000000,328.000000); 
%    addPoint(267.000000,329.000000); 
%    addPoint(264.000000,329.000000); 
%    addPoint(263.000000,330.000000); 
%    addPoint(259.000000,330.000000); 
%    addPoint(258.000000,331.000000); 
%    addPoint(254.000000,331.000000); 
%    addPoint(253.000000,332.000000); 
%    addPoint(248.000000,332.000000); 
%    addPoint(247.000000,333.000000); 
%    addPoint(242.000000,333.000000); 
%    addPoint(241.000000,334.000000); 
%    addPoint(234.000000,334.000000); 
%    addPoint(233.000000,335.000000); 
%    addPoint(224.000000,335.000000); 
%    addPoint(223.000000,336.000000); 
%    addPoint(207.000000,336.000000); 
%    addPoint(206.000000,337.000000); 
%    addPoint(177.000000,337.000000); 
%    addPoint(176.000000,336.000000); 
%    addPoint(160.000000,336.000000); 
%    addPoint(159.000000,335.000000); 
%    addPoint(150.000000,335.000000); 
%    addPoint(149.000000,334.000000); 
%    addPoint(142.000000,334.000000); 
%    addPoint(141.000000,333.000000); 
%    addPoint(136.000000,333.000000); 
%    addPoint(135.000000,332.000000); 
%    addPoint(130.000000,332.000000); 
%    addPoint(129.000000,331.000000); 
%    addPoint(125.000000,331.000000); 
%    addPoint(124.000000,330.000000); 
%    addPoint(120.000000,330.000000); 
%    addPoint(119.000000,329.000000); 
%    addPoint(116.000000,329.000000); 
%    addPoint(115.000000,328.000000); 
%    addPoint(113.000000,328.000000); 
%    addPoint(112.000000,327.000000); 
%    addPoint(109.000000,327.000000); 
%    addPoint(108.000000,326.000000); 
%    addPoint(106.000000,326.000000); 
%    addPoint(105.000000,325.000000); 
%    addPoint(103.000000,325.000000); 
%    addPoint(102.000000,324.000000); 
%    addPoint(100.000000,324.000000); 
%    addPoint(99.000000,323.000000); 
%    addPoint(98.000000,323.000000); 
%    addPoint(97.000000,322.000000); 
%    addPoint(96.000000,322.000000); 
%    addPoint(95.000000,321.000000); 
%    addPoint(93.000000,321.000000); 
%    addPoint(92.000000,320.000000); 
%    addPoint(91.000000,320.000000); 
%    addPoint(89.000000,318.000000); 
%    addPoint(88.000000,318.000000); 
%    addPoint(87.000000,317.000000); 
%    addPoint(86.000000,317.000000); 
%    addPoint(79.000000,310.000000); 
%    addPoint(77.000000,306.000000); 
%  endObject(); 
% Polyline
n 2026 -11516 m 7301 -11516 l 7301 -7301 l 7255 -7393 l 7094 -7554 l 7071 -7554 l
 7047 -7577 l 7024 -7577 l 6978 -7623 l 6955 -7623 l 6932 -7646 l
 6886 -7646 l 6863 -7669 l 6840 -7669 l 6817 -7692 l 6794 -7692 l
 6771 -7715 l 6725 -7715 l 6702 -7738 l 6656 -7738 l 6633 -7761 l
 6587 -7761 l 6564 -7785 l 6495 -7785 l 6472 -7808 l 6426 -7808 l
 6403 -7831 l 6333 -7831 l 6310 -7854 l 6218 -7854 l 6195 -7877 l
 6103 -7877 l 6080 -7900 l 5965 -7900 l 5942 -7923 l 5827 -7923 l
 5804 -7946 l 5642 -7946 l 5619 -7969 l 5412 -7969 l 5389 -7992 l
 5021 -7992 l 4998 -8015 l 4330 -8015 l 4307 -7992 l 3938 -7992 l
 3915 -7969 l 3708 -7969 l 3685 -7946 l 3523 -7946 l 3500 -7923 l
 3385 -7923 l 3362 -7900 l 3247 -7900 l 3224 -7877 l 3132 -7877 l
 3109 -7854 l 3017 -7854 l 2994 -7831 l 2925 -7831 l 2902 -7808 l
 2856 -7808 l 2833 -7785 l 2763 -7785 l 2740 -7761 l 2694 -7761 l
 2671 -7738 l 2625 -7738 l 2602 -7715 l 2556 -7715 l 2533 -7692 l
 2510 -7692 l 2487 -7669 l 2464 -7669 l 2441 -7646 l 2395 -7646 l
 2372 -7623 l 2349 -7623 l 2303 -7577 l 2280 -7577 l 2257 -7554 l
 2234 -7554 l 2072 -7393 l 2026 -7301 l
 cp gs col35 1.00 shd ef gr gs col35 s gr 
%  beginPolygon(); 
%    addPoint(307.000000,489.000000); 
%    addPoint(494.000000,489.000000); 
%    addPoint(494.000000,0.000000); 
%    addPoint(307.000000,0.000000); 
%  endObject(); 
% Polyline
n 7324 -11516 m 11631 -11516 l 11631 -253 l 7324 -253 l
 cp gs col35 1.00 shd ef gr gs col35 s gr 
%  beginPolygon(); 
%    addPoint(5.000000,489.000000); 
%    addPoint(28.666667,489.000000); 
%    addPoint(28.666667,0.000000); 
%    addPoint(5.000000,0.000000); 
%  endObject(); 
% Polyline
n 368 -11516 m 913 -11516 l 913 -253 l 368 -253 l
 cp gs col32 1.00 shd ef gr gs col32 s gr 
%  beginPolygon(); 
%    addPoint(28.666667,489.000000); 
%    addPoint(52.333333,489.000000); 
%    addPoint(52.333333,0.000000); 
%    addPoint(28.666667,0.000000); 
%  endObject(); 
% Polyline
n 913 -11516 m 1458 -11516 l 1458 -253 l 913 -253 l
 cp gs col34 1.00 shd ef gr gs col34 s gr 
%  beginPolygon(); 
%    addPoint(52.333333,489.000000); 
%    addPoint(76.000000,489.000000); 
%    addPoint(76.000000,0.000000); 
%    addPoint(52.333333,0.000000); 
%  endObject(); 
% Polyline
n 1458 -11516 m 2003 -11516 l 2003 -253 l 1458 -253 l
 cp gs col32 1.00 shd ef gr gs col32 s gr 
%  beginPolygon(); 
%    addPoint(77.000000,301.000000); 
%    addPoint(99.900000,283.100000); 
%    addPoint(99.900000,0.000000); 
%    addPoint(77.000000,0.000000); 
%  endObject(); 
% Polyline
n 2026 -7186 m 2554 -6773 l 2554 -253 l 2026 -253 l
 cp gs col34 1.00 shd ef gr gs col34 s gr 
%  beginPolygon(); 
%    addPoint(99.900000,283.100000); 
%    addPoint(122.800000,277.000000); 
%    addPoint(122.800000,0.000000); 
%    addPoint(99.900000,0.000000); 
%  endObject(); 
% Polyline
n 2554 -6773 m 3081 -6633 l 3081 -253 l 2554 -253 l
 cp gs col32 1.00 shd ef gr gs col32 s gr 
%  beginPolygon(); 
%    addPoint(122.800000,277.000000); 
%    addPoint(145.700000,273.000000); 
%    addPoint(145.700000,0.000000); 
%    addPoint(122.800000,0.000000); 
%  endObject(); 
% Polyline
n 3081 -6633 m 3609 -6541 l 3609 -253 l 3081 -253 l
 cp gs col34 1.00 shd ef gr gs col34 s gr 
%  beginPolygon(); 
%    addPoint(145.700000,273.000000); 
%    addPoint(168.600000,271.000000); 
%    addPoint(168.600000,0.000000); 
%    addPoint(145.700000,0.000000); 
%  endObject(); 
% Polyline
n 3609 -6541 m 4136 -6495 l 4136 -253 l 3609 -253 l
 cp gs col32 1.00 shd ef gr gs col32 s gr 
%  beginPolygon(); 
%    addPoint(168.600000,271.000000); 
%    addPoint(191.500000,270.000000); 
%    addPoint(191.500000,0.000000); 
%    addPoint(168.600000,0.000000); 
%  endObject(); 
% Polyline
n 4136 -6495 m 4664 -6472 l 4664 -253 l 4136 -253 l
 cp gs col34 1.00 shd ef gr gs col34 s gr 
%  beginPolygon(); 
%    addPoint(191.500000,270.000000); 
%    addPoint(214.400000,271.000000); 
%    addPoint(214.400000,0.000000); 
%    addPoint(191.500000,0.000000); 
%  endObject(); 
% Polyline
n 4664 -6472 m 5191 -6495 l 5191 -253 l 4664 -253 l
 cp gs col32 1.00 shd ef gr gs col32 s gr 
%  beginPolygon(); 
%    addPoint(214.400000,271.000000); 
%    addPoint(237.300000,273.000000); 
%    addPoint(237.300000,0.000000); 
%    addPoint(214.400000,0.000000); 
%  endObject(); 
% Polyline
n 5191 -6495 m 5719 -6541 l 5719 -253 l 5191 -253 l
 cp gs col34 1.00 shd ef gr gs col34 s gr 
%  beginPolygon(); 
%    addPoint(237.300000,273.000000); 
%    addPoint(260.200000,277.000000); 
%    addPoint(260.200000,0.000000); 
%    addPoint(237.300000,0.000000); 
%  endObject(); 
% Polyline
n 5719 -6541 m 6246 -6633 l 6246 -253 l 5719 -253 l
 cp gs col32 1.00 shd ef gr gs col32 s gr 
%  beginPolygon(); 
%    addPoint(260.200000,277.000000); 
%    addPoint(283.100000,283.100000); 
%    addPoint(283.100000,0.000000); 
%    addPoint(260.200000,0.000000); 
%  endObject(); 
% Polyline
n 6246 -6633 m 6773 -6773 l 6773 -253 l 6246 -253 l
 cp gs col34 1.00 shd ef gr gs col34 s gr 
%  beginPolygon(); 
%    addPoint(283.100000,283.100000); 
%    addPoint(306.000000,301.000000); 
%    addPoint(306.000000,0.000000); 
%    addPoint(283.100000,0.000000); 
%  endObject(); 
% Polyline
n 6773 -6773 m 7301 -7186 l 7301 -253 l 6773 -253 l
 cp gs col32 1.00 shd ef gr gs col32 s gr 
%  beginPolygon(); 
%    addPoint(77.000000,489.000000); 
%    addPoint(99.900000,489.000000); 
%    addPoint(99.900000,323.900000); 
%    addPoint(77.000000,306.000000); 
%  endObject(); 
% Polyline
n 2026 -11516 m 2554 -11516 l 2554 -7713 l 2026 -7301 l
 cp gs col34 1.00 shd ef gr gs col34 s gr 
%  beginPolygon(); 
%    addPoint(99.900000,489.000000); 
%    addPoint(122.800000,489.000000); 
%    addPoint(122.800000,330.000000); 
%    addPoint(99.900000,323.900000); 
%  endObject(); 
% Polyline
n 2554 -11516 m 3081 -11516 l 3081 -7854 l 2554 -7713 l
 cp gs col32 1.00 shd ef gr gs col32 s gr 
%  beginPolygon(); 
%    addPoint(122.800000,489.000000); 
%    addPoint(145.700000,489.000000); 
%    addPoint(145.700000,334.000000); 
%    addPoint(122.800000,330.000000); 
%  endObject(); 
% Polyline
n 3081 -11516 m 3609 -11516 l 3609 -7946 l 3081 -7854 l
 cp gs col34 1.00 shd ef gr gs col34 s gr 
%  beginPolygon(); 
%    addPoint(145.700000,489.000000); 
%    addPoint(168.600000,489.000000); 
%    addPoint(168.600000,336.000000); 
%    addPoint(145.700000,334.000000); 
%  endObject(); 
% Polyline
n 3609 -11516 m 4136 -11516 l 4136 -7992 l 3609 -7946 l
 cp gs col32 1.00 shd ef gr gs col32 s gr 
%  beginPolygon(); 
%    addPoint(168.600000,489.000000); 
%    addPoint(191.500000,489.000000); 
%    addPoint(191.500000,337.000000); 
%    addPoint(168.600000,336.000000); 
%  endObject(); 
% Polyline
n 4136 -11516 m 4664 -11516 l 4664 -8015 l 4136 -7992 l
 cp gs col34 1.00 shd ef gr gs col34 s gr 
%  beginPolygon(); 
%    addPoint(191.500000,489.000000); 
%    addPoint(214.400000,489.000000); 
%    addPoint(214.400000,336.000000); 
%    addPoint(191.500000,337.000000); 
%  endObject(); 
% Polyline
n 4664 -11516 m 5191 -11516 l 5191 -7992 l 4664 -8015 l
 cp gs col32 1.00 shd ef gr gs col32 s gr 
%  beginPolygon(); 
%    addPoint(214.400000,489.000000); 
%    addPoint(237.300000,489.000000); 
%    addPoint(237.300000,334.000000); 
%    addPoint(214.400000,336.000000); 
%  endObject(); 
% Polyline
n 5191 -11516 m 5719 -11516 l 5719 -7946 l 5191 -7992 l
 cp gs col34 1.00 shd ef gr gs col34 s gr 
%  beginPolygon(); 
%    addPoint(237.300000,489.000000); 
%    addPoint(260.200000,489.000000); 
%    addPoint(260.200000,330.000000); 
%    addPoint(237.300000,334.000000); 
%  endObject(); 
% Polyline
n 5719 -11516 m 6246 -11516 l 6246 -7854 l 5719 -7946 l
 cp gs col32 1.00 shd ef gr gs col32 s gr 
%  beginPolygon(); 
%    addPoint(260.200000,489.000000); 
%    addPoint(283.100000,489.000000); 
%    addPoint(283.100000,323.900000); 
%    addPoint(260.200000,330.000000); 
%  endObject(); 
% Polyline
n 6246 -11516 m 6773 -11516 l 6773 -7713 l 6246 -7854 l
 cp gs col34 1.00 shd ef gr gs col34 s gr 
%  beginPolygon(); 
%    addPoint(283.100000,489.000000); 
%    addPoint(306.000000,489.000000); 
%    addPoint(306.000000,306.000000); 
%    addPoint(283.100000,323.900000); 
%  endObject(); 
% Polyline
n 6773 -11516 m 7301 -11516 l 7301 -7301 l 6773 -7713 l
 cp gs col32 1.00 shd ef gr gs col32 s gr 
%  beginPolygon(); 
%    addPoint(307.000000,489.000000); 
%    addPoint(330.375000,489.000000); 
%    addPoint(330.375000,0.000000); 
%    addPoint(307.000000,0.000000); 
%  endObject(); 
% Polyline
n 7324 -11516 m 7862 -11516 l 7862 -253 l 7324 -253 l
 cp gs col34 1.00 shd ef gr gs col34 s gr 
%  beginPolygon(); 
%    addPoint(330.375000,489.000000); 
%    addPoint(353.750000,489.000000); 
%    addPoint(353.750000,0.000000); 
%    addPoint(330.375000,0.000000); 
%  endObject(); 
% Polyline
n 7862 -11516 m 8401 -11516 l 8401 -253 l 7862 -253 l
 cp gs col32 1.00 shd ef gr gs col32 s gr 
%  beginPolygon(); 
%    addPoint(353.750000,489.000000); 
%    addPoint(377.125000,489.000000); 
%    addPoint(377.125000,0.000000); 
%    addPoint(353.750000,0.000000); 
%  endObject(); 
% Polyline
n 8401 -11516 m 8939 -11516 l 8939 -253 l 8401 -253 l
 cp gs col34 1.00 shd ef gr gs col34 s gr 
%  beginPolygon(); 
%    addPoint(377.125000,489.000000); 
%    addPoint(400.500000,489.000000); 
%    addPoint(400.500000,0.000000); 
%    addPoint(377.125000,0.000000); 
%  endObject(); 
% Polyline
n 8939 -11516 m 9477 -11516 l 9477 -253 l 8939 -253 l
 cp gs col32 1.00 shd ef gr gs col32 s gr 
%  beginPolygon(); 
%    addPoint(400.500000,489.000000); 
%    addPoint(423.875000,489.000000); 
%    addPoint(423.875000,0.000000); 
%    addPoint(400.500000,0.000000); 
%  endObject(); 
% Polyline
n 9477 -11516 m 10016 -11516 l 10016 -253 l 9477 -253 l
 cp gs col34 1.00 shd ef gr gs col34 s gr 
%  beginPolygon(); 
%    addPoint(423.875000,489.000000); 
%    addPoint(447.250000,489.000000); 
%    addPoint(447.250000,0.000000); 
%    addPoint(423.875000,0.000000); 
%  endObject(); 
% Polyline
n 10016 -11516 m 10554 -11516 l 10554 -253 l 10016 -253 l
 cp gs col32 1.00 shd ef gr gs col32 s gr 
%  beginPolygon(); 
%    addPoint(447.250000,489.000000); 
%    addPoint(470.625000,489.000000); 
%    addPoint(470.625000,0.000000); 
%    addPoint(447.250000,0.000000); 
%  endObject(); 
% Polyline
n 10554 -11516 m 11093 -11516 l 11093 -253 l 10554 -253 l
 cp gs col34 1.00 shd ef gr gs col34 s gr 
%  beginPolygon(); 
%    addPoint(470.625000,489.000000); 
%    addPoint(494.000000,489.000000); 
%    addPoint(494.000000,0.000000); 
%    addPoint(470.625000,0.000000); 
%  endObject(); 
% Polyline
n 11093 -11516 m 11631 -11516 l 11631 -253 l 11093 -253 l
 cp gs col32 1.00 shd ef gr gs col32 s gr 
% Ellipse
%  drawCircle((40.500000, 489.000000), 0.000000); 
n 1186 -11516 0 0 0 360 DrawEllipse gs col4 1.00 shd ef gr gs col4 s gr

%  beginPolygon(); 
%    addPoint(5.000000,489.000000); 
%    addPoint(76.000000,489.000000); 
%    addPoint(76.000000,0.000000); 
%    addPoint(5.000000,0.000000); 
%  endObject(); 
% Polyline
n 368 -11516 m 2003 -11516 l 2003 -253 l 368 -253 l
 cp gs col0 s gr 
%  beginPolygon(); 
%    addPoint(77.000000,301.000000); 
%    addPoint(79.000000,297.000000); 
%    addPoint(86.000000,290.000000); 
%    addPoint(87.000000,290.000000); 
%    addPoint(88.000000,289.000000); 
%    addPoint(89.000000,289.000000); 
%    addPoint(91.000000,287.000000); 
%    addPoint(92.000000,287.000000); 
%    addPoint(93.000000,286.000000); 
%    addPoint(95.000000,286.000000); 
%    addPoint(96.000000,285.000000); 
%    addPoint(97.000000,285.000000); 
%    addPoint(98.000000,284.000000); 
%    addPoint(99.000000,284.000000); 
%    addPoint(100.000000,283.000000); 
%    addPoint(102.000000,283.000000); 
%    addPoint(103.000000,282.000000); 
%    addPoint(105.000000,282.000000); 
%    addPoint(106.000000,281.000000); 
%    addPoint(108.000000,281.000000); 
%    addPoint(109.000000,280.000000); 
%    addPoint(112.000000,280.000000); 
%    addPoint(113.000000,279.000000); 
%    addPoint(115.000000,279.000000); 
%    addPoint(116.000000,278.000000); 
%    addPoint(119.000000,278.000000); 
%    addPoint(120.000000,277.000000); 
%    addPoint(124.000000,277.000000); 
%    addPoint(125.000000,276.000000); 
%    addPoint(129.000000,276.000000); 
%    addPoint(130.000000,275.000000); 
%    addPoint(135.000000,275.000000); 
%    addPoint(136.000000,274.000000); 
%    addPoint(141.000000,274.000000); 
%    addPoint(142.000000,273.000000); 
%    addPoint(149.000000,273.000000); 
%    addPoint(150.000000,272.000000); 
%    addPoint(159.000000,272.000000); 
%    addPoint(160.000000,271.000000); 
%    addPoint(176.000000,271.000000); 
%    addPoint(177.000000,270.000000); 
%    addPoint(206.000000,270.000000); 
%    addPoint(207.000000,271.000000); 
%    addPoint(223.000000,271.000000); 
%    addPoint(224.000000,272.000000); 
%    addPoint(233.000000,272.000000); 
%    addPoint(234.000000,273.000000); 
%    addPoint(241.000000,273.000000); 
%    addPoint(242.000000,274.000000); 
%    addPoint(247.000000,274.000000); 
%    addPoint(248.000000,275.000000); 
%    addPoint(253.000000,275.000000); 
%    addPoint(254.000000,276.000000); 
%    addPoint(258.000000,276.000000); 
%    addPoint(259.000000,277.000000); 
%    addPoint(263.000000,277.000000); 
%    addPoint(264.000000,278.000000); 
%    addPoint(267.000000,278.000000); 
%    addPoint(268.000000,279.000000); 
%    addPoint(270.000000,279.000000); 
%    addPoint(271.000000,280.000000); 
%    addPoint(274.000000,280.000000); 
%    addPoint(275.000000,281.000000); 
%    addPoint(277.000000,281.000000); 
%    addPoint(278.000000,282.000000); 
%    addPoint(280.000000,282.000000); 
%    addPoint(281.000000,283.000000); 
%    addPoint(283.000000,283.000000); 
%    addPoint(284.000000,284.000000); 
%    addPoint(285.000000,284.000000); 
%    addPoint(286.000000,285.000000); 
%    addPoint(287.000000,285.000000); 
%    addPoint(288.000000,286.000000); 
%    addPoint(290.000000,286.000000); 
%    addPoint(291.000000,287.000000); 
%    addPoint(292.000000,287.000000); 
%    addPoint(294.000000,289.000000); 
%    addPoint(295.000000,289.000000); 
%    addPoint(296.000000,290.000000); 
%    addPoint(297.000000,290.000000); 
%    addPoint(304.000000,297.000000); 
%    addPoint(306.000000,301.000000); 
%    addPoint(306.000000,0.000000); 
%    addPoint(77.000000,0.000000); 
%  endObject(); 
% Polyline
n 2026 -7186 m 2072 -7094 l 2234 -6932 l 2257 -6932 l 2280 -6909 l 2303 -6909 l
 2349 -6863 l 2372 -6863 l 2395 -6840 l 2441 -6840 l 2464 -6817 l
 2487 -6817 l 2510 -6794 l 2533 -6794 l 2556 -6771 l 2602 -6771 l
 2625 -6748 l 2671 -6748 l 2694 -6725 l 2740 -6725 l 2763 -6702 l
 2833 -6702 l 2856 -6679 l 2902 -6679 l 2925 -6656 l 2994 -6656 l
 3017 -6633 l 3109 -6633 l 3132 -6610 l 3224 -6610 l 3247 -6587 l
 3362 -6587 l 3385 -6564 l 3500 -6564 l 3523 -6541 l 3685 -6541 l
 3708 -6518 l 3915 -6518 l 3938 -6495 l 4307 -6495 l 4330 -6472 l
 4998 -6472 l 5021 -6495 l 5389 -6495 l 5412 -6518 l 5619 -6518 l
 5642 -6541 l 5804 -6541 l 5827 -6564 l 5942 -6564 l 5965 -6587 l
 6080 -6587 l 6103 -6610 l 6195 -6610 l 6218 -6633 l 6310 -6633 l
 6333 -6656 l 6403 -6656 l 6426 -6679 l 6472 -6679 l 6495 -6702 l
 6564 -6702 l 6587 -6725 l 6633 -6725 l 6656 -6748 l 6702 -6748 l
 6725 -6771 l 6771 -6771 l 6794 -6794 l 6817 -6794 l 6840 -6817 l
 6863 -6817 l 6886 -6840 l 6932 -6840 l 6955 -6863 l 6978 -6863 l
 7024 -6909 l 7047 -6909 l 7071 -6932 l 7094 -6932 l 7255 -7094 l
 7301 -7186 l 7301 -253 l 2026 -253 l
 cp gs col0 s gr 
%  beginPolygon(); 
%    addPoint(77.000000,489.000000); 
%    addPoint(306.000000,489.000000); 
%    addPoint(306.000000,306.000000); 
%    addPoint(304.000000,310.000000); 
%    addPoint(297.000000,317.000000); 
%    addPoint(296.000000,317.000000); 
%    addPoint(295.000000,318.000000); 
%    addPoint(294.000000,318.000000); 
%    addPoint(292.000000,320.000000); 
%    addPoint(291.000000,320.000000); 
%    addPoint(290.000000,321.000000); 
%    addPoint(288.000000,321.000000); 
%    addPoint(287.000000,322.000000); 
%    addPoint(286.000000,322.000000); 
%    addPoint(285.000000,323.000000); 
%    addPoint(284.000000,323.000000); 
%    addPoint(283.000000,324.000000); 
%    addPoint(281.000000,324.000000); 
%    addPoint(280.000000,325.000000); 
%    addPoint(278.000000,325.000000); 
%    addPoint(277.000000,326.000000); 
%    addPoint(275.000000,326.000000); 
%    addPoint(274.000000,327.000000); 
%    addPoint(271.000000,327.000000); 
%    addPoint(270.000000,328.000000); 
%    addPoint(268.000000,328.000000); 
%    addPoint(267.000000,329.000000); 
%    addPoint(264.000000,329.000000); 
%    addPoint(263.000000,330.000000); 
%    addPoint(259.000000,330.000000); 
%    addPoint(258.000000,331.000000); 
%    addPoint(254.000000,331.000000); 
%    addPoint(253.000000,332.000000); 
%    addPoint(248.000000,332.000000); 
%    addPoint(247.000000,333.000000); 
%    addPoint(242.000000,333.000000); 
%    addPoint(241.000000,334.000000); 
%    addPoint(234.000000,334.000000); 
%    addPoint(233.000000,335.000000); 
%    addPoint(224.000000,335.000000); 
%    addPoint(223.000000,336.000000); 
%    addPoint(207.000000,336.000000); 
%    addPoint(206.000000,337.000000); 
%    addPoint(177.000000,337.000000); 
%    addPoint(176.000000,336.000000); 
%    addPoint(160.000000,336.000000); 
%    addPoint(159.000000,335.000000); 
%    addPoint(150.000000,335.000000); 
%    addPoint(149.000000,334.000000); 
%    addPoint(142.000000,334.000000); 
%    addPoint(141.000000,333.000000); 
%    addPoint(136.000000,333.000000); 
%    addPoint(135.000000,332.000000); 
%    addPoint(130.000000,332.000000); 
%    addPoint(129.000000,331.000000); 
%    addPoint(125.000000,331.000000); 
%    addPoint(124.000000,330.000000); 
%    addPoint(120.000000,330.000000); 
%    addPoint(119.000000,329.000000); 
%    addPoint(116.000000,329.000000); 
%    addPoint(115.000000,328.000000); 
%    addPoint(113.000000,328.000000); 
%    addPoint(112.000000,327.000000); 
%    addPoint(109.000000,327.000000); 
%    addPoint(108.000000,326.000000); 
%    addPoint(106.000000,326.000000); 
%    addPoint(105.000000,325.000000); 
%    addPoint(103.000000,325.000000); 
%    addPoint(102.000000,324.000000); 
%    addPoint(100.000000,324.000000); 
%    addPoint(99.000000,323.000000); 
%    addPoint(98.000000,323.000000); 
%    addPoint(97.000000,322.000000); 
%    addPoint(96.000000,322.000000); 
%    addPoint(95.000000,321.000000); 
%    addPoint(93.000000,321.000000); 
%    addPoint(92.000000,320.000000); 
%    addPoint(91.000000,320.000000); 
%    addPoint(89.000000,318.000000); 
%    addPoint(88.000000,318.000000); 
%    addPoint(87.000000,317.000000); 
%    addPoint(86.000000,317.000000); 
%    addPoint(79.000000,310.000000); 
%    addPoint(77.000000,306.000000); 
%  endObject(); 
% Polyline
n 2026 -11516 m 7301 -11516 l 7301 -7301 l 7255 -7393 l 7094 -7554 l 7071 -7554 l
 7047 -7577 l 7024 -7577 l 6978 -7623 l 6955 -7623 l 6932 -7646 l
 6886 -7646 l 6863 -7669 l 6840 -7669 l 6817 -7692 l 6794 -7692 l
 6771 -7715 l 6725 -7715 l 6702 -7738 l 6656 -7738 l 6633 -7761 l
 6587 -7761 l 6564 -7785 l 6495 -7785 l 6472 -7808 l 6426 -7808 l
 6403 -7831 l 6333 -7831 l 6310 -7854 l 6218 -7854 l 6195 -7877 l
 6103 -7877 l 6080 -7900 l 5965 -7900 l 5942 -7923 l 5827 -7923 l
 5804 -7946 l 5642 -7946 l 5619 -7969 l 5412 -7969 l 5389 -7992 l
 5021 -7992 l 4998 -8015 l 4330 -8015 l 4307 -7992 l 3938 -7992 l
 3915 -7969 l 3708 -7969 l 3685 -7946 l 3523 -7946 l 3500 -7923 l
 3385 -7923 l 3362 -7900 l 3247 -7900 l 3224 -7877 l 3132 -7877 l
 3109 -7854 l 3017 -7854 l 2994 -7831 l 2925 -7831 l 2902 -7808 l
 2856 -7808 l 2833 -7785 l 2763 -7785 l 2740 -7761 l 2694 -7761 l
 2671 -7738 l 2625 -7738 l 2602 -7715 l 2556 -7715 l 2533 -7692 l
 2510 -7692 l 2487 -7669 l 2464 -7669 l 2441 -7646 l 2395 -7646 l
 2372 -7623 l 2349 -7623 l 2303 -7577 l 2280 -7577 l 2257 -7554 l
 2234 -7554 l 2072 -7393 l 2026 -7301 l
 cp gs col0 s gr 
%  beginPolygon(); 
%    addPoint(307.000000,489.000000); 
%    addPoint(494.000000,489.000000); 
%    addPoint(494.000000,0.000000); 
%    addPoint(307.000000,0.000000); 
%  endObject(); 
% Polyline
n 7324 -11516 m 11631 -11516 l 11631 -253 l 7324 -253 l
 cp gs col0 s gr 
%  beginPolygon(); 
%    addPoint(5.000000,489.000000); 
%    addPoint(28.666667,489.000000); 
%    addPoint(28.666667,0.000000); 
%    addPoint(5.000000,0.000000); 
%  endObject(); 
% Polyline
n 368 -11516 m 913 -11516 l 913 -253 l 368 -253 l
 cp gs col0 s gr 
%  beginPolygon(); 
%    addPoint(28.666667,489.000000); 
%    addPoint(52.333333,489.000000); 
%    addPoint(52.333333,0.000000); 
%    addPoint(28.666667,0.000000); 
%  endObject(); 
% Polyline
n 913 -11516 m 1458 -11516 l 1458 -253 l 913 -253 l
 cp gs col0 s gr 
%  beginPolygon(); 
%    addPoint(52.333333,489.000000); 
%    addPoint(76.000000,489.000000); 
%    addPoint(76.000000,0.000000); 
%    addPoint(52.333333,0.000000); 
%  endObject(); 
% Polyline
n 1458 -11516 m 2003 -11516 l 2003 -253 l 1458 -253 l
 cp gs col0 s gr 
%  beginPolygon(); 
%    addPoint(77.000000,301.000000); 
%    addPoint(99.900000,283.100000); 
%    addPoint(99.900000,0.000000); 
%    addPoint(77.000000,0.000000); 
%  endObject(); 
% Polyline
n 2026 -7186 m 2554 -6773 l 2554 -253 l 2026 -253 l
 cp gs col0 s gr 
%  beginPolygon(); 
%    addPoint(99.900000,283.100000); 
%    addPoint(122.800000,277.000000); 
%    addPoint(122.800000,0.000000); 
%    addPoint(99.900000,0.000000); 
%  endObject(); 
% Polyline
n 2554 -6773 m 3081 -6633 l 3081 -253 l 2554 -253 l
 cp gs col0 s gr 
%  beginPolygon(); 
%    addPoint(122.800000,277.000000); 
%    addPoint(145.700000,273.000000); 
%    addPoint(145.700000,0.000000); 
%    addPoint(122.800000,0.000000); 
%  endObject(); 
% Polyline
n 3081 -6633 m 3609 -6541 l 3609 -253 l 3081 -253 l
 cp gs col0 s gr 
%  beginPolygon(); 
%    addPoint(145.700000,273.000000); 
%    addPoint(168.600000,271.000000); 
%    addPoint(168.600000,0.000000); 
%    addPoint(145.700000,0.000000); 
%  endObject(); 
% Polyline
n 3609 -6541 m 4136 -6495 l 4136 -253 l 3609 -253 l
 cp gs col0 s gr 
%  beginPolygon(); 
%    addPoint(168.600000,271.000000); 
%    addPoint(191.500000,270.000000); 
%    addPoint(191.500000,0.000000); 
%    addPoint(168.600000,0.000000); 
%  endObject(); 
% Polyline
n 4136 -6495 m 4664 -6472 l 4664 -253 l 4136 -253 l
 cp gs col0 s gr 
%  beginPolygon(); 
%    addPoint(191.500000,270.000000); 
%    addPoint(214.400000,271.000000); 
%    addPoint(214.400000,0.000000); 
%    addPoint(191.500000,0.000000); 
%  endObject(); 
% Polyline
n 4664 -6472 m 5191 -6495 l 5191 -253 l 4664 -253 l
 cp gs col0 s gr 
%  beginPolygon(); 
%    addPoint(214.400000,271.000000); 
%    addPoint(237.300000,273.000000); 
%    addPoint(237.300000,0.000000); 
%    addPoint(214.400000,0.000000); 
%  endObject(); 
% Polyline
n 5191 -6495 m 5719 -6541 l 5719 -253 l 5191 -253 l
 cp gs col0 s gr 
%  beginPolygon(); 
%    addPoint(237.300000,273.000000); 
%    addPoint(260.200000,277.000000); 
%    addPoint(260.200000,0.000000); 
%    addPoint(237.300000,0.000000); 
%  endObject(); 
% Polyline
n 5719 -6541 m 6246 -6633 l 6246 -253 l 5719 -253 l
 cp gs col0 s gr 
%  beginPolygon(); 
%    addPoint(260.200000,277.000000); 
%    addPoint(283.100000,283.100000); 
%    addPoint(283.100000,0.000000); 
%    addPoint(260.200000,0.000000); 
%  endObject(); 
% Polyline
n 6246 -6633 m 6773 -6773 l 6773 -253 l 6246 -253 l
 cp gs col0 s gr 
%  beginPolygon(); 
%    addPoint(283.100000,283.100000); 
%    addPoint(306.000000,301.000000); 
%    addPoint(306.000000,0.000000); 
%    addPoint(283.100000,0.000000); 
%  endObject(); 
% Polyline
n 6773 -6773 m 7301 -7186 l 7301 -253 l 6773 -253 l
 cp gs col0 s gr 
%  beginPolygon(); 
%    addPoint(77.000000,489.000000); 
%    addPoint(99.900000,489.000000); 
%    addPoint(99.900000,323.900000); 
%    addPoint(77.000000,306.000000); 
%  endObject(); 
% Polyline
n 2026 -11516 m 2554 -11516 l 2554 -7713 l 2026 -7301 l
 cp gs col0 s gr 
%  beginPolygon(); 
%    addPoint(99.900000,489.000000); 
%    addPoint(122.800000,489.000000); 
%    addPoint(122.800000,330.000000); 
%    addPoint(99.900000,323.900000); 
%  endObject(); 
% Polyline
n 2554 -11516 m 3081 -11516 l 3081 -7854 l 2554 -7713 l
 cp gs col0 s gr 
%  beginPolygon(); 
%    addPoint(122.800000,489.000000); 
%    addPoint(145.700000,489.000000); 
%    addPoint(145.700000,334.000000); 
%    addPoint(122.800000,330.000000); 
%  endObject(); 
% Polyline
n 3081 -11516 m 3609 -11516 l 3609 -7946 l 3081 -7854 l
 cp gs col0 s gr 
%  beginPolygon(); 
%    addPoint(145.700000,489.000000); 
%    addPoint(168.600000,489.000000); 
%    addPoint(168.600000,336.000000); 
%    addPoint(145.700000,334.000000); 
%  endObject(); 
% Polyline
n 3609 -11516 m 4136 -11516 l 4136 -7992 l 3609 -7946 l
 cp gs col0 s gr 
%  beginPolygon(); 
%    addPoint(168.600000,489.000000); 
%    addPoint(191.500000,489.000000); 
%    addPoint(191.500000,337.000000); 
%    addPoint(168.600000,336.000000); 
%  endObject(); 
% Polyline
n 4136 -11516 m 4664 -11516 l 4664 -8015 l 4136 -7992 l
 cp gs col0 s gr 
%  beginPolygon(); 
%    addPoint(191.500000,489.000000); 
%    addPoint(214.400000,489.000000); 
%    addPoint(214.400000,336.000000); 
%    addPoint(191.500000,337.000000); 
%  endObject(); 
% Polyline
n 4664 -11516 m 5191 -11516 l 5191 -7992 l 4664 -8015 l
 cp gs col0 s gr 
%  beginPolygon(); 
%    addPoint(214.400000,489.000000); 
%    addPoint(237.300000,489.000000); 
%    addPoint(237.300000,334.000000); 
%    addPoint(214.400000,336.000000); 
%  endObject(); 
% Polyline
n 5191 -11516 m 5719 -11516 l 5719 -7946 l 5191 -7992 l
 cp gs col0 s gr 
%  beginPolygon(); 
%    addPoint(237.300000,489.000000); 
%    addPoint(260.200000,489.000000); 
%    addPoint(260.200000,330.000000); 
%    addPoint(237.300000,334.000000); 
%  endObject(); 
% Polyline
n 5719 -11516 m 6246 -11516 l 6246 -7854 l 5719 -7946 l
 cp gs col0 s gr 
%  beginPolygon(); 
%    addPoint(260.200000,489.000000); 
%    addPoint(283.100000,489.000000); 
%    addPoint(283.100000,323.900000); 
%    addPoint(260.200000,330.000000); 
%  endObject(); 
% Polyline
n 6246 -11516 m 6773 -11516 l 6773 -7713 l 6246 -7854 l
 cp gs col0 s gr 
%  beginPolygon(); 
%    addPoint(283.100000,489.000000); 
%    addPoint(306.000000,489.000000); 
%    addPoint(306.000000,306.000000); 
%    addPoint(283.100000,323.900000); 
%  endObject(); 
% Polyline
n 6773 -11516 m 7301 -11516 l 7301 -7301 l 6773 -7713 l
 cp gs col0 s gr 
%  beginPolygon(); 
%    addPoint(307.000000,489.000000); 
%    addPoint(330.375000,489.000000); 
%    addPoint(330.375000,0.000000); 
%    addPoint(307.000000,0.000000); 
%  endObject(); 
% Polyline
n 7324 -11516 m 7862 -11516 l 7862 -253 l 7324 -253 l
 cp gs col0 s gr 
%  beginPolygon(); 
%    addPoint(330.375000,489.000000); 
%    addPoint(353.750000,489.000000); 
%    addPoint(353.750000,0.000000); 
%    addPoint(330.375000,0.000000); 
%  endObject(); 
% Polyline
n 7862 -11516 m 8401 -11516 l 8401 -253 l 7862 -253 l
 cp gs col0 s gr 
%  beginPolygon(); 
%    addPoint(353.750000,489.000000); 
%    addPoint(377.125000,489.000000); 
%    addPoint(377.125000,0.000000); 
%    addPoint(353.750000,0.000000); 
%  endObject(); 
% Polyline
n 8401 -11516 m 8939 -11516 l 8939 -253 l 8401 -253 l
 cp gs col0 s gr 
%  beginPolygon(); 
%    addPoint(377.125000,489.000000); 
%    addPoint(400.500000,489.000000); 
%    addPoint(400.500000,0.000000); 
%    addPoint(377.125000,0.000000); 
%  endObject(); 
% Polyline
n 8939 -11516 m 9477 -11516 l 9477 -253 l 8939 -253 l
 cp gs col0 s gr 
%  beginPolygon(); 
%    addPoint(400.500000,489.000000); 
%    addPoint(423.875000,489.000000); 
%    addPoint(423.875000,0.000000); 
%    addPoint(400.500000,0.000000); 
%  endObject(); 
% Polyline
n 9477 -11516 m 10016 -11516 l 10016 -253 l 9477 -253 l
 cp gs col0 s gr 
%  beginPolygon(); 
%    addPoint(423.875000,489.000000); 
%    addPoint(447.250000,489.000000); 
%    addPoint(447.250000,0.000000); 
%    addPoint(423.875000,0.000000); 
%  endObject(); 
% Polyline
n 10016 -11516 m 10554 -11516 l 10554 -253 l 10016 -253 l
 cp gs col0 s gr 
%  beginPolygon(); 
%    addPoint(447.250000,489.000000); 
%    addPoint(470.625000,489.000000); 
%    addPoint(470.625000,0.000000); 
%    addPoint(447.250000,0.000000); 
%  endObject(); 
% Polyline
n 10554 -11516 m 11093 -11516 l 11093 -253 l 10554 -253 l
 cp gs col0 s gr 
%  beginPolygon(); 
%    addPoint(470.625000,489.000000); 
%    addPoint(494.000000,489.000000); 
%    addPoint(494.000000,0.000000); 
%    addPoint(470.625000,0.000000); 
%  endObject(); 
% Polyline
n 11093 -11516 m 11631 -11516 l 11631 -253 l 11093 -253 l
 cp gs col0 s gr 
% Ellipse
%  drawCircle((40.500000, 489.000000), 0.000000); 
n 1186 -11516 0 0 0 360 DrawEllipse gs col33 s gr

%  beginPolyline(); 
%    addPoint(40.500000,489.000000); 
%    addPoint(40.500000,489.000000); 
%  endObject(); 
% Polyline
n 1186 -11516 m
 1186 -11516 l  cp gs col33 s gr 
% here ends figure;
pagefooter
showpage
%%Trailer
%EOF

%%EndDocument
 @endspecial Black Black eop end
%%Trailer

userdict /end-hook known{end-hook}if
%%EOF
