#FIG 3.2
Landscape
Center
Inches
Letter
100.00
Single
-2
1200 2
0 32 #4ec5ec
0 33 #7f0000
0 34 #9fdef1
0 35 #b2b2b2


# beginPolygon();
#   addPoint(-63.100000,-63.100000);
#   addPoint(-63.100000,562.100000);
#   addPoint(562.100000,562.100000);
#   addPoint(562.100000,-63.100000);
# endObject();
2 3 -1 1 0 0 50 0 20 3 1 0 0 0 0 5
  -1200 1200
  -1200 -13200
  13200 -13200
  13200 1200
  -1200 1200

# beginPolygon();
#   addPoint(-11.000000,-11.000000);
#   addPoint(-11.000000,510.000000);
#   addPoint(510.000000,510.000000);
#   addPoint(510.000000,-11.000000);
# endObject();
2 3 -1 1 7 7 49 0 20 3 1 0 0 0 0 5
  0 0
  0 -12000
  12000 -12000
  12000 0
  0 0

# beginPolygon();
#   addPoint(5.000000,489.000000);
#   addPoint(76.000000,489.000000);
#   addPoint(76.000000,0.000000);
#   addPoint(5.000000,0.000000);
# endObject();
2 3 -1 1 35 35 48 0 20 3 1 0 0 0 0 5
  368 -11516
  2003 -11516
  2003 -253
  368 -253
  368 -11516

# beginPolygon();
#   addPoint(5.000000,489.000000);
#   addPoint(76.000000,489.000000);
#   addPoint(76.000000,0.000000);
#   addPoint(5.000000,0.000000);
# endObject();
2 3 -1 1 0 0 47 0 -1 3 1 0 0 0 0 5
  368 -11516
  2003 -11516
  2003 -253
  368 -253
  368 -11516

# beginPolygon();
#   addPoint(77.000000,301.000000);
#   addPoint(79.000000,297.000000);
#   addPoint(86.000000,290.000000);
#   addPoint(87.000000,290.000000);
#   addPoint(88.000000,289.000000);
#   addPoint(89.000000,289.000000);
#   addPoint(91.000000,287.000000);
#   addPoint(92.000000,287.000000);
#   addPoint(93.000000,286.000000);
#   addPoint(95.000000,286.000000);
#   addPoint(96.000000,285.000000);
#   addPoint(97.000000,285.000000);
#   addPoint(98.000000,284.000000);
#   addPoint(99.000000,284.000000);
#   addPoint(100.000000,283.000000);
#   addPoint(102.000000,283.000000);
#   addPoint(103.000000,282.000000);
#   addPoint(105.000000,282.000000);
#   addPoint(106.000000,281.000000);
#   addPoint(108.000000,281.000000);
#   addPoint(109.000000,280.000000);
#   addPoint(112.000000,280.000000);
#   addPoint(113.000000,279.000000);
#   addPoint(115.000000,279.000000);
#   addPoint(116.000000,278.000000);
#   addPoint(119.000000,278.000000);
#   addPoint(120.000000,277.000000);
#   addPoint(124.000000,277.000000);
#   addPoint(125.000000,276.000000);
#   addPoint(129.000000,276.000000);
#   addPoint(130.000000,275.000000);
#   addPoint(135.000000,275.000000);
#   addPoint(136.000000,274.000000);
#   addPoint(141.000000,274.000000);
#   addPoint(142.000000,273.000000);
#   addPoint(149.000000,273.000000);
#   addPoint(150.000000,272.000000);
#   addPoint(159.000000,272.000000);
#   addPoint(160.000000,271.000000);
#   addPoint(176.000000,271.000000);
#   addPoint(177.000000,270.000000);
#   addPoint(206.000000,270.000000);
#   addPoint(207.000000,271.000000);
#   addPoint(223.000000,271.000000);
#   addPoint(224.000000,272.000000);
#   addPoint(233.000000,272.000000);
#   addPoint(234.000000,273.000000);
#   addPoint(241.000000,273.000000);
#   addPoint(242.000000,274.000000);
#   addPoint(247.000000,274.000000);
#   addPoint(248.000000,275.000000);
#   addPoint(253.000000,275.000000);
#   addPoint(254.000000,276.000000);
#   addPoint(258.000000,276.000000);
#   addPoint(259.000000,277.000000);
#   addPoint(263.000000,277.000000);
#   addPoint(264.000000,278.000000);
#   addPoint(267.000000,278.000000);
#   addPoint(268.000000,279.000000);
#   addPoint(270.000000,279.000000);
#   addPoint(271.000000,280.000000);
#   addPoint(274.000000,280.000000);
#   addPoint(275.000000,281.000000);
#   addPoint(277.000000,281.000000);
#   addPoint(278.000000,282.000000);
#   addPoint(280.000000,282.000000);
#   addPoint(281.000000,283.000000);
#   addPoint(283.000000,283.000000);
#   addPoint(284.000000,284.000000);
#   addPoint(285.000000,284.000000);
#   addPoint(286.000000,285.000000);
#   addPoint(287.000000,285.000000);
#   addPoint(288.000000,286.000000);
#   addPoint(290.000000,286.000000);
#   addPoint(291.000000,287.000000);
#   addPoint(292.000000,287.000000);
#   addPoint(294.000000,289.000000);
#   addPoint(295.000000,289.000000);
#   addPoint(296.000000,290.000000);
#   addPoint(297.000000,290.000000);
#   addPoint(304.000000,297.000000);
#   addPoint(306.000000,301.000000);
#   addPoint(306.000000,0.000000);
#   addPoint(77.000000,0.000000);
# endObject();
2 3 -1 1 35 35 48 0 20 3 1 0 0 0 0 85
  2026 -7186
  2072 -7094
  2234 -6932
  2257 -6932
  2280 -6909
  2303 -6909
  2349 -6863
  2372 -6863
  2395 -6840
  2441 -6840
  2464 -6817
  2487 -6817
  2510 -6794
  2533 -6794
  2556 -6771
  2602 -6771
  2625 -6748
  2671 -6748
  2694 -6725
  2740 -6725
  2763 -6702
  2833 -6702
  2856 -6679
  2902 -6679
  2925 -6656
  2994 -6656
  3017 -6633
  3109 -6633
  3132 -6610
  3224 -6610
  3247 -6587
  3362 -6587
  3385 -6564
  3500 -6564
  3523 -6541
  3685 -6541
  3708 -6518
  3915 -6518
  3938 -6495
  4307 -6495
  4330 -6472
  4998 -6472
  5021 -6495
  5389 -6495
  5412 -6518
  5619 -6518
  5642 -6541
  5804 -6541
  5827 -6564
  5942 -6564
  5965 -6587
  6080 -6587
  6103 -6610
  6195 -6610
  6218 -6633
  6310 -6633
  6333 -6656
  6403 -6656
  6426 -6679
  6472 -6679
  6495 -6702
  6564 -6702
  6587 -6725
  6633 -6725
  6656 -6748
  6702 -6748
  6725 -6771
  6771 -6771
  6794 -6794
  6817 -6794
  6840 -6817
  6863 -6817
  6886 -6840
  6932 -6840
  6955 -6863
  6978 -6863
  7024 -6909
  7047 -6909
  7071 -6932
  7094 -6932
  7255 -7094
  7301 -7186
  7301 -253
  2026 -253
  2026 -7186

# beginPolygon();
#   addPoint(77.000000,301.000000);
#   addPoint(79.000000,297.000000);
#   addPoint(86.000000,290.000000);
#   addPoint(87.000000,290.000000);
#   addPoint(88.000000,289.000000);
#   addPoint(89.000000,289.000000);
#   addPoint(91.000000,287.000000);
#   addPoint(92.000000,287.000000);
#   addPoint(93.000000,286.000000);
#   addPoint(95.000000,286.000000);
#   addPoint(96.000000,285.000000);
#   addPoint(97.000000,285.000000);
#   addPoint(98.000000,284.000000);
#   addPoint(99.000000,284.000000);
#   addPoint(100.000000,283.000000);
#   addPoint(102.000000,283.000000);
#   addPoint(103.000000,282.000000);
#   addPoint(105.000000,282.000000);
#   addPoint(106.000000,281.000000);
#   addPoint(108.000000,281.000000);
#   addPoint(109.000000,280.000000);
#   addPoint(112.000000,280.000000);
#   addPoint(113.000000,279.000000);
#   addPoint(115.000000,279.000000);
#   addPoint(116.000000,278.000000);
#   addPoint(119.000000,278.000000);
#   addPoint(120.000000,277.000000);
#   addPoint(124.000000,277.000000);
#   addPoint(125.000000,276.000000);
#   addPoint(129.000000,276.000000);
#   addPoint(130.000000,275.000000);
#   addPoint(135.000000,275.000000);
#   addPoint(136.000000,274.000000);
#   addPoint(141.000000,274.000000);
#   addPoint(142.000000,273.000000);
#   addPoint(149.000000,273.000000);
#   addPoint(150.000000,272.000000);
#   addPoint(159.000000,272.000000);
#   addPoint(160.000000,271.000000);
#   addPoint(176.000000,271.000000);
#   addPoint(177.000000,270.000000);
#   addPoint(206.000000,270.000000);
#   addPoint(207.000000,271.000000);
#   addPoint(223.000000,271.000000);
#   addPoint(224.000000,272.000000);
#   addPoint(233.000000,272.000000);
#   addPoint(234.000000,273.000000);
#   addPoint(241.000000,273.000000);
#   addPoint(242.000000,274.000000);
#   addPoint(247.000000,274.000000);
#   addPoint(248.000000,275.000000);
#   addPoint(253.000000,275.000000);
#   addPoint(254.000000,276.000000);
#   addPoint(258.000000,276.000000);
#   addPoint(259.000000,277.000000);
#   addPoint(263.000000,277.000000);
#   addPoint(264.000000,278.000000);
#   addPoint(267.000000,278.000000);
#   addPoint(268.000000,279.000000);
#   addPoint(270.000000,279.000000);
#   addPoint(271.000000,280.000000);
#   addPoint(274.000000,280.000000);
#   addPoint(275.000000,281.000000);
#   addPoint(277.000000,281.000000);
#   addPoint(278.000000,282.000000);
#   addPoint(280.000000,282.000000);
#   addPoint(281.000000,283.000000);
#   addPoint(283.000000,283.000000);
#   addPoint(284.000000,284.000000);
#   addPoint(285.000000,284.000000);
#   addPoint(286.000000,285.000000);
#   addPoint(287.000000,285.000000);
#   addPoint(288.000000,286.000000);
#   addPoint(290.000000,286.000000);
#   addPoint(291.000000,287.000000);
#   addPoint(292.000000,287.000000);
#   addPoint(294.000000,289.000000);
#   addPoint(295.000000,289.000000);
#   addPoint(296.000000,290.000000);
#   addPoint(297.000000,290.000000);
#   addPoint(304.000000,297.000000);
#   addPoint(306.000000,301.000000);
#   addPoint(306.000000,0.000000);
#   addPoint(77.000000,0.000000);
# endObject();
2 3 -1 1 0 0 47 0 -1 3 1 0 0 0 0 85
  2026 -7186
  2072 -7094
  2234 -6932
  2257 -6932
  2280 -6909
  2303 -6909
  2349 -6863
  2372 -6863
  2395 -6840
  2441 -6840
  2464 -6817
  2487 -6817
  2510 -6794
  2533 -6794
  2556 -6771
  2602 -6771
  2625 -6748
  2671 -6748
  2694 -6725
  2740 -6725
  2763 -6702
  2833 -6702
  2856 -6679
  2902 -6679
  2925 -6656
  2994 -6656
  3017 -6633
  3109 -6633
  3132 -6610
  3224 -6610
  3247 -6587
  3362 -6587
  3385 -6564
  3500 -6564
  3523 -6541
  3685 -6541
  3708 -6518
  3915 -6518
  3938 -6495
  4307 -6495
  4330 -6472
  4998 -6472
  5021 -6495
  5389 -6495
  5412 -6518
  5619 -6518
  5642 -6541
  5804 -6541
  5827 -6564
  5942 -6564
  5965 -6587
  6080 -6587
  6103 -6610
  6195 -6610
  6218 -6633
  6310 -6633
  6333 -6656
  6403 -6656
  6426 -6679
  6472 -6679
  6495 -6702
  6564 -6702
  6587 -6725
  6633 -6725
  6656 -6748
  6702 -6748
  6725 -6771
  6771 -6771
  6794 -6794
  6817 -6794
  6840 -6817
  6863 -6817
  6886 -6840
  6932 -6840
  6955 -6863
  6978 -6863
  7024 -6909
  7047 -6909
  7071 -6932
  7094 -6932
  7255 -7094
  7301 -7186
  7301 -253
  2026 -253
  2026 -7186

# beginPolygon();
#   addPoint(77.000000,489.000000);
#   addPoint(306.000000,489.000000);
#   addPoint(306.000000,306.000000);
#   addPoint(304.000000,310.000000);
#   addPoint(297.000000,317.000000);
#   addPoint(296.000000,317.000000);
#   addPoint(295.000000,318.000000);
#   addPoint(294.000000,318.000000);
#   addPoint(292.000000,320.000000);
#   addPoint(291.000000,320.000000);
#   addPoint(290.000000,321.000000);
#   addPoint(288.000000,321.000000);
#   addPoint(287.000000,322.000000);
#   addPoint(286.000000,322.000000);
#   addPoint(285.000000,323.000000);
#   addPoint(284.000000,323.000000);
#   addPoint(283.000000,324.000000);
#   addPoint(281.000000,324.000000);
#   addPoint(280.000000,325.000000);
#   addPoint(278.000000,325.000000);
#   addPoint(277.000000,326.000000);
#   addPoint(275.000000,326.000000);
#   addPoint(274.000000,327.000000);
#   addPoint(271.000000,327.000000);
#   addPoint(270.000000,328.000000);
#   addPoint(268.000000,328.000000);
#   addPoint(267.000000,329.000000);
#   addPoint(264.000000,329.000000);
#   addPoint(263.000000,330.000000);
#   addPoint(259.000000,330.000000);
#   addPoint(258.000000,331.000000);
#   addPoint(254.000000,331.000000);
#   addPoint(253.000000,332.000000);
#   addPoint(248.000000,332.000000);
#   addPoint(247.000000,333.000000);
#   addPoint(242.000000,333.000000);
#   addPoint(241.000000,334.000000);
#   addPoint(234.000000,334.000000);
#   addPoint(233.000000,335.000000);
#   addPoint(224.000000,335.000000);
#   addPoint(223.000000,336.000000);
#   addPoint(207.000000,336.000000);
#   addPoint(206.000000,337.000000);
#   addPoint(177.000000,337.000000);
#   addPoint(176.000000,336.000000);
#   addPoint(160.000000,336.000000);
#   addPoint(159.000000,335.000000);
#   addPoint(150.000000,335.000000);
#   addPoint(149.000000,334.000000);
#   addPoint(142.000000,334.000000);
#   addPoint(141.000000,333.000000);
#   addPoint(136.000000,333.000000);
#   addPoint(135.000000,332.000000);
#   addPoint(130.000000,332.000000);
#   addPoint(129.000000,331.000000);
#   addPoint(125.000000,331.000000);
#   addPoint(124.000000,330.000000);
#   addPoint(120.000000,330.000000);
#   addPoint(119.000000,329.000000);
#   addPoint(116.000000,329.000000);
#   addPoint(115.000000,328.000000);
#   addPoint(113.000000,328.000000);
#   addPoint(112.000000,327.000000);
#   addPoint(109.000000,327.000000);
#   addPoint(108.000000,326.000000);
#   addPoint(106.000000,326.000000);
#   addPoint(105.000000,325.000000);
#   addPoint(103.000000,325.000000);
#   addPoint(102.000000,324.000000);
#   addPoint(100.000000,324.000000);
#   addPoint(99.000000,323.000000);
#   addPoint(98.000000,323.000000);
#   addPoint(97.000000,322.000000);
#   addPoint(96.000000,322.000000);
#   addPoint(95.000000,321.000000);
#   addPoint(93.000000,321.000000);
#   addPoint(92.000000,320.000000);
#   addPoint(91.000000,320.000000);
#   addPoint(89.000000,318.000000);
#   addPoint(88.000000,318.000000);
#   addPoint(87.000000,317.000000);
#   addPoint(86.000000,317.000000);
#   addPoint(79.000000,310.000000);
#   addPoint(77.000000,306.000000);
# endObject();
2 3 -1 1 35 35 48 0 20 3 1 0 0 0 0 85
  2026 -11516
  7301 -11516
  7301 -7301
  7255 -7393
  7094 -7554
  7071 -7554
  7047 -7577
  7024 -7577
  6978 -7623
  6955 -7623
  6932 -7646
  6886 -7646
  6863 -7669
  6840 -7669
  6817 -7692
  6794 -7692
  6771 -7715
  6725 -7715
  6702 -7738
  6656 -7738
  6633 -7761
  6587 -7761
  6564 -7785
  6495 -7785
  6472 -7808
  6426 -7808
  6403 -7831
  6333 -7831
  6310 -7854
  6218 -7854
  6195 -7877
  6103 -7877
  6080 -7900
  5965 -7900
  5942 -7923
  5827 -7923
  5804 -7946
  5642 -7946
  5619 -7969
  5412 -7969
  5389 -7992
  5021 -7992
  4998 -8015
  4330 -8015
  4307 -7992
  3938 -7992
  3915 -7969
  3708 -7969
  3685 -7946
  3523 -7946
  3500 -7923
  3385 -7923
  3362 -7900
  3247 -7900
  3224 -7877
  3132 -7877
  3109 -7854
  3017 -7854
  2994 -7831
  2925 -7831
  2902 -7808
  2856 -7808
  2833 -7785
  2763 -7785
  2740 -7761
  2694 -7761
  2671 -7738
  2625 -7738
  2602 -7715
  2556 -7715
  2533 -7692
  2510 -7692
  2487 -7669
  2464 -7669
  2441 -7646
  2395 -7646
  2372 -7623
  2349 -7623
  2303 -7577
  2280 -7577
  2257 -7554
  2234 -7554
  2072 -7393
  2026 -7301
  2026 -11516

# beginPolygon();
#   addPoint(77.000000,489.000000);
#   addPoint(306.000000,489.000000);
#   addPoint(306.000000,306.000000);
#   addPoint(304.000000,310.000000);
#   addPoint(297.000000,317.000000);
#   addPoint(296.000000,317.000000);
#   addPoint(295.000000,318.000000);
#   addPoint(294.000000,318.000000);
#   addPoint(292.000000,320.000000);
#   addPoint(291.000000,320.000000);
#   addPoint(290.000000,321.000000);
#   addPoint(288.000000,321.000000);
#   addPoint(287.000000,322.000000);
#   addPoint(286.000000,322.000000);
#   addPoint(285.000000,323.000000);
#   addPoint(284.000000,323.000000);
#   addPoint(283.000000,324.000000);
#   addPoint(281.000000,324.000000);
#   addPoint(280.000000,325.000000);
#   addPoint(278.000000,325.000000);
#   addPoint(277.000000,326.000000);
#   addPoint(275.000000,326.000000);
#   addPoint(274.000000,327.000000);
#   addPoint(271.000000,327.000000);
#   addPoint(270.000000,328.000000);
#   addPoint(268.000000,328.000000);
#   addPoint(267.000000,329.000000);
#   addPoint(264.000000,329.000000);
#   addPoint(263.000000,330.000000);
#   addPoint(259.000000,330.000000);
#   addPoint(258.000000,331.000000);
#   addPoint(254.000000,331.000000);
#   addPoint(253.000000,332.000000);
#   addPoint(248.000000,332.000000);
#   addPoint(247.000000,333.000000);
#   addPoint(242.000000,333.000000);
#   addPoint(241.000000,334.000000);
#   addPoint(234.000000,334.000000);
#   addPoint(233.000000,335.000000);
#   addPoint(224.000000,335.000000);
#   addPoint(223.000000,336.000000);
#   addPoint(207.000000,336.000000);
#   addPoint(206.000000,337.000000);
#   addPoint(177.000000,337.000000);
#   addPoint(176.000000,336.000000);
#   addPoint(160.000000,336.000000);
#   addPoint(159.000000,335.000000);
#   addPoint(150.000000,335.000000);
#   addPoint(149.000000,334.000000);
#   addPoint(142.000000,334.000000);
#   addPoint(141.000000,333.000000);
#   addPoint(136.000000,333.000000);
#   addPoint(135.000000,332.000000);
#   addPoint(130.000000,332.000000);
#   addPoint(129.000000,331.000000);
#   addPoint(125.000000,331.000000);
#   addPoint(124.000000,330.000000);
#   addPoint(120.000000,330.000000);
#   addPoint(119.000000,329.000000);
#   addPoint(116.000000,329.000000);
#   addPoint(115.000000,328.000000);
#   addPoint(113.000000,328.000000);
#   addPoint(112.000000,327.000000);
#   addPoint(109.000000,327.000000);
#   addPoint(108.000000,326.000000);
#   addPoint(106.000000,326.000000);
#   addPoint(105.000000,325.000000);
#   addPoint(103.000000,325.000000);
#   addPoint(102.000000,324.000000);
#   addPoint(100.000000,324.000000);
#   addPoint(99.000000,323.000000);
#   addPoint(98.000000,323.000000);
#   addPoint(97.000000,322.000000);
#   addPoint(96.000000,322.000000);
#   addPoint(95.000000,321.000000);
#   addPoint(93.000000,321.000000);
#   addPoint(92.000000,320.000000);
#   addPoint(91.000000,320.000000);
#   addPoint(89.000000,318.000000);
#   addPoint(88.000000,318.000000);
#   addPoint(87.000000,317.000000);
#   addPoint(86.000000,317.000000);
#   addPoint(79.000000,310.000000);
#   addPoint(77.000000,306.000000);
# endObject();
2 3 -1 1 0 0 47 0 -1 3 1 0 0 0 0 85
  2026 -11516
  7301 -11516
  7301 -7301
  7255 -7393
  7094 -7554
  7071 -7554
  7047 -7577
  7024 -7577
  6978 -7623
  6955 -7623
  6932 -7646
  6886 -7646
  6863 -7669
  6840 -7669
  6817 -7692
  6794 -7692
  6771 -7715
  6725 -7715
  6702 -7738
  6656 -7738
  6633 -7761
  6587 -7761
  6564 -7785
  6495 -7785
  6472 -7808
  6426 -7808
  6403 -7831
  6333 -7831
  6310 -7854
  6218 -7854
  6195 -7877
  6103 -7877
  6080 -7900
  5965 -7900
  5942 -7923
  5827 -7923
  5804 -7946
  5642 -7946
  5619 -7969
  5412 -7969
  5389 -7992
  5021 -7992
  4998 -8015
  4330 -8015
  4307 -7992
  3938 -7992
  3915 -7969
  3708 -7969
  3685 -7946
  3523 -7946
  3500 -7923
  3385 -7923
  3362 -7900
  3247 -7900
  3224 -7877
  3132 -7877
  3109 -7854
  3017 -7854
  2994 -7831
  2925 -7831
  2902 -7808
  2856 -7808
  2833 -7785
  2763 -7785
  2740 -7761
  2694 -7761
  2671 -7738
  2625 -7738
  2602 -7715
  2556 -7715
  2533 -7692
  2510 -7692
  2487 -7669
  2464 -7669
  2441 -7646
  2395 -7646
  2372 -7623
  2349 -7623
  2303 -7577
  2280 -7577
  2257 -7554
  2234 -7554
  2072 -7393
  2026 -7301
  2026 -11516

# beginPolygon();
#   addPoint(307.000000,489.000000);
#   addPoint(494.000000,489.000000);
#   addPoint(494.000000,0.000000);
#   addPoint(307.000000,0.000000);
# endObject();
2 3 -1 1 35 35 48 0 20 3 1 0 0 0 0 5
  7324 -11516
  11631 -11516
  11631 -253
  7324 -253
  7324 -11516

# beginPolygon();
#   addPoint(307.000000,489.000000);
#   addPoint(494.000000,489.000000);
#   addPoint(494.000000,0.000000);
#   addPoint(307.000000,0.000000);
# endObject();
2 3 -1 1 0 0 47 0 -1 3 1 0 0 0 0 5
  7324 -11516
  11631 -11516
  11631 -253
  7324 -253
  7324 -11516

# beginPolygon();
#   addPoint(5.000000,489.000000);
#   addPoint(28.666667,489.000000);
#   addPoint(28.666667,0.000000);
#   addPoint(5.000000,0.000000);
# endObject();
2 3 -1 1 32 32 48 0 20 3 1 0 0 0 0 5
  368 -11516
  913 -11516
  913 -253
  368 -253
  368 -11516

# beginPolygon();
#   addPoint(5.000000,489.000000);
#   addPoint(28.666667,489.000000);
#   addPoint(28.666667,0.000000);
#   addPoint(5.000000,0.000000);
# endObject();
2 3 -1 1 0 0 47 0 -1 3 1 0 0 0 0 5
  368 -11516
  913 -11516
  913 -253
  368 -253
  368 -11516

# beginPolygon();
#   addPoint(28.666667,489.000000);
#   addPoint(52.333333,489.000000);
#   addPoint(52.333333,0.000000);
#   addPoint(28.666667,0.000000);
# endObject();
2 3 -1 1 34 34 48 0 20 3 1 0 0 0 0 5
  913 -11516
  1458 -11516
  1458 -253
  913 -253
  913 -11516

# beginPolygon();
#   addPoint(28.666667,489.000000);
#   addPoint(52.333333,489.000000);
#   addPoint(52.333333,0.000000);
#   addPoint(28.666667,0.000000);
# endObject();
2 3 -1 1 0 0 47 0 -1 3 1 0 0 0 0 5
  913 -11516
  1458 -11516
  1458 -253
  913 -253
  913 -11516

# beginPolygon();
#   addPoint(52.333333,489.000000);
#   addPoint(76.000000,489.000000);
#   addPoint(76.000000,0.000000);
#   addPoint(52.333333,0.000000);
# endObject();
2 3 -1 1 32 32 48 0 20 3 1 0 0 0 0 5
  1458 -11516
  2003 -11516
  2003 -253
  1458 -253
  1458 -11516

# beginPolygon();
#   addPoint(52.333333,489.000000);
#   addPoint(76.000000,489.000000);
#   addPoint(76.000000,0.000000);
#   addPoint(52.333333,0.000000);
# endObject();
2 3 -1 1 0 0 47 0 -1 3 1 0 0 0 0 5
  1458 -11516
  2003 -11516
  2003 -253
  1458 -253
  1458 -11516

# beginPolygon();
#   addPoint(77.000000,301.000000);
#   addPoint(99.900000,283.100000);
#   addPoint(99.900000,0.000000);
#   addPoint(77.000000,0.000000);
# endObject();
2 3 -1 1 34 34 48 0 20 3 1 0 0 0 0 5
  2026 -7186
  2554 -6773
  2554 -253
  2026 -253
  2026 -7186

# beginPolygon();
#   addPoint(77.000000,301.000000);
#   addPoint(99.900000,283.100000);
#   addPoint(99.900000,0.000000);
#   addPoint(77.000000,0.000000);
# endObject();
2 3 -1 1 0 0 47 0 -1 3 1 0 0 0 0 5
  2026 -7186
  2554 -6773
  2554 -253
  2026 -253
  2026 -7186

# beginPolygon();
#   addPoint(99.900000,283.100000);
#   addPoint(122.800000,277.000000);
#   addPoint(122.800000,0.000000);
#   addPoint(99.900000,0.000000);
# endObject();
2 3 -1 1 32 32 48 0 20 3 1 0 0 0 0 5
  2554 -6773
  3081 -6633
  3081 -253
  2554 -253
  2554 -6773

# beginPolygon();
#   addPoint(99.900000,283.100000);
#   addPoint(122.800000,277.000000);
#   addPoint(122.800000,0.000000);
#   addPoint(99.900000,0.000000);
# endObject();
2 3 -1 1 0 0 47 0 -1 3 1 0 0 0 0 5
  2554 -6773
  3081 -6633
  3081 -253
  2554 -253
  2554 -6773

# beginPolygon();
#   addPoint(122.800000,277.000000);
#   addPoint(145.700000,273.000000);
#   addPoint(145.700000,0.000000);
#   addPoint(122.800000,0.000000);
# endObject();
2 3 -1 1 34 34 48 0 20 3 1 0 0 0 0 5
  3081 -6633
  3609 -6541
  3609 -253
  3081 -253
  3081 -6633

# beginPolygon();
#   addPoint(122.800000,277.000000);
#   addPoint(145.700000,273.000000);
#   addPoint(145.700000,0.000000);
#   addPoint(122.800000,0.000000);
# endObject();
2 3 -1 1 0 0 47 0 -1 3 1 0 0 0 0 5
  3081 -6633
  3609 -6541
  3609 -253
  3081 -253
  3081 -6633

# beginPolygon();
#   addPoint(145.700000,273.000000);
#   addPoint(168.600000,271.000000);
#   addPoint(168.600000,0.000000);
#   addPoint(145.700000,0.000000);
# endObject();
2 3 -1 1 32 32 48 0 20 3 1 0 0 0 0 5
  3609 -6541
  4136 -6495
  4136 -253
  3609 -253
  3609 -6541

# beginPolygon();
#   addPoint(145.700000,273.000000);
#   addPoint(168.600000,271.000000);
#   addPoint(168.600000,0.000000);
#   addPoint(145.700000,0.000000);
# endObject();
2 3 -1 1 0 0 47 0 -1 3 1 0 0 0 0 5
  3609 -6541
  4136 -6495
  4136 -253
  3609 -253
  3609 -6541

# beginPolygon();
#   addPoint(168.600000,271.000000);
#   addPoint(191.500000,270.000000);
#   addPoint(191.500000,0.000000);
#   addPoint(168.600000,0.000000);
# endObject();
2 3 -1 1 34 34 48 0 20 3 1 0 0 0 0 5
  4136 -6495
  4664 -6472
  4664 -253
  4136 -253
  4136 -6495

# beginPolygon();
#   addPoint(168.600000,271.000000);
#   addPoint(191.500000,270.000000);
#   addPoint(191.500000,0.000000);
#   addPoint(168.600000,0.000000);
# endObject();
2 3 -1 1 0 0 47 0 -1 3 1 0 0 0 0 5
  4136 -6495
  4664 -6472
  4664 -253
  4136 -253
  4136 -6495

# beginPolygon();
#   addPoint(191.500000,270.000000);
#   addPoint(214.400000,271.000000);
#   addPoint(214.400000,0.000000);
#   addPoint(191.500000,0.000000);
# endObject();
2 3 -1 1 32 32 48 0 20 3 1 0 0 0 0 5
  4664 -6472
  5191 -6495
  5191 -253
  4664 -253
  4664 -6472

# beginPolygon();
#   addPoint(191.500000,270.000000);
#   addPoint(214.400000,271.000000);
#   addPoint(214.400000,0.000000);
#   addPoint(191.500000,0.000000);
# endObject();
2 3 -1 1 0 0 47 0 -1 3 1 0 0 0 0 5
  4664 -6472
  5191 -6495
  5191 -253
  4664 -253
  4664 -6472

# beginPolygon();
#   addPoint(214.400000,271.000000);
#   addPoint(237.300000,273.000000);
#   addPoint(237.300000,0.000000);
#   addPoint(214.400000,0.000000);
# endObject();
2 3 -1 1 34 34 48 0 20 3 1 0 0 0 0 5
  5191 -6495
  5719 -6541
  5719 -253
  5191 -253
  5191 -6495

# beginPolygon();
#   addPoint(214.400000,271.000000);
#   addPoint(237.300000,273.000000);
#   addPoint(237.300000,0.000000);
#   addPoint(214.400000,0.000000);
# endObject();
2 3 -1 1 0 0 47 0 -1 3 1 0 0 0 0 5
  5191 -6495
  5719 -6541
  5719 -253
  5191 -253
  5191 -6495

# beginPolygon();
#   addPoint(237.300000,273.000000);
#   addPoint(260.200000,277.000000);
#   addPoint(260.200000,0.000000);
#   addPoint(237.300000,0.000000);
# endObject();
2 3 -1 1 32 32 48 0 20 3 1 0 0 0 0 5
  5719 -6541
  6246 -6633
  6246 -253
  5719 -253
  5719 -6541

# beginPolygon();
#   addPoint(237.300000,273.000000);
#   addPoint(260.200000,277.000000);
#   addPoint(260.200000,0.000000);
#   addPoint(237.300000,0.000000);
# endObject();
2 3 -1 1 0 0 47 0 -1 3 1 0 0 0 0 5
  5719 -6541
  6246 -6633
  6246 -253
  5719 -253
  5719 -6541

# beginPolygon();
#   addPoint(260.200000,277.000000);
#   addPoint(283.100000,283.100000);
#   addPoint(283.100000,0.000000);
#   addPoint(260.200000,0.000000);
# endObject();
2 3 -1 1 34 34 48 0 20 3 1 0 0 0 0 5
  6246 -6633
  6773 -6773
  6773 -253
  6246 -253
  6246 -6633

# beginPolygon();
#   addPoint(260.200000,277.000000);
#   addPoint(283.100000,283.100000);
#   addPoint(283.100000,0.000000);
#   addPoint(260.200000,0.000000);
# endObject();
2 3 -1 1 0 0 47 0 -1 3 1 0 0 0 0 5
  6246 -6633
  6773 -6773
  6773 -253
  6246 -253
  6246 -6633

# beginPolygon();
#   addPoint(283.100000,283.100000);
#   addPoint(306.000000,301.000000);
#   addPoint(306.000000,0.000000);
#   addPoint(283.100000,0.000000);
# endObject();
2 3 -1 1 32 32 48 0 20 3 1 0 0 0 0 5
  6773 -6773
  7301 -7186
  7301 -253
  6773 -253
  6773 -6773

# beginPolygon();
#   addPoint(283.100000,283.100000);
#   addPoint(306.000000,301.000000);
#   addPoint(306.000000,0.000000);
#   addPoint(283.100000,0.000000);
# endObject();
2 3 -1 1 0 0 47 0 -1 3 1 0 0 0 0 5
  6773 -6773
  7301 -7186
  7301 -253
  6773 -253
  6773 -6773

# beginPolygon();
#   addPoint(77.000000,489.000000);
#   addPoint(99.900000,489.000000);
#   addPoint(99.900000,323.900000);
#   addPoint(77.000000,306.000000);
# endObject();
2 3 -1 1 34 34 48 0 20 3 1 0 0 0 0 5
  2026 -11516
  2554 -11516
  2554 -7713
  2026 -7301
  2026 -11516

# beginPolygon();
#   addPoint(77.000000,489.000000);
#   addPoint(99.900000,489.000000);
#   addPoint(99.900000,323.900000);
#   addPoint(77.000000,306.000000);
# endObject();
2 3 -1 1 0 0 47 0 -1 3 1 0 0 0 0 5
  2026 -11516
  2554 -11516
  2554 -7713
  2026 -7301
  2026 -11516

# beginPolygon();
#   addPoint(99.900000,489.000000);
#   addPoint(122.800000,489.000000);
#   addPoint(122.800000,330.000000);
#   addPoint(99.900000,323.900000);
# endObject();
2 3 -1 1 32 32 48 0 20 3 1 0 0 0 0 5
  2554 -11516
  3081 -11516
  3081 -7854
  2554 -7713
  2554 -11516

# beginPolygon();
#   addPoint(99.900000,489.000000);
#   addPoint(122.800000,489.000000);
#   addPoint(122.800000,330.000000);
#   addPoint(99.900000,323.900000);
# endObject();
2 3 -1 1 0 0 47 0 -1 3 1 0 0 0 0 5
  2554 -11516
  3081 -11516
  3081 -7854
  2554 -7713
  2554 -11516

# beginPolygon();
#   addPoint(122.800000,489.000000);
#   addPoint(145.700000,489.000000);
#   addPoint(145.700000,334.000000);
#   addPoint(122.800000,330.000000);
# endObject();
2 3 -1 1 34 34 48 0 20 3 1 0 0 0 0 5
  3081 -11516
  3609 -11516
  3609 -7946
  3081 -7854
  3081 -11516

# beginPolygon();
#   addPoint(122.800000,489.000000);
#   addPoint(145.700000,489.000000);
#   addPoint(145.700000,334.000000);
#   addPoint(122.800000,330.000000);
# endObject();
2 3 -1 1 0 0 47 0 -1 3 1 0 0 0 0 5
  3081 -11516
  3609 -11516
  3609 -7946
  3081 -7854
  3081 -11516

# beginPolygon();
#   addPoint(145.700000,489.000000);
#   addPoint(168.600000,489.000000);
#   addPoint(168.600000,336.000000);
#   addPoint(145.700000,334.000000);
# endObject();
2 3 -1 1 32 32 48 0 20 3 1 0 0 0 0 5
  3609 -11516
  4136 -11516
  4136 -7992
  3609 -7946
  3609 -11516

# beginPolygon();
#   addPoint(145.700000,489.000000);
#   addPoint(168.600000,489.000000);
#   addPoint(168.600000,336.000000);
#   addPoint(145.700000,334.000000);
# endObject();
2 3 -1 1 0 0 47 0 -1 3 1 0 0 0 0 5
  3609 -11516
  4136 -11516
  4136 -7992
  3609 -7946
  3609 -11516

# beginPolygon();
#   addPoint(168.600000,489.000000);
#   addPoint(191.500000,489.000000);
#   addPoint(191.500000,337.000000);
#   addPoint(168.600000,336.000000);
# endObject();
2 3 -1 1 34 34 48 0 20 3 1 0 0 0 0 5
  4136 -11516
  4664 -11516
  4664 -8015
  4136 -7992
  4136 -11516

# beginPolygon();
#   addPoint(168.600000,489.000000);
#   addPoint(191.500000,489.000000);
#   addPoint(191.500000,337.000000);
#   addPoint(168.600000,336.000000);
# endObject();
2 3 -1 1 0 0 47 0 -1 3 1 0 0 0 0 5
  4136 -11516
  4664 -11516
  4664 -8015
  4136 -7992
  4136 -11516

# beginPolygon();
#   addPoint(191.500000,489.000000);
#   addPoint(214.400000,489.000000);
#   addPoint(214.400000,336.000000);
#   addPoint(191.500000,337.000000);
# endObject();
2 3 -1 1 32 32 48 0 20 3 1 0 0 0 0 5
  4664 -11516
  5191 -11516
  5191 -7992
  4664 -8015
  4664 -11516

# beginPolygon();
#   addPoint(191.500000,489.000000);
#   addPoint(214.400000,489.000000);
#   addPoint(214.400000,336.000000);
#   addPoint(191.500000,337.000000);
# endObject();
2 3 -1 1 0 0 47 0 -1 3 1 0 0 0 0 5
  4664 -11516
  5191 -11516
  5191 -7992
  4664 -8015
  4664 -11516

# beginPolygon();
#   addPoint(214.400000,489.000000);
#   addPoint(237.300000,489.000000);
#   addPoint(237.300000,334.000000);
#   addPoint(214.400000,336.000000);
# endObject();
2 3 -1 1 34 34 48 0 20 3 1 0 0 0 0 5
  5191 -11516
  5719 -11516
  5719 -7946
  5191 -7992
  5191 -11516

# beginPolygon();
#   addPoint(214.400000,489.000000);
#   addPoint(237.300000,489.000000);
#   addPoint(237.300000,334.000000);
#   addPoint(214.400000,336.000000);
# endObject();
2 3 -1 1 0 0 47 0 -1 3 1 0 0 0 0 5
  5191 -11516
  5719 -11516
  5719 -7946
  5191 -7992
  5191 -11516

# beginPolygon();
#   addPoint(237.300000,489.000000);
#   addPoint(260.200000,489.000000);
#   addPoint(260.200000,330.000000);
#   addPoint(237.300000,334.000000);
# endObject();
2 3 -1 1 32 32 48 0 20 3 1 0 0 0 0 5
  5719 -11516
  6246 -11516
  6246 -7854
  5719 -7946
  5719 -11516

# beginPolygon();
#   addPoint(237.300000,489.000000);
#   addPoint(260.200000,489.000000);
#   addPoint(260.200000,330.000000);
#   addPoint(237.300000,334.000000);
# endObject();
2 3 -1 1 0 0 47 0 -1 3 1 0 0 0 0 5
  5719 -11516
  6246 -11516
  6246 -7854
  5719 -7946
  5719 -11516

# beginPolygon();
#   addPoint(260.200000,489.000000);
#   addPoint(283.100000,489.000000);
#   addPoint(283.100000,323.900000);
#   addPoint(260.200000,330.000000);
# endObject();
2 3 -1 1 34 34 48 0 20 3 1 0 0 0 0 5
  6246 -11516
  6773 -11516
  6773 -7713
  6246 -7854
  6246 -11516

# beginPolygon();
#   addPoint(260.200000,489.000000);
#   addPoint(283.100000,489.000000);
#   addPoint(283.100000,323.900000);
#   addPoint(260.200000,330.000000);
# endObject();
2 3 -1 1 0 0 47 0 -1 3 1 0 0 0 0 5
  6246 -11516
  6773 -11516
  6773 -7713
  6246 -7854
  6246 -11516

# beginPolygon();
#   addPoint(283.100000,489.000000);
#   addPoint(306.000000,489.000000);
#   addPoint(306.000000,306.000000);
#   addPoint(283.100000,323.900000);
# endObject();
2 3 -1 1 32 32 48 0 20 3 1 0 0 0 0 5
  6773 -11516
  7301 -11516
  7301 -7301
  6773 -7713
  6773 -11516

# beginPolygon();
#   addPoint(283.100000,489.000000);
#   addPoint(306.000000,489.000000);
#   addPoint(306.000000,306.000000);
#   addPoint(283.100000,323.900000);
# endObject();
2 3 -1 1 0 0 47 0 -1 3 1 0 0 0 0 5
  6773 -11516
  7301 -11516
  7301 -7301
  6773 -7713
  6773 -11516

# beginPolygon();
#   addPoint(307.000000,489.000000);
#   addPoint(330.375000,489.000000);
#   addPoint(330.375000,0.000000);
#   addPoint(307.000000,0.000000);
# endObject();
2 3 -1 1 34 34 48 0 20 3 1 0 0 0 0 5
  7324 -11516
  7862 -11516
  7862 -253
  7324 -253
  7324 -11516

# beginPolygon();
#   addPoint(307.000000,489.000000);
#   addPoint(330.375000,489.000000);
#   addPoint(330.375000,0.000000);
#   addPoint(307.000000,0.000000);
# endObject();
2 3 -1 1 0 0 47 0 -1 3 1 0 0 0 0 5
  7324 -11516
  7862 -11516
  7862 -253
  7324 -253
  7324 -11516

# beginPolygon();
#   addPoint(330.375000,489.000000);
#   addPoint(353.750000,489.000000);
#   addPoint(353.750000,0.000000);
#   addPoint(330.375000,0.000000);
# endObject();
2 3 -1 1 32 32 48 0 20 3 1 0 0 0 0 5
  7862 -11516
  8401 -11516
  8401 -253
  7862 -253
  7862 -11516

# beginPolygon();
#   addPoint(330.375000,489.000000);
#   addPoint(353.750000,489.000000);
#   addPoint(353.750000,0.000000);
#   addPoint(330.375000,0.000000);
# endObject();
2 3 -1 1 0 0 47 0 -1 3 1 0 0 0 0 5
  7862 -11516
  8401 -11516
  8401 -253
  7862 -253
  7862 -11516

# beginPolygon();
#   addPoint(353.750000,489.000000);
#   addPoint(377.125000,489.000000);
#   addPoint(377.125000,0.000000);
#   addPoint(353.750000,0.000000);
# endObject();
2 3 -1 1 34 34 48 0 20 3 1 0 0 0 0 5
  8401 -11516
  8939 -11516
  8939 -253
  8401 -253
  8401 -11516

# beginPolygon();
#   addPoint(353.750000,489.000000);
#   addPoint(377.125000,489.000000);
#   addPoint(377.125000,0.000000);
#   addPoint(353.750000,0.000000);
# endObject();
2 3 -1 1 0 0 47 0 -1 3 1 0 0 0 0 5
  8401 -11516
  8939 -11516
  8939 -253
  8401 -253
  8401 -11516

# beginPolygon();
#   addPoint(377.125000,489.000000);
#   addPoint(400.500000,489.000000);
#   addPoint(400.500000,0.000000);
#   addPoint(377.125000,0.000000);
# endObject();
2 3 -1 1 32 32 48 0 20 3 1 0 0 0 0 5
  8939 -11516
  9477 -11516
  9477 -253
  8939 -253
  8939 -11516

# beginPolygon();
#   addPoint(377.125000,489.000000);
#   addPoint(400.500000,489.000000);
#   addPoint(400.500000,0.000000);
#   addPoint(377.125000,0.000000);
# endObject();
2 3 -1 1 0 0 47 0 -1 3 1 0 0 0 0 5
  8939 -11516
  9477 -11516
  9477 -253
  8939 -253
  8939 -11516

# beginPolygon();
#   addPoint(400.500000,489.000000);
#   addPoint(423.875000,489.000000);
#   addPoint(423.875000,0.000000);
#   addPoint(400.500000,0.000000);
# endObject();
2 3 -1 1 34 34 48 0 20 3 1 0 0 0 0 5
  9477 -11516
  10016 -11516
  10016 -253
  9477 -253
  9477 -11516

# beginPolygon();
#   addPoint(400.500000,489.000000);
#   addPoint(423.875000,489.000000);
#   addPoint(423.875000,0.000000);
#   addPoint(400.500000,0.000000);
# endObject();
2 3 -1 1 0 0 47 0 -1 3 1 0 0 0 0 5
  9477 -11516
  10016 -11516
  10016 -253
  9477 -253
  9477 -11516

# beginPolygon();
#   addPoint(423.875000,489.000000);
#   addPoint(447.250000,489.000000);
#   addPoint(447.250000,0.000000);
#   addPoint(423.875000,0.000000);
# endObject();
2 3 -1 1 32 32 48 0 20 3 1 0 0 0 0 5
  10016 -11516
  10554 -11516
  10554 -253
  10016 -253
  10016 -11516

# beginPolygon();
#   addPoint(423.875000,489.000000);
#   addPoint(447.250000,489.000000);
#   addPoint(447.250000,0.000000);
#   addPoint(423.875000,0.000000);
# endObject();
2 3 -1 1 0 0 47 0 -1 3 1 0 0 0 0 5
  10016 -11516
  10554 -11516
  10554 -253
  10016 -253
  10016 -11516

# beginPolygon();
#   addPoint(447.250000,489.000000);
#   addPoint(470.625000,489.000000);
#   addPoint(470.625000,0.000000);
#   addPoint(447.250000,0.000000);
# endObject();
2 3 -1 1 34 34 48 0 20 3 1 0 0 0 0 5
  10554 -11516
  11093 -11516
  11093 -253
  10554 -253
  10554 -11516

# beginPolygon();
#   addPoint(447.250000,489.000000);
#   addPoint(470.625000,489.000000);
#   addPoint(470.625000,0.000000);
#   addPoint(447.250000,0.000000);
# endObject();
2 3 -1 1 0 0 47 0 -1 3 1 0 0 0 0 5
  10554 -11516
  11093 -11516
  11093 -253
  10554 -253
  10554 -11516

# beginPolygon();
#   addPoint(470.625000,489.000000);
#   addPoint(494.000000,489.000000);
#   addPoint(494.000000,0.000000);
#   addPoint(470.625000,0.000000);
# endObject();
2 3 -1 1 32 32 48 0 20 3 1 0 0 0 0 5
  11093 -11516
  11631 -11516
  11631 -253
  11093 -253
  11093 -11516

# beginPolygon();
#   addPoint(470.625000,489.000000);
#   addPoint(494.000000,489.000000);
#   addPoint(494.000000,0.000000);
#   addPoint(470.625000,0.000000);
# endObject();
2 3 -1 1 0 0 47 0 -1 3 1 0 0 0 0 5
  11093 -11516
  11631 -11516
  11631 -253
  11093 -253
  11093 -11516

# drawCircle((40.500000, 489.000000), 0.000000);
1 3 -1 1 4 4 47 0 20 3 1 0 1186 -11516 0 0 1186 -11516 1186 -11516

# drawCircle((40.500000, 489.000000), 0.000000);
1 3 -1 1 33 33 46 0 -1 3 1 0 1186 -11516 0 0 1186 -11516 1186 -11516

# beginPolyline();
#   addPoint(40.500000,489.000000);
#   addPoint(40.500000,489.000000);
# endObject();
2 1 -1 1 33 33 45 0 -1 3 1 0 0 0 0 2
  1186 -11516
  1186 -11516

