#FIG 3.2  Produced by xfig version 3.2.5c
Landscape
Center
Metric
A4      
100.00
Single
-2
1200 2
1 3 0 1 0 0 50 -1 12 0.000 1 0.0000 4365 8235 101 101 4365 8235 4466 8235
2 3 0 1 0 7 50 -1 -1 0.000 0 0 -1 0 0 6
	 4500 7740 4500 8100 6480 8100 5580 7290 4500 7740 4500 7740
2 3 0 1 2 2 50 -1 16 0.000 0 0 -1 0 0 6
	 5580 7290 5400 7110 5670 7020 5850 7200 5580 7290 5580 7290
2 3 0 1 0 7 50 -1 -1 0.000 0 0 -1 0 0 6
	 4230 7560 4230 8370 7120 8363 5670 7020 4230 7560 4230 7560
2 1 0 1 0 7 50 -1 -1 0.000 0 0 -1 1 1 2
	0 0 1.00 60.00 120.00
	0 0 1.00 60.00 120.00
	 4365 8505 6885 8505
2 1 0 1 0 7 50 -1 -1 0.000 0 0 -1 1 1 2
	0 0 1.00 60.00 120.00
	0 0 1.00 60.00 120.00
	 4275 7425 5445 6975
2 1 0 1 0 7 50 -1 -1 0.000 0 0 -1 1 1 2
	0 0 1.00 60.00 120.00
	0 0 1.00 60.00 120.00
	 5897 7063 7067 8143
2 1 0 1 0 7 50 -1 -1 0.000 0 0 -1 1 1 2
	0 0 1.00 60.00 120.00
	0 0 1.00 60.00 120.00
	 4095 8190 4095 7695
4 1 0 50 -1 0 12 0.0000 4 135 270 5625 8730 $4$\001
4 1 0 50 -1 0 12 0.0000 4 135 270 4770 7155 $2$\001
4 1 0 50 -1 0 12 0.0000 4 135 270 6570 7515 $3$\001
4 1 0 50 -1 0 12 0.0000 4 135 270 3960 7965 $1$\001
