#FIG 3.2
# Generated by graphviz version 2.40.1 (20161225.0304)
# Title: %3
# Pages: 1
Portrait
Center
Inches
Letter
100.00
Single
-2
1200 2
0 32 #d3d3d3
0 33 #32cd32
0 34 #ff0000
0 35 #add8e6
0 36 #000000
0 37 #ffffff
0 38 #fffffe
2 3 0 1 38 37 2 0 20 0.0 0 0 0 0 0 5
 0 1240 0 0 8800 0 8800 1240 0 1240
# ab
1 1 0 3 36 33 1 0 20 0.000 0 0.0000 840 640 140 -140 840 640 980 500
# ab_a
1 1 0 3 36 34 1 0 20 0.000 0 0.0000 1860 260 140 -140 1860 260 2000 120
# ab->ab_a
3 4 0 1 36 0 0 0 -1 0.0 0 0 0 7
  973 590 1051 562 1139 529 1235 493 1335 456 1435 418 1533 382
 0 1 1 1 1 1 0
2 3 0 1 36 36 0 0 20 0.0 0 0 0 0 0 4
 1512 315 1723 311 1560 446 1512 315
4 1 36 0 0 0 14.0 0.0000 6 14.0 14.0 1350 288 $a$\001
# ab_b
1 1 0 3 36 35 1 0 20 0.000 0 0.0000 1860 1020 140 -140 1860 1020 2000 880
# ab->ab_b
3 4 0 1 36 0 0 0 -1 0.0 0 0 0 13
  928 751 957 781 989 813 1024 843 1061 872 1100 898 1140 920 1198 945 1258 965 1320 982 1382 996 1445 1006 1506 1014
 0 1 1 1 1 1 1 1 1 1 1 1 0
2 3 0 1 36 36 0 0 20 0.0 0 0 0 0 0 4
 1519 944 1715 1025 1511 1084 1519 944
4 1 36 0 0 0 14.0 0.0000 6 14.0 14.0 1350 828 $b$\001
# bc
1 1 0 3 36 33 1 0 20 0.000 0 0.0000 3080 640 140 -140 3080 640 3220 500
# ab_a->bc
3 4 0 1 36 0 0 0 -1 0.0 0 0 0 7
  2000 304 2101 335 2219 372 2348 412 2482 454 2616 496 2744 535
 0 1 1 1 1 1 0
2 3 0 1 36 36 0 0 20 0.0 0 0 0 0 0 4
 2772 471 2942 597 2730 604 2772 471
4 1 36 0 0 0 14.0 0.0000 6 14.0 23.3 2470 288 $a,b$\001
# ab_b->bc
3 4 0 1 36 0 0 0 -1 0.0 0 0 0 13
  2004 1032 2109 1035 2232 1033 2367 1023 2508 1003 2647 969 2780 920 2790 915 2801 910 2811 904 2821 899 2831 892 2840 886
 0 1 1 1 1 1 1 1 1 1 1 1 0
2 3 0 1 36 36 0 0 20 0.0 0 0 0 0 0 4
 2796 832 2992 752 2889 937 2796 832
4 1 36 0 0 0 14.0 0.0000 6 14.0 23.3 2470 828 $a,b$\001
# bc_b
1 1 0 3 36 34 1 0 20 0.000 0 0.0000 4100 260 140 -140 4100 260 4240 120
# bc->bc_b
3 4 0 1 36 0 0 0 -1 0.0 0 0 0 7
  3213 590 3291 562 3379 529 3475 493 3575 456 3675 418 3773 382
 0 1 1 1 1 1 0
2 3 0 1 36 36 0 0 20 0.0 0 0 0 0 0 4
 3752 315 3963 311 3800 446 3752 315
4 1 36 0 0 0 14.0 0.0000 6 14.0 14.0 3590 288 $b$\001
# bc_c
1 1 0 3 36 35 1 0 20 0.000 0 0.0000 4100 1020 140 -140 4100 1020 4240 880
# bc->bc_c
3 4 0 1 36 0 0 0 -1 0.0 0 0 0 13
  3168 751 3197 781 3229 813 3264 843 3301 872 3340 898 3380 920 3438 945 3498 965 3560 982 3622 996 3685 1006 3746 1014
 0 1 1 1 1 1 1 1 1 1 1 1 0
2 3 0 1 36 36 0 0 20 0.0 0 0 0 0 0 4
 3759 944 3955 1025 3751 1084 3759 944
4 1 36 0 0 0 14.0 0.0000 6 14.0 14.0 3590 828 $c$\001
# cd
1 1 0 3 36 33 1 0 20 0.000 0 0.0000 5320 640 140 -140 5320 640 5460 500
# bc_b->cd
3 4 0 1 36 0 0 0 -1 0.0 0 0 0 7
  4240 304 4341 335 4459 372 4588 412 4722 454 4856 496 4984 535
 0 1 1 1 1 1 0
2 3 0 1 36 36 0 0 20 0.0 0 0 0 0 0 4
 5012 471 5182 597 4970 604 5012 471
4 1 36 0 0 0 14.0 0.0000 6 14.0 23.3 4710 288 $b,c$\001
# bc_c->cd
3 4 0 1 36 0 0 0 -1 0.0 0 0 0 13
  4244 1032 4349 1035 4472 1033 4607 1023 4748 1003 4887 969 5020 920 5030 915 5041 910 5051 904 5061 899 5071 892 5080 886
 0 1 1 1 1 1 1 1 1 1 1 1 0
2 3 0 1 36 36 0 0 20 0.0 0 0 0 0 0 4
 5036 832 5232 752 5129 937 5036 832
4 1 36 0 0 0 14.0 0.0000 6 14.0 23.3 4710 828 $b,c$\001
# cd_c
1 1 0 3 36 34 1 0 20 0.000 0 0.0000 6340 260 140 -140 6340 260 6480 120
# cd->cd_c
3 4 0 1 36 0 0 0 -1 0.0 0 0 0 7
  5453 590 5531 562 5619 529 5715 493 5815 456 5915 418 6013 382
 0 1 1 1 1 1 0
2 3 0 1 36 36 0 0 20 0.0 0 0 0 0 0 4
 5992 315 6203 311 6040 446 5992 315
4 1 36 0 0 0 14.0 0.0000 6 14.0 14.0 5830 288 $c$\001
# cd_d
1 1 0 3 36 35 1 0 20 0.000 0 0.0000 6340 1020 140 -140 6340 1020 6480 880
# cd->cd_d
3 4 0 1 36 0 0 0 -1 0.0 0 0 0 13
  5408 751 5437 781 5469 813 5504 843 5541 872 5580 898 5620 920 5678 945 5738 965 5800 982 5862 996 5925 1006 5986 1014
 0 1 1 1 1 1 1 1 1 1 1 1 0
2 3 0 1 36 36 0 0 20 0.0 0 0 0 0 0 4
 5999 944 6195 1025 5991 1084 5999 944
4 1 36 0 0 0 14.0 0.0000 6 14.0 14.0 5830 828 $d$\001
# bd
1 1 0 3 36 33 1 0 20 0.000 0 0.0000 7560 640 140 -140 7560 640 7700 500
# cd_c->bd
3 4 0 1 36 0 0 0 -1 0.0 0 0 0 7
  6480 304 6581 335 6699 372 6828 412 6962 454 7096 496 7224 535
 0 1 1 1 1 1 0
2 3 0 1 36 36 0 0 20 0.0 0 0 0 0 0 4
 7252 471 7422 597 7210 604 7252 471
4 1 36 0 0 0 14.0 0.0000 6 14.0 23.3 6950 288 $c,d$\001
# cd_d->bd
3 4 0 1 36 0 0 0 -1 0.0 0 0 0 13
  6484 1032 6589 1035 6712 1033 6847 1023 6988 1003 7127 969 7260 920 7270 915 7281 910 7291 904 7301 899 7311 892 7320 886
 0 1 1 1 1 1 1 1 1 1 1 1 0
2 3 0 1 36 36 0 0 20 0.0 0 0 0 0 0 4
 7276 832 7472 752 7369 937 7276 832
4 1 36 0 0 0 14.0 0.0000 6 14.0 23.3 6950 828 $c,d$\001
# bd_b
1 1 0 3 36 34 1 0 20 0.000 0 0.0000 8580 260 140 -140 8580 260 8720 120
# bd->bd_b
3 4 0 1 36 0 0 0 -1 0.0 0 0 0 7
  7693 590 7771 562 7859 529 7955 493 8055 456 8155 418 8253 382
 0 1 1 1 1 1 0
2 3 0 1 36 36 0 0 20 0.0 0 0 0 0 0 4
 8232 315 8443 311 8280 446 8232 315
4 1 36 0 0 0 14.0 0.0000 6 14.0 14.0 8070 288 $b$\001
# bd_d
1 1 0 3 36 35 1 0 20 0.000 0 0.0000 8580 1020 140 -140 8580 1020 8720 880
# bd->bd_d
3 4 0 1 36 0 0 0 -1 0.0 0 0 0 13
  7648 751 7677 781 7709 813 7744 843 7781 872 7820 898 7860 920 7918 945 7978 965 8040 982 8102 996 8165 1006 8226 1014
 0 1 1 1 1 1 1 1 1 1 1 1 0
2 3 0 1 36 36 0 0 20 0.0 0 0 0 0 0 4
 8239 944 8435 1025 8231 1084 8239 944
4 1 36 0 0 0 14.0 0.0000 6 14.0 14.0 8070 828 $d$\001
# start
# start->ab
3 4 0 1 36 0 0 0 -1 0.0 0 0 0 7
  364 640 384 640 404 640 426 640 448 640 470 640 492 640
 0 1 1 1 1 1 0
2 3 0 1 36 36 0 0 20 0.0 0 0 0 0 0 4
 497 570 697 640 497 710 497 570
# end of FIG file
