#FIG 3.2  Produced by xfig version 3.2.6a
Landscape
Center
Metric
A4
100.00
Single
-2
1200 2
6 3150 6750 4050 7650
6 3150 6750 4050 7650
1 3 0 1 0 7 50 -1 -1 0.000 1 0.0000 3600 7200 450 450 3600 7200 3870 7560
-6
1 3 0 1 0 7 50 -1 -1 0.000 1 0.0000 3600 7200 387 387 3600 7200 3825 7515
-6
6 10350 6750 11250 7650
1 3 0 1 0 7 46 -1 -1 0.000 1 0.0000 10800 7200 387 387 10800 7200 11187 7200
1 3 0 1 0 7 48 -1 20 0.000 1 0.0000 10800 7200 450 450 10800 7200 11250 7200
-6
6 5040 6750 5940 7650
1 3 0 1 0 7 46 -1 -1 0.000 1 0.0000 5490 7200 387 387 5490 7200 5877 7200
1 3 0 1 0 7 48 -1 20 0.000 1 0.0000 5490 7200 450 450 5490 7200 5940 7200
-6
1 3 0 1 0 0 50 -1 10 0.000 1 0.0000 900 4500 450 450 900 4500 1350 4500
1 3 0 1 0 7 50 -1 -1 0.000 1 0.0000 7200 7200 450 450 7200 7200 7470 7560
1 3 0 1 0 7 49 -1 20 0.000 1 0.0000 6300 10350 450 450 6300 10350 6750 10350
1 3 0 1 0 7 50 -1 -1 0.000 1 0.0000 1800 7200 450 450 1800 7200 2070 7560
1 3 0 1 0 7 50 -1 -1 0.000 1 0.0000 9000 7200 450 450 9000 7200 9270 7560
1 3 0 1 0 7 50 -1 -1 0.000 1 0.0000 11700 4500 450 450 11700 4500 11970 4860
1 3 0 1 0 7 50 -1 -1 0.000 1 0.0000 9900 4500 450 450 9900 4500 10170 4860
1 3 0 1 0 7 50 -1 -1 0.000 1 0.0000 8100 4500 450 450 8100 4500 8370 4860
1 3 0 1 0 7 50 -1 -1 0.000 1 0.0000 6300 4500 450 450 6300 4500 6570 4860
1 3 0 1 0 7 50 -1 -1 0.000 1 0.0000 4500 4500 450 450 4500 4500 4770 4860
1 3 0 1 0 7 50 -1 -1 0.000 1 0.0000 2700 4500 450 450 2700 4500 2970 4860
2 1 0 1 0 7 50 -1 -1 0.000 0 0 -1 1 0 2
	1 1 1.00 60.00 120.00
	 5850 10350 1800 7650
2 1 0 1 0 7 50 -1 -1 0.000 0 0 -1 1 0 2
	1 1 1.00 60.00 120.00
	 6120 9990 5400 7650
2 1 0 1 0 7 50 -1 -1 0.000 0 0 -1 1 0 2
	1 1 1.00 60.00 120.00
	 6480 9990 7200 7650
2 1 0 1 0 7 50 -1 -1 0.000 0 0 -1 1 0 2
	1 1 1.00 60.00 120.00
	 6750 10350 10800 7650
2 1 0 1 0 7 50 -1 -1 0.000 0 0 -1 1 0 2
	1 1 1.00 60.00 120.00
	 6615 10035 9000 7650
2 1 0 1 0 7 50 -1 -1 0.000 0 0 -1 1 0 2
	1 1 1.00 60.00 120.00
	 5985 10080 3600 7650
2 1 0 1 0 7 50 -1 -1 0.000 0 0 -1 1 0 2
	1 1 1.00 60.00 120.00
	 2160 6930 9630 4860
2 1 0 1 0 7 50 -1 -1 0.000 0 0 -1 1 0 2
	1 1 1.00 60.00 120.00
	 1800 6750 4230 4815
2 1 0 1 0 7 50 -1 -1 0.000 0 0 -1 1 0 2
	1 1 1.00 60.00 120.00
	 1440 6930 630 4860
2 1 0 1 0 7 50 -1 -1 0.000 0 0 -1 1 0 2
	1 1 1.00 60.00 120.00
	 3285 6885 2385 4815
2 1 0 1 0 7 50 -1 -1 0.000 0 0 -1 1 0 2
	1 1 1.00 60.00 120.00
	 3600 6750 4500 4905
2 1 0 1 0 7 50 -1 -1 0.000 0 0 -1 1 0 2
	1 1 1.00 60.00 120.00
	 5130 6975 900 4950
2 1 0 1 0 7 50 -1 -1 0.000 0 0 -1 1 0 2
	1 1 1.00 60.00 120.00
	 5760 6885 5985 4815
2 1 0 1 0 7 50 -1 -1 0.000 0 0 -1 1 0 2
	1 1 1.00 60.00 120.00
	 6885 6885 6615 4815
2 1 0 1 0 7 50 -1 -1 0.000 0 0 -1 1 0 2
	1 1 1.00 60.00 120.00
	 7200 6750 9900 4950
2 1 0 1 0 7 50 -1 -1 0.000 0 0 -1 1 0 2
	1 1 1.00 60.00 120.00
	 7560 6930 11700 4950
2 1 0 1 0 7 50 -1 -1 0.000 0 0 -1 1 0 2
	1 1 1.00 60.00 120.00
	 11115 6930 12060 4770
2 1 0 1 0 7 50 -1 -1 0.000 0 0 -1 1 0 2
	1 1 1.00 60.00 120.00
	 10845 6750 8460 4815
2 1 0 1 0 7 50 -1 -1 0.000 0 0 -1 1 0 2
	1 1 1.00 60.00 120.00
	 10485 6930 1260 4815
2 1 0 1 0 7 50 -1 -1 0.000 0 0 -1 1 0 2
	1 1 1.00 60.00 120.00
	 8640 6930 3015 4815
2 1 0 1 0 7 50 -1 -1 0.000 0 0 -1 1 0 2
	1 1 1.00 60.00 120.00
	 9000 6750 8100 4950
2 1 0 1 0 7 50 -1 -1 0.000 0 0 -1 1 0 2
	1 1 1.00 60.00 120.00
	 9360 6930 10215 4815
2 1 0 1 0 7 50 -1 -1 0.000 0 0 -1 1 0 2
	1 1 1.00 60.00 120.00
	 3960 6930 11430 4860
2 1 0 1 0 7 50 -1 -1 0.000 0 0 -1 1 0 2
	1 1 1.00 60.00 120.00
	 5355 6795 2880 4950
4 1 0 50 -1 0 12 0.0000 4 165 630 6300 4590 $m_{8}$\001
4 1 0 48 -1 0 12 0.0000 4 165 630 8100 4590 $m_{9}$\001
4 1 0 50 -1 0 12 0.0000 4 165 720 9900 4590 $m_{11}$\001
4 1 0 50 -1 0 12 0.0000 4 165 720 11700 4590 $m_{13}$\001
4 1 0 44 -1 0 12 0.0000 4 165 630 10800 7290 $m_{4}$\001
4 1 0 47 -1 0 12 0.0000 4 165 630 9000 7290 $m_{3}$\001
4 1 0 50 -1 0 12 0.0000 4 165 630 7200 7290 $m_{5}$\001
4 1 0 50 -1 0 12 0.0000 4 165 630 3600 7290 $m_{6}$\001
4 1 0 50 -1 0 12 0.0000 4 165 630 1800 7290 $m_{1}$\001
4 1 0 50 -1 0 12 0.0000 4 165 630 6300 10440 $m_{0}$\001
4 1 0 50 -1 0 12 0.0000 4 165 630 4500 4590 $m_{7}$\001
4 1 0 50 -1 0 12 0.0000 4 165 720 2700 4590 $m_{12}$\001
4 1 0 50 -1 0 12 0.0000 4 165 720 900 4590 $m_{10}$\001
4 1 0 50 -1 0 12 0.0000 4 135 270 5130 4590 $8$\001
4 1 0 50 -1 0 12 0.0000 4 135 270 6930 4590 $7$\001
4 1 0 50 -1 0 12 0.0000 4 135 270 12330 4590 $5$\001
4 1 0 50 -1 0 12 0.0000 4 135 270 2430 7290 $7$\001
4 1 0 50 -1 0 12 0.0000 4 135 270 4230 7290 $3$\001
4 1 0 50 -1 0 12 0.0000 4 135 270 6030 7290 $5$\001
4 1 0 50 -1 0 12 0.0000 4 135 270 11430 7290 $4$\001
4 1 0 50 -1 0 12 0.0000 4 135 270 6930 10530 $3$\001
4 1 0 50 -1 0 12 0.0000 4 135 270 7830 7290 $5$\001
4 1 0 44 -1 0 12 0.0000 4 165 630 5490 7290 $m_{2}$\001
4 1 0 50 -1 0 12 0.0000 4 165 720 1530 4590 $\\infty$\001
4 1 0 50 -1 0 12 0.0000 4 135 360 3330 4590 $10$\001
4 1 0 50 -1 0 12 0.0000 4 135 360 8730 4590 $11$\001
4 1 0 50 -1 0 12 0.0000 4 135 270 10530 4590 $7$\001
4 1 0 50 -1 0 12 0.0000 4 135 270 9630 7290 $7$\001
