#FIG 3.2  Produced by xfig version 3.2.5c
Landscape
Center
Metric
A4      
100.00
Single
-2
1200 2
1 1 0 1 0 4 50 -1 20 0.000 1 0.0000 3510 3420 630 360 3510 3420 4140 3420
1 1 0 1 0 4 50 -1 20 0.000 1 0.0000 5760 1620 630 360 5760 1620 6390 1620
1 1 0 1 0 1 50 -1 20 0.000 1 0.0000 5760 3420 630 360 5760 3420 6390 3420
1 1 0 1 0 2 50 -1 20 0.000 1 0.0000 5760 5040 630 360 5760 5040 6390 5040
1 1 0 1 0 2 50 -1 20 0.000 1 0.0000 4680 6930 630 360 4680 6930 5310 6930
1 1 0 1 0 1 50 -1 20 0.000 1 0.0000 3600 5040 630 360 3600 5040 4230 5040
2 1 0 1 0 7 50 -1 -1 0.000 0 0 -1 1 0 2
	2 1 1.00 60.00 120.00
	 5760 1980 5760 3060
2 1 0 1 0 7 50 -1 -1 0.000 0 0 -1 1 0 2
	2 1 1.00 60.00 120.00
	 5670 1980 3780 4680
2 1 0 1 0 7 50 -1 -1 0.000 0 0 -1 1 0 2
	2 1 1.00 60.00 120.00
	 3510 3780 3510 4680
2 1 0 1 0 7 50 -1 -1 0.000 0 0 -1 1 0 2
	2 1 1.00 60.00 120.00
	 5760 3780 5760 4680
2 1 0 1 0 7 50 -1 -1 0.000 0 0 -1 1 0 2
	2 1 1.00 60.00 120.00
	 5760 5400 4860 6570
2 1 0 1 0 7 50 -1 -1 0.000 0 0 -1 1 0 2
	2 1 1.00 60.00 120.00
	 3600 5400 4590 6570
4 0 0 45 -1 0 21 0.0000 4 150 450 5580 5130 $m_1$\001
4 0 0 45 -1 0 21 0.0000 4 150 450 3420 3510 $m_3$\001
4 0 0 45 -1 0 21 0.0000 4 150 450 5580 1710 $m_5$\001
4 0 0 45 -1 0 21 0.0000 4 150 450 5580 3510 $m_2$\001
4 0 0 45 -1 0 21 0.0000 4 150 450 3420 5130 $m_4$\001
4 0 0 45 -1 0 21 0.0000 4 150 450 4500 7020 $m_6$\001
