#FIG 3.2  Produced by xfig version 3.2.5c
Landscape
Center
Metric
A4      
100.00
Single
-2
1200 2
0 33 #fefefe
5 1 1 1 0 7 54 -1 -1 4.000 0 0 0 0 495.000 -1845.000 180 -1845 495 -2160 810 -1845
5 1 1 1 0 7 54 -1 -1 4.000 0 0 0 0 -135.000 -1845.000 -450 -1845 -135 -2160 180 -1845
5 1 1 1 0 7 54 -1 -1 4.000 0 1 0 0 0.000 0.000 -315 0 0 315 315 0
5 1 1 1 0 7 54 -1 -1 4.000 0 1 0 0 360.000 0.000 45 0 360 315 675 0
1 3 0 0 0 0 55 -1 5 0.000 1 0.0000 -135 -1845 315 315 -135 -1845 180 -1845
1 3 0 0 0 0 55 -1 5 0.000 1 0.0000 495 -1845 315 315 495 -1845 810 -1845
1 3 0 0 0 0 55 -1 5 0.000 1 0.0000 0 0 315 315 0 0 315 0
1 3 0 0 0 0 55 -1 5 0.000 1 0.0000 360 0 315 315 360 0 675 0
1 3 0 1 0 0 45 -1 20 0.000 1 0.0000 -135 -1845 45 45 -135 -1845 -90 -1845
1 3 0 1 0 0 45 -1 20 0.000 1 0.0000 495 -1845 45 45 495 -1845 540 -1845
1 3 0 1 0 0 50 -1 20 0.000 1 0.0000 360 0 45 45 360 0 405 0
1 3 0 1 0 0 50 -1 20 0.000 1 0.0000 0 0 45 45 0 0 45 0
1 3 1 1 0 7 50 -1 -1 4.000 1 0.0000 0 0 315 315 0 0 315 0
1 3 1 1 0 7 50 -1 -1 4.000 1 0.0000 360 0 315 315 360 0 675 0
1 3 1 1 0 7 46 -1 -1 4.000 1 0.0000 495 -1845 315 315 495 -1845 180 -1845
1 3 1 1 0 7 46 -1 -1 4.000 1 0.0000 -135 -1845 315 315 -135 -1845 -450 -1845
2 1 0 0 0 0 55 -1 5 0.000 0 0 -1 0 0 5
	 45 0 675 0 810 -1845 180 -1845 45 0
2 3 0 0 0 0 55 -1 5 0.000 0 0 -1 0 0 5
	 -450 -1845 -315 0 315 0 180 -1845 -450 -1845
2 1 0 1 0 7 45 -1 -1 0.000 0 0 -1 0 0 2
	 -135 -1845 495 -1845
2 3 0 0 0 0 40 -1 5 0.000 0 0 -1 0 0 4
	 45 0 180 -1800 315 0 45 0
2 1 0 1 0 7 50 -1 -1 0.000 0 0 -1 0 0 2
	 0 0 360 0
2 1 1 1 0 7 50 -1 -1 4.000 0 0 -1 1 0 2
	1 1 1.00 60.00 120.00
	 360 0 360 -1845
2 1 1 1 0 7 50 -1 -1 4.000 0 0 -1 1 0 2
	1 1 1.00 60.00 120.00
	 0 0 0 -1845
2 2 0 0 0 33 100 -1 20 0.000 0 0 7 0 0 5
	 -495 -2250 855 -2250 855 405 -495 405 -495 -2250
2 1 1 1 0 7 54 -1 -1 4.000 0 0 -1 0 0 2
	 810 -1845 675 0
2 1 1 1 0 7 54 -1 -1 4.000 0 0 -1 0 0 2
	 180 -1845 315 0
2 1 1 1 0 7 54 -1 -1 4.000 0 0 -1 0 0 2
	 -450 -1845 -315 0
2 1 1 1 0 7 54 -1 -1 4.000 0 0 -1 0 0 2
	 180 -1845 45 0
2 1 1 1 0 7 47 -1 -1 8.000 0 0 -1 0 0 2
	 360 0 495 -1845
2 1 1 1 0 7 47 -1 -1 8.000 0 0 -1 0 0 2
	 360 0 225 -1845
2 1 1 1 0 7 47 -1 -1 8.000 0 0 -1 0 0 2
	 0 0 135 -1845
2 1 1 1 0 7 47 -1 -1 8.000 0 0 -1 0 0 2
	 0 0 -135 -1845
3 1 0 0 0 0 41 -1 5 0.000 0 0 0 10
	 180 270 90 180 45 90 45 0 180 -1755 315 0
	 315 90 270 180 225 225 180 270
	 1.000 1.000 1.000 1.000 1.000 1.000 1.000 1.000
	 1.000 1.000
