%!PS-Adobe-3.0
%%Creator: graphviz version 2.36.0 (20140111.2315)
%%Title: %3
%%Pages: (atend)
%%BoundingBox: (atend)
%%EndComments
save
%%BeginProlog
/DotDict 200 dict def
DotDict begin

/setupLatin1 {
mark
/EncodingVector 256 array def
 EncodingVector 0

ISOLatin1Encoding 0 255 getinterval putinterval
EncodingVector 45 /hyphen put

% Set up ISO Latin 1 character encoding
/starnetISO {
        dup dup findfont dup length dict begin
        { 1 index /FID ne { def }{ pop pop } ifelse
        } forall
        /Encoding EncodingVector def
        currentdict end definefont
} def
/Times-Roman starnetISO def
/Times-Italic starnetISO def
/Times-Bold starnetISO def
/Times-BoldItalic starnetISO def
/Helvetica starnetISO def
/Helvetica-Oblique starnetISO def
/Helvetica-Bold starnetISO def
/Helvetica-BoldOblique starnetISO def
/Courier starnetISO def
/Courier-Oblique starnetISO def
/Courier-Bold starnetISO def
/Courier-BoldOblique starnetISO def
cleartomark
} bind def

%%BeginResource: procset graphviz 0 0
/coord-font-family /Times-Roman def
/default-font-family /Times-Roman def
/coordfont coord-font-family findfont 8 scalefont def

/InvScaleFactor 1.0 def
/set_scale {
       dup 1 exch div /InvScaleFactor exch def
       scale
} bind def

% styles
/solid { [] 0 setdash } bind def
/dashed { [9 InvScaleFactor mul dup ] 0 setdash } bind def
/dotted { [1 InvScaleFactor mul 6 InvScaleFactor mul] 0 setdash } bind def
/invis {/fill {newpath} def /stroke {newpath} def /show {pop newpath} def} bind def
/bold { 2 setlinewidth } bind def
/filled { } bind def
/unfilled { } bind def
/rounded { } bind def
/diagonals { } bind def
/tapered { } bind def

% hooks for setting color 
/nodecolor { sethsbcolor } bind def
/edgecolor { sethsbcolor } bind def
/graphcolor { sethsbcolor } bind def
/nopcolor {pop pop pop} bind def

/beginpage {	% i j npages
	/npages exch def
	/j exch def
	/i exch def
	/str 10 string def
	npages 1 gt {
		gsave
			coordfont setfont
			0 0 moveto
			(\() show i str cvs show (,) show j str cvs show (\)) show
		grestore
	} if
} bind def

/set_font {
	findfont exch
	scalefont setfont
} def

% draw text fitted to its expected width
/alignedtext {			% width text
	/text exch def
	/width exch def
	gsave
		width 0 gt {
			[] 0 setdash
			text stringwidth pop width exch sub text length div 0 text ashow
		} if
	grestore
} def

/boxprim {				% xcorner ycorner xsize ysize
		4 2 roll
		moveto
		2 copy
		exch 0 rlineto
		0 exch rlineto
		pop neg 0 rlineto
		closepath
} bind def

/ellipse_path {
	/ry exch def
	/rx exch def
	/y exch def
	/x exch def
	matrix currentmatrix
	newpath
	x y translate
	rx ry scale
	0 0 1 0 360 arc
	setmatrix
} bind def

/endpage { showpage } bind def
/showpage { } def

/layercolorseq
	[	% layer color sequence - darkest to lightest
		[0 0 0]
		[.2 .8 .8]
		[.4 .8 .8]
		[.6 .8 .8]
		[.8 .8 .8]
	]
def

/layerlen layercolorseq length def

/setlayer {/maxlayer exch def /curlayer exch def
	layercolorseq curlayer 1 sub layerlen mod get
	aload pop sethsbcolor
	/nodecolor {nopcolor} def
	/edgecolor {nopcolor} def
	/graphcolor {nopcolor} def
} bind def

/onlayer { curlayer ne {invis} if } def

/onlayers {
	/myupper exch def
	/mylower exch def
	curlayer mylower lt
	curlayer myupper gt
	or
	{invis} if
} def

/curlayer 0 def

%%EndResource
%%EndProlog
%%BeginSetup
14 default-font-family set_font
1 setmiterlimit
% /arrowlength 10 def
% /arrowwidth 5 def

% make sure pdfmark is harmless for PS-interpreters other than Distiller
/pdfmark where {pop} {userdict /pdfmark /cleartomark load put} ifelse
% make '<<' and '>>' safe on PS Level 1 devices
/languagelevel where {pop languagelevel}{1} ifelse
2 lt {
    userdict (<<) cvn ([) cvn load put
    userdict (>>) cvn ([) cvn load put
} if

%%EndSetup
setupLatin1
%%Page: 1 1
%%PageBoundingBox: 36 36 170 296
%%PageOrientation: Portrait
0 0 1 beginpage
gsave
36 36 134 260 boxprim clip newpath
1 1 set_scale 0 rotate 40 40 translate
% m5
gsave
1 setlinewidth
0 0 0 nodecolor
99 234 27 18 ellipse_path stroke
0 0 0 nodecolor
14 /Times-Roman set_font
89.5 230.3 moveto 19 (m5) alignedtext
grestore
% m4
gsave
1 setlinewidth
0 0 0 nodecolor
27 162 27 18 ellipse_path stroke
0 0 0 nodecolor
14 /Times-Roman set_font
17.5 158.3 moveto 19 (m4) alignedtext
grestore
% m5->m4
gsave
1 setlinewidth
0 0 0 edgecolor
newpath 84.43 218.83 moveto
74.25 208.94 60.48 195.55 48.97 184.36 curveto
stroke
0 0 0 edgecolor
newpath 51.41 181.85 moveto
41.8 177.38 lineto
46.53 186.87 lineto
closepath fill
1 setlinewidth
solid
0 0 0 edgecolor
newpath 51.41 181.85 moveto
41.8 177.38 lineto
46.53 186.87 lineto
closepath stroke
grestore
% m2
gsave
1 setlinewidth
0 0 0 nodecolor
99 162 27 18 ellipse_path stroke
0 0 0 nodecolor
14 /Times-Roman set_font
89.5 158.3 moveto 19 (m2) alignedtext
grestore
% m5->m2
gsave
1 setlinewidth
0 0 0 edgecolor
newpath 99 215.7 moveto
99 207.98 99 198.71 99 190.11 curveto
stroke
0 0 0 edgecolor
newpath 102.5 190.1 moveto
99 180.1 lineto
95.5 190.1 lineto
closepath fill
1 setlinewidth
solid
0 0 0 edgecolor
newpath 102.5 190.1 moveto
99 180.1 lineto
95.5 190.1 lineto
closepath stroke
grestore
% m6
gsave
1 setlinewidth
0 0 0 nodecolor
64 18 27 18 ellipse_path stroke
0 0 0 nodecolor
14 /Times-Roman set_font
54.5 14.3 moveto 19 (m6) alignedtext
grestore
% m4->m6
gsave
1 setlinewidth
0 0 0 edgecolor
newpath 31.39 144.15 moveto
37.73 119.81 49.52 74.57 57.05 45.67 curveto
stroke
0 0 0 edgecolor
newpath 60.48 46.38 moveto
59.62 35.82 lineto
53.71 44.62 lineto
closepath fill
1 setlinewidth
solid
0 0 0 edgecolor
newpath 60.48 46.38 moveto
59.62 35.82 lineto
53.71 44.62 lineto
closepath stroke
grestore
% m3
gsave
1 setlinewidth
0 0 0 nodecolor
27 234 27 18 ellipse_path stroke
0 0 0 nodecolor
14 /Times-Roman set_font
17.5 230.3 moveto 19 (m3) alignedtext
grestore
% m3->m4
gsave
1 setlinewidth
0 0 0 edgecolor
newpath 27 215.7 moveto
27 207.98 27 198.71 27 190.11 curveto
stroke
0 0 0 edgecolor
newpath 30.5 190.1 moveto
27 180.1 lineto
23.5 190.1 lineto
closepath fill
1 setlinewidth
solid
0 0 0 edgecolor
newpath 30.5 190.1 moveto
27 180.1 lineto
23.5 190.1 lineto
closepath stroke
grestore
% m1
gsave
1 setlinewidth
0 0 0 nodecolor
94 90 27 18 ellipse_path stroke
0 0 0 nodecolor
14 /Times-Roman set_font
84.5 86.3 moveto 19 (m1) alignedtext
grestore
% m1->m6
gsave
1 setlinewidth
0 0 0 edgecolor
newpath 86.89 72.41 moveto
83.34 64.13 78.97 53.92 75 44.66 curveto
stroke
0 0 0 edgecolor
newpath 78.21 43.28 moveto
71.06 35.47 lineto
71.78 46.04 lineto
closepath fill
1 setlinewidth
solid
0 0 0 edgecolor
newpath 78.21 43.28 moveto
71.06 35.47 lineto
71.78 46.04 lineto
closepath stroke
grestore
% m2->m1
gsave
1 setlinewidth
0 0 0 edgecolor
newpath 97.76 143.7 moveto
97.21 135.98 96.55 126.71 95.94 118.11 curveto
stroke
0 0 0 edgecolor
newpath 99.43 117.83 moveto
95.22 108.1 lineto
92.44 118.33 lineto
closepath fill
1 setlinewidth
solid
0 0 0 edgecolor
newpath 99.43 117.83 moveto
95.22 108.1 lineto
92.44 118.33 lineto
closepath stroke
grestore
endpage
showpage
grestore
%%PageTrailer
%%EndPage: 1
%%Trailer
%%Pages: 1
%%BoundingBox: 36 36 170 296
end
restore
%%EOF
