%!PS-Adobe-3.0 EPSF-3.0
%%Creator: cairo 1.15.10 (http://cairographics.org)
%%CreationDate: Wed Jul 22 23:59:26 2020
%%Pages: 1
%%DocumentData: Clean7Bit
%%LanguageLevel: 2
%%BoundingBox: 0 0 113 107
%%EndComments
%%BeginProlog
50 dict begin
/q { gsave } bind def
/Q { grestore } bind def
/cm { 6 array astore concat } bind def
/w { setlinewidth } bind def
/J { setlinecap } bind def
/j { setlinejoin } bind def
/M { setmiterlimit } bind def
/d { setdash } bind def
/m { moveto } bind def
/l { lineto } bind def
/c { curveto } bind def
/h { closepath } bind def
/re { exch dup neg 3 1 roll 5 3 roll moveto 0 rlineto
      0 exch rlineto 0 rlineto closepath } bind def
/S { stroke } bind def
/f { fill } bind def
/f* { eofill } bind def
/n { newpath } bind def
/W { clip } bind def
/W* { eoclip } bind def
/BT { } bind def
/ET { } bind def
/BDC { mark 3 1 roll /BDC pdfmark } bind def
/EMC { mark /EMC pdfmark } bind def
/cairo_store_point { /cairo_point_y exch def /cairo_point_x exch def } def
/Tj { show currentpoint cairo_store_point } bind def
/TJ {
  {
    dup
    type /stringtype eq
    { show } { -0.001 mul 0 cairo_font_matrix dtransform rmoveto } ifelse
  } forall
  currentpoint cairo_store_point
} bind def
/cairo_selectfont { cairo_font_matrix aload pop pop pop 0 0 6 array astore
    cairo_font exch selectfont cairo_point_x cairo_point_y moveto } bind def
/Tf { pop /cairo_font exch def /cairo_font_matrix where
      { pop cairo_selectfont } if } bind def
/Td { matrix translate cairo_font_matrix matrix concatmatrix dup
      /cairo_font_matrix exch def dup 4 get exch 5 get cairo_store_point
      /cairo_font where { pop cairo_selectfont } if } bind def
/Tm { 2 copy 8 2 roll 6 array astore /cairo_font_matrix exch def
      cairo_store_point /cairo_font where { pop cairo_selectfont } if } bind def
/g { setgray } bind def
/rg { setrgbcolor } bind def
/d1 { setcachedevice } bind def
/cairo_data_source {
  CairoDataIndex CairoData length lt
    { CairoData CairoDataIndex get /CairoDataIndex CairoDataIndex 1 add def }
    { () } ifelse
} def
/cairo_flush_ascii85_file { cairo_ascii85_file status { cairo_ascii85_file flushfile } if } def
/cairo_image { image cairo_flush_ascii85_file } def
/cairo_imagemask { imagemask cairo_flush_ascii85_file } def
%%EndProlog
%%BeginSetup
%%EndSetup
%%Page: 1 1
%%BeginPageSetup
%%PageBoundingBox: 0 0 113 107
%%EndPageSetup
q 0 0 113 107 rectclip
1 0 0 -1 0 107 cm q
1 g
0 0 112.215 106.719 re f
22.902 1.715 m 89.676 1.762 l 110.277 65.254 l 56.207 104.465 l 2.207 65.184
 l h
22.902 1.715 m f
0.482353 g
2.25 w
0 J
0 j
[] 0.0 d
4 M q 1 0 0 1 0 0 cm
22.902 1.715 m 89.676 1.762 l 110.277 65.254 l 56.207 104.465 l 2.207 65.184
 l h
22.902 1.715 m S Q
0.501961 0.501961 0.780392 rg
37.617 85.875 m 37.336 88.301 39.078 90.496 41.504 90.777 c 43.93 91.059
 46.125 89.32 46.406 86.895 c 46.688 84.469 44.949 82.273 42.523 81.992 
c 40.098 81.711 37.898 83.449 37.617 85.875 c h
37.617 85.875 m f
0 0 0.560784 rg
0.439946 w
10 M q -1 -0.11605 -0.11605 1 0 0 cm
-46.951 80.426 m -46.951 82.852 -48.921 84.819 -51.347 84.819 c -53.773
 84.818 -55.74 82.852 -55.74 80.426 c -55.739 78 -53.773 76.033 -51.347 
76.033 c -48.921 76.034 -46.95 78.001 -46.951 80.426 c h
-46.951 80.426 m S Q
0.501961 0.501961 0.780392 rg
41.184 85.629 m 40.371 84.93 39.559 84.227 38.746 83.527 c f
0 0 0.560784 rg
0.439946 w
q -1 -0.11605 -0.11605 1 0 0 cm
-50.441 79.775 m -49.56 79.178 -48.677 78.578 -47.796 77.981 c S Q
0.43955 w
[ 0.43955 0.43955] 0 d
q -1 -0.11605 -0.11605 1 0 0 cm
-98.432 22.839 m -102.935 29.394 -93.398 41.192 -95.14 54.486 c -96.882
 67.78 -93.202 69.196 -80.385 71.042 c -67.569 72.893 -70.811 92.048 -55.059
 82.704 c S Q
0.929412 0.929412 0.933333 rg
12.785 32.977 m 13.219 31.637 13.688 30.387 14.113 29.316 c 14.363 28.68
 14.613 28.137 14.824 27.711 c 14.934 27.492 15.047 27.273 15.137 27.125
 c 15.246 26.945 15.324 26.801 15.402 26.746 c 18.672 27.801 l 18.797 27.844
 18.918 27.906 19.031 27.969 c 19.254 28.094 19.453 28.254 19.605 28.449
 c 19.688 28.551 19.734 28.66 19.793 28.777 c 19.844 28.883 19.902 28.98
 19.934 29.094 c 19.938 29.098 19.926 29.109 19.926 29.113 c 19.992 29.348
 20.012 29.594 19.984 29.844 c 19.984 29.852 19.98 29.855 19.977 29.863 
c 19.961 29.984 19.945 30.113 19.906 30.234 c 19.906 30.242 19.902 30.25
 19.898 30.258 c 19.742 30.742 l 21.852 31.594 22.969 33.949 22.258 36.16
 c 22.23 36.234 22.191 36.301 22.164 36.375 c 22.145 36.449 22.141 36.527
 22.113 36.602 c 21.398 38.812 19.117 40.066 16.906 39.523 c 16.75 40.012
 l 16.582 40.523 16.234 40.918 15.797 41.148 c 15.684 41.211 15.578 41.27
 15.453 41.309 c 15.215 41.375 14.961 41.387 14.703 41.359 c 14.578 41.344
 14.441 41.324 14.316 41.281 c 11.051 40.227 l 11.016 40.137 11.039 39.977
 11.055 39.766 c 11.066 39.59 11.102 39.348 11.145 39.109 c 11.223 38.637
 11.336 38.051 11.504 37.387 c 11.809 36.176 12.203 34.762 12.676 33.309
 c 12.711 33.199 12.746 33.086 12.781 32.977 c h
12.785 32.977 m f
0 g
0.375 w
[] 0.0 d
4 M q -1 0 0 1 0 0 cm
-12.785 32.977 m -13.219 31.637 -13.688 30.387 -14.113 29.316 c -14.363
 28.68 -14.613 28.137 -14.824 27.711 c -14.934 27.492 -15.047 27.273 -15.137
 27.125 c -15.246 26.945 -15.324 26.801 -15.402 26.746 c -18.672 27.801 
l -18.797 27.844 -18.918 27.906 -19.031 27.969 c -19.254 28.094 -19.453 
28.254 -19.605 28.449 c -19.688 28.551 -19.734 28.66 -19.793 28.777 c -19.844
 28.883 -19.902 28.98 -19.934 29.094 c -19.938 29.098 -19.926 29.109 -19.926
 29.113 c -19.992 29.348 -20.012 29.594 -19.984 29.844 c -19.984 29.852 
-19.98 29.855 -19.977 29.863 c -19.961 29.984 -19.945 30.113 -19.906 30.234
 c -19.906 30.242 -19.902 30.25 -19.898 30.258 c -19.742 30.742 l -21.852
 31.594 -22.969 33.949 -22.258 36.16 c -22.23 36.234 -22.191 36.301 -22.164
 36.375 c -22.145 36.449 -22.141 36.527 -22.113 36.602 c -21.398 38.812 
-19.117 40.066 -16.906 39.523 c -16.75 40.012 l -16.582 40.523 -16.234 40.918
 -15.797 41.148 c -15.684 41.211 -15.578 41.27 -15.453 41.309 c -15.215 
41.375 -14.961 41.387 -14.703 41.359 c -14.578 41.344 -14.441 41.324 -14.316
 41.281 c -11.051 40.227 l -11.016 40.137 -11.039 39.977 -11.055 39.766 
c -11.066 39.59 -11.102 39.348 -11.145 39.109 c -11.223 38.637 -11.336 38.051
 -11.504 37.387 c -11.809 36.176 -12.203 34.762 -12.676 33.309 c -12.711
 33.199 -12.746 33.086 -12.781 32.977 c h
-12.785 32.977 m S Q
0.952941 0.941176 0.0509804 rg
11.633 34.598 m 11.641 34.574 11.688 34.547 11.77 34.52 c 11.844 34.492
 13.383 33.93 15.191 33.273 c 19.586 31.672 19.328 31.758 19.348 31.828 
c 19.355 31.863 19.148 32.559 18.883 33.375 c 18.48 34.625 18.414 34.867
 18.457 34.879 c 18.488 34.891 19 34.914 19.594 34.934 c 22.008 35.02 23.238
 35.07 23.301 35.09 c 23.34 35.102 23.355 35.125 23.336 35.141 c 23.316 
35.156 22.672 35.402 21.898 35.684 c 16.93 37.496 15.652 37.953 15.629 37.926
 c 15.617 37.906 15.82 37.223 16.086 36.398 c 16.477 35.195 16.559 34.898
 16.523 34.867 c 16.484 34.836 15.832 34.805 12.84 34.699 c 12.234 34.68
 11.715 34.652 11.68 34.641 c 11.645 34.629 11.625 34.613 11.633 34.598 
c h
11.633 34.598 m f
0 g
0.15 w
q -1 0 0 1 0 0 cm
-11.633 34.598 m -11.641 34.574 -11.688 34.547 -11.77 34.52 c -11.844 34.492
 -13.383 33.93 -15.191 33.273 c -19.586 31.672 -19.328 31.758 -19.348 31.828
 c -19.355 31.863 -19.148 32.559 -18.883 33.375 c -18.48 34.625 -18.414 
34.867 -18.457 34.879 c -18.488 34.891 -19 34.914 -19.594 34.934 c -22.008
 35.02 -23.238 35.07 -23.301 35.09 c -23.34 35.102 -23.355 35.125 -23.336
 35.141 c -23.316 35.156 -22.672 35.402 -21.898 35.684 c -16.93 37.496 -15.652
 37.953 -15.629 37.926 c -15.617 37.906 -15.82 37.223 -16.086 36.398 c -16.477
 35.195 -16.559 34.898 -16.523 34.867 c -16.484 34.836 -15.832 34.805 -12.84
 34.699 c -12.234 34.68 -11.715 34.652 -11.68 34.641 c -11.645 34.629 -11.625
 34.613 -11.633 34.598 c h
-11.633 34.598 m S Q
Q Q
showpage
%%Trailer
end
%%EOF
