#FIG 3.2
# Generated by graphviz version 2.36.0 (20140111.2315)
# Title: %3
# Pages: 1
Portrait
Center
Inches
Letter
100.00
Single
-2
1200 2
0 32 #d3d3d3
0 33 #fffffe
2 3 0 1 33 7 2 0 20 0.0 0 0 0 0 0 5
 0 2280 0 0 14840 0 14840 2280 0 2280
# S
1 1 0 3 0 7 1 0 -1 0.000 0 0.0000 740 1300 650 -500 740 1300 1390 800
4 1 0 1 0 0 14.0 0.0000 6 0.0 0.0 740 1430 \\dl{$\\{u_1, u_2, u_3\\}$}\001
# v
1 1 0 3 0 7 1 0 -1 0.000 0 0.0000 5420 580 650 -500 5420 580 6070 80
4 1 0 1 0 0 14.0 0.0000 6 0.0 0.0 5420 710 \\dl{$\\{u_1\\}$}\001
# S->v
3 4 0 3 0 0 0 0 -1 0.0 0 0 0 7
  1386 1203 1845 1132 2375 1049 2946 961 3524 871 4078 785 4574 708
 0 1 1 1 1 1 0
2 3 0 3 0 0 0 0 20 0.0 0 0 0 0 0 4
 4568 638 4777 677 4590 777 4568 638
4 1 0 0 0 0 14.0 0.0000 6 0.0 0.0 2860 800 \\dl{$\\{y_a, y_c\\}$}\001
# R
1 1 0 3 0 7 1 0 -1 0.000 0 0.0000 10260 1700 650 -500 10260 1700 10910 1200
4 1 0 1 0 0 14.0 0.0000 6 0.0 0.0 10260 1830 \\dl{$\\{u_2\\}$}\001
# S->R
3 4 0 3 0 0 0 0 -1 0.0 0 0 0 13
  1390 1355 1782 1388 2237 1424 2736 1462 3262 1498 3796 1532 4320 1560 5247 1599 6190 1631 7113 1655 7981 1673 8758 1685 9406 1693
 0 1 1 1 1 1 1 1 1 1 1 1 0
2 3 0 3 0 0 0 0 20 0.0 0 0 0 0 0 4
 9410 1623 9609 1695 9408 1763 9410 1623
4 1 0 0 0 0 14.0 0.0000 6 0.0 0.0 5420 1540 \\dl{$\\{y_b, y_c\\}$}\001
# v->R
3 4 0 3 0 0 0 0 -1 0.0 0 0 0 13
  6016 792 6151 838 6292 885 6438 932 6586 977 6734 1020 6880 1060 7317 1168 7764 1267 8210 1359 8642 1441 9047 1513 9413 1574
 0 1 1 1 1 1 1 1 1 1 1 1 0
2 3 0 3 0 0 0 0 20 0.0 0 0 0 0 0 4
 9429 1506 9615 1607 9407 1644 9429 1506
4 1 0 0 0 0 14.0 0.0000 6 0.0 0.0 7980 1040 \\dl{$\\{y_a, y_b\\}$}\001
# G
1 1 0 3 0 7 1 0 -1 0.000 0 0.0000 14100 940 650 -500 14100 940 14750 440
4 1 0 1 0 0 14.0 0.0000 6 0.0 0.0 14100 1070 \\dl{$\\{u_0, u_2\\}$}\001
# v->G
3 4 0 3 0 0 0 0 -1 0.0 0 0 0 13
  6076 568 6870 561 7899 562 9099 577 10405 614 11753 680 13080 780 13110 783 13141 786 13172 789 13202 793 13233 797 13265 800
 0 1 1 1 1 1 1 1 1 1 1 1 0
2 3 0 3 0 0 0 0 20 0.0 0 0 0 0 0 4
 13274 731 13463 828 13255 870 13274 731
4 1 0 0 0 0 14.0 0.0000 6 0.0 0.0 10260 580 \\dl{$\\{y_c\\}$}\001
# R->G
3 4 0 3 0 0 0 0 -1 0.0 0 0 0 7
  10891 1578 11240 1508 11633 1429 12051 1346 12475 1261 12885 1179 13263 1103
 0 1 1 1 1 1 0
2 3 0 3 0 0 0 0 20 0.0 0 0 0 0 0 4
 13255 1034 13465 1063 13282 1171 13255 1034
4 1 0 0 0 0 14.0 0.0000 6 0.0 0.0 12260 1140 \\dl{$\\{y_c\\}$}\001
# end of FIG file
