#FIG 3.2  Produced by xfig version 3.2.5c
Portrait
Center
Inches
Letter  
100.00
Single
-2
# Generated by graphviz version 2.36.0 (20140111.2315)
# Title: Tree
# Pages: 1
1200 2
0 32 #d3d3d3
0 33 #399de5
0 34 #e58139
0 35 #fffffe
6 -525 16875 1575 17625
# 1
3 5 0 1 0 34 1 0 -1 0.000 0 0 0 49
	 1285 16875 1172 16875 888 16875 520 16875 152 16875 -132 16875
	 -245 16875 -304 16884 -361 16911 -410 16950 -449 16999 -476 17056
	 -485 17115 -485 17133 -485 17177 -485 17235 -485 17293 -485 17337
	 -485 17355 -476 17414 -449 17471 -410 17520 -361 17559 -304 17586
	 -245 17595 -132 17595 152 17595 520 17595 888 17595 1172 17595
	 1285 17595 1344 17586 1401 17559 1450 17520 1489 17471 1516 17414
	 1525 17355 1525 17337 1525 17293 1525 17235 1525 17177 1525 17133
	 1525 17115 1516 17056 1489 16999 1450 16950 1401 16911 1344 16884
	 1285 16875
	 0.000 1.000 1.000 1.000 1.000 1.000 1.000 1.000
	 1.000 1.000 1.000 1.000 1.000 1.000 1.000 1.000
	 1.000 1.000 1.000 1.000 1.000 1.000 1.000 1.000
	 1.000 1.000 1.000 1.000 1.000 1.000 1.000 1.000
	 1.000 1.000 1.000 1.000 1.000 1.000 1.000 1.000
	 1.000 1.000 1.000 1.000 1.000 1.000 1.000 1.000
	 0.000
4 1 0 1 0 2 16 0.0000 6 135 990 525 17325 Destructive\001
-6
6 -300 18300 1800 19050
# 1
3 5 0 1 0 34 1 0 -1 0.000 0 0 0 49
	 1510 18300 1397 18300 1113 18300 745 18300 377 18300 93 18300
	 -20 18300 -79 18309 -136 18336 -185 18375 -224 18424 -251 18481
	 -260 18540 -260 18558 -260 18602 -260 18660 -260 18718 -260 18762
	 -260 18780 -251 18839 -224 18896 -185 18945 -136 18984 -79 19011
	 -20 19020 93 19020 377 19020 745 19020 1113 19020 1397 19020
	 1510 19020 1569 19011 1626 18984 1675 18945 1714 18896 1741 18839
	 1750 18780 1750 18762 1750 18718 1750 18660 1750 18602 1750 18558
	 1750 18540 1741 18481 1714 18424 1675 18375 1626 18336 1569 18309
	 1510 18300
	 0.000 1.000 1.000 1.000 1.000 1.000 1.000 1.000
	 1.000 1.000 1.000 1.000 1.000 1.000 1.000 1.000
	 1.000 1.000 1.000 1.000 1.000 1.000 1.000 1.000
	 1.000 1.000 1.000 1.000 1.000 1.000 1.000 1.000
	 1.000 1.000 1.000 1.000 1.000 1.000 1.000 1.000
	 1.000 1.000 1.000 1.000 1.000 1.000 1.000 1.000
	 0.000
4 1 0 1 0 2 16 0.0000 6 135 990 750 18750 Destructive\001
-6
6 -75 19725 2025 20475
# 1
3 5 0 1 0 34 1 0 -1 0.000 0 0 0 49
	 1735 19725 1622 19725 1338 19725 970 19725 602 19725 318 19725
	 205 19725 146 19734 89 19761 40 19800 1 19849 -26 19906
	 -35 19965 -35 19983 -35 20027 -35 20085 -35 20143 -35 20187
	 -35 20205 -26 20264 1 20321 40 20370 89 20409 146 20436
	 205 20445 318 20445 602 20445 970 20445 1338 20445 1622 20445
	 1735 20445 1794 20436 1851 20409 1900 20370 1939 20321 1966 20264
	 1975 20205 1975 20187 1975 20143 1975 20085 1975 20027 1975 19983
	 1975 19965 1966 19906 1939 19849 1900 19800 1851 19761 1794 19734
	 1735 19725
	 0.000 1.000 1.000 1.000 1.000 1.000 1.000 1.000
	 1.000 1.000 1.000 1.000 1.000 1.000 1.000 1.000
	 1.000 1.000 1.000 1.000 1.000 1.000 1.000 1.000
	 1.000 1.000 1.000 1.000 1.000 1.000 1.000 1.000
	 1.000 1.000 1.000 1.000 1.000 1.000 1.000 1.000
	 1.000 1.000 1.000 1.000 1.000 1.000 1.000 1.000
	 0.000
4 1 0 1 0 2 16 0.0000 6 135 990 975 20175 Destructive\001
-6
6 2550 22575 9150 23250
# 1
3 5 0 1 0 34 1 0 -1 0.000 0 0 0 49
	 8237 22575 7883 22575 6990 22575 5835 22575 4675 22575 3784 22575
	 3430 22575 3245 22583 3067 22607 2911 22643 2787 22687 2706 22738
	 2677 22791 2677 22807 2677 22847 2677 22899 2677 22951 2677 22991
	 2677 23007 2706 23060 2787 23111 2911 23156 3067 23191 3245 23215
	 3430 23223 3784 23223 4675 23223 5835 23223 6990 23223 7883 23223
	 8237 23223 8426 23215 8606 23191 8758 23156 8882 23111 8965 23060
	 8990 23007 8990 22991 8990 22951 8990 22899 8990 22847 8990 22807
	 8990 22791 8965 22738 8882 22687 8758 22643 8606 22607 8426 22583
	 8237 22575
	 0.000 1.000 1.000 1.000 1.000 1.000 1.000 1.000
	 1.000 1.000 1.000 1.000 1.000 1.000 1.000 1.000
	 1.000 1.000 1.000 1.000 1.000 1.000 1.000 1.000
	 1.000 1.000 1.000 1.000 1.000 1.000 1.000 1.000
	 1.000 1.000 1.000 1.000 1.000 1.000 1.000 1.000
	 1.000 1.000 1.000 1.000 1.000 1.000 1.000 1.000
	 0.000
-6
2 1 0 1 0 7 50 -1 -1 0.000 0 0 -1 1 0 2
	1 1 3.00 60.00 120.00
	 1585 16225 375 16875
2 1 0 1 0 7 50 -1 -1 0.000 0 0 -1 1 0 2
	1 1 3.00 60.00 120.00
	 1790 16226 3000 16875
2 1 0 1 0 7 50 -1 -1 0.000 0 0 -1 1 0 2
	1 1 3.00 60.00 120.00
	 2634 19074 1424 19724
2 1 0 1 0 7 50 -1 -1 0.000 0 0 -1 1 0 2
	1 1 3.00 60.00 120.00
	 2691 17649 3901 18298
2 1 0 1 0 7 50 -1 -1 0.000 0 0 -1 1 0 2
	1 1 3.00 60.00 120.00
	 2347 17672 1137 18322
2 1 0 1 0 7 50 -1 -1 0.000 0 0 -1 1 0 2
	1 1 3.00 60.00 120.00
	 3685 20500 2475 21150
2 1 0 1 0 7 50 -1 -1 0.000 0 0 -1 1 0 2
	1 1 3.00 60.00 120.00
	 5860 23275 4650 23925
2 1 0 1 0 7 50 -1 -1 0.000 0 0 -1 1 0 2
	1 1 3.00 60.00 120.00
	 6065 23276 7275 23925
# 1
3 5 0 1 0 33 1 0 -1 0.000 0 0 0 49
	 2763 15525 2610 15525 2224 15525 1726 15525 1226 15525 840 15525
	 687 15525 607 15534 529 15561 463 15600 410 15649 373 15706
	 360 15765 360 15783 360 15827 360 15885 360 15943 360 15987
	 360 16005 373 16064 410 16121 463 16170 529 16209 607 16236
	 687 16245 840 16245 1226 16245 1726 16245 2224 16245 2610 16245
	 2763 16245 2843 16236 2921 16209 2987 16170 3040 16121 3077 16064
	 3090 16005 3090 15987 3090 15943 3090 15885 3090 15827 3090 15783
	 3090 15765 3077 15706 3040 15649 2987 15600 2921 15561 2843 15534
	 2763 15525
	 0.000 1.000 1.000 1.000 1.000 1.000 1.000 1.000
	 1.000 1.000 1.000 1.000 1.000 1.000 1.000 1.000
	 1.000 1.000 1.000 1.000 1.000 1.000 1.000 1.000
	 1.000 1.000 1.000 1.000 1.000 1.000 1.000 1.000
	 1.000 1.000 1.000 1.000 1.000 1.000 1.000 1.000
	 1.000 1.000 1.000 1.000 1.000 1.000 1.000 1.000
	 0.000
# 1
3 5 0 1 0 34 1 0 -1 0.000 0 0 0 49
	 7789 23925 7668 23925 7364 23925 6970 23925 6575 23925 6271 23925
	 6150 23925 6087 23934 6026 23961 5973 24000 5931 24049 5903 24106
	 5893 24165 5893 24183 5893 24227 5893 24285 5893 24343 5893 24387
	 5893 24405 5903 24464 5931 24521 5973 24570 6026 24609 6087 24636
	 6150 24645 6271 24645 6575 24645 6970 24645 7364 24645 7668 24645
	 7789 24645 7853 24636 7914 24609 7966 24570 8008 24521 8037 24464
	 8046 24405 8046 24387 8046 24343 8046 24285 8046 24227 8046 24183
	 8046 24165 8037 24106 8008 24049 7966 24000 7914 23961 7853 23934
	 7789 23925
	 0.000 1.000 1.000 1.000 1.000 1.000 1.000 1.000
	 1.000 1.000 1.000 1.000 1.000 1.000 1.000 1.000
	 1.000 1.000 1.000 1.000 1.000 1.000 1.000 1.000
	 1.000 1.000 1.000 1.000 1.000 1.000 1.000 1.000
	 1.000 1.000 1.000 1.000 1.000 1.000 1.000 1.000
	 1.000 1.000 1.000 1.000 1.000 1.000 1.000 1.000
	 0.000
# 1
3 5 0 1 0 34 1 0 -1 0.000 0 0 0 49
	 5138 23925 5025 23925 4741 23925 4373 23925 4005 23925 3721 23925
	 3608 23925 3549 23934 3492 23961 3443 24000 3404 24049 3377 24106
	 3368 24165 3368 24183 3368 24227 3368 24285 3368 24343 3368 24387
	 3368 24405 3377 24464 3404 24521 3443 24570 3492 24609 3549 24636
	 3608 24645 3721 24645 4005 24645 4373 24645 4741 24645 5025 24645
	 5138 24645 5197 24636 5254 24609 5303 24570 5342 24521 5369 24464
	 5378 24405 5378 24387 5378 24343 5378 24285 5378 24227 5378 24183
	 5378 24165 5369 24106 5342 24049 5303 24000 5254 23961 5197 23934
	 5138 23925
	 0.000 1.000 1.000 1.000 1.000 1.000 1.000 1.000
	 1.000 1.000 1.000 1.000 1.000 1.000 1.000 1.000
	 1.000 1.000 1.000 1.000 1.000 1.000 1.000 1.000
	 1.000 1.000 1.000 1.000 1.000 1.000 1.000 1.000
	 1.000 1.000 1.000 1.000 1.000 1.000 1.000 1.000
	 1.000 1.000 1.000 1.000 1.000 1.000 1.000 1.000
	 0.000
4 0 0 1 0 2 20 0.0000 6 165 1800 2475 18750 $h ( l ) = h ( r )$ \001
4 0 0 1 0 2 20 0.0000 6 165 1800 1875 17325 $h ( l ) = h ( u )$ \001
4 1 0 1 0 2 16 0.0000 6 135 990 4200 24375 Destructive\001
4 0 0 1 0 2 20 0.0000 6 165 1800 900 15975 $h ( d ) = h ( u )$ \001
4 1 0 1 0 2 16 0.0000 6 135 1350 6975 24375 Non-destructive\001
4 0 0 1 0 2 20 0.0000 6 165 3960 2700 22979 $h(13.34,17.03,26.08)=h(11.40,17.26,25.06)$ \001
