%!PS-Adobe-3.0 EPSF-3.0
%%BoundingBox: 149 621 376 667
%%HiResBoundingBox: 149.000000 621.000000 375.500000 666.701172
%%Creator: dvips(k) 5.997 Copyright 2017 Radical Eye Software
%%Title: fig2ps-sixbyone_pgraph.dvi
%%CreationDate: Thu Jul 23 03:46:01 2020
%%EndComments
% EPSF created by ps2eps 1.68
%%BeginProlog
save
countdictstack
mark
newpath
/showpage {} def
/setpagedevice {pop} def
%%EndProlog
%%Page 1 1
%DVIPSWebPage: (www.radicaleye.com)
%DVIPSCommandLine: dvips -Ppdf -G0 -q -E fig2ps-sixbyone_pgraph.dvi -o
%+ fig2ps-sixbyone_pgraph.ps
%DVIPSParameters: dpi=8000
%DVIPSSource:  TeX output 2020.07.22:2346
%%BeginProcSet: tex.pro 0 0
%!
/TeXDict 300 dict def TeXDict begin/N{def}def/B{bind def}N/S{exch}N/X{S
N}B/A{dup}B/TR{translate}N/isls false N/vsize 11 72 mul N/hsize 8.5 72
mul N/landplus90{false}def/@rigin{isls{[0 landplus90{1 -1}{-1 1}ifelse 0
0 0]concat}if 72 Resolution div 72 VResolution div neg scale isls{
landplus90{VResolution 72 div vsize mul 0 exch}{Resolution -72 div hsize
mul 0}ifelse TR}if Resolution VResolution vsize -72 div 1 add mul TR[
matrix currentmatrix{A A round sub abs 0.00001 lt{round}if}forall round
exch round exch]setmatrix}N/@landscape{/isls true N}B/@manualfeed{
statusdict/manualfeed true put}B/@copies{/#copies X}B/FMat[1 0 0 -1 0 0]
N/FBB[0 0 0 0]N/nn 0 N/IEn 0 N/ctr 0 N/df-tail{/nn 8 dict N nn begin
/FontType 3 N/FontMatrix fntrx N/FontBBox FBB N string/base X array
/BitMaps X/BuildChar{CharBuilder}N/Encoding IEn N end A{/foo setfont}2
array copy cvx N load 0 nn put/ctr 0 N[}B/sf 0 N/df{/sf 1 N/fntrx FMat N
df-tail}B/dfs{div/sf X/fntrx[sf 0 0 sf neg 0 0]N df-tail}B/E{pop nn A
definefont setfont}B/Cw{Cd A length 5 sub get}B/Ch{Cd A length 4 sub get
}B/Cx{128 Cd A length 3 sub get sub}B/Cy{Cd A length 2 sub get 127 sub}
B/Cdx{Cd A length 1 sub get}B/Ci{Cd A type/stringtype ne{ctr get/ctr ctr
1 add N}if}B/CharBuilder{save 3 1 roll S A/base get 2 index get S
/BitMaps get S get/Cd X pop/ctr 0 N Cdx 0 Cx Cy Ch sub Cx Cw add Cy
setcachedevice Cw Ch true[1 0 0 -1 -.1 Cx sub Cy .1 sub]{Ci}imagemask
restore}B/D{/cc X A type/stringtype ne{]}if nn/base get cc ctr put nn
/BitMaps get S ctr S sf 1 ne{A A length 1 sub A 2 index S get sf div put
}if put/ctr ctr 1 add N}B/I{cc 1 add D}B/bop{userdict/bop-hook known{
bop-hook}if/SI save N @rigin 0 0 moveto/V matrix currentmatrix A 1 get A
mul exch 0 get A mul add .99 lt{/QV}{/RV}ifelse load def pop pop}N/eop{
SI restore userdict/eop-hook known{eop-hook}if showpage}N/@start{
userdict/start-hook known{start-hook}if pop/VResolution X/Resolution X
1000 div/DVImag X/IEn 256 array N 2 string 0 1 255{IEn S A 360 add 36 4
index cvrs cvn put}for pop 65781.76 div/vsize X 65781.76 div/hsize X}N
/dir 0 def/dyy{/dir 0 def}B/dyt{/dir 1 def}B/dty{/dir 2 def}B/dtt{/dir 3
def}B/p{dir 2 eq{-90 rotate show 90 rotate}{dir 3 eq{-90 rotate show 90
rotate}{show}ifelse}ifelse}N/RMat[1 0 0 -1 0 0]N/BDot 260 string N/Rx 0
N/Ry 0 N/V{}B/RV/v{/Ry X/Rx X V}B statusdict begin/product where{pop
false[(Display)(NeXT)(LaserWriter 16/600)]{A length product length le{A
length product exch 0 exch getinterval eq{pop true exit}if}{pop}ifelse}
forall}{false}ifelse end{{gsave TR -.1 .1 TR 1 1 scale Rx Ry false RMat{
BDot}imagemask grestore}}{{gsave TR -.1 .1 TR Rx Ry scale 1 1 false RMat
{BDot}imagemask grestore}}ifelse B/QV{gsave newpath transform round exch
round exch itransform moveto Rx 0 rlineto 0 Ry neg rlineto Rx neg 0
rlineto fill grestore}B/a{moveto}B/delta 0 N/tail{A/delta X 0 rmoveto}B
/M{S p delta add tail}B/b{S p tail}B/c{-4 M}B/d{-3 M}B/e{-2 M}B/f{-1 M}
B/g{0 M}B/h{1 M}B/i{2 M}B/j{3 M}B/k{4 M}B/w{0 rmoveto}B/l{p -4 w}B/m{p
-3 w}B/n{p -2 w}B/o{p -1 w}B/q{p 1 w}B/r{p 2 w}B/s{p 3 w}B/t{p 4 w}B/x{
0 S rmoveto}B/y{3 2 roll p a}B/bos{/SS save N}B/eos{SS restore}B end
%%EndProcSet
%%BeginProcSet: alt-rule.pro 0 0
%!
% Patch by TVZ
% Makes dvips files draw rules with stroke rather than fill.
% Makes narrow rules more predictable at low resolutions
% after distilling to PDF.
% May have unknown consequences for very thick rules.
% Tested only with dvips 5.85(k).
TeXDict begin
/QV {
  gsave newpath /ruleY X /ruleX X
  Rx Ry gt
  { ruleX ruleY Ry 2 div sub moveto Rx 0 rlineto Ry }
  { ruleX Rx 2 div add ruleY moveto 0 Ry neg rlineto Rx }
  ifelse
  setlinewidth 0 setlinecap stroke grestore
} bind def
end
%%EndProcSet
%%BeginProcSet: special.pro 0 0
%!
TeXDict begin/SDict 200 dict N SDict begin/@SpecialDefaults{/hs 612 N
/vs 792 N/ho 0 N/vo 0 N/hsc 1 N/vsc 1 N/ang 0 N/CLIP 0 N/rwiSeen false N
/rhiSeen false N/letter{}N/note{}N/a4{}N/legal{}N}B/@scaleunit 100 N
/@hscale{@scaleunit div/hsc X}B/@vscale{@scaleunit div/vsc X}B/@hsize{
/hs X/CLIP 1 N}B/@vsize{/vs X/CLIP 1 N}B/@clip{/CLIP 2 N}B/@hoffset{/ho
X}B/@voffset{/vo X}B/@angle{/ang X}B/@rwi{10 div/rwi X/rwiSeen true N}B
/@rhi{10 div/rhi X/rhiSeen true N}B/@llx{/llx X}B/@lly{/lly X}B/@urx{
/urx X}B/@ury{/ury X}B/magscale true def end/@MacSetUp{userdict/md known
{userdict/md get type/dicttype eq{userdict begin md length 10 add md
maxlength ge{/md md dup length 20 add dict copy def}if end md begin
/letter{}N/note{}N/legal{}N/od{txpose 1 0 mtx defaultmatrix dtransform S
atan/pa X newpath clippath mark{transform{itransform moveto}}{transform{
itransform lineto}}{6 -2 roll transform 6 -2 roll transform 6 -2 roll
transform{itransform 6 2 roll itransform 6 2 roll itransform 6 2 roll
curveto}}{{closepath}}pathforall newpath counttomark array astore/gc xdf
pop ct 39 0 put 10 fz 0 fs 2 F/|______Courier fnt invertflag{PaintBlack}
if}N/txpose{pxs pys scale ppr aload pop por{noflips{pop S neg S TR pop 1
-1 scale}if xflip yflip and{pop S neg S TR 180 rotate 1 -1 scale ppr 3
get ppr 1 get neg sub neg ppr 2 get ppr 0 get neg sub neg TR}if xflip
yflip not and{pop S neg S TR pop 180 rotate ppr 3 get ppr 1 get neg sub
neg 0 TR}if yflip xflip not and{ppr 1 get neg ppr 0 get neg TR}if}{
noflips{TR pop pop 270 rotate 1 -1 scale}if xflip yflip and{TR pop pop
90 rotate 1 -1 scale ppr 3 get ppr 1 get neg sub neg ppr 2 get ppr 0 get
neg sub neg TR}if xflip yflip not and{TR pop pop 90 rotate ppr 3 get ppr
1 get neg sub neg 0 TR}if yflip xflip not and{TR pop pop 270 rotate ppr
2 get ppr 0 get neg sub neg 0 S TR}if}ifelse scaleby96{ppr aload pop 4
-1 roll add 2 div 3 1 roll add 2 div 2 copy TR .96 dup scale neg S neg S
TR}if}N/cp{pop pop showpage pm restore}N end}if}if}N/normalscale{
Resolution 72 div VResolution 72 div neg scale magscale{DVImag dup scale
}if 0 setgray}N/@beginspecial{SDict begin/SpecialSave save N gsave
normalscale currentpoint TR @SpecialDefaults count/ocount X/dcount
countdictstack N}N/@setspecial{CLIP 1 eq{newpath 0 0 moveto hs 0 rlineto
0 vs rlineto hs neg 0 rlineto closepath clip}if ho vo TR hsc vsc scale
ang rotate rwiSeen{rwi urx llx sub div rhiSeen{rhi ury lly sub div}{dup}
ifelse scale llx neg lly neg TR}{rhiSeen{rhi ury lly sub div dup scale
llx neg lly neg TR}if}ifelse CLIP 2 eq{newpath llx lly moveto urx lly
lineto urx ury lineto llx ury lineto closepath clip}if/showpage{}N
/erasepage{}N/setpagedevice{pop}N/copypage{}N newpath}N/@endspecial{
count ocount sub{pop}repeat countdictstack dcount sub{end}repeat
grestore SpecialSave restore end}N/@defspecial{SDict begin}N
/@fedspecial{end}B/li{lineto}B/rl{rlineto}B/rc{rcurveto}B/np{/SaveX
currentpoint/SaveY X N 1 setlinecap newpath}N/st{stroke SaveX SaveY
moveto}N/fil{fill SaveX SaveY moveto}N/ellipse{/endangle X/startangle X
/yrad X/xrad X/savematrix matrix currentmatrix N TR xrad yrad scale 0 0
1 startangle endangle arc savematrix setmatrix}N end
%%EndProcSet
%%BeginProcSet: color.pro 0 0
%!
TeXDict begin/setcmykcolor where{pop}{/setcmykcolor{dup 10 eq{pop
setrgbcolor}{1 sub 4 1 roll 3{3 index add neg dup 0 lt{pop 0}if 3 1 roll
}repeat setrgbcolor pop}ifelse}B}ifelse/TeXcolorcmyk{setcmykcolor}def
/TeXcolorrgb{setrgbcolor}def/TeXcolorgrey{setgray}def/TeXcolorgray{
setgray}def/TeXcolorhsb{sethsbcolor}def/currentcmykcolor where{pop}{
/currentcmykcolor{currentrgbcolor 10}B}ifelse/DC{exch dup userdict exch
known{pop pop}{X}ifelse}B/GreenYellow{0.15 0 0.69 0 setcmykcolor}DC
/Yellow{0 0 1 0 setcmykcolor}DC/Goldenrod{0 0.10 0.84 0 setcmykcolor}DC
/Dandelion{0 0.29 0.84 0 setcmykcolor}DC/Apricot{0 0.32 0.52 0
setcmykcolor}DC/Peach{0 0.50 0.70 0 setcmykcolor}DC/Melon{0 0.46 0.50 0
setcmykcolor}DC/YellowOrange{0 0.42 1 0 setcmykcolor}DC/Orange{0 0.61
0.87 0 setcmykcolor}DC/BurntOrange{0 0.51 1 0 setcmykcolor}DC
/Bittersweet{0 0.75 1 0.24 setcmykcolor}DC/RedOrange{0 0.77 0.87 0
setcmykcolor}DC/Mahogany{0 0.85 0.87 0.35 setcmykcolor}DC/Maroon{0 0.87
0.68 0.32 setcmykcolor}DC/BrickRed{0 0.89 0.94 0.28 setcmykcolor}DC/Red{
0 1 1 0 setcmykcolor}DC/OrangeRed{0 1 0.50 0 setcmykcolor}DC/RubineRed{
0 1 0.13 0 setcmykcolor}DC/WildStrawberry{0 0.96 0.39 0 setcmykcolor}DC
/Salmon{0 0.53 0.38 0 setcmykcolor}DC/CarnationPink{0 0.63 0 0
setcmykcolor}DC/Magenta{0 1 0 0 setcmykcolor}DC/VioletRed{0 0.81 0 0
setcmykcolor}DC/Rhodamine{0 0.82 0 0 setcmykcolor}DC/Mulberry{0.34 0.90
0 0.02 setcmykcolor}DC/RedViolet{0.07 0.90 0 0.34 setcmykcolor}DC
/Fuchsia{0.47 0.91 0 0.08 setcmykcolor}DC/Lavender{0 0.48 0 0
setcmykcolor}DC/Thistle{0.12 0.59 0 0 setcmykcolor}DC/Orchid{0.32 0.64 0
0 setcmykcolor}DC/DarkOrchid{0.40 0.80 0.20 0 setcmykcolor}DC/Purple{
0.45 0.86 0 0 setcmykcolor}DC/Plum{0.50 1 0 0 setcmykcolor}DC/Violet{
0.79 0.88 0 0 setcmykcolor}DC/RoyalPurple{0.75 0.90 0 0 setcmykcolor}DC
/BlueViolet{0.86 0.91 0 0.04 setcmykcolor}DC/Periwinkle{0.57 0.55 0 0
setcmykcolor}DC/CadetBlue{0.62 0.57 0.23 0 setcmykcolor}DC
/CornflowerBlue{0.65 0.13 0 0 setcmykcolor}DC/MidnightBlue{0.98 0.13 0
0.43 setcmykcolor}DC/NavyBlue{0.94 0.54 0 0 setcmykcolor}DC/RoyalBlue{1
0.50 0 0 setcmykcolor}DC/Blue{1 1 0 0 setcmykcolor}DC/Cerulean{0.94 0.11
0 0 setcmykcolor}DC/Cyan{1 0 0 0 setcmykcolor}DC/ProcessBlue{0.96 0 0 0
setcmykcolor}DC/SkyBlue{0.62 0 0.12 0 setcmykcolor}DC/Turquoise{0.85 0
0.20 0 setcmykcolor}DC/TealBlue{0.86 0 0.34 0.02 setcmykcolor}DC
/Aquamarine{0.82 0 0.30 0 setcmykcolor}DC/BlueGreen{0.85 0 0.33 0
setcmykcolor}DC/Emerald{1 0 0.50 0 setcmykcolor}DC/JungleGreen{0.99 0
0.52 0 setcmykcolor}DC/SeaGreen{0.69 0 0.50 0 setcmykcolor}DC/Green{1 0
1 0 setcmykcolor}DC/ForestGreen{0.91 0 0.88 0.12 setcmykcolor}DC
/PineGreen{0.92 0 0.59 0.25 setcmykcolor}DC/LimeGreen{0.50 0 1 0
setcmykcolor}DC/YellowGreen{0.44 0 0.74 0 setcmykcolor}DC/SpringGreen{
0.26 0 0.76 0 setcmykcolor}DC/OliveGreen{0.64 0 0.95 0.40 setcmykcolor}
DC/RawSienna{0 0.72 1 0.45 setcmykcolor}DC/Sepia{0 0.83 1 0.70
setcmykcolor}DC/Brown{0 0.81 1 0.60 setcmykcolor}DC/Tan{0.14 0.42 0.56 0
setcmykcolor}DC/Gray{0 0 0 0.50 setcmykcolor}DC/Black{0 0 0 1
setcmykcolor}DC/White{0 0 0 0 setcmykcolor}DC end
%%EndProcSet
TeXDict begin 40258437 52099154 1000 8000 8000
(fig2ps-sixbyone_pgraph.dvi)
@start end
%%EndProlog
%%BeginSetup
%%Feature: *Resolution 8000dpi
TeXDict begin
 end
%%EndSetup
TeXDict begin 1 0 bop Black Black 8524 11007 a @beginspecial
0 @llx 0 @lly 228 @urx 47 @ury 2280 @rwi @setspecial
%%BeginDocument: fig2ps-sixbyone_pgraph.pstex
%!PS-Adobe-3.0 EPSF-3.0
%%Title: fig2ps-sixbyone_pgraph.fig2
%%Creator: fig2dev Version 3.2.6a
%%CreationDate: 2020-07-22 23:46:01
%%BoundingBox: 0 0 228 47
%Magnification: 1.0000
%%EndComments
%%BeginProlog
/$F2psDict 200 dict def
$F2psDict begin
$F2psDict /mtrx matrix put
/col-1 {0 setgray} bind def
/col0 {0.000 0.000 0.000 srgb} bind def
/col7 {1.000 1.000 1.000 srgb} bind def
/col32 {0.827 0.827 0.827 srgb} bind def
/col33 {0.000 0.000 0.000 srgb} bind def
/col34 {1.000 1.000 0.996 srgb} bind def
end
/cp {closepath} bind def
/ef {eofill} bind def
/gr {grestore} bind def
/gs {gsave} bind def
/sa {save} bind def
/rs {restore} bind def
/l {lineto} bind def
/m {moveto} bind def
/rm {rmoveto} bind def
/n {newpath} bind def
/s {stroke} bind def
/sh {show} bind def
/slc {setlinecap} bind def
/slj {setlinejoin} bind def
/slw {setlinewidth} bind def
/srgb {setrgbcolor} bind def
/rot {rotate} bind def
/sc {scale} bind def
/sd {setdash} bind def
/ff {findfont} bind def
/sf {setfont} bind def
/scf {scalefont} bind def
/sw {stringwidth} bind def
/tr {translate} bind def
/tnt {dup dup currentrgbcolor
  4 -2 roll dup 1 exch sub 3 -1 roll mul add
  4 -2 roll dup 1 exch sub 3 -1 roll mul add
  4 -2 roll dup 1 exch sub 3 -1 roll mul add srgb}
  bind def
/shd {dup dup currentrgbcolor 4 -2 roll mul 4 -2 roll mul
  4 -2 roll mul srgb} bind def
 /DrawEllipse {
	/endangle exch def
	/startangle exch def
	/yrad exch def
	/xrad exch def
	/y exch def
	/x exch def
	/savematrix mtrx currentmatrix def
	x y tr xrad yrad sc 0 0 1 startangle endangle arc
	closepath
	savematrix setmatrix
	} def
/$F2psBegin {$F2psDict begin /$F2psEnteredState save def} def
/$F2psEnd {$F2psEnteredState restore end} def
/pageheader {
save
newpath 0 47 moveto 0 0 lineto 228 0 lineto 228 47 lineto closepath clip newpath
-1034.0 873.6 translate
1 -1 scale
$F2psBegin
10 setmiterlimit
0 slj 0 slc
 0.06000 0.06000 sc
} bind def
/pagefooter {
$F2psEnd
restore
} bind def
%%EndProlog
pageheader
%
% Fig objects follow
%
% 
% here starts figure with depth 50
% Polyline
0 slj
0 slc
7.500 slw
n 17703 13801 m 17550 13801 l 17550 13950 l 17703 13950 l
 cp gs col0 s gr 
% Polyline
n 18903 13801 m 18750 13801 l 18750 13950 l 18903 13950 l
 cp gs col0 s gr 
% Polyline
n 19503 13801 m 19350 13801 l 19350 13950 l 19503 13950 l
 cp gs col0 s gr 
% Polyline
n 20103 13801 m 19950 13801 l 19950 13950 l 20103 13950 l
 cp gs col0 s gr 
% Polyline
n 20703 13801 m 20550 13801 l 20550 13950 l 20703 13950 l
 cp gs col0 s gr 
% Polyline
n 18303 13801 m 18150 13801 l 18150 13950 l 18303 13950 l
 cp gs col0 s gr 
% Polyline
2 slj
gs  clippath
20707 14480 m 20701 14468 l 20817 14382 l 20845 14435 l cp
eoclip
n 20710 13871 m 20712 13872 l 20717 13874 l 20725 13879 l 20737 13885 l 20752 13894 l
 20772 13904 l 20793 13917 l 20817 13931 l 20841 13946 l 20866 13962 l
 20890 13980 l 20913 13998 l 20935 14018 l 20955 14039 l 20972 14062 l
 20987 14086 l 20999 14113 l 21007 14141 l 21010 14171 l 21007 14201 l
 20999 14229 l 20987 14256 l 20972 14280 l 20955 14303 l 20935 14324 l
 20913 14344 l 20890 14362 l 20866 14380 l 20841 14396 l 20817 14411 l
 20793 14425 l 20772 14438 l 20752 14448 l 20737 14457 l
 20710 14471 l gs col0 s gr gr
% arrowhead
0 slj
n 20817 14382 m 20724 14464 l 20845 14435 l 20817 14382 l  cp gs 0.00 setgray ef gr  col0 s
% Polyline
2 slj
gs  clippath
17555 14462 m 17549 14474 l 17411 14429 l 17439 14376 l cp
eoclip
n 17546 13865 m 17544 13866 l 17539 13868 l 17531 13873 l 17519 13879 l 17504 13888 l
 17484 13898 l 17463 13911 l 17439 13925 l 17415 13940 l 17390 13956 l
 17366 13974 l 17343 13992 l 17321 14012 l 17301 14033 l 17284 14056 l
 17269 14080 l 17257 14107 l 17249 14135 l 17246 14165 l 17249 14195 l
 17257 14223 l 17269 14250 l 17284 14274 l 17301 14297 l 17321 14318 l
 17343 14338 l 17366 14356 l 17390 14374 l 17415 14390 l 17439 14405 l
 17463 14419 l 17484 14432 l 17504 14442 l 17519 14451 l
 17546 14465 l gs col0 s gr gr
% arrowhead
0 slj
n 17411 14429 m 17532 14458 l 17439 14376 l 17411 14429 l  cp gs 0.00 setgray ef gr  col0 s
% here ends figure;
% 
% here starts figure with depth 1
% Ellipse
7.500 slw
gs
17622 14475 tr
-225.001 rot
n 0 0 78 78 0 360 DrawEllipse 225.001 rot
gs 0.00 setgray ef gr gs col0 s gr
gr
% Ellipse
gs
18222 14475 tr
-225.001 rot
n 0 0 78 78 0 360 DrawEllipse 225.001 rot
gs 0.00 setgray ef gr gs col0 s gr
gr
% Ellipse
gs
18822 14475 tr
-225.001 rot
n 0 0 78 78 0 360 DrawEllipse 225.001 rot
gs 0.00 setgray ef gr gs col0 s gr
gr
% Ellipse
gs
19422 14475 tr
-225.001 rot
n 0 0 78 78 0 360 DrawEllipse 225.001 rot
gs 0.00 setgray ef gr gs col0 s gr
gr
% Ellipse
gs
20022 14475 tr
-225.001 rot
n 0 0 78 78 0 360 DrawEllipse 225.001 rot
gs 0.00 setgray ef gr gs col0 s gr
gr
% Ellipse
gs
20622 14475 tr
-225.001 rot
n 0 0 78 78 0 360 DrawEllipse 225.001 rot
gs 0.00 setgray ef gr gs col0 s gr
gr
% Polyline
2 slj
0 slc
gs  clippath
17618 13943 m 17632 13943 l 17655 14035 l 17625 14020 l 17595 14035 l cp
eoclip
n 17625 14400 m
 17625 13950 l gs col0 s gr gr
% arrowhead
0 slj
n 17655 14035 m 17625 13960 l 17595 14035 l 17625 14020 l 17655 14035 l 
 cp gs 0.00 setgray ef gr  col0 s
% Polyline
2 slj
gs  clippath
18818 13943 m 18832 13943 l 18855 14035 l 18825 14020 l 18795 14035 l cp
eoclip
n 18825 14400 m
 18825 13950 l gs col0 s gr gr
% arrowhead
0 slj
n 18855 14035 m 18825 13960 l 18795 14035 l 18825 14020 l 18855 14035 l 
 cp gs 0.00 setgray ef gr  col0 s
% Polyline
2 slj
gs  clippath
19418 13943 m 19432 13943 l 19455 14035 l 19425 14020 l 19395 14035 l cp
eoclip
n 19425 14400 m
 19425 13950 l gs col0 s gr gr
% arrowhead
0 slj
n 19455 14035 m 19425 13960 l 19395 14035 l 19425 14020 l 19455 14035 l 
 cp gs 0.00 setgray ef gr  col0 s
% Polyline
2 slj
gs  clippath
20018 13943 m 20032 13943 l 20055 14035 l 20025 14020 l 19995 14035 l cp
eoclip
n 20025 14400 m
 20025 13950 l gs col0 s gr gr
% arrowhead
0 slj
n 20055 14035 m 20025 13960 l 19995 14035 l 20025 14020 l 20055 14035 l 
 cp gs 0.00 setgray ef gr  col0 s
% Polyline
2 slj
gs  clippath
20618 13943 m 20632 13943 l 20655 14035 l 20625 14020 l 20595 14035 l cp
eoclip
n 20625 14400 m
 20625 13950 l gs col0 s gr gr
% arrowhead
0 slj
n 20655 14035 m 20625 13960 l 20595 14035 l 20625 14020 l 20655 14035 l 
 cp gs 0.00 setgray ef gr  col0 s
% Polyline
2 slj
gs  clippath
18218 13943 m 18232 13943 l 18255 14035 l 18225 14020 l 18195 14035 l cp
eoclip
n 18225 14400 m
 18225 13950 l gs col0 s gr gr
% arrowhead
0 slj
n 18255 14035 m 18225 13960 l 18195 14035 l 18225 14020 l 18255 14035 l 
 cp gs 0.00 setgray ef gr  col0 s
% Polyline
2 slj
gs  clippath
18171 14409 m 18161 14419 l 18079 14370 l 18111 14359 l 18122 14327 l cp
eoclip
n 17703 13951 m
 18161 14409 l gs col0 s gr gr
% arrowhead
0 slj
n 18079 14370 m 18154 14402 l 18122 14327 l 18111 14359 l 18079 14370 l 
 cp gs 0.00 setgray ef gr  col0 s
% Polyline
2 slj
gs  clippath
18776 14411 m 18766 14421 l 18684 14372 l 18716 14361 l 18727 14329 l cp
eoclip
n 18308 13953 m
 18766 14411 l gs col0 s gr gr
% arrowhead
0 slj
n 18684 14372 m 18759 14404 l 18727 14329 l 18716 14361 l 18684 14372 l 
 cp gs 0.00 setgray ef gr  col0 s
% Polyline
2 slj
gs  clippath
19375 14409 m 19365 14419 l 19283 14370 l 19315 14359 l 19326 14327 l cp
eoclip
n 18907 13951 m
 19365 14409 l gs col0 s gr gr
% arrowhead
0 slj
n 19283 14370 m 19358 14402 l 19326 14327 l 19315 14359 l 19283 14370 l 
 cp gs 0.00 setgray ef gr  col0 s
% Polyline
2 slj
gs  clippath
19978 14414 m 19968 14424 l 19886 14375 l 19918 14364 l 19929 14332 l cp
eoclip
n 19510 13956 m
 19968 14414 l gs col0 s gr gr
% arrowhead
0 slj
n 19886 14375 m 19961 14407 l 19929 14332 l 19918 14364 l 19886 14375 l 
 cp gs 0.00 setgray ef gr  col0 s
% Polyline
2 slj
gs  clippath
20568 14408 m 20558 14418 l 20476 14369 l 20508 14358 l 20519 14326 l cp
eoclip
n 20100 13950 m
 20558 14408 l gs col0 s gr gr
% arrowhead
0 slj
n 20476 14369 m 20551 14401 l 20519 14326 l 20508 14358 l 20476 14369 l 
 cp gs 0.00 setgray ef gr  col0 s
% Polyline
2 slj
gs  clippath
17686 14424 m 17676 14414 l 17725 14332 l 17736 14364 l 17768 14375 l cp
eoclip
n 18144 13956 m
 17686 14414 l gs col0 s gr gr
% arrowhead
0 slj
n 17725 14332 m 17693 14407 l 17768 14375 l 17736 14364 l 17725 14332 l 
 cp gs 0.00 setgray ef gr  col0 s
% Polyline
2 slj
gs  clippath
18300 14418 m 18290 14408 l 18339 14326 l 18350 14358 l 18382 14369 l cp
eoclip
n 18758 13950 m
 18300 14408 l gs col0 s gr gr
% arrowhead
0 slj
n 18339 14326 m 18307 14401 l 18382 14369 l 18350 14358 l 18339 14326 l 
 cp gs 0.00 setgray ef gr  col0 s
% Polyline
2 slj
gs  clippath
18888 14421 m 18878 14411 l 18927 14329 l 18938 14361 l 18970 14372 l cp
eoclip
n 19346 13953 m
 18888 14411 l gs col0 s gr gr
% arrowhead
0 slj
n 18927 14329 m 18895 14404 l 18970 14372 l 18938 14361 l 18927 14329 l 
 cp gs 0.00 setgray ef gr  col0 s
% Polyline
2 slj
gs  clippath
19490 14421 m 19480 14411 l 19529 14329 l 19540 14361 l 19572 14372 l cp
eoclip
n 19948 13953 m
 19490 14411 l gs col0 s gr gr
% arrowhead
0 slj
n 19529 14329 m 19497 14404 l 19572 14372 l 19540 14361 l 19529 14329 l 
 cp gs 0.00 setgray ef gr  col0 s
% Polyline
2 slj
gs  clippath
20096 14424 m 20086 14414 l 20135 14332 l 20146 14364 l 20178 14375 l cp
eoclip
n 20554 13956 m
 20096 14414 l gs col0 s gr gr
% arrowhead
0 slj
n 20135 14332 m 20103 14407 l 20178 14375 l 20146 14364 l 20135 14332 l 
 cp gs 0.00 setgray ef gr  col0 s
% Polyline
2 slj
gs  clippath
18732 14459 m 18725 14470 l 18634 14444 l 18662 14426 l 18664 14392 l cp
eoclip
n 17709 13876 m
 18723 14461 l gs col0 s gr gr
% arrowhead
0 slj
n 18634 14444 m 18714 14456 l 18664 14392 l 18662 14426 l 18634 14444 l 
 cp gs 0.00 setgray ef gr  col0 s
% Polyline
2 slj
gs  clippath
19335 14453 m 19328 14464 l 19237 14438 l 19265 14420 l 19267 14386 l cp
eoclip
n 18312 13870 m
 19326 14455 l gs col0 s gr gr
% arrowhead
0 slj
n 19237 14438 m 19317 14450 l 19267 14386 l 19265 14420 l 19237 14438 l 
 cp gs 0.00 setgray ef gr  col0 s
% Polyline
2 slj
gs  clippath
19935 14453 m 19928 14464 l 19837 14438 l 19865 14420 l 19867 14386 l cp
eoclip
n 18912 13870 m
 19926 14455 l gs col0 s gr gr
% arrowhead
0 slj
n 19837 14438 m 19917 14450 l 19867 14386 l 19865 14420 l 19837 14438 l 
 cp gs 0.00 setgray ef gr  col0 s
% Polyline
2 slj
gs  clippath
20539 14440 m 20533 14452 l 20441 14428 l 20468 14409 l 20470 14375 l cp
eoclip
n 19500 13875 m
 20530 14443 l gs col0 s gr gr
% arrowhead
0 slj
n 20441 14428 m 20521 14438 l 20470 14375 l 20468 14409 l 20441 14428 l 
 cp gs 0.00 setgray ef gr  col0 s
% Polyline
2 slj
gs  clippath
17724 14470 m 17717 14459 l 17785 14392 l 17787 14426 l 17815 14444 l cp
eoclip
n 18740 13876 m
 17726 14461 l gs col0 s gr gr
% arrowhead
0 slj
n 17785 14392 m 17735 14456 l 17815 14444 l 17787 14426 l 17785 14392 l 
 cp gs 0.00 setgray ef gr  col0 s
% Polyline
2 slj
gs  clippath
18320 14457 m 18313 14446 l 18381 14379 l 18383 14413 l 18411 14431 l cp
eoclip
n 19336 13863 m
 18322 14448 l gs col0 s gr gr
% arrowhead
0 slj
n 18381 14379 m 18331 14443 l 18411 14431 l 18383 14413 l 18381 14379 l 
 cp gs 0.00 setgray ef gr  col0 s
% Polyline
2 slj
gs  clippath
18924 14462 m 18917 14451 l 18985 14384 l 18987 14418 l 19015 14436 l cp
eoclip
n 19940 13868 m
 18926 14453 l gs col0 s gr gr
% arrowhead
0 slj
n 18985 14384 m 18935 14448 l 19015 14436 l 18987 14418 l 18985 14384 l 
 cp gs 0.00 setgray ef gr  col0 s
% Polyline
2 slj
gs  clippath
19524 14467 m 19517 14456 l 19585 14389 l 19587 14423 l 19615 14441 l cp
eoclip
n 20540 13873 m
 19526 14458 l gs col0 s gr gr
% arrowhead
0 slj
n 19585 14389 m 19535 14453 l 19615 14441 l 19587 14423 l 19585 14389 l 
 cp gs 0.00 setgray ef gr  col0 s
% here ends figure;
pagefooter
showpage
%%Trailer
%EOF
%%EndDocument
 @endspecial Black Black eop end
%%Trailer
userdict /end-hook known{end-hook}if
%%Trailer
cleartomark
countdictstack
exch sub { end } repeat
restore
%%EOF
