#FIG 3.2  Produced by xfig version 3.2.5c
Landscape
Center
Metric
A4      
100.00
Single
-2
1200 2
1 1 0 1 0 0 50 -1 20 0.000 1 0.0000 2880 3870 225 225 2880 3870 3105 4095
1 1 0 1 0 0 50 -1 20 0.000 1 0.0000 2385 3870 225 225 2385 3870 2610 4095
2 2 0 1 0 0 50 -1 20 0.000 0 0 -1 0 0 5
	 2385 3645 2880 3645 2880 4095 2385 4095 2385 3645
