#FIG 3.2  Produced by xfig version 3.2.5c
Landscape
Center
Metric
A4      
100.00
Single
-2
1200 2
2 2 0 1 0 7 50 -1 -1 0.000 0 0 -1 0 0 5
	 6075 5175 6750 5175 6750 5850 6075 5850 6075 5175
2 2 0 1 0 7 50 -1 -1 0.000 0 0 -1 0 0 5
	 6075 4500 6750 4500 6750 5175 6075 5175 6075 4500
2 2 0 1 0 7 50 -1 -1 0.000 0 0 -1 0 0 5
	 6750 4500 7425 4500 7425 5175 6750 5175 6750 4500
2 2 0 1 0 0 50 -1 -1 0.000 0 0 -1 0 0 5
	 6750 5175 7425 5175 7425 5850 6750 5850 6750 5175
2 2 0 1 0 7 50 -1 -1 0.000 0 0 -1 0 0 5
	 6075 3825 6750 3825 6750 4500 6075 4500 6075 3825
2 2 0 1 0 7 50 -1 -1 0.000 0 0 -1 0 0 5
	 6750 3825 7425 3825 7425 4500 6750 4500 6750 3825
2 2 0 1 0 7 50 -1 -1 0.000 0 0 -1 0 0 5
	 5400 5175 6075 5175 6075 5850 5400 5850 5400 5175
2 2 0 1 0 7 50 -1 -1 0.000 0 0 -1 0 0 5
	 5400 3825 6075 3825 6075 4500 5400 4500 5400 3825
2 2 0 1 0 7 50 -1 -1 0.000 0 0 -1 0 0 5
	 2025 5175 2700 5175 2700 5850 2025 5850 2025 5175
2 2 0 1 0 7 50 -1 -1 0.000 0 0 -1 0 0 5
	 2025 4500 2700 4500 2700 5175 2025 5175 2025 4500
2 2 0 1 0 7 50 -1 -1 0.000 0 0 -1 0 0 5
	 2700 4500 3375 4500 3375 5175 2700 5175 2700 4500
2 2 0 1 0 0 50 -1 -1 0.000 0 0 -1 0 0 5
	 2700 5175 3375 5175 3375 5850 2700 5850 2700 5175
2 2 0 1 0 7 50 -1 -1 0.000 0 0 -1 0 0 5
	 3375 4500 4050 4500 4050 5175 3375 5175 3375 4500
2 2 0 1 0 7 50 -1 -1 0.000 0 0 -1 0 0 5
	 3375 5175 4050 5175 4050 5850 3375 5850 3375 5175
2 2 0 1 0 7 50 -1 -1 0.000 0 0 -1 0 0 5
	 2025 3825 2700 3825 2700 4500 2025 4500 2025 3825
2 2 0 1 0 7 50 -1 -1 0.000 0 0 -1 0 0 5
	 2700 3825 3375 3825 3375 4500 2700 4500 2700 3825
2 2 0 1 0 7 50 -1 -1 0.000 0 0 -1 0 0 5
	 3375 3825 4050 3825 4050 4500 3375 4500 3375 3825
2 2 0 1 0 7 50 -1 -1 0.000 0 0 -1 0 0 5
	 5400 4500 6075 4500 6075 5175 5400 5175 5400 4500
2 2 0 1 0 28 50 -1 20 0.000 0 0 -1 0 0 5
	 4050 3825 4725 3825 4725 4500 4050 4500 4050 3825
2 2 0 1 0 28 50 -1 20 0.000 0 0 -1 0 0 5
	 4725 3825 5400 3825 5400 4500 4725 4500 4725 3825
2 2 0 1 0 28 50 -1 20 0.000 0 0 -1 0 0 5
	 4725 4500 5400 4500 5400 5175 4725 5175 4725 4500
2 2 0 1 0 28 50 -1 20 0.000 0 0 -1 0 0 5
	 4725 5175 5400 5175 5400 5850 4725 5850 4725 5175
2 2 0 1 0 28 50 -1 20 0.000 0 0 -1 0 0 5
	 4050 5175 4725 5175 4725 5850 4050 5850 4050 5175
2 2 0 1 0 28 50 -1 20 0.000 0 0 -1 0 0 5
	 4050 4500 4725 4500 4725 5175 4050 5175 4050 4500
2 2 0 1 0 28 50 -1 20 0.000 0 0 -1 0 0 5
	 3375 3825 4050 3825 4050 4500 3375 4500 3375 3825
2 2 0 1 0 7 50 -1 -1 0.000 0 0 -1 0 0 5
	 3375 4500 4050 4500 4050 5175 3375 5175 3375 4500
2 2 0 1 0 28 50 -1 20 0.000 0 0 -1 0 0 5
	 5400 3825 6075 3825 6075 4500 5400 4500 5400 3825
2 2 0 1 0 28 50 -1 20 0.000 0 0 -1 0 0 5
	 5400 4500 6075 4500 6075 5175 5400 5175 5400 4500
2 2 0 1 0 28 50 -1 20 0.000 0 0 -1 0 0 5
	 5400 5175 6075 5175 6075 5850 5400 5850 5400 5175
2 2 0 1 0 7 50 -1 -1 0.000 0 0 -1 0 0 5
	 3375 4500 4050 4500 4050 5175 3375 5175 3375 4500
2 2 0 1 0 28 50 -1 20 0.000 0 0 -1 0 0 5
	 3375 4500 4050 4500 4050 5175 3375 5175 3375 4500
2 2 0 1 0 28 50 -1 20 0.000 0 0 -1 0 0 5
	 3375 5175 4050 5175 4050 5850 3375 5850 3375 5175
2 2 0 1 0 7 50 -1 -1 0.000 0 0 -1 0 0 5
	 7425 3825 8100 3825 8100 4500 7425 4500 7425 3825
2 2 0 1 0 7 50 -1 -1 0.000 0 0 -1 0 0 5
	 7425 4500 8100 4500 8100 5175 7425 5175 7425 4500
2 2 0 1 0 7 50 -1 -1 0.000 0 0 -1 0 0 5
	 7425 5175 8100 5175 8100 5850 7425 5850 7425 5175
2 2 0 1 0 7 50 -1 -1 0.000 0 0 -1 0 0 5
	 8100 4500 8775 4500 8775 5175 8100 5175 8100 4500
2 2 0 1 0 7 50 -1 -1 0.000 0 0 -1 0 0 5
	 8100 5175 8775 5175 8775 5850 8100 5850 8100 5175
2 2 0 1 0 7 50 -1 -1 0.000 0 0 -1 0 0 5
	 8100 3825 8775 3825 8775 4500 8100 4500 8100 3825
2 2 0 1 0 7 50 -1 -1 0.000 0 0 -1 0 0 5
	 1350 3825 2025 3825 2025 4500 1350 4500 1350 3825
2 2 0 1 0 7 50 -1 -1 0.000 0 0 -1 0 0 5
	 675 3825 1350 3825 1350 4500 675 4500 675 3825
2 2 0 1 0 7 50 -1 -1 0.000 0 0 -1 0 0 5
	 675 4500 1350 4500 1350 5175 675 5175 675 4500
2 2 0 1 0 7 50 -1 -1 0.000 0 0 -1 0 0 5
	 675 5175 1350 5175 1350 5850 675 5850 675 5175
2 2 0 1 0 7 50 -1 -1 0.000 0 0 -1 0 0 5
	 1350 5175 2025 5175 2025 5850 1350 5850 1350 5175
4 0 0 50 -1 0 20 0.0000 4 135 270 4325 4230 $G$\001
4 0 0 50 -1 0 20 0.0000 4 135 270 4320 4905 $G$\001
4 0 0 50 -1 0 20 0.0000 4 135 270 4995 4905 $G$\001
4 0 0 50 -1 0 20 0.0000 4 135 270 4995 4230 $G$\001
4 0 0 50 -1 0 20 0.0000 4 135 270 4995 5580 $G$\001
4 0 0 50 -1 0 20 0.0000 4 135 270 4320 5580 $G$\001
4 0 0 50 -1 0 20 0.0000 4 135 270 900 4950 $S$\001
